Model,Class,T_bound,score1,score2,score3,score4,score5,score6,score7,score8,score9,score10,score_avg,score_stdev,max_depth1,min_samples_split1,max_depth2,min_samples_split2,max_depth3,min_samples_split3,max_depth4,min_samples_split4,max_depth5,min_samples_split5,max_depth6,min_samples_split6,max_depth7,min_samples_split7,max_depth8,min_samples_split8,max_depth9,min_samples_split9,max_depth10,min_samples_split10
precharattana,CELL_H,0,0.0004233853782046392,0.00044413327531142886,0.0005266774978630739,0.00036631586271114713,0.0003406742345536251,0.0003805750064142151,0.0003565768700748637,0.0003341524253593694,0.00028921305968108144,0.0003088484947318087,0.0003770552104905253,6.716583133925332e-05,4,4,4,32,4,2,4,16,4,4,4,8,4,16,4,4,4,4,4,8
precharattana,CELL_H,5,0.0004247383452882784,0.0004645585142357626,0.0005088403686353543,0.0003760455911258552,0.0003413071121341176,0.0003803130672227763,0.00035512430532904943,0.0003290123978327737,0.00028252491167932056,0.0002844725459008726,0.00037469371593841613,6.987720227335034e-05,4,32,4,32,4,32,4,32,4,16,4,32,4,32,4,16,4,32,4,32
precharattana,CELL_H,10,0.00042919377981590854,0.0004566083404989252,0.0005087647984887049,0.00037604559112586926,0.00034189858874085385,0.0003769720565798,0.0003551243053290499,0.0003333844242993589,0.0002825249116793493,0.0002844725459008709,0.0003744989342458691,6.88925573890113e-05,4,32,4,32,4,32,4,32,4,32,4,32,4,32,4,32,4,32,4,32
precharattana,CELL_H,15,0.00044833758113838534,0.000529296003245758,0.0005075565019976134,0.00038353653997676206,0.00033677819734840474,0.00037896304550549706,0.00035024381447179234,0.0003454620293229642,0.0002865778004122867,0.0002910419777899164,0.00038577934912093804,7.968514273147197e-05,4,8,4,8,4,8,4,8,4,8,4,8,4,8,4,8,4,2,4,8
precharattana,CELL_H,20,0.0004678619639463749,0.0005139706994720171,0.0005075565019976142,0.0003795925946533043,0.0003367781973484001,0.00037896304550547863,0.0003502438144717914,0.0003454620293229627,0.00028657780041229394,0.00029104197778992115,0.00038580486249201586,7.886093741967314e-05,4,2,4,32,4,4,4,32,4,32,4,32,4,32,4,32,4,32,4,32
precharattana,CELL_H,25,0.0004902740269258224,0.0005380305118631445,0.0005075565019976186,0.0004046670800625907,0.0003367781973483908,0.00037896304550548795,0.00035024381447179234,0.0003454620293229924,0.00028657780041230137,0.0002910419777899355,0.0003929594985700076,8.539460304320778e-05,4,32,4,32,4,32,4,32,4,32,4,32,4,32,4,32,4,32,4,32
precharattana,CELL_H,30,0.0004837682181528243,0.0005228583744266647,0.0005075565019976118,0.0004046670800626005,0.0003454863204480755,0.00038215046099880195,0.00037121770476643235,0.0003266489125931338,0.00028904423831162523,0.00029692702410919185,0.0003930324835866962,8.102492437651505e-05,4,32,4,32,4,32,4,32,4,32,4,32,4,32,4,32,4,32,4,32
precharattana,CELL_H,35,0.00046607228301168065,0.0004992808148668639,0.0005345574888028458,0.0003802135120354472,0.00034756664958424604,0.00037712865524509105,0.0003595161949471409,0.0003463680071179898,0.000292128018979421,0.000294653533538568,0.00038974851581292946,7.886091964053725e-05,4,32,4,32,4,32,4,32,4,32,4,32,4,32,4,32,4,32,4,32
precharattana,CELL_H,40,0.0004461267291690266,0.0004992281076209149,0.0005394757516642574,0.00038544451694213377,0.0003587974075921583,0.00037712865524508607,0.00035421579981130547,0.0003286114821775904,0.0002823343074429022,0.000288216996935106,0.0003859579754600481,8.088348151407882e-05,4,32,4,32,4,32,4,32,4,32,4,32,4,32,4,32,4,32,4,32
precharattana,CELL_H,45,0.0004461267291690157,0.0004992281076209134,0.0005394757516642498,0.0003854445169421196,0.00035879740759215333,0.000377128655245095,0.0003542157998112999,0.00032861148217760733,0.0002823343074429022,0.0002882169969351032,0.00038595797546004594,8.08834815140758e-05,4,32,4,32,4,32,4,32,4,32,4,32,4,32,4,32,4,32,4,32
precharattana,CELL_H,50,0.0005034063324113706,0.00047328569630258416,0.0005357677730048491,0.00038544451694209523,0.0003587974075921499,0.00037712865524510087,0.00035421579981130866,0.00033325574079310255,0.0002837311303078348,0.0002890433674851632,0.0003894076419895559,8.257602446921458e-05,4,32,4,32,4,32,4,32,4,32,4,32,4,32,4,32,4,32,4,32
precharattana,CELL_H,55,0.00048629078054763467,0.0005083930982481247,0.0005017964913322404,0.0003854445169421123,0.0003587974075921489,0.00037712865524509897,0.00035421579981130866,0.00033325574079309865,0.0002837311303078535,0.0002890433674851632,0.0003878096988304784,7.930011436212292e-05,4,32,4,32,4,32,4,32,4,32,4,32,4,32,4,32,4,32,4,32
precharattana,CELL_H,60,0.0004974562557934979,0.0005083930982481321,0.0005203630135980905,0.00038544451694211534,0.0003587974075921537,0.00037712865524508417,0.0003542157998112985,0.0003332557407931057,0.00028373113030784726,0.0002890433674851596,0.00039078289858164843,8.348527930094217e-05,4,32,4,32,4,32,4,32,4,32,4,32,4,32,4,32,4,32,4,32
precharattana,CELL_H,65,0.0004974562557934953,0.0005083930982481401,0.0005203630135980858,0.0003854445169421257,0.00035879740759215843,0.00037712865524509794,0.00035421579981130324,0.0003332557407930983,0.0002837311303078348,0.00028904336748515266,0.0003907828985816492,8.348527930094452e-05,4,32,4,32,4,32,4,32,4,32,4,32,4,32,4,32,4,32,4,32
precharattana,CELL_H,70,0.0004974562557934888,0.0005083930982481379,0.000523134800824413,0.00038544451694211106,0.00035879740759215176,0.0003771286552451,0.00035421579981130395,0.000334925116220456,0.00028373113030782845,0.00028904336748514903,0.00039122701484701404,8.380494257123681e-05,4,32,4,32,4,32,4,32,4,32,4,32,4,32,4,32,4,32,4,32
precharattana,CELL_H,75,0.0005070860747566752,0.0004983946921520829,0.0005311566760035922,0.0003906617122926758,0.0003455108096582007,0.00038338473773211326,0.0003529077236239671,0.0003285784780131581,0.000285512183255679,0.0002974294726416387,0.0003920622560129782,8.485291432771126e-05,4,4,4,32,4,8,4,32,4,32,4,8,4,32,4,32,4,32,4,8
precharattana,CELL_H,80,0.0005015389449834768,0.0005240851567239324,0.0005498554952129992,0.00038712588225886795,0.00034551080965820473,0.0003833847377321004,0.0003529077236239691,0.00032857847801315114,0.0002855121832557049,0.000297429472641624,0.000395592888410403,9.073450163088741e-05,4,16,4,8,4,4,4,16,4,16,4,16,4,16,4,2,4,4,4,8
precharattana,CELL_H,85,0.0005094790306828728,0.0005745820961207805,0.0005498554952129927,0.00038712588225884556,0.00034551080965820435,0.00038338473773209797,0.0003529077236239681,0.0003285784780131545,0.00028551218325568496,0.0002974294726416194,0.0004014365909200221,9.962849453374376e-05,4,8,4,8,4,16,4,4,4,4,4,2,4,2,4,32,4,16,4,32
precharattana,CELL_H,90,0.0005442738423810659,0.0005036699311006004,0.0005498554952129966,0.00037495258485787395,0.0003455108096582071,0.0003833847377321227,0.0003529077236239691,0.00032857847801316366,0.00028551218325566046,0.00029742947264161876,0.0003966075258477279,9.419308797299565e-05,4,4,4,32,4,8,4,32,4,32,4,32,4,2,4,32,4,32,4,2
precharattana,CELL_H,95,0.00046589345416959174,0.0005478185476415529,0.0005498554952129862,0.00037345428014983015,0.0003455108096581995,0.00038338473773210594,0.0003529077236239673,0.00032857847801316366,0.000285512183255682,0.00029742947264163345,0.0003930345182098713,9.11375136913706e-05,4,32,4,16,4,16,4,16,4,32,4,32,4,2,4,32,4,32,4,4
precharattana,CELL_H,100,0.0005076395260409191,0.0005136229239215214,0.0005498554952130005,0.0003954944041343179,0.00034551080965821167,0.0003833847377321055,0.00035290772362396637,0.00032857847801316626,0.0002855121832556897,0.00029742947264160905,0.00039599357542345067,9.000273342212252e-05,4,2,4,8,4,8,4,16,4,32,4,32,4,32,4,16,4,32,4,32
precharattana,CELL_H,105,0.0004678974066845982,0.0005291660798208516,0.0005335833917586972,0.00039690951768750254,0.0003324421391538414,0.0003833847377321122,0.00035290772362396946,0.0003285784780131777,0.0002885393231487458,0.0002937744810952794,0.0003907183278718775,8.611196456983734e-05,4,32,4,2,4,32,4,32,4,2,4,8,4,32,4,16,4,2,4,32
precharattana,CELL_H,110,0.00046789740668459236,0.0004906936752194815,0.0005498554952129883,0.00039549440413431085,0.00033244213915384715,0.00038338473773209087,0.00035290772362396675,0.00032857847801316626,0.00028853932314876175,0.00029377448109527414,0.00038835678640184796,8.356010849697907e-05,4,32,4,32,4,16,4,16,4,2,4,2,4,2,4,32,4,16,4,16
precharattana,CELL_H,115,0.00046789740668460304,0.0004906936752194899,0.000560210537355805,0.0003954944041343071,0.0003476567050150416,0.0003833847377321043,0.0003529077236239673,0.00032857847801316957,0.00028853932314876175,0.0002937744810952846,0.0003909137472022534,8.469915256496097e-05,4,32,4,32,4,16,4,16,4,8,4,16,4,32,4,32,4,32,4,4
precharattana,CELL_H,120,0.00046789740668459957,0.000490693675219485,0.0005516552113540472,0.0003969095176875155,0.00034765670501504104,0.00038338473773211386,0.00035290772362396605,0.0003285784780131521,0.0002885393231487458,0.00029377448109528986,0.00039019972595739563,8.302153225278166e-05,4,32,4,32,4,4,4,32,4,2,4,32,4,8,4,32,4,32,4,32
precharattana,CELL_H,125,0.0005094793037436901,0.0005120664112387513,0.0005354378045663917,0.0003954944041342984,0.0003476567050150294,0.00038338473773210675,0.00035290772362397017,0.00032857847801317537,0.00028853932314873784,0.0002937744810952635,0.0003947319372311415,8.756296022900681e-05,4,16,4,16,4,32,4,8,4,8,4,16,4,2,4,8,4,16,4,16
precharattana,CELL_H,130,0.0004676901190875506,0.0005120664112387594,0.0005459475290236571,0.00039690951768752444,0.0003476567050150543,0.0003833847377321308,0.00035290772362396887,0.00032857847801316605,0.0002885393231487697,0.00029377448109528986,0.0003917455025665872,8.474175175100348e-05,4,32,4,16,4,16,4,32,4,32,4,32,4,32,4,32,4,4,4,8
precharattana,CELL_H,135,0.0004676901190875511,0.0005036699311005966,0.0005295553557389643,0.0003954944041343012,0.0003476567050150401,0.00038338473773211066,0.0003529077236239698,0.00032857847801316144,0.0002885393231487857,0.0002937744810952794,0.000389125125868976,8.061861799584628e-05,4,32,4,32,4,32,4,8,4,2,4,8,4,16,4,16,4,32,4,16
precharattana,CELL_H,140,0.0005092889408313416,0.0005036699311006034,0.0005459475290236538,0.00039690951768751994,0.00034765670501503437,0.0003833847377321002,0.0003529077236239697,0.0003285784780131774,0.00028853932314875383,0.0002937744810952794,0.0003950657367271434,8.820444268234774e-05,4,16,4,32,4,16,4,32,4,16,4,32,4,32,4,2,4,16,4,32
precharattana,CELL_H,145,0.0005060289043224063,0.0005120664112387576,0.0005459475290236531,0.0003969095176874986,0.0003476567050150416,0.00038338473773210263,0.00035290772362396756,0.00032857847801316366,0.00028853932314877774,0.0002937744810952846,0.0003955793810900653,8.885818464909373e-05,4,2,4,16,4,8,4,32,4,32,4,16,4,16,4,32,4,16,4,2
precharattana,CELL_H,150,0.0005098315989963203,0.0005267753282919757,0.0005053164850157691,0.0004086862041774733,0.0003401370489540218,0.00038088156229346853,0.0003533560939319369,0.00034264025359064605,0.00028536120923143744,0.0002915624235439935,0.00039445482080270426,8.56213340375218e-05,4,16,4,2,4,4,4,16,4,2,4,2,4,4,4,2,4,16,4,2
precharattana,CELL_H,155,0.0005098315989963285,0.0005267753282919787,0.0005053164850157811,0.000408686204177466,0.00034013704895402016,0.0003808815622935061,0.0003533560939319369,0.0003426402535906386,0.0002853612092314513,0.00029156242354399375,0.00039445482080271006,8.562133403752297e-05,4,16,4,8,4,2,4,16,4,4,4,4,4,4,4,4,4,2,4,16
precharattana,CELL_H,160,0.0005132116013144231,0.0005245141810412993,0.000505316485015782,0.0004086862041774589,0.00034013704895402054,0.00038088156229349,0.0003533560939319359,0.0003426402535906585,0.00028536120923143744,0.0002915624235440142,0.000394566706309452,8.573686237237937e-05,4,2,4,16,4,8,4,16,4,8,4,16,4,2,4,16,4,2,4,2
precharattana,CELL_H,165,0.0005098315989963265,0.00048163630728733465,0.0005053164850157785,0.00040868620417747317,0.0003401370489540212,0.00038088156229350073,0.00035335609393193453,0.0003426402535906396,0.00028536120923143066,0.0002915624235439976,0.00038994091870224375,7.949733969472131e-05,4,4,4,16,4,16,4,16,4,16,4,4,4,16,4,16,4,4,4,16
precharattana,CELL_H,170,0.0005118973047417538,0.0004942512348387283,0.0005053164850157809,0.0004086862041774805,0.0003401370489540217,0.00038088156229349536,0.00035335609393193453,0.00034264025359063125,0.00029294440544240855,0.00029667952595284285,0.0003926790118939078,7.974098588605716e-05,4,16,4,16,4,16,4,16,4,4,4,2,4,16,4,16,4,16,4,16
precharattana,CELL_H,175,0.0005393018198893548,0.0005071364705225613,0.0005053164850157726,0.00040868620417744124,0.0003401370489540254,0.00038088156229350073,0.0003533560939319369,0.00034264025359061857,0.00029294440544233493,0.0002966795259528364,0.00039670798697703823,8.57279194517776e-05,4,8,4,16,4,16,4,8,4,4,4,16,4,16,4,16,4,4,4,16
precharattana,CELL_H,180,0.000539301819889343,0.000507136470522555,0.0005053164850157772,0.0004086862041774661,0.00034013704895402,0.00038088156229350073,0.0003533560939319363,0.00034264025359064595,0.0002929444054423442,0.00029667952595282984,0.0003967079869770418,8.572791945177408e-05,4,16,4,16,4,2,4,16,4,16,4,16,4,16,4,16,4,2,4,16
precharattana,CELL_H,185,0.0005393018198893476,0.0005152135707948152,0.0005053164850157772,0.0004086862041774589,0.00034013704895402054,0.0003808815622935061,0.00035335609393193665,0.00034264025359063207,0.00029294440544233493,0.000296679525952869,0.00039751569700426976,8.679594529598943e-05,4,16,4,8,4,16,4,8,4,4,4,16,4,16,4,16,4,8,4,2
precharattana,CELL_H,190,0.0005170833453074817,0.0005218763797251127,0.0005053164850157655,0.0003877558648776033,0.00034013704895402065,0.0003808815622934846,0.00035335609393193665,0.00034264025359063884,0.00029294440544233493,0.00029667952595284887,0.00039386709650912285,8.424881021421321e-05,4,32,4,8,4,32,4,32,4,8,4,32,4,32,4,4,4,32,4,32
precharattana,CELL_H,195,0.0005170833453074821,0.0004942512348387147,0.0005053164850157653,0.00038775586487764145,0.00034013704895402005,0.0003808815622934524,0.0003533560939319359,0.0003426402535906324,0.0002929444054422615,0.000296679525952869,0.00039110458202047747,8.036971071294251e-05,4,32,4,32,4,2,4,32,4,32,4,4,4,32,4,32,4,32,4,32
precharattana,CELL_H,200,0.0005261067605945018,0.0004942512348387228,0.000505316485015783,0.00040970543046602264,0.0003498588305191947,0.00038088156229349,0.00035335609393193665,0.0003426402535906317,0.00029092838157923645,0.00029790758377235156,0.0003950952616601871,8.148394232353462e-05,4,8,4,16,4,16,4,16,4,4,4,16,4,16,4,16,4,8,4,16
precharattana,CELL_D,0,0.0004495776500567995,0.0005705832732266306,0.0005921573920039811,0.00041380084011027874,0.00033589528766132,0.00033762766845680847,0.0003825991616117312,0.00027495325161549594,0.0002824529831534562,0.00029351268754211184,0.0003933160195438614,0.00010831473411329727,4,32,4,32,4,32,4,32,4,32,4,32,4,32,4,32,4,32,4,32
precharattana,CELL_D,5,0.00045946840494733205,0.0006145762272806953,0.0005670654829421416,0.0004155688574008145,0.0003410302843663865,0.00033363477196699003,0.00038800194919352355,0.0002718826827378807,0.0002829727418686098,0.0002884770847857394,0.00039626784874901135,0.0001132103947108524,4,32,4,32,4,32,4,32,4,32,4,32,4,32,4,32,4,32,4,32
precharattana,CELL_D,10,0.00045946840494732983,0.0005875731279864051,0.0005671240382154111,0.00042351419720436736,0.0003417047853082499,0.0003095371980463625,0.0003879988059911511,0.00027321425978479267,0.0002787744715983456,0.00028316418598340525,0.000391207347506582,0.00011071457136098791,4,32,4,32,4,32,4,32,4,32,4,32,4,32,4,32,4,32,4,32
precharattana,CELL_D,15,0.0004529893826449014,0.0005854647662022984,0.0005671240382154082,0.0004235141972043716,0.0003417047853082398,0.0003095371980463625,0.0003879988059911502,0.0002732142597847832,0.0002787744715983628,0.00028316418598340525,0.00039034860909792834,0.00010995620113377087,4,32,4,32,4,32,4,32,4,32,4,32,4,4,4,32,4,32,4,32
precharattana,CELL_D,20,0.0004594902531548886,0.0005854647662022899,0.0005396288066071426,0.0004235141972043658,0.00034170478530823236,0.00031135586436163086,0.0003865252820162139,0.00027321425978476404,0.0002787744715983542,0.00028316418598337955,0.0003882836872221262,0.00010605244642883023,4,32,4,32,4,32,4,32,4,32,4,32,4,32,4,32,4,32,4,32
precharattana,CELL_D,25,0.00045949025315489007,0.0005854647662022945,0.000539628806607142,0.00042351419720436725,0.00034170478530823236,0.0003113558643616263,0.0003865252820162157,0.00027321425978477353,0.0002787744715983413,0.00028316418598340525,0.0003882836872221288,0.0001060524464288292,4,32,4,32,4,32,4,32,4,32,4,32,4,32,4,32,4,32,4,32
precharattana,CELL_D,30,0.0004536968404160001,0.0005854647662022997,0.0005396288066071438,0.0004219222203561544,0.00034424888358866953,0.000308216364587672,0.00038652528201621456,0.00027121472811969576,0.00028119794218200793,0.0002859816907765729,0.0003878097524852431,0.00010544431562531076,4,32,4,32,4,32,4,32,4,32,4,32,4,32,4,32,4,32,4,32
precharattana,CELL_D,35,0.00045369684041599755,0.0005854647662022968,0.0005167920120047022,0.0004219552521826129,0.00034654047402516667,0.00031063354112021075,0.00038776858674216584,0.0002755644984828826,0.00028467469418297505,0.00028137263203030125,0.0003864463297389311,0.0001016938457113608,4,32,4,32,4,32,4,32,4,32,4,32,4,32,4,32,4,32,4,32
precharattana,CELL_D,40,0.0004884983986552495,0.0005854647662022896,0.0005167920120047011,0.00041631166149742156,0.00034125053561746615,0.00030910241556065165,0.0003879305190089847,0.00027240156653864713,0.0002789086781503949,0.00028331954034930965,0.00038799800935851155,0.00010541036644905958,4,32,4,32,4,32,4,32,4,32,4,32,4,32,4,32,4,32,4,32
precharattana,CELL_D,45,0.0005367895795241679,0.0005854647662022964,0.0005154912443238831,0.00042643231106171645,0.0003415404742227992,0.0003093747100544827,0.0003881221909622988,0.00027295269003507815,0.000294169258280328,0.00028383587670390134,0.00039541731013709516,0.00010933538437823689,4,32,4,32,4,32,4,32,4,32,4,32,4,32,4,32,4,32,4,32
precharattana,CELL_D,50,0.0005367895795241744,0.0005854647662022968,0.0005178731359640657,0.00043775412878189725,0.0003415404742227944,0.000309374710054476,0.00038812219096229645,0.0002729526900350736,0.0002941692582803309,0.00028383587670390134,0.0003967876810731306,0.00010996892249396182,4,32,4,32,4,32,4,32,4,32,4,32,4,32,4,32,4,32,4,32
precharattana,CELL_D,55,0.0005463898419541148,0.0005960691080585938,0.0005311649497798279,0.00043775412878189807,0.0003415404742227967,0.0003093747100544872,0.00038778131054787265,0.0002729526900350828,0.000294169258280328,0.00028383587670392866,0.00040010323484189307,0.00011450660102626232,4,16,4,16,4,16,4,16,4,16,4,16,4,16,4,16,4,16,4,16
precharattana,CELL_D,60,0.0005227287575055805,0.0006539948776507313,0.000540483090423489,0.0004377541287819008,0.00034235732956054715,0.0003101584825038554,0.0003877703275246646,0.0002744681126471355,0.000294169258280328,0.000282805049949887,0.0004046689414828119,0.00012359426610640192,4,32,4,16,4,8,4,16,4,32,4,16,4,8,4,32,4,16,4,32
precharattana,CELL_D,65,0.0005309616067518369,0.0006780880934403894,0.0005415468036908048,0.00043775412878189807,0.00034150842792122517,0.0003093446429214707,0.00038784224320858744,0.0002728902982260327,0.0002793752466788101,0.00028391039599239524,0.0004063221887613451,0.0001309643362534796,4,32,4,16,4,16,4,16,4,16,4,32,4,16,4,16,4,32,4,32
precharattana,CELL_D,70,0.0005764253870258824,0.000678088093440397,0.0005129264266287607,0.00043775412878189904,0.000341508427921244,0.00030934464292148387,0.0003878422432085881,0.00027289029822605103,0.00027937524667880076,0.00028391039599240636,0.0004080065290825513,0.00013340430438004992,4,16,4,16,4,16,4,32,4,16,4,32,4,16,4,32,4,32,4,32
precharattana,CELL_D,75,0.0005764253870258837,0.0006780880934403931,0.0005042128367516872,0.0004377541287818962,0.00034150842792122517,0.00030934464292148626,0.00038784224320858695,0.0002728902982260373,0.0002793752466788288,0.00028391039599240083,0.0004071351700948425,0.00013274296981031234,4,32,4,16,4,32,4,16,4,16,4,32,4,16,4,16,4,16,4,32
precharattana,CELL_D,80,0.00048824960716997717,0.0006780880934403905,0.00048522761569101035,0.0004377541287818948,0.00034254947481788633,0.00031035436130911895,0.000397364182786537,0.00027475637351782027,0.00027671224594419337,0.00028061167124232474,0.0003971667754701153,0.00012256144998061858,4,32,4,32,4,32,4,32,4,32,4,32,4,32,4,32,4,32,4,32
precharattana,CELL_D,85,0.00048824960716997836,0.0005814449746673893,0.0004852276156910085,0.0004377541287819032,0.0003426732978712747,0.00030851639668011616,0.0003922846945504266,0.000274956658874459,0.00027747637633296167,0.00029437177476302146,0.0003882955525382539,0.00010077190862779769,4,16,4,16,4,32,4,32,4,16,4,32,4,16,4,32,4,32,4,32
precharattana,CELL_D,90,0.0004882496071699812,0.0005713927968864549,0.0004852276156910093,0.00043775412878189525,0.0003426732978712943,0.00030851639668009323,0.0003922846945504279,0.00027495665887444765,0.0002774763763329821,0.0002943717747630097,0.0003872903347601595,9.887242925920554e-05,4,32,4,32,4,32,4,32,4,32,4,16,4,32,4,32,4,16,4,32
precharattana,CELL_D,95,0.00048824960716997517,0.0005960883796246521,0.00048522761569101176,0.0004377541287818841,0.0003426732978712943,0.00030851639668011616,0.00039228469455042766,0.000274956658874442,0.0002774763763329855,0.00029437177476301365,0.00038975989303398025,0.00010363372639915685,4,16,4,16,4,16,4,32,4,32,4,32,4,32,4,16,4,4,4,16
precharattana,CELL_D,100,0.00048824960716997836,0.0005960883796246519,0.00048522761569100623,0.0004377541287818962,0.00034267329787125825,0.0003085163966801333,0.0003922846945504279,0.0002749566588744646,0.0002774763763329651,0.00029437177476301365,0.00038975989303397955,0.00010363372639915716,4,32,4,32,4,16,4,16,4,32,4,32,4,32,4,32,4,32,4,16
precharattana,CELL_D,105,0.0004882496071699801,0.0005960883796246501,0.00048522761569101035,0.0004377541287819,0.0003426732978712747,0.00030851639668010163,0.0003922846945504289,0.00027495665887447037,0.00027747637633297186,0.0002943717747630175,0.0003897598930339806,0.00010363372639915757,4,16,4,16,4,16,4,16,4,16,4,32,4,16,4,32,4,32,4,32
precharattana,CELL_D,110,0.00048824960716997793,0.0005960883796246499,0.0004852276156910075,0.00043775412878189904,0.0003426732978712975,0.0003085163966801218,0.0003922846945504287,0.0002749566588744987,0.00027747637633297186,0.00029437177476302536,0.0003897598930339878,0.00010363372639915051,4,16,4,16,4,16,4,32,4,16,4,16,4,32,4,32,4,16,4,32
precharattana,CELL_D,115,0.0004882496071699762,0.0005960883796246536,0.00048522761569101176,0.0004377541287818905,0.00034267329787126475,0.0003085163966801217,0.0003922846945504264,0.00027495665887447037,0.00027747637633296167,0.00029437177476301365,0.00038975989303397906,0.0001036337263991579,4,32,4,16,4,16,4,16,4,16,4,16,4,16,4,32,4,32,4,16
precharattana,CELL_D,120,0.0004882496071699764,0.0005960883796246509,0.0004852276156910075,0.00043775412878189904,0.000342673297871278,0.0003085163966801218,0.000392284694550428,0.000274956658874459,0.00027747637633297186,0.00029437177476302146,0.0003897598930339814,0.00010363372639915621,4,16,4,16,4,32,4,32,4,32,4,16,4,16,4,32,4,32,4,32
precharattana,CELL_D,125,0.000488249607169983,0.0005960883796246494,0.0004852276156910085,0.0004377541287819032,0.0003426732978712943,0.0003085163966801076,0.0003922846945504271,0.000274956658874476,0.00027747637633299577,0.00029437177476302146,0.00038975989303398665,0.00010363372639915272,4,32,4,16,4,16,4,16,4,4,4,32,4,32,4,16,4,16,4,32
precharattana,CELL_D,130,0.00048824960716998205,0.0005960883796246481,0.0004852276156910099,0.0004377541287818864,0.0003426732978712975,0.00030851639668009903,0.0003922846945504279,0.00027495665887445334,0.0002774763763329787,0.00029437177476302146,0.00038975989303398036,0.00010363372639915661,4,32,4,16,4,2,4,32,4,16,4,16,4,32,4,32,4,32,4,32
precharattana,CELL_D,135,0.00048824960716997793,0.0005960883796246493,0.0004852276156910099,0.00043775412878189904,0.00034267329787130406,0.00030851639668012473,0.00039695405000681746,0.000274956658874442,0.00027747637633297186,0.0002943717747630332,0.0003902268285796229,0.00010365456741386991,4,4,4,32,4,16,4,32,4,16,4,16,4,4,4,32,4,32,4,32
precharattana,CELL_D,140,0.0004843634552791183,0.0005960883796246521,0.0004852276156910099,0.0004377541287818952,0.00034267329787128774,0.00030851639668009323,0.0003922846945504281,0.000274956658874459,0.0002774763763329787,0.0002943717747630488,0.00038937127784489706,0.00010327032122298101,4,16,4,16,4,16,4,16,4,16,4,32,4,32,4,16,4,2,4,32
precharattana,CELL_D,145,0.0004843634552791175,0.000596088379624651,0.00048522761569100677,0.0004377541287818873,0.0003426732978712943,0.00030851639668011036,0.00039228469455042684,0.000274956658874459,0.0002774763763329821,0.0002943717747630097,0.0003893712778448945,0.00010327032122298165,4,16,4,16,4,32,4,32,4,32,4,32,4,32,4,2,4,32,4,32
precharattana,CELL_D,150,0.00048436345527911283,0.0005960883796246553,0.00048522761569101176,0.00043775412878188766,0.0003426732978712943,0.00030851639668011334,0.0003922846945504271,0.000274956658874459,0.0002774763763329821,0.0002943717747630175,0.0003893712778448961,0.00010327032122298162,4,32,4,16,4,16,4,16,4,16,4,16,4,16,4,16,4,32,4,32
precharattana,CELL_D,155,0.00048436345527911283,0.0005960883796246487,0.00048522761569100623,0.0004377541287818962,0.00034267329787129094,0.00030851639668011334,0.0003922846945504279,0.00027495665887448164,0.0002774763763329787,0.0002943717747630362,0.0003893712778448993,0.00010327032122297647,4,16,4,32,4,8,4,16,4,16,4,16,4,32,4,16,4,16,4,32
precharattana,CELL_D,160,0.0004843634552791185,0.0006032995622617062,0.0005363338066702305,0.00043775412878189525,0.0003426732978712975,0.000308516396680116,0.0003922846945504284,0.00027495665887447037,0.00027747637633298883,0.00029437177476301365,0.0003952030152065265,0.00011034056322458675,4,32,4,32,4,32,4,2,4,16,4,16,4,16,4,16,4,16,4,16
precharattana,CELL_D,165,0.0004843634552791175,0.0006032995622617058,0.0005363338066702332,0.00043775412878189904,0.00034267329787128774,0.00030851639668011334,0.0003877756080525127,0.00027495665887444765,0.0002774763763329855,0.00029437177476303707,0.000394752106556734,0.00011036077904884013,4,32,4,16,4,16,4,32,4,32,4,32,4,8,4,4,4,32,4,16
precharattana,CELL_D,170,0.0004843634552791146,0.0006032995622617021,0.0005363338066702247,0.0004377541287818962,0.00034267329787128774,0.00030851639668011616,0.0003922846945504266,0.00027495665887447037,0.00027747637633296856,0.00029437177476302146,0.0003952030152065229,0.00011034056322458687,4,32,4,32,4,32,4,32,4,32,4,32,4,32,4,32,4,32,4,32
precharattana,CELL_D,175,0.0004843634552791137,0.0006032995622617035,0.0005363338066702208,0.0004377541287818962,0.0003426732978712975,0.0003085163966801218,0.0003922846945504279,0.000274956658874459,0.00027747637633298883,0.0002943717747630089,0.00039520301520652387,0.00011034056322458588,4,32,4,32,4,32,4,32,4,32,4,32,4,32,4,32,4,32,4,32
precharattana,CELL_D,180,0.0004843634552791154,0.0005873117131409315,0.000536333806670223,0.0004377541287819005,0.00034267329787130406,0.00030851639668011025,0.0003922846945504284,0.000274956658874442,0.0002774763763329548,0.0002943717747630175,0.00039360423029444273,0.0001073901376854575,4,32,4,32,4,32,4,32,4,32,4,32,4,32,4,32,4,32,4,32
precharattana,CELL_D,185,0.0004782347058911952,0.0006337581303720169,0.0005363338066702271,0.0004377541287818975,0.00034267329787128774,0.0003085163966801218,0.0003922846945504271,0.00027495665887444765,0.0002774763763329548,0.0002943717747630097,0.00039763599707875856,0.00011586209586342105,4,32,4,32,4,32,4,32,4,32,4,32,4,32,4,32,4,32,4,32
precharattana,CELL_D,190,0.00047823470589119474,0.0006524929947566085,0.0005363338066702212,0.0004377541287818948,0.0003426732978712747,0.00030851639668011036,0.0003922846945504284,0.000274956658874476,0.00027747637633297186,0.0002943717747630089,0.0003995094835172189,0.00011975123402232386,4,16,4,2,4,16,4,32,4,16,4,32,4,32,4,32,4,16,4,32
precharattana,CELL_D,195,0.000478234705891193,0.0006337581303720127,0.0005363338066702228,0.00043775412878189525,0.00034267329787128774,0.00030851639668011616,0.00039228469455042825,0.00027495665887444765,0.0002774763763329787,0.0002943717747630097,0.00039763599707875915,0.00011586209586341739,4,16,4,16,4,32,4,32,4,32,4,32,4,16,4,16,4,32,4,32
precharattana,CELL_D,200,0.0004782347058911994,0.0006289699125956988,0.0005363338066702276,0.0004377541287819005,0.00034267329787130406,0.0003134753797670478,0.0003922846945504281,0.00027495665887441924,0.00027747637633299913,0.00029437177476302536,0.000397653073609825,0.00011451754216323106,4,4,4,8,4,16,4,32,4,16,4,4,4,32,4,32,4,32,4,32
precharattana,CELL_A1,0,0.0006847785628722534,0.0007219566048572489,0.0008059899584978414,0.0005585592793090068,0.00048431428070123934,0.0005386444996101678,0.0005564404962876432,0.00048114687001051193,0.0004575263365087487,0.0005070118285794955,0.0005796368717234157,0.00011143615632042753,4,32,4,4,4,8,4,4,4,32,4,32,4,32,4,4,4,8,4,4
precharattana,CELL_A1,5,0.0006897049574203407,0.0006775012957237497,0.0008170815936940816,0.0005607094506229107,0.0004960068272705645,0.0005150618578669267,0.0005058850205335735,0.00048765355790886115,0.00043468632309908914,0.0004296439637402279,0.0005613934847880325,0.00011986458062419345,4,32,4,32,4,32,4,32,4,32,4,32,4,32,4,32,4,32,4,32
precharattana,CELL_A1,10,0.0007429159120928618,0.0006522918672267185,0.0008270476170196256,0.0006017439876022109,0.0005054494378555408,0.000515880421183209,0.0005052982618715282,0.00044654928142706,0.0004277259680273122,0.00043118369942076514,0.0005656086453726832,0.00013022831737915453,4,2,4,4,4,4,4,2,4,32,4,2,4,4,4,8,4,2,4,2
precharattana,CELL_A1,15,0.0007752040532665345,0.000651774262540534,0.0009099820768065671,0.0005435617236441062,0.0004963934882101039,0.0005156247213268039,0.0005054668729927932,0.00044628994266491406,0.0004284019683571298,0.0004317858406393742,0.0005704484950448861,0.0001523407252536659,4,4,4,2,4,4,4,2,4,32,4,4,4,4,4,4,4,4,4,32
precharattana,CELL_A1,20,0.0007317701439198946,0.0006662357402738854,0.0008408048213544874,0.0005405898086851488,0.0004973318931885858,0.0005171842515244058,0.0005049238915369768,0.00041970213379508513,0.0004643651111452402,0.0004297054408933008,0.000561261323631701,0.0001321375274918424,4,16,4,16,4,32,4,16,4,32,4,16,4,32,4,32,4,32,4,16
precharattana,CELL_A1,25,0.000702832915247913,0.0006991127097904756,0.0008665710020558303,0.000551865751091585,0.0004973318931886495,0.0005171842515242993,0.0005049238915370344,0.00041970213379525405,0.00046436511114501404,0.00042970544089319116,0.0005653595100269246,0.00013715624030499857,4,4,4,16,4,8,4,8,4,2,4,2,4,8,4,2,4,8,4,8
precharattana,CELL_A1,30,0.0007317701439198831,0.0006638019093659968,0.0008206671832816319,0.0005405898086852309,0.0004973318931885858,0.000517184251524342,0.0005049238915370344,0.00041970213379508513,0.0004643651111451311,0.00042970544089291707,0.0005590041767335838,0.00012774744266343918,4,8,4,2,4,32,4,32,4,8,4,4,4,16,4,16,4,8,4,32
precharattana,CELL_A1,35,0.000731770143919933,0.0006641095364450296,0.0008408048213544425,0.0005738271122184098,0.000497331893188599,0.0005171842515242993,0.0005049238915370344,0.00041970213379516965,0.00046436511114513195,0.0004297054408930268,0.0005643724336021076,0.00013183140214163765,4,8,4,2,4,16,4,2,4,32,4,16,4,4,4,2,4,32,4,16
precharattana,CELL_A1,40,0.0007303739154303373,0.0006683625621398624,0.0008206671832816484,0.0005409682251327522,0.0004982365730419937,0.0005183065348610332,0.000504620417022904,0.0004211812324380474,0.00045358229462026656,0.00043334128983304717,0.0005589640227801892,0.0001281898371953242,4,8,4,16,4,32,4,32,4,16,4,8,4,32,4,16,4,32,4,16
precharattana,CELL_A1,45,0.0007347606781866633,0.000701118366692913,0.0007987450823186867,0.0006469283968848866,0.0005079946746558916,0.0005161348564190404,0.0005052860678093617,0.00041831078637488196,0.000427720284051302,0.0004311725935638729,0.0005688171786957499,0.0001326750158819139,4,4,4,16,4,32,4,16,4,8,4,2,4,2,4,8,4,16,4,2
precharattana,CELL_A1,50,0.0007013790840653627,0.0006955812158719317,0.0007987450823186459,0.0006793783258657275,0.0005079946746558095,0.0005161348564190807,0.0005052860678092931,0.00041831078637488196,0.0004277202840515947,0.00043117259356381524,0.0005681702970996143,0.00013066971691972915,4,2,4,2,4,16,4,4,4,2,4,16,4,8,4,32,4,32,4,16
precharattana,CELL_A1,55,0.0007303739154303285,0.0006955812158720438,0.0008192199129167093,0.0006469283968848119,0.0005079946746558095,0.0005161348564191007,0.0005052860678094001,0.0004183107863750158,0.00042772028405120425,0.00043117259356381524,0.0005698722703978238,0.0001352697326031787,4,16,4,2,4,16,4,16,4,4,4,8,4,4,4,8,4,16,4,4
precharattana,CELL_A1,60,0.000722594129002424,0.0007073299327808077,0.0008192199129166512,0.0005780831230831615,0.0005079946746558615,0.0005161348564191007,0.0005052860678093237,0.00041831078637469455,0.0004277202840513344,0.0004311725935637864,0.0005633846360657145,0.00013317016973737956,4,32,4,32,4,32,4,8,4,16,4,2,4,8,4,32,4,2,4,16
precharattana,CELL_A1,65,0.0007719160031523419,0.000733103230937836,0.0008443015138168625,0.0005780831230830742,0.0005079946746557621,0.0005161348564191611,0.0005052860678093237,0.0004183107863745607,0.000427720284051302,0.00043117259356421857,0.0005734023133864442,0.00014697749053192501,4,2,4,2,4,4,4,16,4,32,4,2,4,4,4,4,4,16,4,16
precharattana,CELL_A1,70,0.0007225941290024114,0.0006683625621398758,0.0008306329225052076,0.0005746743267317607,0.0005079946746557966,0.0005161348564191812,0.0005052860678093387,0.00041831078637482856,0.0004277202840511069,0.000431172593563988,0.0005602883203253496,0.00013169227585616654,4,32,4,16,4,32,4,32,4,32,4,32,4,16,4,16,4,32,4,32
precharattana,CELL_A1,75,0.0007015618402136868,0.0006891436167453734,0.000810482214924166,0.0006500705792835806,0.0005079946746558484,0.0005161348564190807,0.0005052860678094231,0.00041831078637480167,0.0004277202840515947,0.0004311725935638729,0.0005657877514041429,0.00013001133533382898,4,16,4,8,4,32,4,16,4,16,4,16,4,2,4,4,4,4,4,2
precharattana,CELL_A1,80,0.000701561840213796,0.0006683625621399661,0.0008087120449796047,0.0005842137034686947,0.0004980133241706119,0.0005179156125838237,0.0005047464963527462,0.0004206757845475848,0.00042524270332459593,0.0004289798307992288,0.0005558423902580652,0.00012548177999620541,4,16,4,32,4,16,4,16,4,16,4,32,4,32,4,16,4,32,4,32
precharattana,CELL_A1,85,0.0007015618402138478,0.0006515098514173369,0.0008087120449795723,0.0005842137034687608,0.0004980133241706555,0.0005179156125841106,0.0005047464963527915,0.0004206757845477595,0.00042524270332435247,0.0004289798307993356,0.0005541571191858524,0.00012406443639036174,4,16,4,16,4,16,4,16,4,16,4,16,4,16,4,16,4,16,4,16
precharattana,CELL_A1,90,0.0007015618402137807,0.0006515098514173808,0.0008087120449796974,0.0006500705792835963,0.0004980133241706336,0.0005179156125838017,0.0005047464963528028,0.0004206757845477885,0.0004252427033245047,0.00042897983079909544,0.0005607428067673083,0.00012719360224815987,4,16,4,16,4,16,4,2,4,16,4,16,4,4,4,16,4,16,4,16
precharattana,CELL_A1,95,0.0007015618402137127,0.0006648395409772199,0.0008087120449796566,0.0005842137034686564,0.0004980133241707209,0.0005179156125839562,0.0005047464963528198,0.000420675784547643,0.00042524270332487,0.0004289798307992288,0.0005554900881418485,0.00012516993238265885,4,16,4,16,4,16,4,16,4,4,4,16,4,32,4,32,4,16,4,16
precharattana,CELL_A1,100,0.0007015618402137505,0.0006648395409771865,0.0008087120449796385,0.0006476833826881537,0.0004980133241705684,0.000517915612583912,0.0005047464963527631,0.0004206757845476722,0.0004252427033243829,0.0004289798307990422,0.000561837056063707,0.0001280417264765005,4,16,4,16,4,16,4,32,4,8,4,2,4,16,4,16,4,16,4,16
precharattana,CELL_A1,105,0.0007015618402138199,0.0006992157028793758,0.00078716445813667,0.0006500705792835968,0.0005655878268924116,0.0005179156125838679,0.0005047464963527801,0.00042067578454749757,0.0004252427033243829,0.0004289798307992288,0.0005701160835013631,0.00012558110338219843,4,16,4,32,4,16,4,16,4,32,4,16,4,4,4,16,4,2,4,2
precharattana,CELL_A1,110,0.0007015618402137485,0.0006648395409772504,0.0007871632562989608,0.0005842137034686423,0.0004980133241706009,0.0005179156125838898,0.0005047464963527915,0.0004206757845476722,0.0004252427033245352,0.0004289798307990154,0.0005533352092737108,0.00012090483121727877,4,16,4,16,4,32,4,4,4,8,4,32,4,16,4,16,4,16,4,16
precharattana,CELL_A1,115,0.0007015618402137798,0.0006648395409772034,0.0007871632562989208,0.0005842137034686449,0.0006021024063565084,0.0005179156125839781,0.0005047464963527575,0.0004206757845477012,0.00042524270332459593,0.0004289798307993356,0.0005637441174923426,0.00012017239989014651,4,16,4,16,4,32,4,4,4,16,4,16,4,16,4,16,4,16,4,16
precharattana,CELL_A1,120,0.0007015618402138791,0.0006648395409772992,0.00078716445813663,0.0006476833826880182,0.0004980133241706009,0.0005179156125840443,0.0005047464963527575,0.000420675784547643,0.00042524270332462645,0.00042897983079930887,0.0005596822973794808,0.0001239861223337274,4,16,4,16,4,16,4,32,4,32,4,16,4,16,4,2,4,8,4,16
precharattana,CELL_A1,125,0.0007015618402137259,0.0006648395409772433,0.0007907355402695092,0.0005842137034685796,0.0006021024063564887,0.0005179156125840002,0.0005047464963527631,0.0004206757845475848,0.0004252427033245047,0.0004289798307992288,0.0005641013458893628,0.00012083947006739954,4,16,4,16,4,16,4,16,4,32,4,16,4,16,4,2,4,16,4,16
precharattana,CELL_A1,130,0.0007015618402137789,0.0006648395409772145,0.0007871644581366875,0.000584370947907103,0.0004980133241706773,0.0005179156125840663,0.0005047464963527855,0.0004206757845477885,0.00042524270332459593,0.00042897983079930887,0.0005533510539014007,0.00012090908870845103,4,16,4,16,4,16,4,16,4,16,4,16,4,16,4,16,4,16,4,16
precharattana,CELL_A1,135,0.0007015618402138274,0.0006648395409772169,0.0007971189534045682,0.0005843709479069834,0.0005655878268924039,0.0005179156125838679,0.0005047464963527575,0.0004206757845477595,0.00042524270332480903,0.0004289798307992022,0.0005611039537003396,0.00012142098578076869,4,16,4,16,4,2,4,16,4,16,4,16,4,16,4,2,4,16,4,16
precharattana,CELL_A1,140,0.0007071461879473793,0.0006648395409772399,0.0007907355402695126,0.0005738066705079872,0.0004980088182535687,0.0005908577700853961,0.0005047488418886278,0.0004206637584485952,0.0004252552892319854,0.000428990861804814,0.0005605053279415106,0.00012192301208235543,4,16,4,16,4,16,4,16,4,16,4,16,4,16,4,16,4,16,4,16
precharattana,CELL_A1,145,0.0007015618402137398,0.0006648395409773127,0.0007871644581366497,0.0005738066705079642,0.0004980088182536231,0.0005179064986493956,0.0005047488418886507,0.0004206637584485371,0.0004252552892317724,0.00042899086180468054,0.0005522946578112325,0.00012067860443711613,4,16,4,16,4,16,4,16,4,16,4,16,4,16,4,16,4,16,4,16
precharattana,CELL_A1,150,0.0007019309917760742,0.0006719661752380154,0.0008078520420091796,0.0005681937688686682,0.0004982002861561429,0.0005182883386492216,0.0005046540513402274,0.0004211669109651168,0.0004247279071688272,0.0004285296226184076,0.0005545510094789881,0.00012544383429208823,4,16,4,8,4,2,4,2,4,4,4,2,4,8,4,16,4,16,4,16
precharattana,CELL_A1,155,0.0007019309917761705,0.0006719661752380369,0.0008186555745286483,0.0005681937688687361,0.0004982002861561542,0.0005182883386493562,0.0005046540513402274,0.0004211669109649098,0.0004247279071687371,0.00042852962261846,0.0005556313627309436,0.00012764783280056797,4,16,4,16,4,16,4,16,4,16,4,4,4,32,4,32,4,32,4,4
precharattana,CELL_A1,160,0.0006939508030681328,0.0006719661752379977,0.0008169913939040046,0.0005681937688687621,0.0004982002861562446,0.0005182883386494684,0.0005046540513402378,0.0004211669109649986,0.0004247279071688272,0.00042852962261838125,0.0005546669257977055,0.00012640664809264647,4,2,4,2,4,2,4,4,4,4,4,2,4,16,4,16,4,16,4,8
precharattana,CELL_A1,165,0.0007019309917761536,0.0006719661752380394,0.0008211297584255578,0.0005681937688687504,0.0004982002861561994,0.000518288338649244,0.0005046540513402589,0.0004211669109649098,0.0004247279071687371,0.00042852962261819764,0.0005558787811206048,0.00012815878516625183,4,16,4,8,4,4,4,4,4,8,4,4,4,16,4,2,4,2,4,2
precharattana,CELL_A1,170,0.0007019309917761227,0.0006719661752379339,0.0008162810535229211,0.0005681937688687498,0.0004982002861562561,0.0005182883386492666,0.0005046540513402169,0.0004211669109649986,0.0004247279071687371,0.00042852962261827646,0.000555393910630348,0.00012715960587778951,4,16,4,2,4,4,4,8,4,16,4,32,4,16,4,4,4,16,4,32
precharattana,CELL_A1,175,0.0007043386000804015,0.0006719661752380471,0.0008179803117062806,0.0005681937688687498,0.0004982002861561203,0.0005182883386493113,0.0005046540513402431,0.0004211669109649098,0.0004247279071687072,0.0004285296226183027,0.0005558045972791074,0.00012778688825649685,4,8,4,4,4,4,4,2,4,8,4,32,4,16,4,32,4,8,4,8
precharattana,CELL_A1,180,0.0007809455047070653,0.0006719661752380386,0.0008186555745286936,0.0005681937688687595,0.0004982002861561994,0.0005182883386493113,0.0005046540513402378,0.0004211669109648508,0.0004247279071687072,0.00042852962261846,0.0005635328140240323,0.000138447912218696,4,2,4,16,4,16,4,4,4,32,4,4,4,2,4,16,4,16,4,16
precharattana,CELL_A1,185,0.0007143094566713736,0.0007920161581554748,0.0007871632562989579,0.0005717019391916813,0.0004982002861562108,0.0005182883386493338,0.0005046540513402378,0.0004211669109649098,0.0004247279071685273,0.00042852962261806667,0.0005660757927214774,0.00013874209926353456,4,2,4,2,4,32,4,32,4,16,4,16,4,8,4,8,4,16,4,8
precharattana,CELL_A1,190,0.00070193099177608,0.0008036045602308355,0.0008186555745286931,0.0005717019391917747,0.0004982002861562333,0.000518288338649244,0.0005046540513402378,0.00042116691096479166,0.00042472790716876726,0.0004285296226183289,0.0005691460182624985,0.00014462731432982382,4,32,4,4,4,8,4,32,4,8,4,16,4,4,4,16,4,2,4,16
precharattana,CELL_A1,195,0.0006951818316009258,0.0007631189484946628,0.0008186555745287246,0.0005681937688686922,0.0004982002861561881,0.0005182883386492216,0.0005046540513402537,0.00042116691096479166,0.0004247279071687371,0.0004285296226184076,0.0005640717240390606,0.00013777349409260355,4,4,4,16,4,16,4,4,4,2,4,4,4,16,4,16,4,32,4,16
precharattana,CELL_A1,200,0.0007062803041376405,0.0007631189484946353,0.0007866344119198278,0.0005681937688686686,0.0004982002861562788,0.0005182883386493338,0.0005046540513402537,0.00042116691096502813,0.0004247279071687371,0.0004285296226184076,0.0005619794550318811,0.0001332389634844478,4,4,4,16,4,16,4,16,4,16,4,4,4,16,4,32,4,8,4,8
precharattana,CELL_A2,0,0.00010839735015101471,0.00012018859926007691,0.00011385386872537641,0.00010121850227800968,9.42091483621231e-05,9.508971642662684e-05,9.435819625341274e-05,7.618100748884836e-05,8.791798487288948e-05,9.601726396963795e-05,9.874316377880162e-05,1.2142362044834831e-05,4,2,4,2,4,2,4,2,4,2,4,2,4,2,4,2,4,2,4,2
precharattana,CELL_A2,5,0.00010839735015101471,0.00012018859926007691,0.00011385386872537641,0.00010121850227800968,9.42091483621231e-05,9.508971642662684e-05,9.435819625341274e-05,7.618100748884836e-05,8.791798487288948e-05,9.601726396963795e-05,9.874316377880162e-05,1.2142362044834831e-05,4,2,4,2,4,2,4,2,4,2,4,2,4,2,4,2,4,2,4,2
precharattana,CELL_A2,10,0.00010839735015101471,0.00012018859926007691,0.00011385386872537641,0.00010121850227800968,9.42091483621231e-05,9.508971642662684e-05,9.435819625341274e-05,7.618100748884836e-05,8.791798487288948e-05,9.601726396963795e-05,9.874316377880162e-05,1.2142362044834831e-05,4,2,4,2,4,2,4,2,4,2,4,2,4,2,4,2,4,2,4,2
precharattana,CELL_A2,15,0.00010839735015101471,0.00012018859926007691,0.00011385386872537641,0.00010121850227800968,9.42091483621231e-05,9.508971642662684e-05,9.435819625341274e-05,7.618100748884836e-05,8.791798487288948e-05,9.601726396963795e-05,9.874316377880162e-05,1.2142362044834831e-05,4,2,4,2,4,2,4,2,4,2,4,2,4,2,4,2,4,2,4,2
precharattana,CELL_A2,20,0.00010839735015101471,0.00012018859926007691,0.00011385386872537641,0.00010121850227800968,9.42091483621231e-05,9.508971642662684e-05,9.435819625341274e-05,7.618100748884836e-05,8.791798487288948e-05,9.601726396963795e-05,9.874316377880162e-05,1.2142362044834831e-05,4,2,4,2,4,2,4,2,4,2,4,2,4,2,4,2,4,2,4,2
precharattana,CELL_A2,25,0.00010839735015101471,0.00012018859926007691,0.00011385386872537641,0.00010121850227800968,9.42091483621231e-05,9.508971642662684e-05,9.435819625341274e-05,7.618100748884836e-05,8.791798487288948e-05,9.601726396963795e-05,9.874316377880162e-05,1.2142362044834831e-05,4,2,4,2,4,2,4,2,4,2,4,2,4,2,4,2,4,2,4,2
precharattana,CELL_A2,30,0.00010839735015101471,0.00012018859926007691,0.00011385386872537641,0.00010121850227800968,9.42091483621231e-05,9.508971642662684e-05,9.435819625341274e-05,7.618100748884836e-05,8.791798487288948e-05,9.601726396963795e-05,9.874316377880162e-05,1.2142362044834831e-05,4,2,4,2,4,2,4,2,4,2,4,2,4,2,4,2,4,2,4,2
precharattana,CELL_A2,35,0.00010839735015101471,0.00012018859926007691,0.00011385386872537641,0.00010121850227800968,9.42091483621231e-05,9.508971642662684e-05,9.435819625341274e-05,7.618100748884836e-05,8.791798487288948e-05,9.601726396963795e-05,9.874316377880162e-05,1.2142362044834831e-05,4,2,4,2,4,2,4,2,4,2,4,2,4,2,4,2,4,2,4,2
precharattana,CELL_A2,40,0.00010839735015101471,0.00012018859926007691,0.00011385386872537641,0.00010121850227800968,9.42091483621231e-05,9.508971642662684e-05,9.435819625341274e-05,7.618100748884836e-05,8.791798487288948e-05,9.601726396963795e-05,9.874316377880162e-05,1.2142362044834831e-05,4,2,4,2,4,2,4,2,4,2,4,2,4,2,4,2,4,2,4,2
precharattana,CELL_A2,45,0.00010839735015101471,0.00012018859926007691,0.00011385386872537641,0.00010121850227800968,9.42091483621231e-05,9.508971642662684e-05,9.435819625341274e-05,7.618100748884836e-05,8.791798487288948e-05,9.601726396963795e-05,9.874316377880162e-05,1.2142362044834831e-05,4,2,4,2,4,2,4,2,4,2,4,2,4,2,4,2,4,2,4,2
precharattana,CELL_A2,50,0.00010839735015101471,0.00012018859926007691,0.00011385386872537641,0.00010121850227800968,9.42091483621231e-05,9.508971642662684e-05,9.435819625341274e-05,7.618100748884836e-05,8.791798487288948e-05,9.601726396963795e-05,9.874316377880162e-05,1.2142362044834831e-05,4,2,4,2,4,2,4,2,4,2,4,2,4,2,4,2,4,2,4,2
precharattana,CELL_A2,55,0.00010839735015101471,0.00012018859926007691,0.00011385386872537641,0.00010121850227800968,9.42091483621231e-05,9.508971642662684e-05,9.435819625341274e-05,7.618100748884836e-05,8.791798487288948e-05,9.601726396963795e-05,9.874316377880162e-05,1.2142362044834831e-05,4,2,4,2,4,2,4,2,4,2,4,2,4,2,4,2,4,2,4,2
precharattana,CELL_A2,60,0.00010839735015101471,0.00012018859926007691,0.00011385386872537641,0.00010121850227800968,9.42091483621231e-05,9.508971642662684e-05,9.435819625341274e-05,7.618100748884836e-05,8.791798487288948e-05,9.601726396963795e-05,9.874316377880162e-05,1.2142362044834831e-05,4,2,4,2,4,2,4,2,4,2,4,2,4,2,4,2,4,2,4,2
precharattana,CELL_A2,65,0.00010839735015101471,0.00012018859926007691,0.00011385386872537641,0.00010121850227800968,9.42091483621231e-05,9.508971642662684e-05,9.435819625341274e-05,7.618100748884836e-05,8.791798487288948e-05,9.601726396963795e-05,9.874316377880162e-05,1.2142362044834831e-05,4,2,4,2,4,2,4,2,4,2,4,2,4,2,4,2,4,2,4,2
precharattana,CELL_A2,70,0.00010839735015101471,0.00012018859926007691,0.00011385386872537641,0.00010121850227800968,9.42091483621231e-05,9.508971642662684e-05,9.435819625341274e-05,7.618100748884836e-05,8.791798487288948e-05,9.601726396963795e-05,9.874316377880162e-05,1.2142362044834831e-05,4,2,4,2,4,2,4,2,4,2,4,2,4,2,4,2,4,2,4,2
precharattana,CELL_A2,75,0.00010839735015101471,0.00012018859926007691,0.00011385386872537641,0.00010121850227800968,9.42091483621231e-05,9.508971642662684e-05,9.435819625341274e-05,7.618100748884836e-05,8.791798487288948e-05,9.601726396963795e-05,9.874316377880162e-05,1.2142362044834831e-05,4,2,4,2,4,2,4,2,4,2,4,2,4,2,4,2,4,2,4,2
precharattana,CELL_A2,80,0.00010839735015101471,0.00012018859926007691,0.00011385386872537641,0.00010121850227800968,9.42091483621231e-05,9.508971642662684e-05,9.435819625341274e-05,7.618100748884836e-05,8.791798487288948e-05,9.601726396963795e-05,9.874316377880162e-05,1.2142362044834831e-05,4,2,4,2,4,2,4,2,4,2,4,2,4,2,4,2,4,2,4,2
precharattana,CELL_A2,85,0.00010839735015101471,0.00012018859926007691,0.00011385386872537641,0.00010121850227800968,9.42091483621231e-05,9.508971642662684e-05,9.435819625341274e-05,7.618100748884836e-05,8.791798487288948e-05,9.601726396963795e-05,9.874316377880162e-05,1.2142362044834831e-05,4,2,4,2,4,2,4,2,4,2,4,2,4,2,4,2,4,2,4,2
precharattana,CELL_A2,90,0.00010839735015101471,0.00012018859926007691,0.00011385386872537641,0.00010121850227800968,9.42091483621231e-05,9.508971642662684e-05,9.435819625341274e-05,7.618100748884836e-05,8.791798487288948e-05,9.601726396963795e-05,9.874316377880162e-05,1.2142362044834831e-05,4,2,4,2,4,2,4,2,4,2,4,2,4,2,4,2,4,2,4,2
precharattana,CELL_A2,95,0.00010839735015101471,0.00012018859926007691,0.00011385386872537641,0.00010121850227800968,9.42091483621231e-05,9.508971642662684e-05,9.435819625341274e-05,7.618100748884836e-05,8.791798487288948e-05,9.601726396963795e-05,9.874316377880162e-05,1.2142362044834831e-05,4,2,4,2,4,2,4,2,4,2,4,2,4,2,4,2,4,2,4,2
precharattana,CELL_A2,100,0.00010839735015101471,0.00012018859926007691,0.00011385386872537641,0.00010121850227800968,9.42091483621231e-05,9.508971642662684e-05,9.435819625341274e-05,7.618100748884836e-05,8.791798487288948e-05,9.601726396963795e-05,9.874316377880162e-05,1.2142362044834831e-05,4,2,4,2,4,2,4,2,4,2,4,2,4,2,4,2,4,2,4,2
precharattana,CELL_A2,105,0.00010839735015101471,0.00012018859926007691,0.00011385386872537641,0.00010121850227800968,9.42091483621231e-05,9.508971642662684e-05,9.435819625341274e-05,7.618100748884836e-05,8.791798487288948e-05,9.601726396963795e-05,9.874316377880162e-05,1.2142362044834831e-05,4,2,4,2,4,2,4,2,4,2,4,2,4,2,4,2,4,2,4,2
precharattana,CELL_A2,110,0.00010839735015101471,0.00012018859926007691,0.00011385386872537641,0.00010121850227800968,9.42091483621231e-05,9.508971642662684e-05,9.435819625341274e-05,7.618100748884836e-05,8.791798487288948e-05,9.601726396963795e-05,9.874316377880162e-05,1.2142362044834831e-05,4,2,4,2,4,2,4,2,4,2,4,2,4,2,4,2,4,2,4,2
precharattana,CELL_A2,115,0.00010839735015101471,0.00012018859926007691,0.00011385386872537641,0.00010121850227800968,9.42091483621231e-05,9.508971642662684e-05,9.435819625341274e-05,7.618100748884836e-05,8.791798487288948e-05,9.601726396963795e-05,9.874316377880162e-05,1.2142362044834831e-05,4,2,4,2,4,2,4,2,4,2,4,2,4,2,4,2,4,2,4,2
precharattana,CELL_A2,120,0.00010839735015101471,0.00012018859926007691,0.00011385386872537641,0.00010121850227800968,9.42091483621231e-05,9.508971642662684e-05,9.435819625341274e-05,7.618100748884836e-05,8.791798487288948e-05,9.601726396963795e-05,9.874316377880162e-05,1.2142362044834831e-05,4,2,4,2,4,2,4,2,4,2,4,2,4,2,4,2,4,2,4,2
precharattana,CELL_A2,125,0.00010839735015101471,0.00012018859926007691,0.00011385386872537641,0.00010121850227800968,9.42091483621231e-05,9.508971642662684e-05,9.435819625341274e-05,7.618100748884836e-05,8.791798487288948e-05,9.601726396963795e-05,9.874316377880162e-05,1.2142362044834831e-05,4,2,4,2,4,2,4,2,4,2,4,2,4,2,4,2,4,2,4,2
precharattana,CELL_A2,130,0.00010839735015101471,0.00012018859926007691,0.00011385386872537641,0.00010121850227800968,9.42091483621231e-05,9.508971642662684e-05,9.435819625341274e-05,7.618100748884836e-05,8.791798487288948e-05,9.601726396963795e-05,9.874316377880162e-05,1.2142362044834831e-05,4,2,4,2,4,2,4,2,4,2,4,2,4,2,4,2,4,2,4,2
precharattana,CELL_A2,135,0.00010839735015101471,0.00012018859926007691,0.00011385386872537641,0.00010121850227800968,9.42091483621231e-05,9.508971642662684e-05,9.435819625341274e-05,7.618100748884836e-05,8.791798487288948e-05,9.601726396963795e-05,9.874316377880162e-05,1.2142362044834831e-05,4,2,4,2,4,2,4,2,4,2,4,2,4,2,4,2,4,2,4,2
precharattana,CELL_A2,140,0.00010839735015101471,0.00012018859926007691,0.00011385386872537641,0.00010121850227800968,9.42091483621231e-05,9.508971642662684e-05,9.435819625341274e-05,7.618100748884836e-05,8.791798487288948e-05,9.601726396963795e-05,9.874316377880162e-05,1.2142362044834831e-05,4,2,4,2,4,2,4,2,4,2,4,2,4,2,4,2,4,2,4,2
precharattana,CELL_A2,145,0.00010839735015101471,0.00012018859926007691,0.00011385386872537641,0.00010121850227800968,9.42091483621231e-05,9.508971642662684e-05,9.435819625341274e-05,7.618100748884836e-05,8.791798487288948e-05,9.601726396963795e-05,9.874316377880162e-05,1.2142362044834831e-05,4,2,4,2,4,2,4,2,4,2,4,2,4,2,4,2,4,2,4,2
precharattana,CELL_A2,150,0.00010839735015101471,0.00012018859926007691,0.00011385386872537641,0.00010121850227800968,9.42091483621231e-05,9.508971642662684e-05,9.435819625341274e-05,7.618100748884836e-05,8.791798487288948e-05,9.601726396963795e-05,9.874316377880162e-05,1.2142362044834831e-05,4,2,4,2,4,2,4,2,4,2,4,2,4,2,4,2,4,2,4,2
precharattana,CELL_A2,155,0.00010839735015101471,0.00012018859926007691,0.00011385386872537641,0.00010121850227800968,9.42091483621231e-05,9.508971642662684e-05,9.435819625341274e-05,7.618100748884836e-05,8.791798487288948e-05,9.601726396963795e-05,9.874316377880162e-05,1.2142362044834831e-05,4,2,4,2,4,2,4,2,4,2,4,2,4,2,4,2,4,2,4,2
precharattana,CELL_A2,160,0.00010839735015101471,0.00012018859926007691,0.00011385386872537641,0.00010121850227800968,9.42091483621231e-05,9.508971642662684e-05,9.435819625341274e-05,7.618100748884836e-05,8.791798487288948e-05,9.601726396963795e-05,9.874316377880162e-05,1.2142362044834831e-05,4,2,4,2,4,2,4,2,4,2,4,2,4,2,4,2,4,2,4,2
precharattana,CELL_A2,165,0.00010839735015101471,0.00012018859926007691,0.00011385386872537641,0.00010121850227800968,9.42091483621231e-05,9.508971642662684e-05,9.435819625341274e-05,7.618100748884836e-05,8.791798487288948e-05,9.601726396963795e-05,9.874316377880162e-05,1.2142362044834831e-05,4,2,4,2,4,2,4,2,4,2,4,2,4,2,4,2,4,2,4,2
precharattana,CELL_A2,170,0.00010839735015101471,0.00012018859926007691,0.00011385386872537641,0.00010121850227800968,9.42091483621231e-05,9.508971642662684e-05,9.435819625341274e-05,7.618100748884836e-05,8.791798487288948e-05,9.601726396963795e-05,9.874316377880162e-05,1.2142362044834831e-05,4,2,4,2,4,2,4,2,4,2,4,2,4,2,4,2,4,2,4,2
precharattana,CELL_A2,175,0.00010839735015101471,0.00012018859926007691,0.00011385386872537641,0.00010121850227800968,9.42091483621231e-05,9.508971642662684e-05,9.435819625341274e-05,7.618100748884836e-05,8.791798487288948e-05,9.601726396963795e-05,9.874316377880162e-05,1.2142362044834831e-05,4,2,4,2,4,2,4,2,4,2,4,2,4,2,4,2,4,2,4,2
precharattana,CELL_A2,180,0.00010839735015101471,0.00012018859926007691,0.00011385386872537641,0.00010121850227800968,9.42091483621231e-05,9.508971642662684e-05,9.435819625341274e-05,7.618100748884836e-05,8.791798487288948e-05,9.601726396963795e-05,9.874316377880162e-05,1.2142362044834831e-05,4,2,4,2,4,2,4,2,4,2,4,2,4,2,4,2,4,2,4,2
precharattana,CELL_A2,185,0.00010839735015101471,0.00012018859926007691,0.00011385386872537641,0.00010121850227800968,9.42091483621231e-05,9.508971642662684e-05,9.435819625341274e-05,7.618100748884836e-05,8.791798487288948e-05,9.601726396963795e-05,9.874316377880162e-05,1.2142362044834831e-05,4,2,4,2,4,2,4,2,4,2,4,2,4,2,4,2,4,2,4,2
precharattana,CELL_A2,190,0.00010839735015101471,0.00012018859926007691,0.00011385386872537641,0.00010121850227800968,9.42091483621231e-05,9.508971642662684e-05,9.435819625341274e-05,7.618100748884836e-05,8.791798487288948e-05,9.601726396963795e-05,9.874316377880162e-05,1.2142362044834831e-05,4,2,4,2,4,2,4,2,4,2,4,2,4,2,4,2,4,2,4,2
precharattana,CELL_A2,195,0.00010839735015101471,0.00012018859926007691,0.00011385386872537641,0.00010121850227800968,9.42091483621231e-05,9.508971642662684e-05,9.435819625341274e-05,7.618100748884836e-05,8.791798487288948e-05,9.601726396963795e-05,9.874316377880162e-05,1.2142362044834831e-05,4,2,4,2,4,2,4,2,4,2,4,2,4,2,4,2,4,2,4,2
precharattana,CELL_A2,200,0.00010839735015101471,0.00012018859926007691,0.00011385386872537641,0.00010121850227800968,9.42091483621231e-05,9.508971642662684e-05,9.435819625341274e-05,7.618100748884836e-05,8.791798487288948e-05,9.601726396963795e-05,9.874316377880162e-05,1.2142362044834831e-05,4,2,4,2,4,2,4,2,4,2,4,2,4,2,4,2,4,2,4,2
