Model,Class,T_bound,score1,score2,score3,score4,score5,score6,score7,score8,score9,score10,score_avg,score_stdev,max_depth1,min_samples_split1,max_depth2,min_samples_split2,max_depth3,min_samples_split3,max_depth4,min_samples_split4,max_depth5,min_samples_split5,max_depth6,min_samples_split6,max_depth7,min_samples_split7,max_depth8,min_samples_split8,max_depth9,min_samples_split9,max_depth10,min_samples_split10
gonzalez,CELL_H,0,0.06368450081202653,0.06159403777884429,0.07137224266723244,0.06395177094787642,0.06902473658848052,0.06575576755513783,0.06140337401715233,0.07443730759380361,0.06826814271284475,0.06948616670326085,0.06689780473766596,0.004106012421605862,8,32,32,16,16,16,8,16,16,16,8,16,64,16,8,8,16,32,16,16
gonzalez,CELL_H,5,0.06302735812960501,0.07703563709175953,0.06563897454383574,0.06249568078447961,0.06836867235179882,0.07138406961072337,0.06212672639949243,0.06914765640834131,0.07091186112925375,0.06936690977769516,0.06795035462269847,0.004471743635864655,8,16,16,16,16,32,8,32,8,32,64,16,16,32,8,8,16,16,16,16
gonzalez,CELL_H,10,0.06699843548772946,0.05377672837604783,0.06863216245318736,0.07029517123481316,0.0701916950113612,0.0562768819246697,0.07272273791210904,0.05636421283119194,0.05929468533702035,0.06227926188616328,0.06368319724542933,0.006565548995403445,8,4,16,32,8,4,16,16,64,16,64,16,16,16,64,8,64,32,32,32
gonzalez,CELL_H,15,0.050520051339022896,0.06202932257786142,0.052153182317338724,0.05422902828737518,0.05462858924637843,0.04789828468009766,0.04538791753666713,0.049893310580193605,0.05608509090809165,0.05459385337607637,0.052741863084910315,0.004444922393470537,16,32,8,16,8,16,8,8,8,8,8,16,32,32,8,8,64,16,8,16
gonzalez,CELL_H,20,0.04224409380374889,0.04421890848870467,0.06317141647371438,0.058227611721771086,0.04230771441749319,0.043583184061547646,0.053517497454502946,0.0442784723002074,0.03671020129646137,0.054540984359179284,0.04828000843773308,0.008049011971516865,8,4,64,32,8,16,8,16,32,16,8,32,8,16,8,32,8,16,8,32
gonzalez,CELL_H,25,0.04188481773980439,0.04948189468702917,0.05289991706610813,0.0384781492312828,0.03489344322578757,0.041090926433936484,0.03917803097207354,0.040994480733802095,0.042124714758728254,0.04198941373237564,0.042301578858092805,0.00496602406188815,8,16,8,16,64,16,8,32,8,32,32,32,8,16,32,32,32,32,16,32
gonzalez,CELL_H,30,0.04149587943769146,0.03754704172452455,0.03780006026385356,0.03538332998003805,0.0326869875870243,0.04322647800938408,0.04515974973582748,0.03814086631597803,0.033619932400897806,0.03929027994555109,0.03843506054007704,0.0038091515169470062,16,32,8,32,8,32,8,2,8,32,8,32,8,32,8,8,16,16,8,4
gonzalez,CELL_H,35,0.03728767452363302,0.038407256959185905,0.03031789758825583,0.031168740044830386,0.03930056982105616,0.032613710702885074,0.04411090705071249,0.03844702265569072,0.039770910304754235,0.030390214363295042,0.036181490401429886,0.004500842959787544,8,2,8,16,8,4,16,32,16,32,8,4,8,4,8,32,32,16,8,16
gonzalez,CELL_H,40,0.03491742478600524,0.03974184220324458,0.04147374669133746,0.035203500755528534,0.044579165744313205,0.035812245229478144,0.03423800790327485,0.04028661605085034,0.030375085037568347,0.04676394304729187,0.03833915774488926,0.004833965709426024,8,2,8,32,64,8,64,32,16,16,64,16,16,8,32,16,32,8,8,16
gonzalez,CELL_H,45,0.04041228596710962,0.0318400419682455,0.036370649574568745,0.03883670516697916,0.04231769337246445,0.039153542883883,0.030487155860830027,0.03611065677203582,0.03320469162302806,0.03454250237819127,0.03632759255673357,0.0036617543977392757,16,32,8,16,16,8,8,8,16,16,32,2,8,2,64,4,8,8,64,4
gonzalez,CELL_H,50,0.03199042753830091,0.03605756076527323,0.031455246178155656,0.033347849868747254,0.04188435053995111,0.040322491692710724,0.03909261078111786,0.03945928842769463,0.03162217106662454,0.041582475031385166,0.03668144718899611,0.004053329701606606,32,16,8,32,8,2,8,2,8,2,8,2,8,16,32,8,8,16,32,8
gonzalez,CELL_H,55,0.03428863187860976,0.026898266534712778,0.035881933641205226,0.033637983500279474,0.037600243761549954,0.043106096662781715,0.032508082430497895,0.04520152947370674,0.03683219483674271,0.03728409651055927,0.03632390592306455,0.004925187498965985,32,4,8,4,16,2,64,4,64,16,16,4,64,4,8,8,8,8,32,4
gonzalez,CELL_H,60,0.030201640768264208,0.05071793784546689,0.037881612567351994,0.034023122973010536,0.03909962694647645,0.03329330109946478,0.03708419263971015,0.03545222741703991,0.030403660910622327,0.02878006941236618,0.03569373925797735,0.0059883642168572886,8,8,16,8,16,16,64,8,8,16,16,16,8,16,8,8,16,8,8,8
gonzalez,CELL_H,65,0.035405291068208534,0.03699809401343375,0.030628836873220117,0.029218738715153042,0.03556025340459414,0.042210610717651476,0.03718133653105052,0.034211378202078015,0.03875624456406096,0.03626937542766538,0.0356440159517116,0.0035488977951275372,32,32,8,8,8,4,32,2,8,2,16,32,16,16,32,8,8,4,16,8
gonzalez,CELL_H,70,0.03636086476905371,0.03415534293779774,0.0349992117152784,0.040856525892494146,0.03433751701330604,0.040283753355422815,0.04330213036992134,0.03730771110354197,0.03079445641278324,0.03295787728519376,0.03653553908547932,0.0037114712215558115,8,8,8,8,8,2,64,32,8,4,64,8,64,32,32,8,16,8,8,4
gonzalez,CELL_H,75,0.03716411015808217,0.03188063191311569,0.03736045773901449,0.02842878611575788,0.037218693259037997,0.028484285020362595,0.02809571021445381,0.04301829430884932,0.053657040389737565,0.028635877668200364,0.03539438867866119,0.007807289094733586,8,8,16,16,8,16,8,4,8,16,64,8,16,16,32,8,64,8,8,8
gonzalez,CELL_H,80,0.041734640001480715,0.037123093775291875,0.03424569355449003,0.03993018834916891,0.026996255704860757,0.038226440872571585,0.03850804513075401,0.035428391541072926,0.04233049503269475,0.0346771056262072,0.036920034958859274,0.004226978325788557,32,32,32,8,64,8,64,8,8,16,8,2,8,16,32,32,32,16,8,2
gonzalez,CELL_H,85,0.0391626708332657,0.03816747423865644,0.039107661668144764,0.029906625463038093,0.03004969706682101,0.03268929269567612,0.045274353186055154,0.031055287045268342,0.034500663184819196,0.03589107991266291,0.035580480529440774,0.004677796653885935,8,8,64,2,16,2,64,8,16,8,8,16,8,8,8,16,32,8,32,16
gonzalez,CELL_H,90,0.033770687573016114,0.045416448315105266,0.03306702673726253,0.04012001204589905,0.033418052592060384,0.03507133191467191,0.04046527545288419,0.033301521714273016,0.03837230173900268,0.03890777136186911,0.03719104294460442,0.003922532699928,32,2,8,16,32,8,8,32,16,16,64,16,8,16,8,2,8,2,8,8
gonzalez,CELL_H,95,0.04003206412318818,0.044274216374055514,0.0347893433836442,0.03440180699289288,0.02875535652292662,0.028964057296922918,0.034650131847727424,0.03670896925390425,0.036832284469457965,0.03684230195530141,0.03562505322200214,0.004393751898434462,8,2,16,8,16,16,64,4,64,8,16,32,16,4,64,4,8,8,32,8
gonzalez,CELL_H,100,0.03787269689647441,0.03457182460690762,0.03532409596467785,0.03384425639161738,0.04088819314662299,0.0337262583117719,0.034927720806366636,0.028616989814292424,0.030486969009181925,0.02977406912163316,0.03400330740695463,0.0035307453017894915,16,8,16,16,8,8,64,8,16,16,8,2,8,4,8,8,64,2,16,16
gonzalez,CELL_H,105,0.037966065998303114,0.04177760030322848,0.02849023874177722,0.03256846412644246,0.03692445981898181,0.026537247814197366,0.04038195860457192,0.039082718006519655,0.03156319583603662,0.046231884708894846,0.03615238339589535,0.005904790755643466,8,8,8,2,32,2,8,4,8,32,16,32,8,8,8,16,32,16,8,4
gonzalez,CELL_H,110,0.030168520022125594,0.04333550381110798,0.03367184195921397,0.036604989585634205,0.035417181634508264,0.03313863106401277,0.03766782592715906,0.03160962287746523,0.03554624068280205,0.03909782235604984,0.0356258179920079,0.0036412710735351213,16,16,8,16,8,16,8,32,8,8,32,16,8,8,8,8,8,8,16,16
gonzalez,CELL_H,115,0.03539040475992532,0.03461615619536688,0.04120963013349539,0.038480910755314714,0.03641517786531421,0.03457640612340932,0.042409074945296533,0.032441086745242556,0.031686594414509654,0.03461285545204773,0.03618382973899223,0.0033423733445428483,32,32,16,32,8,8,16,2,8,2,8,4,16,16,8,16,32,4,8,8
gonzalez,CELL_H,120,0.03489522677278783,0.04150877235919884,0.03356130312097091,0.042180246648491834,0.035838852388535805,0.032084661417593405,0.03313638770319158,0.027990715217046044,0.036104473425875236,0.03248269269364062,0.034978333174733214,0.004066434373588823,32,16,8,2,8,2,32,32,64,16,16,16,8,4,32,16,64,8,8,8
gonzalez,CELL_H,125,0.03214750065261857,0.029059803524250468,0.038998461390290035,0.02688339227376472,0.039064691591282834,0.04578087407654264,0.03165907215163001,0.03591993693174563,0.03441335587943287,0.03198765925934696,0.03459147477309047,0.005270637220045014,8,4,32,32,8,8,8,16,32,32,32,32,8,16,16,8,8,2,64,8
gonzalez,CELL_H,130,0.0316851707874439,0.033352637023346274,0.03747324211740658,0.03075082527726199,0.03882485103795899,0.03696405209438958,0.041643909926675125,0.03377843287329732,0.039113871942428796,0.0359667400668193,0.03595537331470279,0.00332755478306269,8,4,64,32,8,8,32,8,16,4,8,16,8,2,16,16,16,16,8,16
gonzalez,CELL_H,135,0.03265052704641289,0.03587024898557764,0.04365997001971945,0.034704326322516736,0.034687274090827815,0.03406032251849702,0.04061108708225499,0.036259804704551035,0.0376373869093704,0.03789304010746234,0.036803398778719035,0.0031339284731236703,64,16,8,8,8,8,8,16,32,8,32,4,16,4,8,4,16,32,32,8
gonzalez,CELL_H,140,0.034240960859249624,0.03107035453027946,0.0330692566815224,0.029351626483666002,0.0388530361918295,0.025893351142004917,0.02784001204324687,0.04609253404227652,0.03852583493924744,0.03602290139291997,0.03409598683062427,0.005736220607590402,8,8,32,8,16,16,32,32,64,8,8,4,8,4,8,8,64,4,8,4
gonzalez,CELL_H,145,0.035687871409958084,0.03291217658445699,0.03589624832054634,0.03280647405307531,0.03861350802596339,0.03250973583435911,0.037284668993007516,0.04345838578389484,0.03485866891493872,0.033003656419918766,0.035703139434011905,0.0032485559976231436,8,4,8,16,64,16,16,16,32,4,8,4,8,32,16,8,8,16,64,8
gonzalez,CELL_H,150,0.040294871214444125,0.03647047957769914,0.03685069193664494,0.04450098522024909,0.03531024450218337,0.035617097546709345,0.03248595587400836,0.033636309887803174,0.0335623053060585,0.030323030436733407,0.03590519715025335,0.003850922919366233,8,8,64,32,8,16,64,4,8,4,8,16,32,16,8,8,8,4,8,2
gonzalez,CELL_H,155,0.03634756126036924,0.029341036376632802,0.03004643838266186,0.04828615831939221,0.03291471256872193,0.03620968300528471,0.03260704191252522,0.029662908874995328,0.03847494785172438,0.039465703905461634,0.03533561924577693,0.005530040543406509,16,16,32,16,16,16,16,16,16,8,64,16,8,8,8,2,16,32,8,8
gonzalez,CELL_H,160,0.04119484937369557,0.02973501429809961,0.0439100942271165,0.04730071905423012,0.0404895130927513,0.030168491193708867,0.042994159044956154,0.03306986751694405,0.034059783238180805,0.02599833301761171,0.03689208240572947,0.006811887997394412,8,4,8,8,16,4,32,16,16,16,64,32,8,8,8,8,32,2,8,16
gonzalez,CELL_H,165,0.03640117362247673,0.02793579270566525,0.036240578759267186,0.0348497877148435,0.04796448375984756,0.03492612254612776,0.03510032709422244,0.035312595071232716,0.03680207895459475,0.03533355708992937,0.03608664973182073,0.0046170300231027795,32,8,16,32,8,16,32,32,8,8,16,32,32,8,8,16,8,16,32,8
gonzalez,CELL_H,170,0.034068061185840506,0.030236550850128188,0.03362810608732852,0.04572853057814562,0.036650066494956515,0.03135665182041398,0.0399842389064948,0.03598381930175572,0.0301521656629119,0.038934595031729226,0.035672278591970495,0.004656314133441997,32,16,8,4,16,16,8,32,8,2,8,4,16,32,8,2,8,8,8,2
gonzalez,CELL_H,175,0.033192397636350415,0.03765510577986116,0.03359785608791834,0.028340871960336488,0.03452092422634782,0.041293585180943,0.032759885585624204,0.03770224824972059,0.041751362908688854,0.02927280682130929,0.035008704443710015,0.0043262787494901455,64,16,16,16,16,4,8,2,16,16,64,16,64,2,16,8,64,8,8,4
gonzalez,CELL_H,180,0.03219615045250073,0.03120698299041379,0.03994634229626014,0.040113218496003925,0.03777490568188792,0.03572159223798946,0.04117727177819351,0.03291185147690314,0.02615785708728292,0.03053576093811626,0.03477419334355518,0.004703219523122034,8,16,8,4,32,16,32,32,64,16,16,4,8,2,8,4,8,16,8,8
gonzalez,CELL_H,185,0.027357307690523282,0.03301570641700434,0.032793125111427755,0.04705638043871341,0.03169984655038882,0.03747396834629786,0.04607525932278419,0.02851157634981392,0.04604463859635567,0.027324107862955572,0.03573519166862648,0.007548811889600925,8,16,8,16,8,8,8,32,8,4,8,4,8,2,16,8,8,4,8,16
gonzalez,CELL_H,190,0.034331728698758904,0.037750438440107933,0.032382225967212644,0.029073891854295156,0.032371771290947975,0.032926942559905276,0.035214392160092936,0.03331496163544726,0.04481009648852633,0.04189720278718121,0.035407365188247567,0.004541182707261285,8,8,8,2,16,8,8,4,32,8,32,8,64,8,16,8,64,8,64,16
gonzalez,CELL_H,195,0.037830676105131196,0.035705376091885795,0.04121406161194738,0.031416822020126224,0.03758280041954854,0.032438807098763886,0.03346496482641905,0.03347087003980776,0.03605893716699236,0.04003633664992661,0.03592196520305488,0.0030963685781595397,32,16,8,16,64,16,8,8,64,32,8,2,8,8,64,8,16,8,8,2
gonzalez,CELL_H,200,0.03686460122179013,0.0434890317848961,0.02829196302031646,0.03197452980039049,0.03739942384123647,0.029924509320644315,0.031238155510106693,0.03657193829946608,0.047885595022731285,0.028617366869505806,0.03522571146910838,0.006197572435202695,8,4,8,4,16,4,64,16,8,2,32,2,8,16,64,32,16,32,64,16
gonzalez,CELL_D,0,0.06124214163040855,0.048949353984635215,0.05289791064134439,0.054889442466883806,0.05100578122125618,0.054121586093697265,0.0476519389657527,0.05238519855455477,0.056460369498665536,0.06090736444256162,0.054051108749976,0.00430799166513546,64,32,32,32,64,32,8,16,64,16,8,4,32,32,16,16,16,32,32,16
gonzalez,CELL_D,5,0.06447719344736784,0.049021386341149886,0.06091416081954456,0.05332658494650104,0.046887543610110355,0.054130602279591884,0.056863414887349806,0.048143271794700356,0.048869664936437456,0.058192402131537896,0.054082622519429115,0.005654644956154195,8,16,16,32,16,32,8,32,8,16,64,32,16,32,8,32,8,32,64,32
gonzalez,CELL_D,10,0.05262416526662943,0.05263707430028989,0.060048537568907316,0.05895620203152949,0.043846804876016846,0.048558473677516145,0.05202058895045804,0.04593189106513269,0.05326047369256148,0.046934318585518955,0.05148185300145604,0.005036560063731695,8,16,8,16,16,8,32,8,64,16,8,4,8,16,8,16,64,16,64,8
gonzalez,CELL_D,15,0.04947578087430071,0.039625625725647734,0.03978918915754848,0.03921940247083793,0.052019250812445024,0.034013659994466754,0.05217027314560813,0.04429644839627201,0.03925288566553322,0.0464424416466048,0.043630495788926485,0.005896747107247187,32,16,64,32,64,16,16,32,16,32,32,16,32,8,32,16,64,32,16,4
gonzalez,CELL_D,20,0.033204165226502415,0.03468124024970538,0.029483641879041386,0.032401664444046165,0.033444162552962245,0.03748134356794815,0.03790103855871164,0.04884041007504682,0.026994553742856413,0.040116866825299975,0.03545490871221206,0.0058073998763638465,16,16,32,16,16,16,32,16,64,16,32,16,32,16,16,16,16,16,16,16
gonzalez,CELL_D,25,0.033508653076279385,0.03135512961644944,0.03387570978228161,0.031108715960799754,0.02917419873185051,0.0333296941498557,0.04276257794544861,0.03015805192247012,0.028827474746420938,0.03284595574161057,0.03269461616734667,0.003767483295721477,32,8,64,16,64,16,16,16,16,16,16,32,16,4,32,32,8,4,16,32
gonzalez,CELL_D,30,0.03041499245109459,0.027073423456791913,0.028433583658757637,0.03112904489012781,0.023854167598487692,0.03366979998767857,0.03405219253826513,0.02666823998184002,0.022924056493841365,0.028989973377010498,0.028720947443389523,0.0035490058384618,64,32,8,8,8,32,32,16,16,16,32,32,64,16,16,16,32,32,16,16
gonzalez,CELL_D,35,0.024920022907607513,0.027518401274106263,0.03264376882640903,0.02714958379862165,0.03351271552271095,0.03289523726198985,0.028158704189296807,0.028967288173333827,0.03377910080163534,0.03552599091042612,0.030507081366613738,0.0033838466578390465,16,4,64,8,16,16,32,16,64,8,32,8,32,16,16,4,64,4,16,2
gonzalez,CELL_D,40,0.03368273473836475,0.026157265123486977,0.026252442647419272,0.023441140517853398,0.031502148317564906,0.025455884187520216,0.026480370591760918,0.031244910368304842,0.026259165651198204,0.024002661527789643,0.027447872367126307,0.0032720537467171252,32,16,16,16,16,32,64,16,32,16,16,16,64,16,32,16,32,32,64,32
gonzalez,CELL_D,45,0.03074938205213895,0.024342606627533087,0.024894547169818555,0.024025657493857818,0.03026410196156757,0.031482163042111044,0.02631010659259712,0.028676765064493046,0.029316438191171443,0.029681140657054437,0.02797429088523431,0.002673814975750475,32,2,64,16,16,32,16,8,64,16,32,8,16,32,32,32,16,8,16,16
gonzalez,CELL_D,50,0.030447616334492122,0.02771143218303231,0.023992010723286647,0.025648801533697863,0.023932445449411113,0.02442635564035553,0.029979690913923312,0.03511342234481162,0.023900161199400916,0.023769929730729934,0.026892186605314138,0.0036596688986441092,64,16,16,2,16,16,32,16,64,16,32,4,16,16,16,16,16,16,16,16
gonzalez,CELL_D,55,0.02423742931251198,0.027693444001382222,0.02562778645062999,0.025743629520813698,0.023165619329612416,0.03334496478436701,0.03189205713717724,0.030082111536925034,0.0244894516760405,0.02710627865101033,0.027338277240047042,0.003242477742706603,16,8,16,16,64,16,32,16,64,16,16,2,16,16,32,2,16,2,64,16
gonzalez,CELL_D,60,0.034334590171259366,0.03350908997405848,0.026308630109353043,0.02498325087863255,0.027437330419597228,0.02104684852673635,0.032409870594670466,0.02597924060949407,0.022409998218256684,0.026000477142796612,0.027441932664485486,0.004321617429365441,16,16,64,2,64,16,64,8,32,8,32,4,16,16,16,8,16,16,64,16
gonzalez,CELL_D,65,0.02453249286198639,0.03192978542875897,0.02787199095231438,0.022342594855957545,0.03218906769868278,0.02768949206646625,0.030824115031995336,0.024858754168926467,0.021109879783748703,0.026904827359157824,0.027025300020799465,0.0036626486619332132,64,16,64,4,32,2,32,8,32,8,32,16,32,16,16,16,64,8,64,2
gonzalez,CELL_D,70,0.02000308146024543,0.02469471101355227,0.0229593325122634,0.02305558277648172,0.03019226149209997,0.03110965450381488,0.025353955240262512,0.022798908917830013,0.027547378615330527,0.024805307702340636,0.025252017423422136,0.0032887222032087775,64,16,64,32,16,16,16,8,64,8,16,8,64,16,16,2,16,8,32,16
gonzalez,CELL_D,75,0.024970850886606357,0.02864668820224104,0.024282183165453042,0.027362530540812207,0.02337105052291292,0.02792061186165001,0.028468264641459195,0.027043663855992134,0.031121055625656115,0.03239614201392638,0.02755830413167094,0.0027111972644110584,64,16,32,16,64,16,16,16,64,16,64,16,16,8,32,4,32,16,32,16
gonzalez,CELL_D,80,0.021745957075555152,0.032376403649674125,0.029440647720861877,0.025890398442423034,0.0235035096891412,0.029676778164964595,0.025323542499804768,0.028717938767232408,0.019834744779042488,0.02366450201369867,0.026017442280239826,0.0037638185641422905,32,8,64,16,32,8,32,16,32,16,32,8,32,8,16,16,16,16,64,8
gonzalez,CELL_D,85,0.023660216838714627,0.027758590619386066,0.030389973658145723,0.028533128271784645,0.024307486364374773,0.03126942222114677,0.027293227509456484,0.023226421958435384,0.03074044186873914,0.027395416908616747,0.027457432621880034,0.002782630019439519,16,4,64,16,32,16,16,16,16,16,16,2,64,8,32,16,32,2,32,16
gonzalez,CELL_D,90,0.02815668351570776,0.026757654827192015,0.02850855344790175,0.0273263074729679,0.022218264740588467,0.03315152221358812,0.02360853728548939,0.029214448157870613,0.020161836264715068,0.03298909212464939,0.027209290005067048,0.004038348181118832,64,16,64,8,16,16,16,16,32,4,32,16,32,8,16,2,16,16,16,16
gonzalez,CELL_D,95,0.03182266222593152,0.029165303789548642,0.033035371038589625,0.020967943876301652,0.02833536480205712,0.020244761508743533,0.0354010968937263,0.03038538710198004,0.023417037326933645,0.02510271765704155,0.02778776462208536,0.0049035222848795735,64,8,64,4,32,8,16,4,16,16,32,8,64,8,32,2,16,16,32,16
gonzalez,CELL_D,100,0.026376085573460002,0.03256790590398317,0.029790992805550507,0.027509900139141983,0.026271084433652368,0.024747964754545097,0.027648047318889476,0.02618190443815351,0.02348258186232553,0.029011950180144422,0.02735884174098461,0.0024751810159491508,64,2,64,16,16,8,64,16,16,8,16,8,64,2,64,16,16,16,32,16
gonzalez,CELL_D,105,0.02827320348105051,0.030245160557000626,0.02062457018788477,0.025461676207181247,0.02444092246741198,0.023421706221016542,0.02308949817918397,0.026817171800867432,0.025163513239470452,0.026770745209564524,0.02543081675506321,0.002620020136788608,32,8,64,16,32,16,64,16,64,16,64,16,64,16,32,16,16,16,64,16
gonzalez,CELL_D,110,0.026189421616542353,0.021642622348970752,0.03454286549342095,0.024593866534464586,0.03043055994941546,0.030081666223024647,0.027266616618672038,0.02706027996452649,0.02245980147318138,0.02664912074444767,0.027091682096666635,0.0036610848110339815,16,16,64,16,64,16,16,32,64,32,64,4,32,32,32,16,8,2,32,8
gonzalez,CELL_D,115,0.0302692642817583,0.02196540915549362,0.020419205516781124,0.026806856244381835,0.024205230997084718,0.02655221946253082,0.02337205774113975,0.030679151061818292,0.02199678785632759,0.02364888272073994,0.024991506503805598,0.0033167811315544422,16,8,32,32,16,4,32,2,32,2,16,16,16,16,64,16,32,16,64,16
gonzalez,CELL_D,120,0.024389529351788692,0.030614031017699193,0.023580142617046534,0.026521922107253265,0.02080295339864185,0.02528430384527055,0.028088408157682543,0.027345370420766388,0.029116365848672575,0.03131252244691516,0.026705554921173675,0.003109027956282666,64,16,16,8,16,16,32,16,16,4,32,16,64,8,32,2,32,16,16,16
gonzalez,CELL_D,125,0.026204024206113723,0.024486573534010906,0.027038989722548326,0.026414400885483955,0.029011120449299346,0.025726038985639264,0.01994598373513644,0.027266223845459733,0.02659692166818309,0.036928921226036214,0.026961919825791096,0.004019009668712689,32,16,64,16,16,16,64,16,16,8,64,2,16,16,32,16,64,16,16,16
gonzalez,CELL_D,130,0.027122357475162492,0.022441442773341518,0.019282218039665393,0.026982035354638483,0.03030446748573813,0.027524059899281392,0.02308236534836881,0.025658087605310277,0.02698181494420299,0.027289239307565428,0.025666808823327492,0.0030168300196553545,64,16,16,2,64,16,32,16,64,16,64,16,32,16,64,16,64,4,32,8
gonzalez,CELL_D,135,0.027652780268260166,0.02020512170478899,0.031882612347205345,0.031150907214108268,0.02825702108322192,0.024274645578883532,0.030703067961990925,0.02787874762960601,0.026739184624640384,0.024200520158848732,0.02729446085715543,0.00343797957654888,16,16,64,16,32,8,32,16,64,8,64,16,16,8,16,32,16,16,64,2
gonzalez,CELL_D,140,0.020052904506752494,0.02719556754030863,0.03022283843928304,0.02557595345633025,0.0284514587789774,0.02743133052987689,0.026488501102168948,0.026629027197009776,0.021881178681136985,0.02428342575997777,0.025821218599182218,0.0028826005717468915,16,16,32,2,64,16,16,2,16,2,16,4,32,16,32,16,32,16,16,2
gonzalez,CELL_D,145,0.027952528075910015,0.02615635640398056,0.018992352308882982,0.024575638636784688,0.027947200091281797,0.021538086362034557,0.025136075261736314,0.027176745696623636,0.02053846206929851,0.026910616680678366,0.024692406158721144,0.0030718675969887404,64,16,32,16,16,16,64,16,64,16,16,8,64,8,16,8,64,8,16,8
gonzalez,CELL_D,150,0.022872259210505872,0.024161373319748713,0.029472102051033566,0.024415755287557794,0.02934342294259906,0.03037959453893675,0.025771978481687777,0.022286663091445467,0.022792821918251983,0.028457532845693138,0.025995350368746013,0.0029707586123769196,32,16,16,8,32,4,32,16,32,8,64,16,32,16,16,16,32,16,16,16
gonzalez,CELL_D,155,0.02308318334926788,0.023800340990188087,0.027254617788029144,0.02633453344212249,0.02294516401450145,0.025473164974686595,0.02373256079350198,0.019998918936721614,0.03640299018024589,0.02537303796150675,0.02543985124307719,0.0041385232857379375,16,16,8,16,16,8,16,8,32,4,64,16,16,16,16,8,16,16,64,16
gonzalez,CELL_D,160,0.022768499505999653,0.027893810112218552,0.019726754383228733,0.031074079624496768,0.027001303028469904,0.026386577851996485,0.03976655140439163,0.019918575881272316,0.032452301965029344,0.028338273247296646,0.027532672700440002,0.005747969904411646,64,16,32,4,32,2,16,4,64,32,64,16,64,32,32,8,16,4,32,16
gonzalez,CELL_D,165,0.03287198539566902,0.030672065313331606,0.024666382958931688,0.025368794791745992,0.027295176163443798,0.02623975003402954,0.02796181240718946,0.02076928357407044,0.022992867747387378,0.02655345535098346,0.026539157373678235,0.0033258930544210305,64,16,64,8,64,8,64,16,16,16,64,16,16,4,8,16,16,8,16,8
gonzalez,CELL_D,170,0.029340067143466785,0.02387220275665763,0.028466763033729532,0.024526018139190656,0.03437769279058732,0.026378297209619886,0.02635726294097569,0.02424943880328309,0.029054209957434983,0.029738738860351402,0.027636069163529696,0.0030659615499609707,64,16,32,16,64,32,16,4,16,2,64,16,32,16,32,2,64,16,64,8
gonzalez,CELL_D,175,0.02588012461608253,0.030379029540891483,0.024815899013903516,0.034077825768457894,0.026957550064111064,0.02400882353535623,0.022284666818981693,0.023031726164296013,0.027678063306187245,0.030013477477997454,0.026912718630626508,0.0035204121222645935,16,4,16,2,64,8,32,16,16,8,64,16,64,4,32,16,64,16,64,16
gonzalez,CELL_D,180,0.02707363413552101,0.025151231408548778,0.021446533546668888,0.023256003630678868,0.038241191638162565,0.025606302904723807,0.02828414285326092,0.025777897915211196,0.024429829318511346,0.029635380329423377,0.026890214768071075,0.004395016291279436,64,8,32,16,32,16,32,16,16,16,32,8,32,4,32,8,64,8,64,2
gonzalez,CELL_D,185,0.03008438765648529,0.02314291911401164,0.027100430213617785,0.02208979476810904,0.025752288033885823,0.02555061333258041,0.0318487619374744,0.026891349811147727,0.023674403090189956,0.03237651760725456,0.026851146556475664,0.0033975798561139726,32,16,64,16,8,16,64,16,16,32,16,4,32,16,64,8,32,16,16,8
gonzalez,CELL_D,190,0.024465173678168382,0.03902176130495876,0.03146787220805009,0.0217048169906095,0.02334150516896394,0.03203879806978868,0.02301944034587547,0.019303215906916145,0.023802105218948225,0.023448566865996456,0.026161325575827565,0.005732484678709936,32,16,64,8,32,16,32,16,32,16,16,16,16,4,16,16,64,16,64,16
gonzalez,CELL_D,195,0.028280621971706877,0.023702525939694446,0.0208572496615277,0.02736153415478971,0.02814408225492844,0.023517767358845348,0.025657259558844226,0.03159567652576649,0.023389741725440633,0.0327041823122519,0.026521064146379576,0.0036057363272326156,64,16,64,16,16,4,32,16,64,16,32,16,16,8,32,8,32,16,32,2
gonzalez,CELL_D,200,0.02528208978768927,0.025595675651990644,0.028421499855287306,0.02745093363155549,0.02940144457045104,0.02015597908184668,0.03307286797238334,0.025561945338168128,0.021575664342981152,0.024082195923535353,0.026060029615588835,0.003574971119282601,16,4,64,2,16,16,64,16,32,8,64,16,8,2,32,16,64,8,16,16
gonzalez,CELL_A1,0,0.12388209563164021,0.13503050689862017,0.15058789812848639,0.12127700533150872,0.1239842521943065,0.11939063543293535,0.12935217969300564,0.10974638174224491,0.13787731811922116,0.12462989301461537,0.12757581661865847,0.010743309731338383,32,32,8,32,16,16,64,16,16,32,64,16,32,32,16,32,16,32,16,32
gonzalez,CELL_A1,5,0.14262502356535614,0.132604439189439,0.12026211513088914,0.12256359017713771,0.12910761658530548,0.1245323492320475,0.14185133202985425,0.1276907617418014,0.10689162722128906,0.11771833726423589,0.12658471921373554,0.01030035836820084,32,32,8,32,8,32,32,32,32,32,8,16,8,8,16,32,8,32,8,16
gonzalez,CELL_A1,10,0.11908661925348552,0.11520045329366249,0.13553350039862827,0.11032356470617863,0.14595924130234925,0.1205675496711505,0.12559781376366097,0.1270508558524888,0.1178459435568206,0.13362832614195924,0.12507938679403843,0.010229452023298382,8,32,32,16,8,32,32,16,32,8,16,16,32,32,64,32,32,16,8,16
gonzalez,CELL_A1,15,0.09376667371938706,0.09834868864936083,0.11478015528161122,0.10155193888768715,0.09409035360643526,0.09403637247164275,0.09589289947037305,0.09521349357992899,0.10864459612198765,0.09064472733697236,0.09869698991253863,0.007197098014147069,16,32,64,32,64,16,32,16,16,32,16,16,8,32,16,8,32,16,8,16
gonzalez,CELL_A1,20,0.08649084066686245,0.07429238489211738,0.10978413211612417,0.08166042481217713,0.10208392764774596,0.07823721660111972,0.07153802068111952,0.08177383336581236,0.0775805088538823,0.07766858542453121,0.08411098750614923,0.01171497124318594,8,32,8,8,32,32,32,32,8,32,8,8,8,32,16,32,64,32,32,32
gonzalez,CELL_A1,25,0.09120753312143892,0.07301220602854509,0.06562543140923743,0.08043244049478855,0.07775633127581484,0.07447773244651167,0.09303412449134466,0.07358429252322579,0.0746812699216978,0.08347655236836456,0.07872879140809694,0.008074949382763104,8,32,16,32,16,16,64,32,16,32,64,32,64,32,8,32,32,32,32,16
gonzalez,CELL_A1,30,0.08267245932764541,0.08573134425279574,0.06181839574385065,0.06694051946603,0.06860192733511727,0.06954534783309818,0.07321063475836392,0.08620449020396892,0.0639009232798011,0.0603448527406933,0.07189708949413645,0.009240409086151005,16,32,16,32,64,32,16,32,32,8,32,32,32,16,16,32,8,8,8,32
gonzalez,CELL_A1,35,0.06645381356078142,0.0862396012343272,0.06529606347050194,0.062399717823472804,0.08224210207335533,0.07829337320018807,0.06828412264162359,0.08200265998397338,0.057156942439896954,0.06644129629524423,0.07148096927233649,0.009367627118188839,64,16,32,4,32,16,16,4,32,16,16,16,64,2,32,16,64,8,8,8
gonzalez,CELL_A1,40,0.06667387127803177,0.08204702218784721,0.06615007424761354,0.05613299051544242,0.0625572420030071,0.067629641094309,0.06773056433091641,0.05911278444464528,0.059672651431386885,0.055204784519996254,0.06429116260531957,0.007400331685337514,16,16,64,16,32,32,64,8,16,16,16,16,64,16,32,16,64,8,32,16
gonzalez,CELL_A1,45,0.05813786265638036,0.06232849549997942,0.08027458358638068,0.06319367574268048,0.07808985182793635,0.06086329500277665,0.05886396897986334,0.060492490661048226,0.07140518304955865,0.05428922226718419,0.06479386292737883,0.008321951977279649,64,4,64,16,16,8,8,8,32,8,16,16,64,16,8,16,64,16,16,16
gonzalez,CELL_A1,50,0.06521854386168294,0.05744585962964373,0.07247154631784718,0.07259045751383668,0.06972794898550688,0.06905868521879091,0.06013646010796095,0.05604208203501053,0.06278921415041377,0.06965873135861515,0.06551395291793086,0.005807120332775299,32,4,16,2,32,16,64,32,16,8,16,32,16,32,32,8,16,16,64,8
gonzalez,CELL_A1,55,0.06903556411240812,0.05356321639408054,0.06511272465086876,0.0677471560466515,0.0638987280943863,0.06598533747117177,0.06386937388523678,0.0690104416598946,0.06811753225376223,0.06656125862887773,0.06529013331973385,0.004307038193861751,32,32,16,16,64,8,8,8,64,8,8,16,8,4,64,16,16,32,16,8
gonzalez,CELL_A1,60,0.055804546256646145,0.0680617703411828,0.07187261803653719,0.059966711969398054,0.06830220491363134,0.05520068907370736,0.06792164518069276,0.06821429280875556,0.05688933445767488,0.0548992313509676,0.06271330443891937,0.006386040024440605,8,32,64,8,16,16,16,16,16,2,16,16,8,16,32,8,8,16,16,16
gonzalez,CELL_A1,65,0.07649072933280185,0.0625786958715953,0.08492323732016911,0.07659063848783061,0.046182860926145014,0.06122001065061066,0.06315211005656866,0.062269259068878875,0.0674603760636872,0.054794728689541695,0.06556626464678289,0.010749032524968937,32,16,64,16,16,2,32,16,64,16,16,16,16,16,16,4,32,8,32,32
gonzalez,CELL_A1,70,0.0531013527351577,0.06734412777048257,0.052903006360715335,0.054417202128682174,0.06736262046665238,0.05751583140106591,0.05917468757976708,0.053731831254326186,0.06720375788463365,0.0716642338249141,0.06044186514063972,0.0068513420708546215,64,32,8,2,64,16,32,32,32,8,32,8,8,8,16,16,64,16,64,16
gonzalez,CELL_A1,75,0.060721357825204256,0.058121941323120416,0.07091046944370906,0.06219112762585823,0.06042512946824793,0.05507076187008992,0.06102928636364476,0.061282967482562664,0.07194544893404659,0.06757164956597117,0.0629270139902455,0.005190567630244134,64,32,64,16,64,32,32,16,16,2,8,16,32,16,16,16,16,2,32,32
gonzalez,CELL_A1,80,0.06049865740206981,0.06362223815236745,0.06738131455223119,0.053655267754688075,0.07048074073948546,0.06184264906997031,0.06771170441557779,0.05486991552519732,0.06454867170235505,0.07708958717054192,0.06417007464844844,0.006678228149404939,16,16,32,8,8,16,8,2,8,4,32,4,32,32,16,32,32,16,64,16
gonzalez,CELL_A1,85,0.05648915520446276,0.057664579008712656,0.0681041085181176,0.05733436174976394,0.0653668551935562,0.058873337840732606,0.06677535625118368,0.06892899402344034,0.05853178527046783,0.07233482477743672,0.06304033578378743,0.005550985979360389,64,16,8,8,64,4,16,8,64,16,64,16,32,16,8,2,64,32,8,16
gonzalez,CELL_A1,90,0.0672478021470586,0.058414167753990366,0.06071809485970069,0.06188670686196284,0.06556840772110001,0.07181973186357134,0.07772288331230803,0.0675684127731298,0.05179383642689608,0.0749292447953845,0.06576692885151023,0.007475722711099112,16,4,16,16,32,32,16,16,64,2,16,4,32,16,64,4,32,4,32,2
gonzalez,CELL_A1,95,0.05748638913437042,0.05767287998780767,0.06744697249591239,0.054803974198465076,0.07394108648231382,0.0641899765751856,0.05318004137902601,0.07115849834734177,0.05849238667563613,0.06374851421570597,0.06221207194917648,0.006667197021726952,16,16,8,16,8,16,32,8,64,32,32,8,64,32,16,16,8,4,16,4
gonzalez,CELL_A1,100,0.05499549646357048,0.06943758642951905,0.07327830754826314,0.058731932600376985,0.06838105434576551,0.06098637617102108,0.06423280773394686,0.05754215216316946,0.055207528206628456,0.054995961164686157,0.061778920282694716,0.006352714723406026,32,32,64,8,16,16,16,16,32,32,32,8,64,32,64,32,8,16,16,16
gonzalez,CELL_A1,105,0.06352455595734248,0.050490006257810874,0.06932814928737144,0.05915168733527256,0.06001442312450317,0.07302396151766999,0.0627772864061662,0.0475018092349475,0.07102100770482242,0.058204294613765924,0.06150371814396727,0.007913367419109706,32,32,32,4,32,16,8,4,8,16,8,8,32,16,16,16,8,16,64,16
gonzalez,CELL_A1,110,0.05866250612020202,0.0549651153289583,0.06395789542743038,0.06365130749431665,0.059964751152731324,0.06573832585316258,0.05487394226475588,0.07520558417344819,0.06757013015315519,0.0651056368869868,0.06296951948551474,0.005845902488152278,8,2,64,2,16,4,32,16,8,32,8,8,64,16,32,4,64,8,16,16
gonzalez,CELL_A1,115,0.05264791380191155,0.07154303741251004,0.06858285658891597,0.04923072259381156,0.07467709174211278,0.06224373012445158,0.05364807126705824,0.06897714659256715,0.0637779911196068,0.06963068166677501,0.06349592429097206,0.008385305799332214,16,16,64,16,32,16,16,8,8,16,64,8,16,16,64,32,32,4,16,16
gonzalez,CELL_A1,120,0.06043197488326657,0.06199821332055125,0.07039239650856954,0.06698033616550149,0.06309850752300974,0.06474396341965433,0.07221360684574171,0.06760800762051933,0.05210148703914952,0.05338788675447911,0.06329563800804425,0.006305240809406014,16,2,64,8,8,2,32,16,32,32,8,16,8,4,64,16,8,32,8,16
gonzalez,CELL_A1,125,0.06641854504695997,0.060071870758154476,0.06072716085353284,0.06632478301027599,0.05612511046948871,0.07104715843804145,0.059443495188200905,0.06923689523276423,0.0684768249774185,0.06511993022945088,0.06429917742042879,0.004665403743130666,8,16,16,8,8,4,64,32,32,8,16,16,16,2,32,32,32,8,16,8
gonzalez,CELL_A1,130,0.06144765692617537,0.0584224182834857,0.07628576790139537,0.055455678510324624,0.05857432052479332,0.06500567657127002,0.073565080170206,0.05910258216727549,0.06290472186737153,0.055399557225217916,0.06261634601475152,0.006808204649115599,16,16,32,8,64,8,8,8,32,16,16,32,32,16,32,16,32,16,16,16
gonzalez,CELL_A1,135,0.05835057164975716,0.06582101693696196,0.06238669944837836,0.06301942947513843,0.04902941325117779,0.05170487030507774,0.07690792301029051,0.055930696155264775,0.05900102637641258,0.06933367128260616,0.06114853178910654,0.007860930609370606,32,16,8,8,16,32,16,16,16,16,64,4,16,16,32,4,32,8,32,16
gonzalez,CELL_A1,140,0.06549058626690164,0.06442858831820468,0.07878451854596442,0.05854978042704194,0.05436064356837399,0.06535216330889086,0.07142897102060874,0.05908919607758246,0.07878409813242367,0.054335369191646145,0.06506039148576385,0.008517475601576008,32,16,64,16,8,16,16,16,8,8,64,2,16,8,16,2,32,8,32,16
gonzalez,CELL_A1,145,0.05338902107773506,0.06655369233862281,0.06899237725413684,0.06201626773551507,0.060971467741822896,0.069787261824654,0.05454619531967468,0.064136579003598,0.05734309486214631,0.0674196020295741,0.06251555591874798,0.005603597488838426,64,16,16,16,32,8,8,8,64,4,32,8,64,16,32,8,32,16,16,2
gonzalez,CELL_A1,150,0.060084999529462724,0.07316705086411486,0.05721837581257496,0.05746597909500039,0.06762796660520282,0.05856841237037504,0.05555291084943057,0.06505152629935637,0.06919892987522037,0.06689433906521725,0.06308304903659553,0.0057460185725222105,64,8,64,16,16,16,8,4,64,8,64,32,64,4,64,16,32,8,64,8
gonzalez,CELL_A1,155,0.04739187394442459,0.06615923083327567,0.06368771227654484,0.0685984893774551,0.05962300974245958,0.05900532094309193,0.07053731168485078,0.07149279535562354,0.054757060502970537,0.0691968471684547,0.06304496518291514,0.007402954018281344,32,16,32,32,16,16,16,4,32,16,16,16,32,16,32,16,16,16,8,32
gonzalez,CELL_A1,160,0.06093296395247257,0.06409324838629149,0.06519335241477467,0.0643092280377493,0.06387187907952853,0.06894015768766948,0.060935689428019295,0.06900245645510614,0.06184782324794579,0.06296609438017395,0.06420928930697313,0.002739234667243811,32,32,16,16,16,16,64,16,64,16,64,8,64,8,32,16,32,16,64,32
gonzalez,CELL_A1,165,0.07514457652260674,0.06293563950524446,0.06497868729750989,0.050204855268703406,0.06898688720283283,0.06577881939843082,0.056003421807603225,0.05138045606184558,0.06256922068236706,0.06802860935273253,0.06260111730998766,0.007526870435336499,16,4,64,16,16,16,8,8,64,4,16,32,8,2,8,4,32,32,64,16
gonzalez,CELL_A1,170,0.06372831349259693,0.07077988034319305,0.05509494015200738,0.07303908559596155,0.06120642654371161,0.06217742303379257,0.07224621807534053,0.06871167846068559,0.0710257805845463,0.06165825470326909,0.06596680009851047,0.005696788163799861,16,4,32,32,64,32,64,32,8,16,8,16,32,2,8,4,64,4,64,8
gonzalez,CELL_A1,175,0.05579410521858358,0.059831750677906574,0.06746102244213807,0.07739878060125101,0.0691696100546843,0.07074642698304116,0.06273357500476742,0.056988646124419215,0.061210229108949105,0.052248356747089914,0.06335825029628303,0.007355165423418006,8,32,64,8,16,8,8,2,8,16,32,4,8,16,16,16,8,16,64,16
gonzalez,CELL_A1,180,0.06318845098057159,0.061180331079996264,0.06612729414072066,0.0721086139898014,0.06116066249195594,0.061590462637717405,0.05739102291950624,0.07578460764087941,0.06170907594196149,0.05830456890591129,0.06385450907290216,0.005592691670380539,8,16,32,16,8,16,8,16,16,32,64,16,32,32,32,2,8,2,8,16
gonzalez,CELL_A1,185,0.0506252813099528,0.06831094344478103,0.059989449335180474,0.06317353685228877,0.07141631240783841,0.06004614544003551,0.05803471131256155,0.06316997262947559,0.060418660336008206,0.06434271958441767,0.06195277326525399,0.00540532366312837,32,8,16,8,16,4,64,16,64,16,64,8,16,16,16,4,8,2,32,16
gonzalez,CELL_A1,190,0.05537982626204343,0.0657095876727996,0.05495340853063234,0.06796313670489794,0.049659608169429444,0.05446999060757566,0.07747099642031756,0.0715713589725749,0.06290831377114182,0.06992865716526968,0.06300148842766823,0.008581427586162205,32,16,16,2,8,8,32,2,64,16,16,2,64,16,32,16,16,16,32,16
gonzalez,CELL_A1,195,0.06547963886722719,0.05942836740293922,0.0565559363461888,0.06356915664148753,0.05912297143984247,0.04902617722926847,0.0742155554958191,0.0643908513797015,0.07075889962176428,0.057372400889251156,0.061991995531348966,0.006931716633743687,8,8,64,16,16,4,16,4,16,16,64,8,64,8,32,16,32,32,16,16
gonzalez,CELL_A1,200,0.08174517117174636,0.05141425330919906,0.05703231872582625,0.06974742145984848,0.058347668931504774,0.0683658218647144,0.057673245291142525,0.06777953925523034,0.06550902859482027,0.07151367996886498,0.06491281485728975,0.008429684389008728,64,32,16,8,8,32,64,8,16,8,8,16,8,16,16,32,8,16,32,32
gonzalez,CELL_A2,0,0.04555084742912367,0.05151743357399714,0.05628952179658766,0.05026911195943405,0.049289920326309605,0.050329961927244087,0.05167803159387584,0.043681088448621536,0.055061291690605106,0.04759469138198503,0.05012619001277837,0.0036922694118866075,8,16,32,16,16,8,32,32,32,16,16,16,16,16,32,16,16,16,8,16
gonzalez,CELL_A2,5,0.05210544346655458,0.0492268824718429,0.04853705187860214,0.06142419304332301,0.05571711647696912,0.05383824791995844,0.05486009602803409,0.04563143325790824,0.04878692662885587,0.051571318823345806,0.05216987099953942,0.004297239483555581,8,32,8,16,16,16,8,4,64,16,16,16,32,32,8,8,8,16,8,16
gonzalez,CELL_A2,10,0.05025864551538276,0.05121294015134049,0.05230104369715047,0.05101333933450386,0.044460998997965226,0.03853623717930805,0.04872849538471186,0.05273978099023162,0.04401079876724714,0.04034060195611964,0.047360288197396114,0.004884414109753907,16,16,8,4,64,8,8,16,16,16,16,2,16,16,32,32,32,16,64,16
gonzalez,CELL_A2,15,0.041690957882790335,0.03451099386071079,0.04515535735030215,0.04154883295999042,0.04240694236316321,0.03847408958681065,0.04991474511110168,0.03682076532346078,0.04031969993476898,0.03535640589341975,0.04061987902665187,0.004430793066474842,8,8,32,16,8,32,8,2,8,4,16,16,16,8,8,8,8,16,8,2
gonzalez,CELL_A2,20,0.029887997711516612,0.04361976562980477,0.043816812972976696,0.030875045721104822,0.04423701134177342,0.035335055262893274,0.03545783987529552,0.04112283539932567,0.03852374345794582,0.030857082805050007,0.037373319017768664,0.005399739217685818,8,4,16,8,64,32,32,32,8,16,16,16,32,16,16,8,8,32,16,32
gonzalez,CELL_A2,25,0.035834283589682166,0.028172766029078936,0.030539317095917187,0.03947422678875457,0.035378539624003044,0.03613648412259248,0.03490187383244461,0.0333950230002326,0.03621667321038986,0.037744931769452233,0.03477941190625476,0.0031586764870890293,8,8,16,16,8,8,16,16,8,8,8,16,8,32,8,8,8,8,8,16
gonzalez,CELL_A2,30,0.03158760229510855,0.029662220203855102,0.030199079708466206,0.02697453610018628,0.03318871260046533,0.029611109562642002,0.032078436891838605,0.0278283779308593,0.030422248976675625,0.03306755298115685,0.030461987725125383,0.0019656158279666145,64,2,16,16,8,32,8,8,8,4,16,16,8,8,16,16,8,16,64,16
gonzalez,CELL_A2,35,0.03033778142668928,0.0315236418437201,0.022616507611880922,0.0285229727338633,0.02560629384336401,0.030107003910240637,0.0318037248521956,0.02133581335501508,0.02994753795181579,0.028825866300097754,0.028062714382888244,0.00347305908283707,16,16,64,16,8,16,32,8,16,16,8,16,16,16,16,16,64,32,64,8
gonzalez,CELL_A2,40,0.024714059350206517,0.028319826240284236,0.02751008565563717,0.026454296047830995,0.02711930469869537,0.032373142831985245,0.032029378255911414,0.026485477980597073,0.025501125154005315,0.024736190338375673,0.027524288655352898,0.002580550256023949,32,16,32,8,16,8,16,16,16,16,32,8,16,16,16,32,16,16,32,32
gonzalez,CELL_A2,45,0.022617469222547155,0.026910063579800775,0.027289690865764875,0.0289391586348951,0.02491882872284627,0.026887297235513363,0.024117061092524802,0.032475950044542144,0.027491147450250896,0.022346865444361763,0.02639935322930471,0.0028980231985927824,16,16,16,16,64,16,32,16,32,2,64,16,32,8,32,16,16,4,16,16
gonzalez,CELL_A2,50,0.02851462727912796,0.02477826130597407,0.02376872334411067,0.027438266465741944,0.027294886041242375,0.02534656673286558,0.02381945053727545,0.027027163060276395,0.03577665617776059,0.025859255645933048,0.026962385659030808,0.003303297140153464,64,16,32,16,64,16,16,8,32,2,64,8,32,8,64,32,16,16,32,8
gonzalez,CELL_A2,55,0.022681078587261604,0.01940658012943148,0.027801034280521584,0.02625802868762579,0.033191512509188136,0.027025517077666636,0.022268361835913766,0.02777748285456148,0.02598138016241779,0.02781704192162322,0.026020801804621147,0.0036187082673468734,16,4,32,16,16,4,32,2,64,16,64,8,16,8,16,2,32,8,64,8
gonzalez,CELL_A2,60,0.03346616532136361,0.022384716711677313,0.0251694669573638,0.0247962549284622,0.03001009587375742,0.02638865015438443,0.024947096280033054,0.01863896572555027,0.028116534339304687,0.01969671699208928,0.025361466328398606,0.004273311089481756,16,16,32,4,16,16,32,8,16,8,32,8,32,16,64,16,32,16,64,8
gonzalez,CELL_A2,65,0.022902424672289232,0.029038215401479543,0.02663400397412624,0.02724342064803759,0.025374020516310283,0.029896165747862177,0.029328312619314813,0.02443630201816281,0.02219568467148287,0.0301433423169814,0.026719189258604698,0.0027629029042017805,16,16,16,2,64,8,64,16,64,16,64,16,64,8,64,4,32,16,32,8
gonzalez,CELL_A2,70,0.02206096193267778,0.025017178014913103,0.027483330533016027,0.022831467159487643,0.021709476197360137,0.02483040049994205,0.028104943478767318,0.025567773919872513,0.029821132271275943,0.029529352508249833,0.02569560165155623,0.0028150806582261908,16,2,32,2,32,8,16,8,16,8,32,2,64,8,16,4,32,8,32,16
gonzalez,CELL_A2,75,0.0245192885974699,0.027096037609650257,0.02582175091706661,0.02116662403451515,0.023662606019511208,0.02430900921122849,0.026135574450783437,0.026832163815596898,0.03240670086916201,0.028132792773200483,0.026008254829818445,0.002853327492459588,32,8,64,8,64,2,64,16,16,2,16,2,32,16,16,8,32,4,32,8
gonzalez,CELL_A2,80,0.025346501409284,0.025519670552909948,0.02802678978758786,0.025632006706494993,0.023120908885371723,0.03022184454607525,0.02557530798250851,0.028732770945032654,0.025587627791539776,0.024010311317247034,0.026177373992405172,0.0020609926399433186,32,8,16,2,32,2,32,4,64,8,64,16,16,16,16,8,16,8,64,2
gonzalez,CELL_A2,85,0.02663947197549642,0.025488456967645436,0.026201821551377864,0.02427498107518135,0.02171271363590721,0.02598386290181217,0.026564497009430234,0.024303399240448574,0.02531788093229307,0.0267070906474427,0.025319417593703503,0.0014696447932832583,16,8,64,16,16,8,32,8,16,16,32,16,16,16,64,8,16,16,32,16
gonzalez,CELL_A2,90,0.016829196293282153,0.023157303911726594,0.026438078117810956,0.026007068866345004,0.023117460975811126,0.023617032111861763,0.030859427293861208,0.024890690411803765,0.03170954933872037,0.02942494558059576,0.025605075290181866,0.004171069925922404,16,8,64,16,32,16,16,16,32,4,16,16,16,2,16,8,16,4,64,8
gonzalez,CELL_A2,95,0.01818321931469454,0.030858099939817293,0.02265652847921719,0.028624452294496557,0.02617898746031372,0.01981790539320707,0.024036525260914005,0.02476049784841788,0.03147943850752942,0.023178260758401556,0.024977391525700925,0.004170621699761013,32,16,64,8,32,16,64,8,32,16,32,16,16,8,64,8,16,2,64,16
gonzalez,CELL_A2,100,0.022944229933172716,0.03058624850597403,0.021320550442274235,0.026876828962844723,0.02488688075095738,0.02606298880076096,0.02934980016034995,0.024926814418294606,0.021902440144892125,0.029617378528536877,0.025847416064805756,0.00310315934692434,64,16,32,16,32,16,64,2,16,8,64,16,64,2,32,8,32,16,32,2
gonzalez,CELL_A2,105,0.025086531544186125,0.023559286393391193,0.021607864111013446,0.02725101026569992,0.02830772997288678,0.027637860250143444,0.02793733572154667,0.02094962144542205,0.027623338553644742,0.02503653728055372,0.02549971155384881,0.002568575327467207,16,2,16,32,64,8,64,16,16,2,16,16,32,32,64,8,32,16,32,16
gonzalez,CELL_A2,110,0.024545768861085632,0.02659482985619253,0.021289810355321664,0.027145751833592944,0.028106701475790734,0.026106416195199114,0.02366697762825375,0.03178121851046348,0.021949772082990676,0.028373194519637827,0.025956044131852835,0.003021577702261376,32,16,32,8,8,16,32,16,32,4,16,16,64,16,32,4,16,4,32,8
gonzalez,CELL_A2,115,0.035794418303915956,0.02459621997548368,0.024537171714507394,0.02826033926396994,0.01955142844379491,0.02517548303692875,0.02214020640344914,0.02631683847151437,0.02214069987595466,0.021857031782121446,0.025036983727164026,0.004303450995394646,16,8,16,8,64,8,16,16,16,16,32,16,16,16,16,2,32,16,16,16
gonzalez,CELL_A2,120,0.023012434673705204,0.024867419486644393,0.029943898616929702,0.027626501713855497,0.025700823256912534,0.027629810821932117,0.026224361438703145,0.024239524629612166,0.021364820066859684,0.027537912784451207,0.025814750748960568,0.0024043798959976284,16,8,32,16,32,8,32,32,16,2,64,4,32,16,32,2,16,8,32,8
gonzalez,CELL_A2,125,0.031706758193791026,0.019831125121241452,0.02732813240305999,0.02756030141704065,0.025162792849771805,0.027637454765834596,0.020035593639652124,0.02215292045361653,0.0306199365291454,0.028106580577294118,0.026014159595044765,0.0039288218470046555,64,8,32,16,64,8,16,8,64,4,32,16,32,8,16,8,16,8,64,16
gonzalez,CELL_A2,130,0.025268621172303714,0.027576983704756804,0.021571930462109087,0.024764934649868803,0.025125332758383023,0.02453586717250901,0.02587801320133278,0.02591754361716147,0.023208701922770393,0.021177170067609337,0.02450250987288044,0.001889752711464679,32,16,16,16,32,16,32,8,32,8,16,8,32,16,64,8,16,8,32,16
gonzalez,CELL_A2,135,0.02641275801645793,0.02692794011618165,0.02495912991263975,0.027616814783587646,0.022921533747905506,0.02520640668884426,0.023743307362570968,0.03154192393060464,0.02991787027554036,0.022630354366737722,0.026187803920107045,0.0027747573949705867,16,8,32,8,64,8,32,32,16,2,64,4,32,2,64,8,64,16,16,8
gonzalez,CELL_A2,140,0.026334916857557608,0.023392986225895182,0.027026415122860203,0.022827187287832947,0.02877958454014407,0.02190461712256404,0.026344544484762183,0.026016873451003928,0.022998960742660616,0.030628461303959933,0.025625454713924068,0.0026771674271108908,32,16,64,8,16,16,64,8,16,16,64,16,16,2,16,8,32,8,16,8
gonzalez,CELL_A2,145,0.022392744342630864,0.02250318582085661,0.02444584830982961,0.026084151146287756,0.03137573131318782,0.030027732451124292,0.033527817153311955,0.02544962230489007,0.02933432601144507,0.021040089799291853,0.026618124865285586,0.004020599331962904,16,16,16,16,16,4,16,4,32,16,64,4,32,4,32,32,16,8,64,16
gonzalez,CELL_A2,150,0.02836957252537221,0.025821851363632135,0.02857182134001657,0.02404069419543155,0.024628708106669613,0.021790941970891063,0.03155385544092138,0.021778413390512338,0.025530145134634526,0.024526668060717786,0.02566126715287992,0.0029258766382100313,16,16,16,16,16,8,64,16,64,8,64,16,64,16,16,4,64,8,32,16
gonzalez,CELL_A2,155,0.026219290084697325,0.028217725575272173,0.023709997873875167,0.03240832866900197,0.026824569852708997,0.024961307292133132,0.021904383696399993,0.024869204350246754,0.02566497575184179,0.023740453771838557,0.025852023691801583,0.002758397562959903,32,8,32,2,32,16,16,8,32,2,64,16,32,16,32,4,16,16,16,8
gonzalez,CELL_A2,160,0.02274264448200417,0.026971536207127285,0.026230613701729105,0.02832959690242924,0.024810513048051704,0.027929500364975008,0.02409687553966058,0.027740900848923576,0.021935800970588983,0.017425162424753497,0.024821314449024315,0.0032400228122031094,64,4,16,8,64,8,16,8,16,8,32,16,32,4,32,8,32,8,16,16
gonzalez,CELL_A2,165,0.0239082570417465,0.022948498085480586,0.024752751211351714,0.022356029270031396,0.02218283264118531,0.02902896626704581,0.02520197321505883,0.026197364970672505,0.028247936263735077,0.02547045490179996,0.025029506386810767,0.0022103724721647513,32,2,16,2,64,16,32,4,16,16,32,8,64,4,16,16,64,16,16,8
gonzalez,CELL_A2,170,0.036084414322628044,0.02828855243367123,0.021560051185019163,0.02408044980509223,0.02824820807635374,0.024120902570093073,0.02267858675245914,0.025061718617532844,0.031019980137898872,0.022461550555904923,0.02636044144566533,0.004327238752571674,64,16,64,16,64,2,32,16,16,16,32,4,32,8,64,16,64,16,32,16
gonzalez,CELL_A2,175,0.026707680557977665,0.028033383448421545,0.02622930963563423,0.024004592775724153,0.024348760152105735,0.028640111446892123,0.02436392937403073,0.02979743336745672,0.026496082655085292,0.025838162266187886,0.02644594456795161,0.001837044516520096,16,2,32,16,32,4,64,8,16,16,32,16,16,4,32,8,16,8,16,8
gonzalez,CELL_A2,180,0.03141793601845338,0.02477926196373288,0.03290178977274755,0.02328892493105741,0.026339806557254004,0.025319125966377944,0.021740417422187776,0.026993338155147917,0.022057264684334638,0.026207016005574874,0.026104488147686837,0.003478757309578593,64,2,16,4,64,32,16,8,32,16,32,8,64,16,32,8,32,16,64,16
gonzalez,CELL_A2,185,0.03332840221882624,0.023247079512982056,0.02582389677980221,0.02810451255811656,0.02886850012851747,0.025491545070332595,0.02200800604668206,0.02440175324906051,0.02972719309780939,0.02659450000028182,0.02675953886624109,0.0031811581112636215,16,4,32,16,64,2,32,4,64,16,32,16,32,8,32,8,64,16,16,16
gonzalez,CELL_A2,190,0.027664981867594748,0.02569585203215345,0.02381871543212117,0.027526948401786627,0.025308211236214406,0.024546478681795665,0.028970756305897287,0.026101503305496425,0.02558623641492272,0.025015072604052835,0.026023475628203535,0.0015005668091826827,16,8,16,16,64,8,32,8,32,2,64,16,64,2,16,16,64,8,32,8
gonzalez,CELL_A2,195,0.028961358481032547,0.02227367771116723,0.022774646291683943,0.0328209907941267,0.025438370444930858,0.029483104493863568,0.02116852820122309,0.027975666494896124,0.028619888301568357,0.020986852258378087,0.026050308347287054,0.003889060580891383,16,16,32,8,64,16,16,8,64,4,64,8,64,8,32,8,32,8,16,4
gonzalez,CELL_A2,200,0.028482645046773333,0.023914218025877763,0.024633271505239362,0.021985906365219663,0.026959654088949996,0.026489605265278306,0.02556331218288689,0.023194962586678525,0.023682448130735965,0.021466878919104412,0.024637290211674424,0.0021228504778668896,16,8,32,16,64,8,32,2,64,8,64,2,64,16,16,16,16,8,32,4
