Model,Class,T_bound,score1,score2,score3,score4,score5,score6,score7,score8,score9,score10,score_avg,score_stdev,max_depth1,min_samples_split1,max_depth2,min_samples_split2,max_depth3,min_samples_split3,max_depth4,min_samples_split4,max_depth5,min_samples_split5,max_depth6,min_samples_split6,max_depth7,min_samples_split7,max_depth8,min_samples_split8,max_depth9,min_samples_split9,max_depth10,min_samples_split10
gonzalez,CELL_H,0,0.1399487828828534,0.14169150258374177,0.14042147305386063,0.12400367369706126,0.13229199336655564,0.14355861837597117,0.13874667541793845,0.12688539891389028,0.13531395234834076,0.15117660184401613,0.13740386724842296,0.0076422577345121095,4,16,4,2,4,32,4,32,4,32,4,32,4,32,4,8,4,16,4,32
gonzalez,CELL_H,5,0.14484660888841575,0.139674026692577,0.12926602860052228,0.12239668801084115,0.14532338735058525,0.11497496259879082,0.13904630737828752,0.1279126931526556,0.1350205609435861,0.1386892086905975,0.1337150472306859,0.009390424652857847,4,2,4,32,4,32,4,8,4,16,4,16,4,16,4,8,4,4,4,4
gonzalez,CELL_H,10,0.11588107394547978,0.13649685785152788,0.11746802422564519,0.1501127549415481,0.13693031128484032,0.12919684191070807,0.11705035370741512,0.1433705594095832,0.11555035550048219,0.13999957778614777,0.1302056710563378,0.01227447275732322,4,32,4,2,4,8,4,8,4,16,4,8,4,4,4,4,4,8,8,16
gonzalez,CELL_H,15,0.1316304487089576,0.110706069306465,0.13298855759858955,0.11064076659919655,0.11252651911077637,0.1258373094986254,0.11097910576527963,0.11092694947148328,0.1227096059669291,0.11465456171405615,0.11835998937403587,0.00860572813394648,8,32,4,8,4,32,4,4,4,32,4,4,4,32,4,32,4,8,4,8
gonzalez,CELL_H,20,0.10397029372363092,0.10308658125918263,0.10733373412812555,0.13167759351282285,0.11458065854935756,0.12231107079216164,0.12254349787462984,0.1236544161048907,0.12059524471185697,0.10907862287858838,0.1158831713535247,0.009189658100921316,4,4,8,32,4,16,4,4,16,32,4,2,4,4,4,2,8,32,8,32
gonzalez,CELL_H,25,0.10904334235266733,0.08730874397825851,0.14104721423058095,0.11304940950361345,0.10554196641772416,0.13738727804849812,0.11505530990345414,0.11178586570024404,0.11826919569388523,0.1176996947089426,0.11561880205378686,0.014490254556710684,4,4,8,32,8,32,4,8,8,32,4,2,8,32,4,8,4,32,4,16
gonzalez,CELL_H,30,0.14162882667456547,0.10925228336835972,0.11479524618593565,0.10191465276371361,0.10973094747057145,0.09044256652019764,0.09523610124891793,0.08266515420668623,0.10461991887548178,0.09812950567201086,0.10484152029864402,0.015299659661401383,8,16,8,32,8,16,64,32,8,32,32,32,64,32,8,32,8,32,8,32
gonzalez,CELL_H,35,0.08988176498441504,0.09755788092174493,0.10091952554230946,0.09242310734054816,0.08847893583610368,0.11686426996251922,0.09606493860950342,0.09201894275178257,0.1070412664556466,0.12262356896318974,0.10038742013677629,0.011058129684129524,64,32,8,32,32,32,16,32,16,32,8,32,8,32,8,32,16,32,8,32
gonzalez,CELL_H,40,0.1088552652811511,0.1014517262112271,0.09592237515124426,0.09178110911409532,0.11948338649652723,0.09913402121812563,0.10051242268938523,0.10363410284891189,0.10329550635233962,0.09325301026475805,0.10173229256277654,0.0076478482628878405,8,32,8,32,32,32,8,32,32,32,32,32,32,32,8,32,32,32,64,32
gonzalez,CELL_H,45,0.073157097789647,0.09537734655571702,0.1036247224779851,0.08885091700026568,0.10038564440232675,0.09712857994115061,0.09832323987577961,0.08530637091863703,0.13763281755927684,0.12725768542898833,0.10070444219497739,0.018057427856444565,64,32,8,32,32,32,16,32,16,32,64,32,8,16,32,32,8,32,64,32
gonzalez,CELL_H,50,0.12846591096881263,0.09808758764382822,0.08624442849569589,0.10344191128722835,0.0898951078244927,0.1161294717289233,0.09891668744981874,0.10868545527427276,0.0793274904055901,0.11625217874016429,0.10254462298188269,0.014424431420659455,32,32,16,32,64,32,8,32,8,32,64,32,32,32,8,32,32,32,16,32
gonzalez,CELL_H,55,0.07755187623195985,0.1075753549880095,0.10752191101170466,0.12330836715864872,0.0847051352194702,0.10334505732044241,0.11375713357332227,0.09706585114369033,0.07823902232326788,0.11728797874182223,0.1010357687712338,0.015381286774900329,8,32,16,32,8,32,8,32,8,32,32,32,8,16,16,32,16,32,32,32
gonzalez,CELL_H,60,0.10759323254726164,0.11255945840858485,0.11244646918324706,0.10169678510693164,0.09610534702193946,0.1034526968087431,0.10292860071448096,0.09434297648624244,0.10411935142394343,0.0993753743061505,0.10346202920075251,0.005816886251748491,64,32,16,32,16,32,8,16,8,32,16,32,8,16,64,32,32,32,64,32
gonzalez,CELL_H,65,0.10554210224496843,0.11060361517252072,0.09715147639716394,0.102137025909217,0.09888367752351081,0.09286608502307482,0.07996916844768615,0.11187009381335773,0.12003714268511813,0.11427708281324798,0.10333374700298656,0.011154766993974717,16,32,32,32,32,32,8,32,32,32,8,32,8,16,32,32,32,32,16,32
gonzalez,CELL_H,70,0.1135673665118744,0.08699298367493527,0.11925786232486091,0.10038786094261816,0.10455719306113556,0.11065477633117993,0.09291887484010428,0.11919426996325788,0.09407461426460745,0.1043460948807673,0.10459518967953411,0.010582850562657776,32,32,16,32,16,32,8,32,8,32,8,32,64,32,64,32,64,32,8,16
gonzalez,CELL_H,75,0.12931704486364337,0.10552683552220134,0.13182924167048413,0.0983375318058241,0.08211872342433843,0.09044769495902634,0.08728572113973235,0.08802931009551637,0.10879440777461055,0.09374287232232797,0.10154293835777048,0.016475809572400888,32,32,16,32,16,32,8,16,8,32,8,32,8,32,8,32,8,32,64,32
gonzalez,CELL_H,80,0.09842496210863756,0.1166591692448654,0.1116728208042549,0.10615382125828772,0.09593924484487229,0.11066332772930922,0.10356140703954099,0.10571951683267876,0.11886625016692921,0.0995797875587908,0.10672403075881669,0.007305558068282055,16,32,8,32,16,32,8,32,8,32,64,32,8,32,16,32,8,16,32,32
gonzalez,CELL_H,85,0.09802731745263805,0.11862047366256452,0.09415917293891797,0.1271918229577352,0.10138650736183545,0.1127692198396315,0.10263511944950204,0.10169761106355596,0.09643460487700302,0.09069348849523315,0.10436153380986168,0.010990989742568708,32,32,64,32,64,32,8,32,8,32,8,32,64,32,8,32,8,32,32,32
gonzalez,CELL_H,90,0.09038574672486609,0.12388151214321101,0.08749032426770678,0.08247951506197904,0.11910196494429529,0.11826134990095503,0.08887866319813581,0.13264320664547674,0.08624101125325197,0.11120952281351994,0.10405728169533979,0.017788177901235044,8,32,8,32,8,32,16,32,8,32,8,4,64,32,32,32,16,32,16,32
gonzalez,CELL_H,95,0.0976643445098901,0.10251939645351286,0.0771419487780998,0.09217095183145431,0.10473085938794462,0.08297719175860963,0.0968236737644289,0.11543620054054524,0.109195465593944,0.11433607579523822,0.09929961084136676,0.012005347639123773,32,32,32,32,8,32,64,32,8,32,16,32,8,32,8,32,32,32,8,32
gonzalez,CELL_H,100,0.09965022469854869,0.10327814655798087,0.09929214741814787,0.1041104945329825,0.10716511223645447,0.09694236342136396,0.10502238890395842,0.12911830352713044,0.09533621314667419,0.08811307478053894,0.10280284692237804,0.010230074114553614,8,32,64,32,64,32,8,32,8,32,8,32,16,32,8,32,32,32,64,32
gonzalez,CELL_H,105,0.09234979744984304,0.09489207750765702,0.08774084482573581,0.11461878481717859,0.09847606130321104,0.11734929035775163,0.1019914166984307,0.08600807095096773,0.1165663602776899,0.09349564687200033,0.10034883510604657,0.011257026044052635,32,32,64,32,32,32,16,32,8,32,16,32,32,32,16,32,64,32,64,32
gonzalez,CELL_H,110,0.08731417877800422,0.14446111837239667,0.10531377101275262,0.09708398763673219,0.0797355550962743,0.09532692115081216,0.10355521910845439,0.09401827830552861,0.11222691907590111,0.12294616300719594,0.10419821115440522,0.017762715293212397,8,32,16,32,32,32,32,32,64,32,32,32,16,32,64,32,32,32,8,32
gonzalez,CELL_H,115,0.09067779923599682,0.08532758309031743,0.10732776436331937,0.10294616922925687,0.09409296655297641,0.11008479395482726,0.11053371223577799,0.14284341419022883,0.09785471027244314,0.0914266451077649,0.10331155582329092,0.015543851830741902,16,32,16,32,8,32,16,32,8,32,32,32,16,32,16,32,64,32,8,32
gonzalez,CELL_H,120,0.11086063892969183,0.0947170627505041,0.1083458448972544,0.10679795012886399,0.10954342707369007,0.11287626325360273,0.0859296706784052,0.09982070085429894,0.10950973229468886,0.10952722474327112,0.10479285156042713,0.008173728566927439,64,32,8,16,64,32,8,32,8,32,16,32,8,32,16,32,32,32,8,32
gonzalez,CELL_H,125,0.10707395540906368,0.11522243448759975,0.09472513264509423,0.11251770430426364,0.11453559944731745,0.08576341639957494,0.07748357584772302,0.10699511803288203,0.10783846138233444,0.1136329452141232,0.10357883431699763,0.012471502001330447,64,32,8,32,32,32,16,32,8,32,64,32,16,32,16,32,64,32,32,16
gonzalez,CELL_H,130,0.0956677663016891,0.09973612970695722,0.08861335466051058,0.09366596098630618,0.08670185239357348,0.10510586983843465,0.07127348415020329,0.12565958754980405,0.10404783173196717,0.0926223164559182,0.09630941537753639,0.013452741018015453,8,8,8,32,16,32,8,32,8,32,8,32,8,32,32,32,32,32,16,32
gonzalez,CELL_H,135,0.08147997421703417,0.10176966001514806,0.09140240888244199,0.1099341439863877,0.10203894558157987,0.10812099601023031,0.10810599597045693,0.13766773271653543,0.12068319235675183,0.11283233372302337,0.10740353834595898,0.01455246168090732,8,16,8,32,64,32,64,32,16,32,16,32,8,32,8,16,32,32,8,32
gonzalez,CELL_H,140,0.0859099952226339,0.1023179484972804,0.09728949630305396,0.1137382679819624,0.10748574982293976,0.07879379593424606,0.0815420962099882,0.14304729830622342,0.10621692095043592,0.08350397074734958,0.09998455399761136,0.01846688469610493,64,32,64,32,32,32,64,32,64,32,64,32,8,32,32,32,8,32,32,32
gonzalez,CELL_H,145,0.09020469208520146,0.1251796826630884,0.12261522762225827,0.12662303454644552,0.09660992548479817,0.11215056779808241,0.09470758328490778,0.08526140142798744,0.10231200250782059,0.08835790860999349,0.10440220260305835,0.0151712016681625,8,32,8,32,8,8,16,32,16,32,32,32,64,32,8,32,8,32,64,32
gonzalez,CELL_H,150,0.10032351628675358,0.12550388555101094,0.09490668713502808,0.10946361062738186,0.09481877019252079,0.09487568688992261,0.10480727304597323,0.10331451368155437,0.09907344949728938,0.09298101424522143,0.10200684071526563,0.009290343188392967,16,32,64,32,32,32,16,32,64,32,16,32,8,32,8,32,16,32,32,32
gonzalez,CELL_H,155,0.09315309643959421,0.11005758331938807,0.1190659922957023,0.11429969669026065,0.08828338956313389,0.10992342859136522,0.07962711097138811,0.08773732517468971,0.08192986942508158,0.11192881905522077,0.09960063115258246,0.014087018999453799,8,32,32,32,32,32,32,32,8,32,8,32,8,16,8,32,32,32,8,16
gonzalez,CELL_H,160,0.11496528761921425,0.10671120763503655,0.09632077003395208,0.0987865722072653,0.08888422910857235,0.11545113908212302,0.1346340734681102,0.11521606684754673,0.1004720907864387,0.09544904816085432,0.10668904849491137,0.01284856183791407,32,32,64,32,8,32,16,32,16,32,8,32,16,32,32,32,8,32,64,32
gonzalez,CELL_H,165,0.08336164451355592,0.12265805826811484,0.10889994515541739,0.08445545992555789,0.08074853896326209,0.09938035521479664,0.0935714392143189,0.12066637464601232,0.11649298513181044,0.1175057249077983,0.10277405259406444,0.015658887761659898,16,32,16,32,64,32,64,32,16,32,64,32,64,32,8,32,8,32,64,32
gonzalez,CELL_H,170,0.11640340013350377,0.08843613389500725,0.13930827344905455,0.09265462626650359,0.09959513634395328,0.09794236766356108,0.10848103751172997,0.10350070249290055,0.08516795464971114,0.09212124052345966,0.1023610872929385,0.015220995962186505,32,32,8,32,16,32,32,32,16,32,8,32,64,32,64,32,32,32,8,32
gonzalez,CELL_H,175,0.11326895137014946,0.11137719189475721,0.07393713698103828,0.08030297250819599,0.10143073573317309,0.09952646044223644,0.09655171164431697,0.11956237341476031,0.09758475561315615,0.09570820370583044,0.09892504933076143,0.013350271191068873,8,32,64,32,8,32,32,32,32,32,32,32,8,32,8,32,64,32,32,32
gonzalez,CELL_H,180,0.09370715809471473,0.12484780199574984,0.09814384335026397,0.10976727366260436,0.10375659923835305,0.10306398019055722,0.10447094489519218,0.10410436163326356,0.10244694922695774,0.10321150372135929,0.1047520416009016,0.007788937948117578,16,32,8,32,32,32,64,32,8,32,16,32,32,32,64,32,16,32,8,32
gonzalez,CELL_H,185,0.10809612701339114,0.08488954424100396,0.11471099131816645,0.11141577011293943,0.12854715897310057,0.1065930047401292,0.09477237489074314,0.08617130165042429,0.10594074250307454,0.10377572999616103,0.10449127454391335,0.012511627656565012,64,32,16,32,64,32,32,32,64,32,64,32,32,32,64,32,8,32,32,32
gonzalez,CELL_H,190,0.11761011042806682,0.07968664114632036,0.14103444787166727,0.11483539652661266,0.10625654473024085,0.08615140149388807,0.07209696185926275,0.10608582348754624,0.09838499970669144,0.09587202379315532,0.10180143510434518,0.019132184888693372,64,32,8,32,16,32,8,32,8,32,8,32,64,32,8,16,8,32,8,32
gonzalez,CELL_H,195,0.10360711805332216,0.12982979676223685,0.1018874362875157,0.11504838706460499,0.11788558103718522,0.09122280818103069,0.09947372870022814,0.10081676690504911,0.11033307958033169,0.08618526859518377,0.10562899711666882,0.012294246099055575,16,32,8,16,16,32,8,32,8,32,32,32,64,32,32,32,32,32,8,32
gonzalez,CELL_H,200,0.11921339972765277,0.12031731897332135,0.1093516028125228,0.11152875105638725,0.11102718624903728,0.11592534391141146,0.10487480992519418,0.0787237299041832,0.08755763442700741,0.10421972808088244,0.10627395050676,0.012778754353308575,32,32,32,32,8,32,64,16,32,32,32,32,64,32,16,32,8,32,32,32
gonzalez,CELL_D,0,0.07163694358758159,0.09145140534665042,0.061142749334009865,0.05964407833697429,0.050344385973883965,0.03476790344768738,0.04705111026515948,0.05337790053881355,0.04884167761454213,0.04280570676984572,0.05610638612151484,0.01528400151691609,4,16,4,16,4,2,4,4,4,2,4,32,4,4,4,16,4,8,4,8
gonzalez,CELL_D,5,0.05601316521055502,0.031273219601457014,0.07388332240505538,0.07618396740915062,0.055050109043197945,0.05469542479556392,0.0639197847540733,0.06775263341341725,0.06475024182566813,0.05633116573327497,0.05998530341914136,0.012082719744066672,4,8,4,2,4,2,4,32,4,2,4,32,4,16,4,8,4,8,4,2
gonzalez,CELL_D,10,0.04701519295163368,0.05332092394861714,0.06766559463891257,0.06595751304481347,0.05614930097898822,0.04910182320646368,0.05500456921754547,0.04164980533962424,0.0530349416325917,0.06938380929263557,0.05582834742518258,0.008748095506065472,4,16,4,8,4,2,4,16,4,4,4,4,4,16,4,16,4,2,4,8
gonzalez,CELL_D,15,0.047687778834385894,0.06399995033880805,0.07288678716057284,0.09208934798742163,0.06931030030721222,0.03167974126238214,0.06270772725050838,0.05223493916419881,0.044947073637348324,0.04131256109348532,0.05788562070363236,0.01688442359283153,4,4,4,4,4,2,4,4,4,8,4,8,4,32,4,8,4,32,4,16
gonzalez,CELL_D,20,0.070357950286447,0.03272295370574456,0.0659565643418496,0.06397487498780388,0.07340001796171398,0.0337293598741805,0.045001222695618064,0.07550459026112254,0.04925927825253425,0.04077205733610941,0.05506788697031238,0.015746386333871154,4,8,4,32,4,2,4,8,4,32,4,4,4,2,4,4,4,32,4,16
gonzalez,CELL_D,25,0.043309693600233734,0.024752263290638756,0.051008798415764785,0.06065135518020176,0.0632260790503539,0.07578394524716917,0.0636131161860069,0.04406925764298018,0.04873588200058026,0.05233319922966178,0.052748358984359124,0.013373167645451161,4,32,4,4,4,8,4,4,4,8,4,8,4,8,4,32,4,32,4,8
gonzalez,CELL_D,30,0.05439717236208905,0.05122537072276791,0.055196871839971434,0.04331076948523216,0.05164359277659509,0.05436779359234117,0.06515251666746562,0.07027674826700345,0.02783515939679836,0.048214111926782016,0.05216201070370462,0.010967410323585114,4,32,4,32,4,32,4,32,4,2,4,2,4,8,4,32,4,32,4,32
gonzalez,CELL_D,35,0.024961024575997214,0.04067772831391182,0.062298596166019814,0.05281523541279635,0.03310693334605384,0.057427634431446266,0.04445321330158532,0.07470177391833413,0.060125697477191986,0.06001319454272288,0.05105810314860596,0.01430427901359786,4,8,4,32,4,32,4,32,8,32,4,32,4,32,8,32,4,32,8,8
gonzalez,CELL_D,40,0.061667956905563474,0.0447145897241827,0.06254086016491867,0.06184042765148022,0.029975892048769506,0.060110896848313264,0.06998731280266546,0.049690066478144196,0.043800276395310256,0.04490445523709951,0.05292327342564472,0.011589975931612515,4,32,4,32,4,8,4,32,4,4,4,32,4,32,8,32,4,32,8,32
gonzalez,CELL_D,45,0.04104272813829575,0.04149006564060395,0.056168827754733204,0.03526434390874902,0.08916865137797846,0.059589132697927094,0.04592319717466293,0.06013584531054258,0.05262680671781427,0.066284489025613,0.05476940877469202,0.014825478717983648,4,32,8,32,4,16,4,32,8,32,8,32,4,32,4,32,4,32,4,4
gonzalez,CELL_D,50,0.06564924974019168,0.05249948801981728,0.05737340737484531,0.041424063692747315,0.049520222236597425,0.035693370103868374,0.06660477974521686,0.03406763277627424,0.05409808710023719,0.07109074131650131,0.0528021042106297,0.01223366243676829,8,32,4,32,4,32,4,32,4,32,4,32,4,16,4,32,4,32,8,32
gonzalez,CELL_D,55,0.05436173585645637,0.04553778913899624,0.08472235377109769,0.03780408721303923,0.04959921032613618,0.038864117069764594,0.033729872429679154,0.042024126790860816,0.06566730151743196,0.07586297301547437,0.05281735671289366,0.016373151965103562,4,32,4,32,4,32,4,16,4,4,8,32,4,4,4,32,4,32,8,32
gonzalez,CELL_D,60,0.05678308854480945,0.06705755174856927,0.059333530964234306,0.03361162910223864,0.059282845270609785,0.040276172465364676,0.06948026796038934,0.043478695992206044,0.05624352051381159,0.03595362376184833,0.05215009263240814,0.012187901367206544,4,8,4,32,4,4,4,32,4,32,4,32,4,32,4,32,4,2,4,32
gonzalez,CELL_D,65,0.047012180239253985,0.03560815046269434,0.027906539624833797,0.055738299376703375,0.07713448479963098,0.04325022573481989,0.05405023110961236,0.041078562926808365,0.0871317305529033,0.053537855817865486,0.052244826064512584,0.017192518714893436,4,4,4,32,4,8,4,2,8,32,4,32,4,16,4,2,4,32,8,32
gonzalez,CELL_D,70,0.049850656544436205,0.06956383748114862,0.06615265836143978,0.05551976469176226,0.05340804370225423,0.04199216513395017,0.059824339040214856,0.047333800929661586,0.03242358573058765,0.06613143933237733,0.054220029094783274,0.011156056063522145,4,32,8,32,4,32,8,32,4,32,4,32,4,16,4,32,4,32,4,32
gonzalez,CELL_D,75,0.02939472174548562,0.04911609944543124,0.03815208051314725,0.06157641170576558,0.052186242507809524,0.060595095342175914,0.04628694890166875,0.05979712990004417,0.07020809751038337,0.06549429848398983,0.05328071260559012,0.012113468616089794,4,32,4,32,4,32,4,32,4,32,4,32,8,32,4,16,4,32,4,2
gonzalez,CELL_D,80,0.037669070268092936,0.03711951949322891,0.04514729891240778,0.059277718673991724,0.06308450097832492,0.0755898933070881,0.07177528814312407,0.0699779356658546,0.045619201103608405,0.02421062114259232,0.052947104768831375,0.01650557622720177,4,4,4,32,4,32,4,32,4,16,4,32,4,32,4,32,4,32,4,16
gonzalez,CELL_D,85,0.06030629507150841,0.05959433816863206,0.06668724432110301,0.030898511630156663,0.04378553590812277,0.05307682025879986,0.056837965054767396,0.06215741930876358,0.05737908181391321,0.05736332964802019,0.05480865411837872,0.009806563867042603,4,32,4,32,4,8,4,32,8,32,4,32,4,2,4,32,4,16,4,16
gonzalez,CELL_D,90,0.05303143070316069,0.05788906304138169,0.051007501161332895,0.06979624272038319,0.05443075554851112,0.060961244260730976,0.03406739323134912,0.0476682620434846,0.05873693657047266,0.06968207252426024,0.05572709018050672,0.009995604149624443,4,32,4,4,8,32,4,32,4,32,4,32,4,32,4,32,4,32,4,32
gonzalez,CELL_D,95,0.0466126257421114,0.056663771887216434,0.054961549683394735,0.05585040248919597,0.03408161552581393,0.0608596454021911,0.05298309610356252,0.07633224029655152,0.048368183920863186,0.06177702559631155,0.05484901566472124,0.010462163136976954,4,32,8,32,4,32,4,32,4,32,4,2,4,32,4,16,4,32,4,8
gonzalez,CELL_D,100,0.04205265588150063,0.05612604068385582,0.06523274733176883,0.04215106920976801,0.0581773158253742,0.07545878889746632,0.03067201886542616,0.050661517833721345,0.06591419642617524,0.052749843825148954,0.05391961947802054,0.012611688887959164,4,32,4,32,4,32,4,32,4,8,4,32,4,16,4,32,4,32,8,32
gonzalez,CELL_D,105,0.04525144042373194,0.03166353571701493,0.06078223191820408,0.07195822035710615,0.04989142440262131,0.03654112304993941,0.03517519468395547,0.07394722324758529,0.0492981424322097,0.07650094162034449,0.05310094778527128,0.015931810811473494,4,32,4,32,4,32,8,32,4,32,4,32,4,32,4,16,4,32,4,32
gonzalez,CELL_D,110,0.05586903979284442,0.048102955945061664,0.060703288414304286,0.03535608718496157,0.06717840560876738,0.03022105703843049,0.07064514528672852,0.06058267494640847,0.061538203470275485,0.05363988782858391,0.05438367455163662,0.01243294455669252,4,32,4,32,4,32,4,8,4,4,4,32,4,32,4,32,8,32,4,32
gonzalez,CELL_D,115,0.05368214737712191,0.030231197813470806,0.037079049279419976,0.07569661965849561,0.058548945518704834,0.047828356953384554,0.0664176203699776,0.06784470469332425,0.051754524836185395,0.044323690893637094,0.05334068573937221,0.013494814767834637,4,32,4,16,8,32,8,16,4,32,4,32,4,2,4,32,4,32,4,2
gonzalez,CELL_D,120,0.030708975290506514,0.04945298276076137,0.047103396805474186,0.06210040093343076,0.05292096524702149,0.0544600292211265,0.031512894505470686,0.07214107727298638,0.07617559220381817,0.05671099401907199,0.05332873082596681,0.014167115884496857,4,4,4,32,4,2,4,2,4,32,8,32,4,2,4,32,8,32,4,32
gonzalez,CELL_D,125,0.06339412630015875,0.04792469788951328,0.04646623146976624,0.04739922846330684,0.05010044241162079,0.061287679973321844,0.04525345287709894,0.07169785812885214,0.05205891118196293,0.041025209686030094,0.05266078383816318,0.009152583601007276,4,32,4,32,4,32,4,32,4,32,4,32,4,32,8,32,4,32,4,32
gonzalez,CELL_D,130,0.040084384142711545,0.05996406978891704,0.039128941016712125,0.04831892031003264,0.05623676383949371,0.06439402913089684,0.06073268281148318,0.048511887314211403,0.06922773057865263,0.05400715528553568,0.05406065642186468,0.009502483598309654,8,32,4,4,4,32,4,32,4,32,4,32,64,32,4,32,4,32,8,32
gonzalez,CELL_D,135,0.03389857029617963,0.06718116851701786,0.04294892834580129,0.06553585261185282,0.061189274996445275,0.04653908032754122,0.06710980975665432,0.04926998195872124,0.06211689015610915,0.04065573326743873,0.05364452902337615,0.011735815710652716,4,32,4,32,4,32,8,32,4,32,4,32,4,32,4,32,4,32,4,32
gonzalez,CELL_D,140,0.07011983686657709,0.07555819405583884,0.06910369114335714,0.050219559034601874,0.05993623075137913,0.04209026071070128,0.030600029214650715,0.03934720761072149,0.05050678246888921,0.05220359074728462,0.05396853826040014,0.013862833516797879,4,32,8,32,4,32,4,32,4,4,4,32,4,16,4,32,4,16,8,32
gonzalez,CELL_D,145,0.035975116372002666,0.0520029069597789,0.06517972771653804,0.06056603446472502,0.05118674322244549,0.05316466436784723,0.0556262136196146,0.06695095619347512,0.031248391476931536,0.05243768101893206,0.05243384354122906,0.010823659444249118,4,32,8,32,4,32,4,32,4,16,4,32,4,32,4,32,4,32,4,32
gonzalez,CELL_D,150,0.06588934110717734,0.03998396626753027,0.05899945603761567,0.043428309643449924,0.04135983917931431,0.06090426771673831,0.05711041289965311,0.041921559221099934,0.06045269464207536,0.061528888518743254,0.05315787352333975,0.009637408728475195,4,32,4,32,4,32,8,32,4,32,4,32,4,32,4,32,4,32,4,32
gonzalez,CELL_D,155,0.040853977360321564,0.046885504364763304,0.06297163857480617,0.07157319651935702,0.05081653946378186,0.06298042770767848,0.04151552111458117,0.035303669925458185,0.06791403890712894,0.05157844544773146,0.05323929593856082,0.01184321183874807,8,32,4,4,4,32,4,32,4,32,4,4,4,4,8,32,4,32,4,16
gonzalez,CELL_D,160,0.05969069741066092,0.05221669147973046,0.05105362952768069,0.06490460041806048,0.0531932388737572,0.050430504897381025,0.04996109364995212,0.042048183361460795,0.065328874960811,0.07577011202691122,0.05645976266064059,0.009367408082704544,8,32,4,2,4,32,4,32,4,32,4,8,4,32,4,32,4,32,4,32
gonzalez,CELL_D,165,0.04135641945230902,0.05771532373276483,0.05041355228634072,0.06681250657400922,0.03979184502192283,0.06529636998213778,0.05389023914319722,0.04866704881183505,0.05563788412321098,0.054505068750097335,0.05340862578778251,0.008414625803605934,4,16,4,32,4,32,8,32,4,32,4,32,4,32,4,32,4,8,4,32
gonzalez,CELL_D,170,0.03604150006833778,0.059887739542964356,0.048681627758361254,0.04151005186437383,0.034173927687695255,0.05467295513484093,0.04940457754019283,0.0703491195068365,0.05616665448021228,0.07042917387184455,0.05213173274556596,0.012095877946803817,4,32,4,32,4,32,4,32,4,32,4,32,4,4,8,32,4,32,4,16
gonzalez,CELL_D,175,0.055556471015889786,0.05237765127671833,0.05192748180815717,0.05468277878310353,0.039931547041676944,0.05440126031512337,0.04362761317874641,0.03160229878076467,0.06818112969331297,0.08681184360966555,0.05391000755031587,0.014473363384908218,8,32,8,16,4,32,8,32,4,32,4,32,4,32,4,32,4,2,4,32
gonzalez,CELL_D,180,0.05647418306038611,0.07028534964314616,0.04284427895648426,0.06351852264354456,0.07296476329678922,0.050002591427393425,0.041632140725256124,0.047219956715747136,0.06062469467759044,0.05459592597152712,0.056016240711786444,0.010317705527704401,8,32,4,4,4,8,8,32,4,32,4,32,4,32,4,32,4,32,4,32
gonzalez,CELL_D,185,0.06395064249170455,0.0551213098340146,0.05190695179619608,0.06035690693236376,0.03025259480820532,0.058107822450472225,0.07499942948437824,0.050443293639745576,0.06766949865274766,0.02864273357044004,0.0541451183660268,0.014174409887179289,4,4,4,2,4,32,8,32,4,16,4,32,4,2,8,32,4,32,4,32
gonzalez,CELL_D,190,0.03989734782734792,0.05435497154337854,0.05647550686447811,0.06318176205422475,0.04150140016285506,0.05737653624436087,0.028652034449741706,0.05649727265907463,0.06085645692990165,0.05839644737090941,0.05171897361062726,0.010583592736646316,4,32,4,32,4,32,8,32,8,32,4,32,4,32,4,32,4,32,4,32
gonzalez,CELL_D,195,0.0662832928093427,0.05255723458029273,0.049343209114773405,0.0554142659816682,0.047853201569859394,0.05879857812279359,0.051696578236584745,0.052530762782836894,0.065106439394015,0.03504372035570216,0.05346272829478689,0.00851309298543904,4,32,4,32,4,32,4,2,4,32,4,32,4,32,4,32,8,32,4,2
gonzalez,CELL_D,200,0.03637244836408975,0.049688317899533894,0.039582492674522275,0.05912509939452134,0.05936227864463543,0.054501156210310556,0.05214754761653566,0.06003768629853619,0.06945763972115772,0.058057344940782823,0.053833201176462564,0.009420537252305428,4,32,4,32,8,32,4,8,4,32,8,32,4,32,4,32,4,32,4,32
gonzalez,CELL_A1,0,0.15162629987206813,0.13962298599335357,0.141542285389699,0.13837776667352641,0.14335318969391897,0.1695476945135586,0.1416867671532161,0.14167230120435872,0.14760249036814707,0.12838681929716952,0.1443418600159016,0.010170651514332923,4,32,4,8,4,4,4,16,4,32,4,32,4,32,4,8,4,16,4,4
gonzalez,CELL_A1,5,0.12675022126242871,0.14639426523316793,0.12413597353832435,0.1422632821131969,0.11674822975124194,0.12894849039414988,0.14086446965689223,0.13978561310434104,0.16154511169290778,0.12330449166328071,0.13507401484099316,0.012794864354025333,4,32,4,8,4,2,4,4,4,8,4,2,4,16,4,32,4,2,4,16
gonzalez,CELL_A1,10,0.13681147715602338,0.12337278418827573,0.13630931030407858,0.12965633100186608,0.14785063784182856,0.14748243313228068,0.119558796397349,0.139739966041492,0.12867901665088258,0.14623449804058788,0.13556952507546643,0.009557802854620124,4,32,4,32,4,32,4,32,4,16,4,4,8,32,4,2,4,16,4,16
gonzalez,CELL_A1,15,0.0863468481905322,0.15338842621175253,0.15361196778933917,0.14112766807774896,0.14693909208760847,0.1214823747903385,0.14421478743329097,0.15135170013858484,0.14222169961345865,0.1119793116619039,0.1352663875994558,0.020852268437717265,4,16,4,32,4,32,4,16,4,32,4,32,4,32,4,32,4,32,4,32
gonzalez,CELL_A1,20,0.12154259234580322,0.12517665560892782,0.14069336253030748,0.12735609697605133,0.12375241859210251,0.1285614210490797,0.11620816687538321,0.16160801757402218,0.14576798689426404,0.10346219939518787,0.12941289178411292,0.015478860263465526,4,8,4,32,4,32,4,8,4,32,4,32,4,32,64,32,4,16,4,32
gonzalez,CELL_A1,25,0.10150412182480274,0.11859990076367168,0.14305461901491753,0.1347555475522424,0.13027354340703703,0.09606406384101815,0.1544778199445436,0.11955757830622997,0.13547899241269137,0.1451753676675462,0.12789415547347008,0.017919016169350703,4,32,4,16,4,4,8,32,4,32,16,32,4,32,4,32,4,8,4,16
gonzalez,CELL_A1,30,0.12053740588832508,0.15347805701617692,0.13962046712704795,0.099042385353569,0.10276229279175383,0.12354126620612679,0.09417959460563002,0.15665115779836036,0.12430862843818694,0.13448143763243303,0.124860269285761,0.02063246811961223,4,32,32,32,8,32,8,32,4,16,8,32,4,16,4,16,8,16,8,32
gonzalez,CELL_A1,35,0.13832424374335303,0.12103794966360334,0.11188473586439086,0.10394524275021194,0.1492250905261452,0.14124572418965695,0.11894099984482069,0.09793150086416112,0.12162788514447781,0.12787030481298275,0.12320336774038036,0.015543715443045253,4,4,4,8,4,2,4,8,4,16,4,4,4,2,4,32,4,2,4,8
gonzalez,CELL_A1,40,0.11553093047541929,0.1188622642916174,0.0899920636024787,0.12979813698680004,0.1287452982872641,0.12285541651944537,0.12902785518528764,0.11879225853948852,0.11914395609362292,0.10696966918901332,0.11797178491704374,0.011466154466551713,4,8,4,4,4,8,4,4,4,4,4,2,4,8,4,16,4,4,4,4
gonzalez,CELL_A1,45,0.11610881249519796,0.13422313733105226,0.1563669756886844,0.1181109582047879,0.14248624642579838,0.12959498766553967,0.11096185150608047,0.11644017306667288,0.12093853079125924,0.11291047018423421,0.12581421433593074,0.013959625093859934,4,32,4,16,4,4,4,8,4,8,4,4,4,4,4,4,4,8,4,16
gonzalez,CELL_A1,50,0.09111550287986454,0.12198856931301402,0.1321163417031479,0.11865594276784446,0.15256342511260063,0.10767138734259248,0.11750389783214713,0.09052703400247125,0.14852318848212592,0.12415452806046076,0.12048198174962692,0.019755120157247872,4,8,4,8,4,16,4,16,4,2,4,8,4,8,8,32,4,4,4,32
gonzalez,CELL_A1,55,0.11992692257776473,0.11959831367863545,0.15147798753011563,0.09973242530776198,0.12556623384871604,0.11242686766483537,0.10657507334458498,0.1513305616823778,0.1313860851324322,0.10234630286762181,0.12203667736348459,0.01746936870347197,4,4,4,8,4,4,4,4,4,32,4,2,4,2,8,32,4,16,8,32
gonzalez,CELL_A1,60,0.1276894043708696,0.10091518784488551,0.11594957904761274,0.12832974264445565,0.12568968781253365,0.08068213071709938,0.14722898404130272,0.11708105073428442,0.14188377137051347,0.1187599857844021,0.12042095243679593,0.018209936356805845,8,32,4,32,4,4,4,2,4,8,8,32,4,2,4,4,4,8,4,4
gonzalez,CELL_A1,65,0.12909809637140096,0.13365633381518438,0.09724995569195045,0.13414766369660092,0.1326243562434883,0.11299530628939308,0.1325356715375885,0.11262389241039565,0.1320294813728464,0.11838428834978555,0.12353450457786344,0.011955641194373269,4,16,4,4,4,16,4,4,4,16,4,4,4,16,4,2,4,4,4,2
gonzalez,CELL_A1,70,0.13248407772181256,0.10342836107932561,0.11989566120112517,0.13771050360043682,0.142650616846902,0.11530834334477076,0.11590344296950388,0.11726304144915504,0.12825821533395496,0.11991519289348644,0.12328174564404733,0.011242712363132925,4,8,4,2,4,8,4,2,4,32,4,4,4,8,4,4,4,4,4,16
gonzalez,CELL_A1,75,0.10527269545590442,0.13540814197476794,0.09653788434034266,0.12233533691372732,0.1015186625839024,0.1286438323090334,0.13475307237080275,0.12486869642411273,0.12660399751991638,0.1415106677260732,0.12174529876185831,0.014641458118926195,4,4,4,2,4,4,4,2,8,32,4,8,4,16,4,8,4,2,4,4
gonzalez,CELL_A1,80,0.11711915453229012,0.11478058493799037,0.1490496392655649,0.1350143733527212,0.13331298865102184,0.11447713222114593,0.10554545220538718,0.10159908978504362,0.14143886765435673,0.13379594491902772,0.12461332275245496,0.015156666424943082,4,2,4,8,4,8,4,8,4,16,4,8,4,16,4,2,4,2,8,16
gonzalez,CELL_A1,85,0.1397976167793551,0.11709455035050749,0.12020011428322107,0.11324863728292134,0.1005654198896744,0.10719149172989613,0.126291085519268,0.13385151639210846,0.11512090711895956,0.14561631532843505,0.12189776546743467,0.013649898476791628,4,32,4,4,4,2,4,2,4,4,4,4,4,4,4,8,4,8,8,16
gonzalez,CELL_A1,90,0.13057590413455306,0.12965044143515267,0.11094990693263705,0.152742556272403,0.11549228799419232,0.13148461304731948,0.08558614448234027,0.138428614892207,0.1018085195163886,0.15014522700980648,0.1246864215717,0.02013738376484642,4,8,4,4,4,2,4,16,4,8,4,4,4,2,4,4,4,2,8,32
gonzalez,CELL_A1,95,0.10445662118877964,0.12866481351305192,0.12277546635897561,0.14736796900496613,0.10166218811345161,0.11683982465828086,0.11107415314126991,0.11917433005831911,0.12191460901235476,0.10854022538654139,0.1182470200435991,0.012665945916561552,4,4,4,16,4,16,4,16,4,2,4,16,4,2,4,2,4,4,4,4
gonzalez,CELL_A1,100,0.11401061475531232,0.11682867539921236,0.09171846563916368,0.08877903304992474,0.11719392642098567,0.11428517432900795,0.14369217729361144,0.1125869465372892,0.14202531485213618,0.14420141602157957,0.11853217442982233,0.018779264679715028,4,8,4,4,4,8,4,8,4,4,4,8,4,8,4,4,4,16,4,4
gonzalez,CELL_A1,105,0.10644656507782183,0.106671832886574,0.12477416998995981,0.11599684883067353,0.12122171907485159,0.13333891027090736,0.14071330743733548,0.09948397775181371,0.13308458940685813,0.10353567857469537,0.11852675993014908,0.013601826901828791,4,4,4,2,4,2,4,16,4,8,4,16,4,4,4,4,4,8,4,8
gonzalez,CELL_A1,110,0.10978896029709682,0.12470932003242328,0.09819818110837343,0.13848669540532368,0.12947319263254514,0.11841732024725811,0.11989574497508403,0.1305409736666888,0.1311600298144108,0.12143597372546666,0.12221063919046708,0.011066293505388883,4,8,4,8,4,4,4,2,4,2,4,8,4,16,8,4,4,2,4,16
gonzalez,CELL_A1,115,0.10801880774954653,0.12243486903417637,0.12600178280762261,0.10673601205675556,0.10549769570781871,0.13850550091917235,0.13891203619924242,0.12758267160509104,0.11590709102181762,0.11648930759956053,0.12060857747008039,0.011639321043653013,4,8,4,16,4,4,4,2,4,2,8,32,4,16,4,4,4,16,8,16
gonzalez,CELL_A1,120,0.1124686371398125,0.15097398811232474,0.1228926043347233,0.14126612756691256,0.1286505570200829,0.13258993195607108,0.09914822393220803,0.10939976465916904,0.11069997072950204,0.10773522621145883,0.1215825031662265,0.015713360058648467,4,8,4,16,4,4,4,4,4,4,4,16,4,4,4,8,4,2,4,16
gonzalez,CELL_A1,125,0.15143789700685764,0.13177717329386476,0.12922135482823974,0.12619184438335723,0.1126195441843228,0.09973539507207138,0.07806585659269277,0.13478086554532592,0.11605783498642745,0.11226839003981508,0.11921561559329749,0.019394981515446753,4,8,4,16,8,32,4,4,4,2,4,2,8,32,4,8,4,4,8,16
gonzalez,CELL_A1,130,0.12216401979754586,0.11372634602417914,0.12822862227882678,0.1325052159625846,0.11608885107583472,0.13400525750988435,0.11862529389155294,0.11135862400178002,0.11949097134388614,0.12072422662570693,0.12169174285117815,0.007268449368719423,4,4,4,16,8,32,4,4,4,4,4,4,4,4,4,16,4,16,4,4
gonzalez,CELL_A1,135,0.1048320504338434,0.12437155220809888,0.10840263216436952,0.13019224984598535,0.09302770610829453,0.1292633347232288,0.11794657571701443,0.1367114037522475,0.1391047591500967,0.12011758518380894,0.12039698492869881,0.013956322270360911,4,2,4,2,64,32,4,2,4,8,4,2,8,32,16,32,4,16,4,16
gonzalez,CELL_A1,140,0.09431980990446613,0.13883541918655345,0.14013307590552881,0.10919803102110784,0.10470658614163401,0.13738360120560433,0.13130613050995085,0.163304155018967,0.11065938821024195,0.09746468062405086,0.12273108777281053,0.02143810679515156,4,16,4,16,8,32,4,2,4,16,4,16,4,16,8,32,4,16,4,8
gonzalez,CELL_A1,145,0.1268813124664528,0.1116376468652422,0.1182681241804072,0.1397549391654748,0.1401190424657575,0.15456143100876868,0.11028686761142147,0.0999363604127201,0.10355051597911429,0.15841649696424276,0.1263412737119602,0.01987711403738902,8,32,4,4,4,16,4,16,4,16,8,16,4,8,4,16,4,16,4,8
gonzalez,CELL_A1,150,0.13236154164504185,0.1123873966347766,0.11561973820968088,0.12116181524881488,0.11424581504385019,0.14344253525462428,0.14187372254176808,0.09868084663356518,0.09929593616773633,0.13734766213381883,0.1216417009513677,0.015651111501022833,4,8,4,2,4,4,4,4,4,4,8,32,4,16,8,32,4,8,4,8
gonzalez,CELL_A1,155,0.11791368446763571,0.1182649612574454,0.12372062149190131,0.11336349930866894,0.11834196213857191,0.12229399331163388,0.13925607681266172,0.12743650725129294,0.10274140507390143,0.12493915809856664,0.12082718692122799,0.009026465899495115,4,16,4,16,4,4,4,4,4,16,4,16,4,16,4,16,4,4,4,16
gonzalez,CELL_A1,160,0.12553513156770058,0.09710613853055945,0.12829681194632744,0.11554960923947485,0.13006771890222357,0.11941844512618094,0.12887985125715784,0.10162326133561585,0.13422145721015497,0.12147896895640754,0.12021773940718031,0.011686000953968148,4,8,4,4,4,8,4,16,4,16,4,2,4,4,8,16,4,4,4,16
gonzalez,CELL_A1,165,0.14203162821167425,0.09338218358183283,0.11398991524872025,0.11678586705135321,0.10961512951972739,0.12459069615670028,0.11976551252394281,0.14402305270868368,0.12382492607582092,0.12551949457663336,0.12135284056550891,0.014047162481027088,4,8,4,2,4,2,16,32,4,32,4,2,4,2,4,8,4,2,4,8
gonzalez,CELL_A1,170,0.12416633450148908,0.12249061236075093,0.13846259459649263,0.10245584211701456,0.1071369119951224,0.12987143434136367,0.14569539526500674,0.10792677118917983,0.08817306121125629,0.12437119696754725,0.11907501545452233,0.016627243428739533,4,32,4,16,4,2,4,4,4,32,4,2,4,8,4,4,4,2,4,8
gonzalez,CELL_A1,175,0.1204097855099881,0.1334262476778262,0.12305562497675981,0.11798958428651239,0.11895503700410055,0.1325269092827707,0.11724127436261365,0.12122871402357024,0.11698186640520415,0.10715362113073962,0.12089686646600854,0.007259760748233589,4,16,4,8,4,16,4,8,4,4,4,16,4,4,4,8,4,8,4,4
gonzalez,CELL_A1,180,0.13682685899930044,0.15977060030091808,0.16185310044963366,0.12093608434836685,0.10962453133907774,0.11951910005512031,0.10271403438923077,0.11266968218753186,0.10833066111200117,0.10713884381874927,0.12393834969999303,0.020553098815162863,4,8,4,16,16,32,4,32,4,4,4,2,8,16,4,8,4,2,4,4
gonzalez,CELL_A1,185,0.12828125798530915,0.11354786012939826,0.13695120379797973,0.1362705234716136,0.1116374122003018,0.11611512724838013,0.1250055638093655,0.10598958519242917,0.1221892001073151,0.11818961682285152,0.1214177350764944,0.009780723117390358,4,8,4,2,4,16,4,4,8,8,4,2,4,16,4,8,4,8,4,16
gonzalez,CELL_A1,190,0.12300806755837428,0.14557976020653077,0.1109457215967525,0.1163539351362741,0.13216392184085435,0.12233666363951995,0.12288171968844983,0.10611990213443331,0.11130953440368549,0.11255241614367023,0.12032516423485447,0.01114882121782411,4,2,4,16,16,32,4,8,4,4,8,32,4,4,4,16,4,2,4,8
gonzalez,CELL_A1,195,0.111875163390474,0.13633480252699304,0.146365612706828,0.11130708849957426,0.11234489667246722,0.11176693907540565,0.11758857821195501,0.1291071764210979,0.11281000009634522,0.10462171682265828,0.11941219744237982,0.012662634313071672,4,8,4,2,4,2,4,16,4,2,4,2,8,32,8,32,4,8,4,4
gonzalez,CELL_A1,200,0.10080799116448691,0.1324563499970659,0.11305079486246532,0.1115313281229236,0.11396722932581999,0.12058615461778652,0.12957361533496967,0.1265276830047604,0.1328365213234681,0.13585709270684393,0.12171947604605901,0.01095976304079759,4,4,4,8,4,8,4,2,4,2,4,2,4,8,4,4,4,16,4,16
gonzalez,CELL_A2,0,0.05776580257481313,0.05598836790691707,0.05151283118139501,0.06669486413481862,0.04403687373183898,0.04610731219106498,0.03804836453263578,0.03253163649557849,0.05438907145748028,0.07192691856345755,0.051900204277,0.011575053073840857,4,16,4,16,4,8,4,16,4,16,4,32,4,16,4,16,4,32,4,16
gonzalez,CELL_A2,5,0.05678891895548261,0.045187675870827025,0.04659753358366216,0.061775629973231744,0.05920980540626806,0.06069947998540243,0.029576035000439687,0.03223485940550158,0.056692377208761496,0.06589310464877624,0.05146554200383531,0.01194750447476489,4,8,4,16,4,16,4,16,4,16,4,16,8,16,4,32,8,32,4,16
gonzalez,CELL_A2,10,0.05998973838439645,0.057696845277076525,0.046552044658707464,0.045310412079607884,0.033293184920808384,0.04312629649121822,0.036374069424286185,0.0546641933848297,0.07015800597246769,0.057529199730410395,0.05046939903238089,0.010897402369185204,4,16,4,4,4,8,4,2,4,16,4,32,4,16,4,16,4,32,4,2
gonzalez,CELL_A2,15,0.05929605527544584,0.04966251935490164,0.05084714681372072,0.03522780449332012,0.05832536046791925,0.04469277032699749,0.04303219853438973,0.059604152047218875,0.04503399413038921,0.07037189121575381,0.05160938926600567,0.009785234233899332,4,16,4,32,4,32,4,16,4,16,4,16,4,32,4,16,4,8,4,2
gonzalez,CELL_A2,20,0.03783968776488037,0.05714060492846028,0.061416181975929164,0.03966058546208252,0.07075919196736477,0.04501960658953676,0.050401495209147974,0.05958171612654532,0.04099439697168007,0.0512451248277064,0.05140585918233337,0.010230834812578499,4,16,4,16,4,8,4,16,4,16,4,16,4,32,4,32,4,16,4,16
gonzalez,CELL_A2,25,0.07803710817166773,0.04905823070580724,0.07218109278388718,0.03590402700193345,0.06579786359120642,0.024748348033563145,0.0490888389655975,0.04744048268663647,0.05764918223098604,0.03657942447103954,0.05164845986423248,0.01607392639451502,4,32,4,4,4,2,4,32,4,16,4,32,4,4,4,8,4,16,4,4
gonzalez,CELL_A2,30,0.04648480929563082,0.03789631709714813,0.04746344730536732,0.06415551495950754,0.045100822280039504,0.03839146444992806,0.07264373431419455,0.05088464833456999,0.06419635976534491,0.052055848214289456,0.05192729660160202,0.010984389722332899,4,32,4,32,4,16,8,32,4,4,4,16,4,2,4,4,4,2,4,32
gonzalez,CELL_A2,35,0.055059684353510586,0.04837680751783781,0.05714931981231122,0.05092994066845168,0.05730608346212963,0.04190373847827547,0.05255515076814221,0.036962419998205036,0.0529483922801179,0.046796703887716465,0.0499988241226698,0.006281738820942107,4,8,4,32,4,4,4,32,4,8,4,2,4,4,4,4,4,32,4,32
gonzalez,CELL_A2,40,0.06591008608495388,0.048382675181787786,0.07219732110576903,0.025246617954901223,0.04497621787546325,0.0401350217983959,0.05144729886969606,0.0520611252548634,0.06083666783710905,0.04194086008902251,0.050313389205196214,0.012928641215557393,4,2,4,16,4,2,4,4,4,16,4,32,4,4,4,4,4,16,4,32
gonzalez,CELL_A2,45,0.03996664883728085,0.04760771068705156,0.03127711170307655,0.03310513642054468,0.046801933915878946,0.06439991759565399,0.04442623320363322,0.06708775438893355,0.049600741447436744,0.06056870482050671,0.04848418930199968,0.01171280382021601,4,32,4,32,4,16,8,32,4,16,4,16,4,32,8,32,4,32,4,32
gonzalez,CELL_A2,50,0.03846976115556856,0.06673450794880577,0.06401382650001256,0.04770209638796127,0.03987667100181171,0.05841778762967647,0.039475562970962524,0.05742692887959247,0.05268607504596595,0.05078546519605908,0.051558868271641634,0.00968221615163088,4,32,4,4,8,32,4,4,64,32,4,8,4,2,4,16,4,16,4,2
gonzalez,CELL_A2,55,0.07021103427687175,0.07244428300817489,0.04084570924573713,0.05334157879561398,0.036714395596249165,0.05713787107173035,0.04230827863748655,0.05807992874065358,0.03821955498580695,0.04392797832573964,0.05132306126840641,0.012317656712542969,4,8,8,16,4,16,4,4,4,2,4,4,4,32,4,16,4,2,4,32
gonzalez,CELL_A2,60,0.07527230333270181,0.05595586952182592,0.05142653898807948,0.06497722874323474,0.04890500850216625,0.05245144600642744,0.03908013367941246,0.05805602872925535,0.026801581167024056,0.048802883190153135,0.05217290218602806,0.01258670112049927,4,4,4,4,4,16,4,32,4,16,4,32,4,16,4,2,8,4,4,2
gonzalez,CELL_A2,65,0.059065441286482695,0.045384503133319945,0.05570463269634493,0.04999667351825386,0.06000600596656257,0.05270461858131798,0.03732583343041985,0.04572312528134805,0.0652268710946527,0.0366588215238161,0.05077965265125187,0.00908930810830512,4,8,4,16,4,2,4,16,4,16,4,2,4,16,4,4,4,16,4,16
gonzalez,CELL_A2,70,0.06257353097010784,0.05633892184134282,0.04641794077464757,0.0409672789763572,0.038356488312212826,0.06134920366306714,0.06582253317883546,0.047527608791066954,0.05471738562559137,0.029575286610572717,0.050364617874380194,0.011187631802504889,8,32,4,16,4,32,4,16,4,4,4,16,4,16,4,32,4,8,4,16
gonzalez,CELL_A2,75,0.055701016083083685,0.04444411731665001,0.055123199460073574,0.058358461781859494,0.037330903484826324,0.05298772585624622,0.06295873083173531,0.05427044546568364,0.04708979316269686,0.04045984583297,0.05087242392758251,0.007790706031273707,4,16,4,16,4,16,4,32,4,32,4,8,4,8,4,16,4,8,4,4
gonzalez,CELL_A2,80,0.03961138547033527,0.04751284571496877,0.0506204712065613,0.057894557138696415,0.05960066501764195,0.03909350902485328,0.06177860018356334,0.06975406607459113,0.03940301440457144,0.04676442263809368,0.05120335368738767,0.010125144896535616,4,32,4,32,4,4,4,16,4,2,4,8,4,32,4,32,4,2,4,16
gonzalez,CELL_A2,85,0.041694401777549794,0.04961032960025902,0.06758610395089452,0.06302354490918878,0.05047000537935971,0.02740928226646085,0.06205108156263793,0.043019304817604555,0.05203893694883156,0.05408496255124911,0.051098795376403584,0.011230802972151298,4,4,4,16,4,32,8,32,4,32,4,2,4,4,4,4,4,16,4,2
gonzalez,CELL_A2,90,0.04095240975501122,0.044573160267163035,0.04074516614186422,0.038717320383055816,0.04504543624836301,0.056132458338557845,0.06884700922085543,0.056837267130527995,0.048364865850478986,0.051776039305734566,0.049199113264161216,0.008875735446157846,4,16,4,32,4,32,4,32,4,16,4,2,4,16,4,4,4,32,4,32
gonzalez,CELL_A2,95,0.03800122299815397,0.05221320338247913,0.042106726738029426,0.06293732242627534,0.059501698078890566,0.04310511378600203,0.05218120026052139,0.033945651959531926,0.04583549176798793,0.06874757051715058,0.04985752019150223,0.010712049127598692,4,2,4,32,4,32,4,16,4,8,4,2,4,16,4,4,4,16,4,32
gonzalez,CELL_A2,100,0.05169548204819411,0.051191862444488444,0.0502106211361746,0.07308658274115053,0.05341772886795902,0.054776252459096064,0.06702679971166633,0.04291729265571684,0.041067189916047145,0.04245046272671789,0.0527840274707211,0.009854859150503052,4,8,4,4,4,4,4,4,4,4,4,8,4,16,4,4,4,2,4,32
gonzalez,CELL_A2,105,0.0583997127566975,0.05261593195012412,0.049691923199679744,0.04952684653372172,0.057799082490351095,0.06062233386350718,0.05435157261884333,0.0630100710220255,0.06579669794715068,0.050875621991656225,0.05626897943737571,0.0054486347333802115,4,2,4,16,4,32,4,16,4,32,4,2,4,16,4,2,4,32,4,16
gonzalez,CELL_A2,110,0.03232516328160157,0.031346452534121216,0.07345500109821275,0.05847704231033151,0.057682104877091904,0.041214681272834244,0.07431221687510403,0.04687549576454423,0.04452004327575433,0.04523663542279268,0.050544483671238837,0.014384540064335368,4,2,4,16,4,2,4,8,4,16,4,2,4,2,4,32,4,8,4,2
gonzalez,CELL_A2,115,0.05236896139903619,0.05105930936228898,0.0613297731003868,0.07404768355807011,0.044756541288813796,0.065911591084418,0.031875280095721305,0.03193122165033069,0.04950697139430231,0.049168853833431655,0.05119561867667999,0.012789396432819407,4,32,4,4,4,2,4,32,4,32,4,32,4,2,4,8,4,2,4,2
gonzalez,CELL_A2,120,0.039144478298816274,0.04964483409966939,0.05691154080878897,0.046644029370173465,0.04779430676222286,0.06646503857498777,0.05982161809161576,0.060247120081215216,0.053856868943047045,0.041925234732028895,0.05224550697625656,0.008270942604355055,4,8,4,32,4,32,4,16,4,2,4,16,4,2,4,2,4,16,4,32
gonzalez,CELL_A2,125,0.04127499394291052,0.06310895565324474,0.04779083762255071,0.04627894943585381,0.06354414318293973,0.0680172344928358,0.04804704271148824,0.047535196344248104,0.02634404333425253,0.039878204504722924,0.04918196012250471,0.012000058561090557,4,32,4,32,4,32,4,16,4,32,4,2,4,16,4,32,4,16,4,4
gonzalez,CELL_A2,130,0.04952473943178677,0.037115031907722466,0.046204262885782034,0.05245042841349227,0.07699458847518602,0.058428732639267095,0.05647165502690774,0.050686596717724804,0.04915201363278783,0.029144368330632518,0.05061724174612895,0.012085661542345342,4,4,4,16,4,32,4,16,8,32,4,8,4,4,4,4,4,4,4,2
gonzalez,CELL_A2,135,0.028246220765951027,0.031905604165778326,0.060039259764868735,0.06500896701066794,0.04710622619642314,0.06561085986039628,0.04175343319852081,0.06471661265406105,0.043435064768735036,0.05548091258478789,0.050330316097019025,0.013173439237588978,4,16,4,32,4,32,4,32,4,16,4,32,4,32,4,8,4,2,4,2
gonzalez,CELL_A2,140,0.05680887526525223,0.06265072166353385,0.05765609202861882,0.05343657943965594,0.035596116469904474,0.04601965547542641,0.056796861345603966,0.04763173362141235,0.05797210201535536,0.04689829327607407,0.052146703060083746,0.007609467999266703,4,16,4,4,4,32,4,32,4,32,4,32,4,16,4,32,4,16,4,32
gonzalez,CELL_A2,145,0.056559594659218955,0.036958121015697766,0.06300097499400245,0.057766285995551,0.054473948966635745,0.03604096900336508,0.0517222381419652,0.04799625877026392,0.057540717026130554,0.04414439306778861,0.050620350164061925,0.008669564521361422,4,16,4,8,4,8,4,16,4,8,4,4,4,8,4,2,4,8,4,32
gonzalez,CELL_A2,150,0.059317275934185856,0.04968095975586761,0.04342309740732874,0.05352065188756583,0.04775679166666432,0.05324531376299755,0.056409798160013694,0.03814941383283536,0.04939301923864184,0.05803119873104555,0.050892752037714636,0.006297209871334833,4,2,4,32,4,16,4,8,4,16,4,4,4,16,4,2,4,16,4,32
gonzalez,CELL_A2,155,0.04546533333688585,0.06600132111135112,0.05596311937060722,0.048253334926538397,0.02713386817043255,0.052121710969343336,0.06175258976926337,0.05177506554753996,0.06324480178248637,0.05254614523588929,0.052425729022033754,0.010521012279075462,4,32,4,2,4,32,4,2,4,16,4,16,4,32,4,32,4,8,8,32
gonzalez,CELL_A2,160,0.053843998235812304,0.06301818533916514,0.030716263839290065,0.04648647754416414,0.04634937150531916,0.0490608701839743,0.04743232549837349,0.06864171461555536,0.05353593101814887,0.05321408891874668,0.05122992266985495,0.009718427854861303,4,32,4,2,4,8,4,32,4,16,4,16,4,4,4,8,4,32,4,4
gonzalez,CELL_A2,165,0.06499225553240259,0.052648755522345825,0.05503776017844051,0.03960872408848939,0.04630074260727909,0.06549933945263184,0.055251676437988326,0.038036582165561376,0.03254078095716481,0.05861087206393833,0.05085274890062421,0.010777098010498401,4,16,4,16,4,32,4,4,4,2,4,4,4,2,4,4,4,32,4,8
gonzalez,CELL_A2,170,0.04832718853799433,0.04954667474341736,0.04990519901402436,0.04836915373519458,0.046511805811186,0.0676447167702135,0.02841016480009032,0.04074502666221799,0.05862783498202898,0.05600501598575082,0.04940927810421182,0.009939626364551634,4,16,4,16,4,4,4,8,4,16,4,4,4,16,4,2,4,16,4,2
gonzalez,CELL_A2,175,0.019949047674124774,0.06988930847219392,0.05762851538297758,0.04021688693014161,0.06950762876327148,0.04643205532206841,0.048687363911763204,0.04904835258210608,0.04884594157515439,0.04419608609002276,0.049440118670382414,0.013712537793816409,4,32,4,2,4,8,4,32,4,4,4,32,4,32,4,32,4,32,4,16
gonzalez,CELL_A2,180,0.03599852584471513,0.07486071821210384,0.057418290912336384,0.03920369431111772,0.05661560820599904,0.041999374067881914,0.048788489434124775,0.06227536360318649,0.034006735340151376,0.05859292806972156,0.050975972800133815,0.012512849955300241,4,8,4,2,4,32,16,32,4,2,4,32,4,2,4,32,4,16,4,32
gonzalez,CELL_A2,185,0.05095292219226864,0.052988470800073115,0.0541615209382733,0.06318907626509268,0.04569139278543289,0.0456700191932758,0.03223940308856121,0.050356245918664666,0.03963131198545479,0.060843997837768955,0.0495724361004866,0.008816243093072924,4,2,4,16,4,4,4,32,4,2,4,32,4,16,4,8,4,2,4,4
gonzalez,CELL_A2,190,0.05412987315918004,0.0371069946012345,0.05320822198071847,0.050021665569863094,0.06506477589617407,0.0464772196192132,0.02643374409754027,0.0443566481765612,0.050295790052480104,0.05955968305614553,0.048665461620911045,0.010458570622752494,4,4,4,32,4,16,4,4,4,32,4,32,4,8,4,32,4,16,4,32
gonzalez,CELL_A2,195,0.051511375460040205,0.026946777899975297,0.03988208960865716,0.08654247082788039,0.040601554200307984,0.05989360444987815,0.06960050234807488,0.06496184792226269,0.03762099694646275,0.03938823417674438,0.05169494538402839,0.01732867929131624,8,32,4,4,4,16,32,32,4,16,4,2,4,16,4,8,4,16,4,32
gonzalez,CELL_A2,200,0.05307540924421757,0.06678970216475293,0.05430120288652354,0.05177226507969188,0.04648350128716699,0.029736387783516435,0.025315201191661675,0.06652894145930395,0.04197784876279452,0.05088133009941968,0.048686178995904925,0.0129088684582484,4,32,4,32,4,8,4,4,4,4,4,8,4,16,4,2,4,32,4,16
