Model,Class,T_bound,score1,score2,score3,score4,score5,score6,score7,score8,score9,score10,score_avg,score_stdev,max_depth1,min_samples_split1,max_depth2,min_samples_split2,max_depth3,min_samples_split3,max_depth4,min_samples_split4,max_depth5,min_samples_split5,max_depth6,min_samples_split6,max_depth7,min_samples_split7,max_depth8,min_samples_split8,max_depth9,min_samples_split9,max_depth10,min_samples_split10
moonchai,CELL_H,0,0.0003987603019762579,0.00032229024277847113,0.0004233898020378861,0.00032187892527630745,0.00038134467602850183,0.0003492635084866505,0.000384181649806247,0.0003852832921865807,0.0003290327737954671,0.0003451528111690237,0.0003640577983541394,3.347459555479023e-05,4,32,4,8,4,2,4,4,4,8,4,32,4,8,4,2,4,16,4,2
moonchai,CELL_H,5,0.0004575952647793666,0.00033070636136011956,0.00033705492356892017,0.00031699793170875297,0.00037542741830046345,0.0004009021671763262,0.000378240125941548,0.0003769132831470175,0.0003281728815513113,0.0003362101603529257,0.0003638220517886752,4.089156683059637e-05,4,16,4,4,4,32,4,32,4,8,4,4,4,16,4,4,4,8,4,32
moonchai,CELL_H,10,0.00035628309902677364,0.00035020876584469313,0.000374131657263513,0.0003078139640454686,0.00042624532992647114,0.00042688877726207203,0.00035387432213033126,0.00035004140708970986,0.0004203398802469286,0.0003965857464583984,0.000376241294929436,3.791258478377656e-05,4,8,4,4,4,4,4,4,4,4,4,4,4,32,4,32,4,4,4,8
moonchai,CELL_H,15,0.00039585104792843934,0.000356878561626763,0.0003369820930921967,0.0003265045425413352,0.00035252292575271496,0.00034564333791929674,0.00037316010139837986,0.00044969405611004553,0.0003664645764470775,0.0003907047481153954,0.0003694405990931644,3.394166506322968e-05,4,4,4,2,4,32,4,4,4,8,4,8,4,16,4,2,4,16,4,16
moonchai,CELL_H,20,0.000395340678104408,0.00040985497449390524,0.00035487795954868104,0.00032505404670925476,0.0004689499827277594,0.00036244242229925355,0.00044166331203013455,0.00034309521785628365,0.0003424800238017961,0.00030818149929955264,0.0003751940116871029,4.949363189737192e-05,4,2,4,8,4,8,4,2,4,4,4,32,4,32,4,32,4,2,4,8
moonchai,CELL_H,25,0.0003474093411479457,0.0003616199242788397,0.0003433539114144426,0.00037591516438218803,0.0004009950170391708,0.0003157257079963021,0.00045852876845852813,0.0003332889797342477,0.0004209527681625734,0.000450359127612068,0.00038081487102263064,4.72241019736506e-05,4,32,4,16,4,4,4,2,4,16,4,8,4,32,4,16,4,16,4,32
moonchai,CELL_H,30,0.00038025626021751045,0.0003765986731510691,0.00029911995929190213,0.0003496510581501569,0.00045713633553391177,0.0003533305104490032,0.0004230968150286566,0.0003581783124011445,0.0003148142835869314,0.00038059898140957503,0.0003692781189219861,4.4236885584624494e-05,4,32,4,4,4,16,4,8,4,4,4,32,4,8,4,4,4,8,4,4
moonchai,CELL_H,35,0.0003593762556029555,0.000317544854542045,0.00032354773541653446,0.0003427078718985392,0.0004118989023397788,0.0003902284572165506,0.00031504341908326477,0.0004509006345157925,0.0003870153657895725,0.00041515012450915655,0.00037134136209141894,4.4505044898939006e-05,4,8,4,32,4,4,4,8,4,16,4,32,4,2,4,8,4,16,4,2
moonchai,CELL_H,40,0.00036269000506498303,0.0003703883240694531,0.0003331395730365645,0.0003353962534829937,0.00038671640884034174,0.00034091719125487873,0.0003945919069514892,0.0004606572173385743,0.0003696500827133721,0.0003455986959999455,0.0003699745658752596,3.626841299621941e-05,4,8,4,4,4,4,4,4,4,16,4,8,4,32,4,8,4,2,4,4
moonchai,CELL_H,45,0.00045808543349616627,0.0003738926977291924,0.00041642106600530164,0.00033760400713980744,0.0003766425541817019,0.0003599017249013313,0.000349145307220952,0.0003338772777753225,0.00037108277539971244,0.0003877281334380756,0.00037643809772875634,3.572876777087868e-05,4,16,4,16,4,8,4,8,4,32,4,4,4,2,4,16,16,32,4,32
moonchai,CELL_H,50,0.0003788509015718308,0.00040203184662345457,0.0004039170553689367,0.00035380036526473776,0.0003462276832579366,0.00037012969110814274,0.00036323255224134115,0.0003360836729953348,0.00035060488394499675,0.00040310086850019314,0.00037079795208769045,2.3966432074532688e-05,4,32,4,8,4,4,4,4,4,8,4,2,4,16,4,4,4,32,4,16
moonchai,CELL_H,55,0.0004438252626651793,0.0003622070660235525,0.00037717554808034786,0.00037762463370446256,0.0003204246903926815,0.00031230441372303176,0.0004321246676353472,0.00045949235442529194,0.00034834424195615476,0.00029886540486295685,0.00037323882834690064,5.357198239375816e-05,4,4,4,16,4,16,4,2,4,8,4,16,4,8,4,2,4,16,4,32
moonchai,CELL_H,60,0.0002734412469630016,0.0004109869270122832,0.0003770011464741124,0.0003659627651940659,0.0003692906541065403,0.0003771995543269601,0.0004068783869857547,0.0003706863447011736,0.0003653210805312192,0.0004008180515025706,0.0003717586157797682,3.6636562109217835e-05,4,32,4,8,4,16,4,4,4,8,4,32,4,4,4,8,4,32,4,2
moonchai,CELL_H,65,0.0003758909640959749,0.0002900566295764423,0.0004819111204930802,0.0003286309653649741,0.00035561976688101876,0.00037429751516874783,0.0003999352559918925,0.0003897365884169913,0.0003369290175440203,0.00033981949498480005,0.0003672827318517942,4.909457339239879e-05,4,8,4,8,4,2,4,16,4,32,4,32,4,16,4,4,4,32,4,8
moonchai,CELL_H,70,0.0004492026140573039,0.0003489850193495422,0.0003397315734482627,0.0003339571689987273,0.0003840701996216289,0.0004151640630805265,0.00040967362767037324,0.0003516821186358837,0.00038347649959192225,0.0003394220442391606,0.0003755364928693331,3.7265736684152973e-05,4,8,4,8,4,8,4,32,4,8,4,8,32,16,4,8,64,4,4,8
moonchai,CELL_H,75,0.00034563043622948806,0.0004400541817417231,0.00045555646040495036,0.0004008157896060809,0.00038204420370753825,0.000372552497948668,0.0003248964467458692,0.0003733989887000448,0.00037502694555632094,0.0003784052348422081,0.0003848381185482891,3.723260276537679e-05,4,16,16,32,4,32,4,8,4,2,4,32,4,16,4,4,4,16,4,4
moonchai,CELL_H,80,0.0003008918306916017,0.0004091641631069375,0.00048784992359235445,0.0003777073992139865,0.0004211699725727852,0.0003912728630997281,0.0003446029631227972,0.00035927136058016017,0.0004057266827234612,0.0003091022705968749,0.0003806759429300687,5.2852592125943236e-05,4,4,4,4,4,8,4,32,4,32,4,32,4,2,4,8,4,2,4,16
moonchai,CELL_H,85,0.00037285932321080807,0.0003965531004306193,0.0003624345413327798,0.0003940859385935373,0.00029256477330088344,0.0003544731550686211,0.0003486273949625695,0.00038428551587498254,0.0003587534294617059,0.0004517491428694201,0.00037163863151059277,3.877025858609811e-05,4,4,4,32,4,8,4,16,4,4,4,8,4,8,4,2,64,32,4,2
moonchai,CELL_H,90,0.00038620998671286597,0.0003940118143960512,0.00040708800251758814,0.0002821761459550316,0.0004876346594020784,0.00037045455822347964,0.00038285126284915203,0.00034673784334564577,0.00035799079048753213,0.00038203123513252344,0.00037971862990219483,4.880239423931937e-05,16,32,4,16,16,32,4,8,4,4,4,4,4,8,4,2,4,8,4,32
moonchai,CELL_H,95,0.00036317633161039864,0.00045490102957737133,0.0003583549174452918,0.00036773288319513997,0.00039324364966610573,0.00032117498963278666,0.000408112562357219,0.00030176136916996847,0.0003476109623195947,0.00031638282284502186,0.0003632451517818898,4.3986944681208546e-05,4,2,4,16,4,8,4,16,4,32,4,16,4,4,4,2,4,32,4,16
moonchai,CELL_H,100,0.000407044952231044,0.00030252951851040985,0.00038410573842441074,0.00036838217068367325,0.00032853824845173837,0.00048137086415140626,0.00031301444947167003,0.0003555730401526492,0.0003858469079239533,0.00042011854688664386,0.0003746524436887599,5.123549634694189e-05,4,8,4,2,4,8,4,16,4,2,4,32,4,8,4,16,4,4,4,16
moonchai,CELL_H,105,0.0003985764335709472,0.00032590225089404587,0.0004345921864488494,0.0003857417260052909,0.00032689154223616753,0.0003071829799010933,0.0003500166828741396,0.00044683832604887314,0.00037914099498068745,0.00035324229430658255,0.0003708125417266677,4.432463336194854e-05,4,4,4,4,4,4,4,2,4,32,4,32,4,2,4,4,4,2,4,32
moonchai,CELL_H,110,0.00027907634235493553,0.00033156159814112216,0.00039867127427205864,0.00038330473154456066,0.00045353102872282855,0.0004329957419064039,0.00032551739115575627,0.0003284451340079897,0.0003933608216782702,0.0003798628142391374,0.0003706326878023063,5.102360816089146e-05,4,32,4,4,4,2,4,8,4,32,4,16,4,4,4,2,4,32,4,16
moonchai,CELL_H,115,0.00041695353809581933,0.0003832898434275627,0.0003380174229868458,0.00033883232270974235,0.00045302181198978266,0.000334580295984293,0.0003313236775848311,0.00038608169232191684,0.0004241036189667736,0.00032736419752886584,0.0003733568421596433,4.348511102096266e-05,4,2,4,8,4,8,4,32,4,8,4,32,4,4,4,16,4,32,4,4
moonchai,CELL_H,120,0.0003929607244885687,0.0003079203380710345,0.00033648981005865994,0.0003282581952781077,0.00036374943008942427,0.00041672361456720456,0.0004524087512685431,0.00036301940980006206,0.0003648019042199886,0.00037568415244120835,0.0003702016330282802,4.045665621766557e-05,4,2,32,16,4,32,4,32,4,32,4,4,4,16,4,16,4,4,4,4
moonchai,CELL_H,125,0.0003451902801317074,0.00042651280200031055,0.0003270658440149207,0.0003444399228996719,0.00042018013364545926,0.0003853712140108289,0.00039642106154298863,0.00035740740785513396,0.0003930658559857296,0.00035400608730294365,0.00037496606093896943,3.2338932461420836e-05,4,32,4,4,4,4,4,2,4,4,4,8,4,32,4,8,4,32,4,2
moonchai,CELL_H,130,0.0004599847524868298,0.00033938524018080026,0.00034515570007321954,0.00033964872443173965,0.0003635462405141022,0.00035883241631021976,0.0004108179895305905,0.00034002369796132535,0.0003359940581951689,0.0003695271421478717,0.0003662915961831868,3.784589322565297e-05,4,16,4,32,4,16,4,32,4,16,4,8,4,8,4,2,4,2,4,16
moonchai,CELL_H,135,0.0004776062471261377,0.0003295658679643247,0.0003643611097120743,0.00035797837507259094,0.00039803357104663034,0.00028595083880892665,0.0004269855344177277,0.00039495949220415754,0.0004419288762138138,0.0003458522611693372,0.0003823222173735721,5.417500909472722e-05,4,8,4,32,4,32,4,32,4,32,4,32,4,8,4,4,4,16,4,8
moonchai,CELL_H,140,0.0003683065626489296,0.0003840898459663039,0.00035337641021525995,0.00036142503922368226,0.00038449463132057127,0.00046997608586498265,0.0003691886518117697,0.0003491601647771656,0.0003434776771599085,0.00035624375328114656,0.000373973882226972,3.453445353867285e-05,4,16,4,8,4,32,4,4,4,8,4,8,4,16,4,8,4,16,4,32
moonchai,CELL_H,145,0.000375475705052703,0.0004555052173573354,0.00031106032003999667,0.0004558850661653215,0.000381170271051944,0.00032761097888775833,0.0003662982550619185,0.00039956322714379414,0.00033258129609977245,0.000371591821919666,0.000377674215878021,4.67057863559762e-05,4,32,4,2,4,4,4,8,4,4,4,32,4,2,4,32,4,16,4,4
moonchai,CELL_H,150,0.0003921198229992698,0.0004055934007536244,0.000354924937649825,0.00036511490468697235,0.00036272211355588415,0.00028996611467517464,0.00038602287857148273,0.000357066171771659,0.0004025096745753552,0.0003378371960202487,0.0003653877215259496,3.281508671793682e-05,4,32,4,16,4,16,8,32,4,4,4,16,4,8,4,8,4,16,4,8
moonchai,CELL_H,155,0.00033774237303876706,0.00032699955579151624,0.00035013436189094044,0.00045927390386674984,0.0004512176678673834,0.0003619875972906987,0.00034789581682680766,0.00037162712244965027,0.0004020087879851348,0.0003276714281149773,0.0003736558615122626,4.592214506393842e-05,4,8,4,8,4,2,4,4,4,2,4,32,4,8,4,16,4,4,4,2
moonchai,CELL_H,160,0.00035169078141957574,0.0003679786074223656,0.0004246520801212818,0.00043877830046915815,0.0004246372855036385,0.00035032378120275346,0.0003435232157225898,0.0004857393337419064,0.00033356394396827994,0.0003248936520551272,0.00038457809816266767,5.173255973534505e-05,4,32,4,16,4,16,4,4,4,16,4,32,4,8,4,4,4,2,4,16
moonchai,CELL_H,165,0.00038041095313697963,0.0003912884577513592,0.00043185320685897656,0.0003459872331836447,0.0003809613548315806,0.0003474500539256563,0.00036747854825095475,0.0004270654944690976,0.00038880729951474625,0.00031418778274600945,0.0003775490384669005,3.428459797823122e-05,4,4,4,4,4,4,4,4,4,4,4,16,4,8,4,32,4,4,4,4
moonchai,CELL_H,170,0.0004452264372412994,0.00035989935215991967,0.0003571063004255147,0.0003548282327049172,0.0004149389731082906,0.00030808188802150467,0.0003824072382082888,0.0003290737108323373,0.0003721588805386251,0.00040324609850031387,0.0003726967111741011,3.8570683008589084e-05,4,2,4,16,4,4,4,32,4,4,4,32,4,8,4,16,4,4,4,16
moonchai,CELL_H,175,0.00035282749737988007,0.000340630567543314,0.0003605156174829072,0.0004119339212081451,0.0003335106813137294,0.00043484715180227526,0.00040726926078154516,0.0004021751424926105,0.0003436743792097687,0.00036891703395926185,0.0003756301253173437,3.3680787924144505e-05,4,4,4,16,4,32,4,16,4,32,4,4,4,32,64,32,16,32,4,4
moonchai,CELL_H,180,0.00042052626843536937,0.00031322341111781867,0.0005461895083205526,0.0003102817438729751,0.0003266985326837592,0.00033674699338467353,0.00039050479329520114,0.00037081122223075476,0.0004536604495474876,0.00038084803759733197,0.0003849490960485924,6.976344169117212e-05,4,4,4,8,4,8,4,32,4,8,4,2,4,16,4,8,4,4,4,16
moonchai,CELL_H,185,0.00031006686862371273,0.000390972301111461,0.0004438898111068628,0.0003466544947339753,0.00033095939203722796,0.00036348099324333774,0.0003458442310022824,0.0004285764376348913,0.00036740078976642813,0.0003628981087858159,0.00036907434280459954,3.958096200611484e-05,4,32,4,8,4,16,4,32,4,8,4,2,4,4,4,16,4,4,4,2
moonchai,CELL_H,190,0.00037053942143446905,0.00036815072256180664,0.00038033327376665394,0.00035092488832582096,0.00034721899403895303,0.0003889384766849988,0.00044069266883615715,0.0003635027255290112,0.0003759721836108571,0.00035057572760414045,0.00037368490823928683,2.5824095757630207e-05,4,4,4,4,4,2,4,2,4,4,4,4,4,16,4,8,4,4,4,32
moonchai,CELL_H,195,0.00032585795003246186,0.00039347292407706293,0.0004207993665791523,0.0003539824432549638,0.00038326499449840476,0.00035821891787739425,0.00039110103521151766,0.0003788194653783419,0.00041437951182154607,0.00040792705746357577,0.00038278236661944213,2.8193156854090242e-05,4,16,4,8,4,16,4,32,4,4,4,8,4,32,64,16,4,32,4,8
moonchai,CELL_H,200,0.0004698569430541719,0.00035830750202813503,0.0003961528658889147,0.0003236423810757538,0.0003586387389691635,0.00035118795623446144,0.0003716782543794757,0.0003892353081258661,0.0003639292486267019,0.0003499329955939675,0.00037325621939766115,3.7590449200818345e-05,4,8,4,4,4,32,4,4,4,8,4,32,4,16,4,4,8,32,16,32
moonchai,CELL_D,0,0.0005556956757339621,0.0004319729286690596,0.0005065032327445574,0.0004740633912681621,0.0005448580136464769,0.000501457139013583,0.00047608516021261483,0.0005055382492987512,0.0004909578256685938,0.0005983855376821058,0.0005085517153937867,4.482388138883444e-05,4,16,4,32,4,4,4,32,4,32,4,4,4,32,4,32,4,32,4,8
moonchai,CELL_D,5,0.0005312972479847048,0.0005073887311103142,0.0005141140662381858,0.0005610134456402166,0.0005327137912566992,0.00046998400184699907,0.0005200330536071973,0.00048459113779580036,0.0005077404117015707,0.0005506642742659163,0.0005179540161447605,2.6399209744247106e-05,4,8,4,16,4,16,4,16,4,32,4,16,4,4,4,32,4,16,4,2
moonchai,CELL_D,10,0.0004591003971410071,0.0005072175227066802,0.0005342885929420893,0.000527128991238027,0.0005136650261164547,0.00048123475013735174,0.0004901184612491117,0.0005027871212939836,0.00045927982716173645,0.0004960305140244991,0.0004970851204010941,2.422759661641305e-05,4,32,4,16,4,16,4,32,4,32,4,32,4,32,4,16,4,32,4,8
moonchai,CELL_D,15,0.00048556514805519184,0.0005168474509239253,0.0004890001019311143,0.0005988850945144204,0.0004951699099929697,0.00045062924458372656,0.0005038460039886106,0.00043563272413747365,0.00047537472613852125,0.0005007751651120305,0.0004951725569377985,4.169432019467709e-05,4,16,4,16,4,16,4,4,4,16,4,2,4,2,4,16,4,32,4,32
moonchai,CELL_D,20,0.0005120323330066558,0.0005611533545123873,0.0005319426891025143,0.00042732185552594694,0.0004676538805858886,0.0004735848024372229,0.0005158290652515905,0.0005026742866776197,0.0005415599368214084,0.0005479421294820023,0.0005081694333403236,3.9429662455119126e-05,4,32,4,32,4,2,4,32,4,4,4,32,4,32,4,32,4,2,4,32
moonchai,CELL_D,25,0.0005944913088200345,0.000497895943380282,0.0005141298217607017,0.0005078534487213843,0.0004553356779530117,0.0005006700320795718,0.0005210246136687251,0.00046251676012929875,0.0005322559271767705,0.0005113788129645052,0.0005097552346654286,3.6407440810028994e-05,4,8,4,32,4,32,4,32,4,32,4,32,4,8,4,32,4,8,4,32
moonchai,CELL_D,30,0.0004781717117441879,0.0004936171625936987,0.0005199158739744624,0.0004951386145299612,0.0004994632237376129,0.0004930403958981829,0.0005782837223732311,0.000526368492395325,0.0005415171896406409,0.0004561800043645492,0.0005081696391251852,3.284249031818491e-05,4,32,4,32,4,2,4,32,4,4,4,32,4,2,4,4,4,16,4,16
moonchai,CELL_D,35,0.0004841121359527949,0.000511390656408395,0.0004994833289327028,0.0004595164278058348,0.00046276387617758956,0.0006184840330487262,0.0004635800792298059,0.0005303033712664023,0.0005146290363696418,0.0005158279761002173,0.000506009092129211,4.4491009696538235e-05,4,16,4,32,4,16,4,32,4,32,4,4,4,16,4,16,4,32,4,32
moonchai,CELL_D,40,0.0005973551747854367,0.0005025847292780834,0.0005501962014161083,0.000490671708046011,0.0005556379956923827,0.0005395010388788943,0.00045479026048931247,0.0004916598468821662,0.00047337033178679983,0.0004974222510745861,0.0005153189538329782,4.150887187271944e-05,4,32,4,16,4,32,4,16,4,2,4,32,4,32,4,16,4,32,4,32
moonchai,CELL_D,45,0.0005595780037316214,0.00045502830264609065,0.0004924774020175339,0.0005600302651208137,0.0005162911816211402,0.0005793072098352042,0.0005244411147980519,0.0004375374843724767,0.0004934353587092625,0.000515597817883173,0.0005133724140735367,4.334092320246231e-05,4,16,4,32,4,32,4,16,4,16,4,16,4,16,4,32,4,32,4,16
moonchai,CELL_D,50,0.000456327449204809,0.0005161220051311255,0.0005260249130462157,0.000515867690544838,0.0005238585787424931,0.0005005725298669153,0.0005085111937817391,0.0005422607913849963,0.0005915202231564159,0.00048561907454375616,0.0005166684449403305,3.3658069788868005e-05,4,4,4,16,4,16,4,4,4,32,4,32,4,32,4,8,4,32,4,32
moonchai,CELL_D,55,0.0005234455858758226,0.0005111608692854931,0.0005378023025830885,0.0004687477804885493,0.0004506795109320211,0.0005300161569240906,0.0005189970845285205,0.0005112073971931666,0.0004620901485482581,0.0005036380606121091,0.000501778489697112,2.8842179463681833e-05,4,32,4,2,4,32,4,32,4,32,4,32,4,32,4,32,4,16,4,8
moonchai,CELL_D,60,0.0004650900830127615,0.0005180918296253105,0.0005316149542942235,0.0005371647615988096,0.0006198809244043998,0.0005193660280334071,0.0005007376439254771,0.000516583831457183,0.00047395429289024825,0.000522851987414138,0.0005205336336655959,3.991626132000403e-05,4,32,4,32,4,32,4,32,4,32,4,4,4,32,4,2,4,32,4,8
moonchai,CELL_D,65,0.0004958594866975261,0.0004468241336010375,0.0005401223567059468,0.0005547914802683825,0.000457320882681922,0.0005484131153793683,0.000525162996890537,0.0005371481382045115,0.0004331295042210853,0.0005141949941895071,0.0005052967088839822,4.24591964495684e-05,4,16,4,32,4,32,4,32,4,32,4,2,4,32,4,16,4,32,4,16
moonchai,CELL_D,70,0.0005249960893942341,0.0005071429448334282,0.000496154073707562,0.0004595470415160774,0.0004897215954929833,0.00042846705831161083,0.0005066756499592933,0.000560866094055534,0.0005773249932021695,0.0005048044220697694,0.0005055699962542661,4.12200202101138e-05,4,16,4,4,4,4,4,8,4,4,4,32,4,32,4,32,4,8,4,32
moonchai,CELL_D,75,0.00046726177094064814,0.0005525817643655827,0.0005179460374791063,0.00045802037307629627,0.0004845476808423462,0.00044176291734118793,0.0005168565187898216,0.0005636737040481121,0.000580018521361526,0.00045962073156518234,0.0005042290019809809,4.663089341106089e-05,4,32,4,32,4,32,4,32,4,32,4,8,4,32,4,32,4,4,4,32
moonchai,CELL_D,80,0.0005193048309082524,0.0005132170275763811,0.0005446597422382117,0.0004215752323257054,0.000538466231680493,0.0005905444134221342,0.0005182492166035671,0.0004995839673003924,0.00047873914533019525,0.0004545805250150394,0.0005078920332400373,4.53823342392058e-05,4,32,4,32,4,32,4,16,4,16,4,32,4,16,4,32,4,32,4,32
moonchai,CELL_D,85,0.0005357922832699806,0.0005397544866754253,0.0004587098980060558,0.0005080912051557129,0.000536292648454967,0.0005514379392097148,0.00042863255802846537,0.0005499659581538221,0.0006388975307069021,0.0004369232799345901,0.0005184497787595635,6.0043340041816205e-05,4,32,4,4,4,32,4,16,4,32,4,16,4,2,4,16,4,8,4,32
moonchai,CELL_D,90,0.00039472266656744666,0.0004839392466601884,0.0005079703253050594,0.00045943486790525146,0.0004892737664965403,0.0005588793775930501,0.0005514192355985165,0.0004771556845897553,0.0005221032301068527,0.000523080102625124,0.0004967978503447785,4.5515558637741386e-05,4,16,4,32,4,16,4,16,4,16,4,2,4,32,4,32,4,32,4,32
moonchai,CELL_D,95,0.0005551973783146201,0.0004781856078286643,0.0005581889878075779,0.0005208762695912527,0.0004574494661816537,0.0006040713315708916,0.0004890215602918023,0.0005511365810243253,0.0005155142403668613,0.0005042809572782571,0.0005233922380255906,4.184293429492962e-05,4,32,4,4,4,2,4,32,4,16,4,16,4,32,4,16,4,32,4,32
moonchai,CELL_D,100,0.0005218050933400957,0.0005471348307798597,0.0005661218307558975,0.0005235474793352656,0.00047135033942983373,0.00045832791348431317,0.0004989288034920903,0.0005301845711788636,0.0005491241697128381,0.000478697205756158,0.0005145222237265216,3.442586174851607e-05,4,32,4,32,4,32,4,8,4,32,4,32,4,32,4,32,4,32,4,32
moonchai,CELL_D,105,0.0005735634141560924,0.0005283972579968138,0.0005151068077042897,0.0005239596201541385,0.0004953216228033466,0.0004756258798904405,0.0004421427416468697,0.0004995314771112037,0.0005434894701048409,0.0004700716682239835,0.000506720995979202,3.6495543819076924e-05,4,32,4,32,4,32,4,32,4,4,4,32,4,4,4,8,4,32,4,32
moonchai,CELL_D,110,0.0005925125352794807,0.0005478876469180875,0.0006110816934804395,0.0004480007225018111,0.0004750028605269761,0.0004980013384076148,0.0005456224424545828,0.0004886428403857229,0.000510041990151248,0.00048267575277840847,0.0005199469822884373,5.0156014038064696e-05,4,32,4,32,4,32,4,16,4,32,4,32,4,32,4,32,4,8,4,32
moonchai,CELL_D,115,0.00044980295688122694,0.0005327328707423295,0.00048587096658834675,0.00048508877205505726,0.0005630509925533747,0.0005044639180065524,0.000430869526049274,0.0006048901734937526,0.0005206197860245784,0.0005304365648699074,0.00051078265272644,4.896773169915223e-05,4,32,4,32,4,32,4,16,4,4,4,32,4,32,4,32,4,32,4,16
moonchai,CELL_D,120,0.000530957640058251,0.000578459085570881,0.0005028865477662315,0.000560935572643943,0.00048559584060100695,0.000492312857761954,0.00038936214584591063,0.0004991687837354175,0.0005339049398167075,0.0004936203254371073,0.0005067203739237409,4.907370818358915e-05,4,32,4,16,4,32,4,16,4,16,4,2,4,32,4,16,4,32,4,8
moonchai,CELL_D,125,0.00047843360336618905,0.0005370280219054973,0.000509437512690063,0.0005505183775600545,0.0005189193574334827,0.0005876157409301962,0.0005835037711158782,0.00044577352596127145,0.0005325879640200608,0.0005053451377188076,0.00052491630127015,4.160232278986611e-05,4,16,4,4,4,32,4,2,4,32,4,8,4,16,4,32,4,32,4,32
moonchai,CELL_D,130,0.0005167234443542653,0.0005145766513234139,0.000620268810386001,0.0005248602298948716,0.0005274518100475145,0.0004394848492116242,0.0004419605127414062,0.00045534047658576563,0.00048319716660864164,0.0004425884849114686,0.0004966452436064972,5.36836883697059e-05,4,16,4,32,4,32,4,8,4,16,4,16,4,32,4,32,4,32,4,16
moonchai,CELL_D,135,0.0005204464499343384,0.000495841926525508,0.0005038063495223323,0.0005451675995670009,0.0005611209668540054,0.0005022026133071227,0.0004762381615005046,0.000521636721358163,0.0004865051404058971,0.00048788973526415385,0.0005100855664239026,2.564162096738644e-05,4,4,4,32,4,4,4,16,4,16,4,2,4,32,4,2,4,32,4,32
moonchai,CELL_D,140,0.0004482587634770828,0.0005588723932384781,0.000492036255411487,0.0004671038323710558,0.0005223278428368959,0.0004715193875138588,0.000546811749191313,0.0005289736255401292,0.00048815208374943626,0.0004998697060116127,0.000502392563934135,3.422327933136824e-05,4,32,4,16,4,16,4,32,4,4,4,32,4,32,4,32,4,32,4,32
moonchai,CELL_D,145,0.0004478957044568205,0.00044913704683066945,0.0005015313002624558,0.0006034755395905794,0.00046832203985946655,0.0005477282813267313,0.00047500281954219624,0.0004703730057075446,0.0005340156070345286,0.0004676462139713064,0.0004965127558582298,4.783069086601275e-05,4,32,4,32,4,32,4,8,4,16,4,32,4,32,4,32,4,32,4,32
moonchai,CELL_D,150,0.00048415188217800165,0.0004390090916333528,0.0005385802928499535,0.0005163855237415062,0.0005245505987098107,0.0004645829976128725,0.0005839694454772669,0.0005167874266199707,0.0004954852581032298,0.0005162279669121738,0.0005079730483838138,3.816515995922403e-05,4,16,4,8,4,32,4,2,4,4,4,16,4,8,4,32,4,32,4,32
moonchai,CELL_D,155,0.0005338084934504054,0.0004725896722494436,0.0004566360009829907,0.00046731980725106775,0.0005230806372748829,0.0005971050721262094,0.0005204906779979948,0.0005143163880419416,0.00048122062589034295,0.0004951027121231313,0.0005061670087388411,3.9275994906965175e-05,4,32,4,32,4,32,4,32,4,16,4,8,4,16,4,16,4,32,4,32
moonchai,CELL_D,160,0.0005696301362502921,0.0004315699468457983,0.0004979752378393228,0.0005538708800693561,0.000568296847130513,0.0004339032136538529,0.0004304331937466087,0.0005431494071983454,0.000506499981755835,0.0005096968885290599,0.0005045025733018983,5.30145296535575e-05,4,16,4,4,4,32,4,2,4,32,4,32,4,32,4,32,4,4,4,16
moonchai,CELL_D,165,0.0004702601535412353,0.0005550200422772892,0.0004434937158250036,0.00051014428095704,0.0004906487009015496,0.0004757031000192169,0.0005814155595196341,0.00045436225730506656,0.0005704585442025736,0.0005466901996226144,0.0005098196554171223,4.772498088790681e-05,4,32,4,32,4,16,4,32,4,32,4,32,4,32,4,8,4,32,4,32
moonchai,CELL_D,170,0.0005032599621213924,0.0004658716527607581,0.0005635382198899347,0.0004837839397872537,0.00038635528697908975,0.0005347685796466662,0.0005219344649036016,0.0005433047936773,0.0004540911845738066,0.0005296915556997974,0.00049865996400396,4.9927035879587724e-05,4,32,4,4,4,32,4,32,4,32,4,32,4,32,4,8,4,32,4,32
moonchai,CELL_D,175,0.00046616960983809203,0.0004519854748359674,0.00045800168858108314,0.0005373215171998851,0.0005161268960283687,0.0005438296602830215,0.0005877616527393195,0.0004890046154041507,0.0004568371896798417,0.0005107069588484678,0.0005017745263438198,4.307777098275416e-05,4,32,4,32,4,16,4,16,4,16,4,32,4,16,4,32,4,32,4,32
moonchai,CELL_D,180,0.0004803993593477113,0.0005822738825559866,0.0006033758831713842,0.0005613809361846807,0.00047013700358498406,0.0005262701167579933,0.0004596602651797048,0.000493220030736545,0.0005923765916219784,0.0004438139233930874,0.0005212907992534055,5.658610937926233e-05,4,32,4,32,4,2,4,2,4,32,4,32,4,32,4,16,4,2,4,4
moonchai,CELL_D,185,0.00046574575072974426,0.0004922146644190369,0.00048498717663441216,0.0005229506303801874,0.0004757479042933935,0.0005708437100774551,0.0005232613495674837,0.0004964593323562236,0.0005211265007879428,0.00048596684080761803,0.0005039303860053496,2.9386191840978327e-05,4,16,4,16,4,32,4,32,4,32,4,32,4,32,4,32,4,32,4,32
moonchai,CELL_D,190,0.0005708063424824976,0.0005021427981900225,0.0004991176498983914,0.000471024042111457,0.0004924412490758915,0.0005015217988029399,0.0004998758916192233,0.0005454063481258144,0.0005118560991432348,0.0005875538212825908,0.0005181746040732063,3.5330996607985017e-05,4,16,4,2,4,32,4,16,4,16,4,32,4,16,4,32,4,2,4,16
moonchai,CELL_D,195,0.0004927037403157906,0.0005546318081254538,0.0004976881774784563,0.00048554789992531706,0.0006291983024169289,0.00046602373025664815,0.0004971226570366199,0.0005507501593324948,0.0005189340404026716,0.0005001773142636579,0.0005192777829554039,4.508294997205576e-05,4,32,4,32,4,32,4,32,4,16,4,2,4,32,4,32,4,32,4,16
moonchai,CELL_D,200,0.0005419837210030617,0.00047530427813231407,0.0005487076490266218,0.0005200501843108467,0.0004954064793210019,0.0004890395450967706,0.0005051153823450381,0.0005480178360239557,0.00045861767305768313,0.0005109390325030497,0.0005093181780820343,2.9298367150543708e-05,4,8,4,4,4,32,4,2,4,32,4,16,4,8,4,16,4,16,4,32
moonchai,CELL_A1,0,0.0005928758030998947,0.0005638308205670535,0.00046404863777326356,0.0006332780519014076,0.0005791584084149665,0.0005384577151859941,0.0004973530344133118,0.0005688367383957345,0.0005355904639141516,0.0004691753956539504,0.0005442605069319728,5.183945707293486e-05,4,4,4,2,4,32,4,32,4,4,4,4,4,32,4,4,4,8,4,16
moonchai,CELL_A1,5,0.00048291352993328005,0.0005790702645555466,0.0005567051809023555,0.0005663013100252321,0.0005720985318052382,0.0005294738340132365,0.0005200625518735483,0.0005787416659676479,0.0005213828075138368,0.0005586795638940718,0.0005465429240483993,3.0105040211943903e-05,4,2,4,2,4,2,4,8,4,2,4,32,4,8,4,32,4,16,4,32
moonchai,CELL_A1,10,0.0006557492064831571,0.0006254754432056097,0.0006278052960862833,0.0005688135356484288,0.0005394990523294726,0.0006396539149392299,0.0005205748871927679,0.00045628830901740856,0.0006309769341170339,0.0005596314757582443,0.0005824468054777636,6.0995852650136946e-05,4,2,4,32,4,8,4,8,4,16,4,16,4,4,4,4,4,32,4,32
moonchai,CELL_A1,15,0.0005633979924501842,0.0004584198841797359,0.0005655408470140002,0.0006260766858100013,0.0005840922825594292,0.0005249006544389242,0.0006300737604469449,0.0005871281478307697,0.000532205438103527,0.0005801449312828837,0.00056519806241164,4.805592941637378e-05,4,4,4,2,4,32,4,2,4,32,4,2,4,8,4,32,4,16,4,16
moonchai,CELL_A1,20,0.0005436013638648143,0.0005372277866727711,0.0005379520584908358,0.000609464303092488,0.0005418565778072501,0.0005874741041693443,0.0005468260652132589,0.000672321454067693,0.0005194941660903632,0.0005227779974805384,0.0005618995876949357,4.536970956565292e-05,4,32,4,32,4,32,4,2,4,8,4,32,4,8,4,16,4,32,4,2
moonchai,CELL_A1,25,0.0005568914053479389,0.0005942051505347187,0.0006147108513646658,0.0005526165429379531,0.0006239253043691279,0.0005060673601083584,0.0005635175519366209,0.0006822794762825835,0.0005101176931237079,0.0005243367546932678,0.0005728668090698942,5.319006477123495e-05,4,8,4,4,4,8,4,16,4,16,4,2,4,32,4,2,4,8,4,32
moonchai,CELL_A1,30,0.00056172690085153,0.0005203858421505833,0.0006134408837735487,0.0006256773833193808,0.0005396003110959406,0.0005286793174393537,0.0005563988041647378,0.0006437742043806551,0.00053143071906322,0.0004772528002899038,0.0005598367166528854,4.983268513731121e-05,4,2,4,32,4,8,4,16,4,32,4,16,4,4,4,16,4,32,4,32
moonchai,CELL_A1,35,0.0005746480377736316,0.0005260248744733869,0.000582292221834852,0.0005530605920481112,0.000497758351101495,0.0005830693404700609,0.000557165156394534,0.0005940022460835597,0.0004950350939786049,0.0006082423248558001,0.0005571298239014037,3.7349378736517575e-05,4,32,4,2,4,8,4,32,4,32,4,4,4,4,4,32,4,8,4,32
moonchai,CELL_A1,40,0.0006054003018952859,0.000524066050083704,0.0005276397550594518,0.0004586014390858607,0.0005992654460525722,0.0005159297652151919,0.0006395231919506116,0.0005596900105979485,0.0005984905158109466,0.0004977572289235113,0.0005526363704675085,5.4132002305230235e-05,4,16,4,2,4,16,4,4,4,16,4,16,4,32,4,16,4,4,4,32
moonchai,CELL_A1,45,0.0005256477753638638,0.0004958414878371774,0.0004771213360127677,0.0004899803688248814,0.0007008897367675451,0.0005214099333883972,0.0005743221429001504,0.0006091728500149347,0.0005690388232831306,0.00065156562316126,0.0005614990077554108,7.033754990523356e-05,4,16,4,2,4,32,4,4,4,2,4,32,4,32,4,2,4,16,4,2
moonchai,CELL_A1,50,0.0005195203011536117,0.0005315622719705356,0.0006223895449830599,0.000584072841436684,0.0006010074272330111,0.0005996241080719501,0.0005670028629453896,0.0006203548257422214,0.0005478329451629922,0.0005287573371103605,0.0005722124465809816,3.6736077925772486e-05,4,32,4,32,4,2,4,16,4,8,4,2,4,32,4,32,4,16,4,32
moonchai,CELL_A1,55,0.00054037629056166,0.000551038322833907,0.0005073071642665766,0.0005167838943980752,0.0005941806078815179,0.0005827162415193275,0.0005590365381904572,0.0006025809995601957,0.0005957301882708703,0.0005128740918629532,0.000556262433934554,3.459159332492758e-05,4,16,4,4,4,8,4,32,4,16,4,32,4,32,4,2,4,2,4,8
moonchai,CELL_A1,60,0.0005568069750525974,0.0006738422092874135,0.00049524554034241,0.0005618028787648462,0.0005529866527989672,0.0005414921822198847,0.0005635335873618716,0.0005099669103206284,0.0006282995750717361,0.0005030475951741117,0.0005587024106394467,5.288263239527583e-05,4,8,4,32,4,16,4,2,4,32,4,16,4,16,4,2,4,8,4,16
moonchai,CELL_A1,65,0.000568591780676415,0.0006629765253477906,0.0005444513152293753,0.0006928497352647213,0.000576001738569871,0.0005157368895094674,0.0005457358445421607,0.0005251893828200733,0.0005061804779688328,0.0005948216089267844,0.0005732535298855492,5.878081818796735e-05,4,32,4,4,4,32,4,8,4,16,4,2,4,8,4,32,4,16,4,16
moonchai,CELL_A1,70,0.0005665877805954492,0.0005187177019977514,0.0005367708755821095,0.0005813752400818317,0.0005497060221129654,0.0005575766719816457,0.000474351379137346,0.0005580802718601371,0.0005951361524261188,0.0006393365101560244,0.000557763860593138,4.204064468952177e-05,4,2,4,4,4,8,4,2,4,16,4,32,4,8,4,16,4,4,4,4
moonchai,CELL_A1,75,0.0006321878598467687,0.000546511493807135,0.0005420000500345899,0.0005007131189176225,0.0005745753970267465,0.0005145940430796057,0.0005950307208065111,0.0005669961112857205,0.0005844934724859253,0.0005718078754595311,0.0005628910142750157,3.6657844935836004e-05,4,32,4,4,4,32,4,32,4,32,4,32,4,32,4,4,4,32,4,32
moonchai,CELL_A1,80,0.000574701587220751,0.0006085384975804473,0.0005184263820316522,0.0005777688184756919,0.000602794329624397,0.00047314588379861986,0.0004994181140466219,0.0005966164620758116,0.0005690221159002117,0.0005759950181393875,0.0005596427208893592,4.397511123565885e-05,4,2,4,32,4,4,4,32,4,2,4,2,4,4,4,32,4,16,4,4
moonchai,CELL_A1,85,0.0005773667961372753,0.0005407007705930257,0.0006166962177182378,0.0005986453963557304,0.0005807287800630515,0.0005169854420310964,0.00045632333807009906,0.0005416425191096235,0.0005059398178724778,0.0006326876082689742,0.0005567716686219592,5.1816547485540125e-05,4,32,4,2,4,32,4,8,4,8,4,16,4,8,4,32,4,32,4,16
moonchai,CELL_A1,90,0.0005626228557294765,0.0005617864652879568,0.0004971057619835933,0.0005579035389563384,0.000615520854123686,0.0006113984579342001,0.000506940773984875,0.000621209169670552,0.0004786778346257525,0.000579025638149444,0.0005592191350445874,4.81928768388636e-05,4,32,4,32,4,8,4,2,4,32,4,2,4,32,4,2,4,16,4,8
moonchai,CELL_A1,95,0.0005563697058484502,0.0004756408461872394,0.0006235972222909541,0.0005284067138816538,0.0005541939656633441,0.0006205316097344684,0.0005412367420378067,0.0005334995901071461,0.0005758380802810354,0.0005875987282928677,0.0005596913204324966,4.2351018197606665e-05,4,16,4,8,4,32,4,16,4,16,4,16,4,8,4,8,4,32,4,32
moonchai,CELL_A1,100,0.0005492048084521081,0.0005163671590525711,0.0005716087585269205,0.0005982433498272798,0.0005193910768266061,0.0005379217551048785,0.0005912243826250669,0.000547923500570389,0.0005832334902433261,0.0005143824292275809,0.0005529500710456728,2.9997930507689487e-05,4,32,4,4,4,32,4,32,4,4,4,32,4,16,4,8,4,32,4,2
moonchai,CELL_A1,105,0.000612914744836031,0.0005695097873838816,0.00044723323594986875,0.0005278018526651527,0.0005314684165749168,0.0006002096247515966,0.0005615428050827361,0.000526645220330937,0.0005093164545877109,0.0006252385551865753,0.0005511880697349408,5.122269663090168e-05,4,32,4,2,4,32,4,32,4,16,4,2,4,4,4,8,4,4,4,8
moonchai,CELL_A1,110,0.0005821838691665484,0.0005601148033148088,0.0004449484419972445,0.0005701124752897164,0.0005779155383742738,0.0005563945751309137,0.0005459336404034702,0.0005588842821879772,0.0005197414459301555,0.0005737930554281468,0.0005490022127223255,3.86856815791018e-05,4,32,4,32,4,32,4,16,4,2,4,2,4,16,4,32,4,32,4,16
moonchai,CELL_A1,115,0.0005946771031022016,0.0005869492324599773,0.0005890047378075802,0.0005647894312469665,0.0005322809960946143,0.0005204536102859607,0.000629754601899355,0.0005565154576431097,0.0005652491720153223,0.0005944706203528554,0.0005734144962907943,3.069099718515873e-05,4,32,4,2,4,32,4,8,4,16,4,2,4,32,4,2,4,16,4,4
moonchai,CELL_A1,120,0.0004894707587634485,0.0005922495267151554,0.0005819547029988659,0.0005667308932782157,0.0005387045768162661,0.0005661220210842274,0.0005095382996568685,0.0005063770951165378,0.0005285730531754162,0.0005846655199599517,0.0005464386447564954,3.4944857092914094e-05,4,4,4,4,4,4,4,16,4,4,4,8,4,32,4,32,4,16,4,8
moonchai,CELL_A1,125,0.00046531820893031954,0.0006329687578380181,0.0005536479778007507,0.0005380626099947145,0.0005510152156462648,0.0005279800069276295,0.0005823165833297037,0.0006047134340375952,0.0006254031611151973,0.0005074316706614432,0.0005588857626281637,5.044065157403593e-05,4,8,4,8,4,32,4,8,4,16,4,32,4,32,4,32,4,8,4,16
moonchai,CELL_A1,130,0.0005758657721168256,0.0006107549577638053,0.0005814840835104425,0.0005485982704550765,0.0005609886272054645,0.0005256623041164823,0.000530569211510857,0.0005222781522127665,0.0006250143290206117,0.0005345510609605339,0.0005615766768872865,3.426101278924769e-05,4,8,4,4,4,16,4,8,4,8,4,4,4,32,4,32,4,16,4,32
moonchai,CELL_A1,135,0.0004936974114036161,0.0006203743769016757,0.0005120224528243062,0.00047137604223706174,0.0005996025190773348,0.0005966440080384109,0.00048384776032032295,0.000571448931776185,0.0005132280573774563,0.0006494039546679099,0.0005511645514624278,6.036436388399517e-05,4,32,4,32,4,4,4,8,4,4,4,8,4,16,4,32,4,8,4,16
moonchai,CELL_A1,140,0.0005836390912159296,0.0005371727027774497,0.0005489035417562407,0.0005321285271840796,0.0005061391378496742,0.0005486274457982759,0.0006467683507928305,0.0005827684036568071,0.0005018362945912549,0.0005470148536982947,0.0005534998349320837,4.0232357713376305e-05,4,8,4,16,4,16,4,16,4,16,4,16,4,16,4,32,4,8,4,8
moonchai,CELL_A1,145,0.0005308076617189709,0.0006054087175814362,0.0005826637030671536,0.0005695780037443212,0.0005794375046357272,0.0005180309280580993,0.0005940811832840947,0.0005578942551601466,0.0006331668715154415,0.0005315468548281592,0.0005702615683593551,3.4546608149339065e-05,4,32,4,16,4,32,4,32,4,8,4,32,4,8,4,32,4,4,4,8
moonchai,CELL_A1,150,0.0005517676228097914,0.0006125825014865359,0.0005567367538056246,0.0005769664714120708,0.0004784825114674776,0.0006093516793152406,0.0004666486396095199,0.0006038163499554849,0.0005643505621964727,0.0006074995588007858,0.0005628202650859004,5.004181866088743e-05,4,16,4,4,4,32,4,2,4,2,4,2,4,4,4,8,4,16,4,32
moonchai,CELL_A1,155,0.0005497886469239408,0.0005645138163088423,0.0005902527308033645,0.0006103107723430699,0.0006158802124396677,0.00059549794714499,0.0005803319216329585,0.0005309776149868311,0.0005817580649571317,0.0005374545840932688,0.0005756766311634065,2.7809310652791456e-05,4,16,4,32,4,2,4,32,4,16,4,32,4,32,4,8,4,16,4,16
moonchai,CELL_A1,160,0.0006580008736362061,0.0005560904826782297,0.000521563248457527,0.0005502312128975145,0.0004850211717713621,0.0005417099792128164,0.00055596461501858,0.0005968172949608272,0.00043901869630706106,0.0006133430454120482,0.0005517760620352172,5.9435713584885445e-05,4,16,4,32,4,16,4,8,4,16,4,4,4,8,4,4,4,8,4,16
moonchai,CELL_A1,165,0.0005876863090624316,0.0005072403246536415,0.0005463507256148928,0.0005480955126591108,0.0005189396283593913,0.0006046213804429377,0.0005466248863433804,0.0005346643627133536,0.0006260066672277144,0.0005696991298668969,0.000558992892694375,3.580049586754907e-05,4,2,4,8,4,32,4,16,4,32,4,16,4,8,4,2,4,4,4,8
moonchai,CELL_A1,170,0.0005431263884274289,0.0005649652688156286,0.0006758001632524442,0.0005283541395520184,0.0005416223961550199,0.0005204361340514288,0.000596786199055716,0.0005561945027246609,0.0004934087131021547,0.0005468264540544344,0.0005567520359190934,4.742752588301513e-05,4,8,4,8,4,4,4,32,4,32,4,32,4,32,4,16,4,2,4,2
moonchai,CELL_A1,175,0.0006384569115343111,0.0006382205045557796,0.0006047262166155243,0.0006440194406113976,0.0005334912152714995,0.0005130779325841436,0.00047379626898533137,0.0004978723908392777,0.0004974433331925114,0.0005736221850079996,0.0005614726399197775,6.293343157353926e-05,4,16,4,32,4,16,4,2,4,32,4,32,4,4,4,4,4,8,4,16
moonchai,CELL_A1,180,0.0005573427186221162,0.0005611493848538785,0.0006214457914635373,0.0005990717320943393,0.00048315275158338785,0.0005139632662891561,0.0006105470885569853,0.0005597143740388753,0.0005703272355150953,0.0005482917442610151,0.0005625006087278386,4.008957789348403e-05,4,32,4,32,4,16,4,32,4,32,4,32,4,32,4,32,4,32,4,32
moonchai,CELL_A1,185,0.0005950164001488591,0.0006417196229585698,0.0006257100798655714,0.0005392091243365957,0.0006090654402559442,0.0005471099267467586,0.0004624843663744022,0.0005805006357192916,0.00044837922559822353,0.0005898250485075251,0.0005639019870511742,6.19305596712967e-05,4,8,4,8,4,8,4,16,4,32,4,16,4,8,4,32,4,16,4,2
moonchai,CELL_A1,190,0.0005825091808556343,0.0005380286023871263,0.0005928169586910496,0.0005000010671871063,0.0005208957567044175,0.0005233420713469248,0.0005873867704137951,0.0005867828308108887,0.0005620533528381328,0.0005228826215139301,0.0005516699212749006,3.270251515856236e-05,4,8,4,32,4,8,4,2,4,32,4,16,4,8,4,8,4,32,4,32
moonchai,CELL_A1,195,0.0005136467392833482,0.0006268030251502406,0.0005770799832589892,0.0005648437714339485,0.0005413758068219233,0.0005053082523917429,0.0005268727085121103,0.0005697377352317164,0.0005698224923605373,0.000586895702118307,0.0005582386216562863,3.499368695462081e-05,4,32,4,16,4,32,4,2,4,2,4,32,4,16,4,16,4,2,4,8
moonchai,CELL_A1,200,0.0005235382104086584,0.0006464495131747345,0.0005897732124143255,0.0005711673315879994,0.0005910065364176826,0.000549197156343109,0.0006028691239135176,0.0006224050042087556,0.0005153940194749106,0.000533613110811683,0.0005745413218755376,4.146787668603452e-05,4,2,4,2,4,8,4,32,4,16,4,2,4,32,4,16,4,8,4,16
moonchai,CELL_A2,0,0.00035896899475878737,0.00035083580165743696,0.0003475031217674146,0.0003512066752780478,0.00037585641970488504,0.0003549134638303893,0.00036146906043882783,0.0003641636450871282,0.0003274335180512093,0.0003522012790514862,0.0003544551979625612,1.1955251992122857e-05,4,16,4,8,4,16,4,32,4,32,4,32,4,4,4,32,4,4,4,32
moonchai,CELL_A2,5,0.0003686683844902137,0.0003340014950375356,0.0003451046413752998,0.0003610220727030206,0.00036832055155388557,0.00034896182263828974,0.00034424397058601986,0.0003675885760364123,0.0003696400034295183,0.00033970667836688334,0.0003547258196217079,1.3028699706052177e-05,4,4,4,2,4,32,4,32,4,16,4,2,4,8,4,32,4,32,4,32
moonchai,CELL_A2,10,0.0003507057086816189,0.00043121553250934883,0.0003271151557943787,0.00040458280188552853,0.00031306061664347786,0.0003529487556601609,0.0003451917350305262,0.00033461460466002995,0.0003482526234567642,0.00033899556876175365,0.0003546683103083588,3.4115570823757234e-05,4,2,4,32,4,16,4,2,4,4,4,16,4,2,4,32,4,32,4,8
moonchai,CELL_A2,15,0.00034503962776245384,0.0003968053898006529,0.0003509087416421253,0.00034277404551308094,0.00036733067609490486,0.0003759854035626991,0.0003594155495671699,0.00029137050072410747,0.0003270283986110238,0.0003814547576371579,0.00035381130909153757,2.8533996927237136e-05,4,8,4,8,4,4,4,32,4,32,4,16,4,4,4,32,4,32,4,4
moonchai,CELL_A2,20,0.00035066191460074827,0.00040861240077498995,0.00038054012446898195,0.00031493702796367407,0.0002907561696975305,0.0003565780096793616,0.00033188410800465704,0.00034148170446848,0.00035913171153869006,0.0003664203996237502,0.00035010035708208634,3.1471778424386646e-05,4,4,4,4,4,32,4,32,4,16,4,16,4,2,4,8,4,32,4,8
moonchai,CELL_A2,25,0.000402297639605952,0.0003516291917329271,0.00035995927945338017,0.00031578734787676525,0.00030811798319043185,0.000354124314938345,0.00036554952473376664,0.0003303864815414,0.0003677270482190248,0.0003087945767957915,0.0003464373388087784,2.8792691625611062e-05,4,8,4,32,4,8,4,2,4,2,4,32,4,32,4,8,4,32,4,4
moonchai,CELL_A2,30,0.00033325067199209565,0.0003876825452698256,0.00032899333334946595,0.000335587618648523,0.00033935851291331376,0.00034789961626699825,0.00034510431712425063,0.00031363368258935625,0.00038244969892182567,0.0003545601638630512,0.0003468520160938706,2.188223166551338e-05,4,2,4,32,4,4,4,2,4,4,4,32,4,32,4,32,4,8,4,2
moonchai,CELL_A2,35,0.0003648957124578485,0.00035251025797441326,0.0003801935709910536,0.0003350789879114474,0.0003627142867302249,0.0003002464937467193,0.00037571424020811786,0.0003038352688451701,0.00034600590427703897,0.00035926168155655885,0.0003480456404698593,2.618296647338574e-05,4,2,4,8,4,32,4,16,4,16,4,4,4,32,4,16,4,2,4,2
moonchai,CELL_A2,40,0.0003270639298681363,0.0003527162283100466,0.0003272347053393941,0.00038151197826994537,0.00031477639915504307,0.0003751526577492301,0.0003761781985178478,0.0003810888897316678,0.0002966149213058648,0.00035163078835936853,0.0003483968696606544,2.89772425267156e-05,4,4,4,32,4,16,4,16,4,8,4,16,4,32,4,32,4,8,4,4
moonchai,CELL_A2,45,0.00039184099601202103,0.0003587903212883969,0.00033329365908185276,0.00030257038920189163,0.0003949744074153954,0.00038020422962741667,0.0003920229376547521,0.00029880862859878816,0.0003600462023847552,0.0002790637511243699,0.00034916155223896404,4.0992600244689534e-05,4,4,4,4,4,16,4,8,4,16,4,4,4,4,4,8,4,16,4,4
moonchai,CELL_A2,50,0.0003285960154520634,0.00039190781132065133,0.00029991164900514133,0.0003233668742104321,0.00036473458224283687,0.00032521612438268544,0.0004326021196104957,0.000358324188650955,0.00034963118552451685,0.00033872955110196914,0.0003513020101501747,3.642323286368244e-05,4,16,4,8,4,32,4,8,4,4,4,2,4,16,4,32,4,8,4,16
moonchai,CELL_A2,55,0.0004476970302267007,0.00036246517997902346,0.00036476627870075847,0.00033829783673762005,0.0002980994019275376,0.00037650457435667897,0.0003031513098775669,0.000367688529617414,0.000349280637496315,0.000448232567579775,0.000365618334649939,4.813497010530702e-05,4,2,4,4,4,8,4,2,4,4,4,8,4,32,4,32,4,16,4,4
moonchai,CELL_A2,60,0.0003812851960447889,0.00035405060870132596,0.0003344560085769099,0.000351417577131877,0.00037228754781141316,0.0003456973229331549,0.0003933382034263526,0.00031501620177963694,0.00037073515179257316,0.0002952195236745403,0.00035135033418725724,2.8755387374134213e-05,4,4,4,8,4,8,4,2,4,4,4,4,4,32,4,16,4,4,4,4
moonchai,CELL_A2,65,0.0003569282511710713,0.0003153325693189731,0.0003961935370861398,0.000370633798985429,0.0003230403213700105,0.00033065233555861764,0.00031085299991838987,0.0003812625378951592,0.0003597343337863476,0.00038573083923100656,0.0003530361524321145,2.9495230353606556e-05,4,4,4,32,4,2,4,16,4,4,4,2,4,8,4,8,4,16,4,8
moonchai,CELL_A2,70,0.000334121633102061,0.00044472719169808813,0.0003221251698811189,0.0003664596953578664,0.0004368480458791101,0.0003451769487205497,0.0003432662361767455,0.00032144140861618494,0.0003093387821908423,0.00034857199001607763,0.00035720771016386447,4.4537552368396564e-05,4,16,4,16,4,32,4,8,4,16,4,32,4,4,4,2,4,16,4,16
moonchai,CELL_A2,75,0.0003608659270777585,0.0003673900101800724,0.0003859993542021454,0.0003113883427378551,0.000346952131311883,0.00037115998573268913,0.00032134505316255504,0.0003127249969925614,0.0003623408292256284,0.0003805984419778424,0.00035207650726009905,2.630646807434836e-05,4,16,4,32,4,32,4,32,4,32,4,4,4,8,4,16,4,32,4,32
moonchai,CELL_A2,80,0.00033731484912863445,0.0003679166090661077,0.0003741603776540306,0.00031518045956777395,0.00033514983091652544,0.0003720336792400294,0.0003710185884327589,0.00030301898329447607,0.00039590571146986235,0.00036362749322495534,0.0003535326581995154,2.7930800002880292e-05,4,8,4,2,4,8,4,2,4,2,4,2,4,4,4,4,4,32,4,4
moonchai,CELL_A2,85,0.0003442403946076083,0.000345366260613321,0.00036803021772903265,0.00032689882517108896,0.0003428736941906954,0.00032939863480259434,0.00033033025942595353,0.00034017203857642745,0.00040093009247616526,0.0003915706442551146,0.0003519811061848001,2.4808931040154858e-05,4,8,4,16,4,8,4,8,4,2,4,16,4,32,4,4,4,32,4,8
moonchai,CELL_A2,90,0.0003933814827721257,0.00032911521531423345,0.000383846751774219,0.0003630736147447983,0.000385866523470279,0.00035272375212553854,0.00034190841782460107,0.0003418979949109463,0.0002538184043566154,0.000327278862522765,0.0003472911019816121,3.841010277403135e-05,4,32,4,2,4,4,4,16,4,8,4,8,4,32,4,2,4,16,4,4
moonchai,CELL_A2,95,0.00035340409371479784,0.0003711101252900864,0.00031746644309217403,0.00037054902264122106,0.0003740051347533955,0.0003184685320418658,0.00032519318859080724,0.000346523303388292,0.0004065187629414915,0.00035484583048739035,0.00035380844369415216,2.6848976483182438e-05,4,32,4,32,4,16,4,4,4,2,4,32,4,16,4,4,4,16,4,32
moonchai,CELL_A2,100,0.00037971381692452065,0.00033413533443016195,0.0003136640325750459,0.00038614692501556574,0.00035423194543786563,0.00035686891245200104,0.00037045483483277934,0.0004048340928926302,0.0003444458507922998,0.00031336146773392175,0.00035578572130867925,2.87928037674833e-05,4,16,4,4,4,32,4,4,4,32,4,4,4,16,4,2,4,16,4,2
moonchai,CELL_A2,105,0.0003339211040703784,0.00035394073326397327,0.0003686568287103648,0.00035815943855801964,0.0003344690884932932,0.00035146699001206754,0.0003051494321406202,0.00035088480676834146,0.000358981228410508,0.00034584086400610704,0.00034614705144336735,1.701158520100643e-05,4,4,4,32,4,4,4,32,4,16,4,32,4,16,4,2,4,32,4,32
moonchai,CELL_A2,110,0.0003059912059900515,0.0003421351655088306,0.00038661364125454654,0.00040130241578721377,0.00033911117086328165,0.0003523802710489498,0.00034474749722174285,0.0003146141301590235,0.0003668114728686193,0.0003610235850645343,0.00035147305557667937,2.78523843570799e-05,4,2,4,32,4,4,4,2,4,32,4,8,4,32,4,4,4,8,4,2
moonchai,CELL_A2,115,0.000375175977080549,0.00035484538464177796,0.00032575070582975606,0.00031812383689011885,0.00032873662291438006,0.00033528781978236897,0.0003657987961049154,0.0003878768719771433,0.00036774225626482913,0.00032267040447417784,0.00034820086759600167,2.3756241564122754e-05,4,4,4,16,4,4,4,2,4,8,4,16,4,32,4,4,4,2,4,2
moonchai,CELL_A2,120,0.00033306561377152895,0.00035940381936250027,0.00038618020786344967,0.0003900896521706452,0.0003310665946199286,0.00034608864986857316,0.00037348321436098846,0.00033461794596880025,0.0003224149061171862,0.0003473719104748098,0.000352378251457841,2.2725575479911957e-05,4,4,4,2,4,8,4,4,4,4,4,2,4,8,4,32,4,2,4,8
moonchai,CELL_A2,125,0.0004033592256222121,0.000330696109629158,0.0003190039873307254,0.0003301861151648919,0.0003981957962407149,0.00033376750068284176,0.00035657487640546813,0.00037807865063958654,0.00031045101751767253,0.0003187385223208641,0.0003479051801554135,3.238622810270964e-05,4,4,4,32,4,8,4,32,4,4,4,16,4,32,4,32,4,32,4,32
moonchai,CELL_A2,130,0.0003232150912103704,0.00035638490818854776,0.000373463628003855,0.0003142949707832196,0.00030297032118318867,0.0003993546028218506,0.0003715286575031358,0.00035026538416153076,0.00032864530202356975,0.00035995745278857155,0.00034800803186678397,2.865362977903265e-05,4,8,4,4,4,16,4,4,4,16,4,16,4,16,4,32,4,16,4,8
moonchai,CELL_A2,135,0.0003851972614382501,0.0003253990469773027,0.00032524148317323735,0.0003220882669540978,0.0003571767759205931,0.0003520524559111443,0.0003624909016753705,0.00039102620441438146,0.00036344912244161805,0.00035709133948614365,0.00035412128583921394,2.27866405622518e-05,4,2,4,2,4,4,4,2,4,2,4,8,4,8,4,32,4,16,4,8
moonchai,CELL_A2,140,0.0003478383040735058,0.0003921012308874298,0.0003391916605055953,0.000361436562566447,0.00034384042564372143,0.00032203474318370285,0.00035140665240551364,0.0003794968202546657,0.0003282076336707391,0.00033718351779911653,0.0003502737550990437,2.086925678204083e-05,4,4,4,32,4,16,4,32,4,8,4,8,4,4,4,8,4,8,4,32
moonchai,CELL_A2,145,0.0003576611029150745,0.0003963157914754555,0.00036422183076322223,0.00038984017013969185,0.0003660989488567314,0.00029791024883887445,0.0003439577804594762,0.00037910889624846196,0.0003284798600293481,0.00034065921919760694,0.0003564253848923943,2.826165273509411e-05,4,16,4,8,4,8,4,8,4,4,4,2,4,32,4,4,4,32,4,2
moonchai,CELL_A2,150,0.00034930985545047165,0.00034195984133338,0.000350667637207012,0.00034753270228156955,0.0003616374426375886,0.0003880994050399695,0.0003699530471577081,0.0003216594094216122,0.00032602702740896307,0.00035157414449627893,0.00035084205124345536,1.8520400891685085e-05,4,8,4,32,4,16,4,32,4,4,4,4,4,4,4,16,4,2,4,2
moonchai,CELL_A2,155,0.00031665664322383857,0.0003023970297953015,0.0003225464658876433,0.00035296499823624165,0.00039954179727477165,0.000379998723880278,0.00037728842244700184,0.0003696859170229398,0.0003397840565610705,0.00039681012301261284,0.00035576741773416995,3.254187832186406e-05,4,32,4,32,4,2,4,8,4,8,4,4,4,4,4,2,4,16,4,4
moonchai,CELL_A2,160,0.00034303476354728945,0.00033909787666984773,0.00038216783159075767,0.0003582925408168954,0.0003514930306618696,0.00036123833504364474,0.0003473392244034132,0.0003292420120957501,0.0003043365119525051,0.00036250391007873445,0.0003478746036860708,2.0084168768276812e-05,4,16,4,32,4,16,4,4,4,4,4,8,4,16,4,4,4,2,4,2
moonchai,CELL_A2,165,0.0004102329869064835,0.0003610503160406725,0.00034890883279980567,0.00032890528287103394,0.0003338134881350499,0.0003471074242963743,0.0003312287317143029,0.0003022655848907303,0.0003247749461422031,0.00038734913655543736,0.0003475636730352094,3.0115626251316943e-05,4,16,4,32,4,16,4,4,4,4,4,2,4,32,4,8,4,16,4,2
moonchai,CELL_A2,170,0.0003691242925829648,0.00033891890105945856,0.00042533577572733414,0.00034280166737923185,0.00035906896080678617,0.0003181274537858006,0.00038399341992626114,0.0003514079546267238,0.00031535426044787735,0.00031779777964304476,0.00035219304659854826,3.265069729039493e-05,4,32,4,16,4,16,4,16,4,8,4,8,4,16,4,16,4,8,4,32
moonchai,CELL_A2,175,0.0003294549781241042,0.00032505202211095124,0.0003435754599228101,0.0003442414186596879,0.0003265877575809717,0.000320909699469093,0.00033376132155697025,0.0004081695176560398,0.0003589655544720852,0.0003821230957097922,0.00034728408252625054,2.6831351081521058e-05,4,4,4,8,4,4,4,8,4,16,4,16,4,4,4,2,4,2,4,16
moonchai,CELL_A2,180,0.00033993113199692996,0.0003635975534381896,0.000350920958306833,0.00027725888571934727,0.0003395727470198197,0.00037975067711792465,0.00036916781751689874,0.00039350110618169596,0.00034305237439659494,0.000329965074803423,0.0003486718326497657,3.043682430625248e-05,4,16,4,32,4,8,4,4,4,32,4,8,4,32,4,8,4,4,4,4
moonchai,CELL_A2,185,0.00034208740096949457,0.0003734832938940413,0.00039667951941824105,0.0003580595790025081,0.00032105370500639605,0.0003097067274732534,0.0003431049407101593,0.0003125194352535294,0.00036847813218960333,0.00038071831166965856,0.0003505891045586885,2.837845070239627e-05,4,16,4,16,4,4,4,4,4,2,4,8,4,4,4,32,4,8,4,8
moonchai,CELL_A2,190,0.0003750939126403195,0.0004074907966743708,0.0003997557954495174,0.00031693111679491977,0.00035240171224533174,0.00034663448505091064,0.00032440831170096846,0.000389038779096584,0.00028579862950007287,0.0003768538403466793,0.00035744073794996746,3.740246110894425e-05,4,8,4,16,4,4,4,8,4,32,4,4,4,8,4,4,4,2,4,32
moonchai,CELL_A2,195,0.0003833648357737879,0.00034678737387167113,0.00032752381840150436,0.00032948096816994753,0.0003204590910573371,0.00033270743851677407,0.00044092645080010754,0.00037425184136247907,0.0003768326652912502,0.00033544139302886414,0.00035677758762737223,3.542569676214395e-05,4,16,4,32,4,4,4,4,4,4,4,8,4,8,4,32,4,32,4,4
moonchai,CELL_A2,200,0.00039256596097753663,0.00034121187238492895,0.000400210338845239,0.0003302707213136821,0.0003626611919208004,0.0003379076887134511,0.0003585678657023723,0.00033806477814807463,0.0003670639405384232,0.00034157707080534507,0.00035701014293498535,2.2787069063481e-05,4,16,4,8,4,4,4,16,4,16,4,32,4,4,4,2,4,4,4,16
