Model,Class,T_bound,score1,score2,score3,score4,score5,score6,score7,score8,score9,score10,score_avg,score_stdev,max_depth1,min_samples_split1,max_depth2,min_samples_split2,max_depth3,min_samples_split3,max_depth4,min_samples_split4,max_depth5,min_samples_split5,max_depth6,min_samples_split6,max_depth7,min_samples_split7,max_depth8,min_samples_split8,max_depth9,min_samples_split9,max_depth10,min_samples_split10
dossantos,CELL_H,0,0.035783164231941444,0.005538092609711658,0.027534058922796652,0.015742000344872758,0.015298566371117914,0.0056931632686920575,0.009497587471925875,0.03768400321687131,0.008214384732613296,0.009273920437700601,0.017025894160824354,0.011612311536217265,4,16,4,32,8,32,4,32,64,32,4,32,4,32,16,16,16,32,32,32
dossantos,CELL_H,5,0.014945523431469218,0.00768178189203467,0.026934761484404515,0.01698876973704542,0.003489814958432527,0.0074079703344099804,0.007750340335336446,0.03626016037927496,0.0037985027248422327,0.01691530816639629,0.014217293344364623,0.010087833905051276,64,4,64,32,4,32,8,32,4,32,16,32,4,4,64,16,16,2,4,32
dossantos,CELL_H,10,0.007846620121334592,0.013000649878406323,0.008094518701708362,0.03122433991633828,0.015439780901973897,0.035628972966672084,0.00679764160592083,0.014108549538804175,0.01303893283367774,0.05115230219739875,0.019633230866223504,0.013985960382955038,4,16,32,32,16,16,16,8,4,4,8,2,4,32,32,32,16,8,4,4
dossantos,CELL_H,15,0.004806788478816142,0.0115703704139979,0.013396455492914319,0.015519129403824156,0.0034868326861366805,0.010627903999947884,0.037465855450089174,0.01643969602200361,0.011300228212736163,0.0446978571047614,0.01693111172652274,0.012787961151791073,8,8,8,4,32,16,16,8,64,4,16,16,32,32,4,16,8,32,16,4
dossantos,CELL_H,20,0.01345873021992052,0.005608146083976954,0.00364726853396754,0.030424635189836752,0.008519034794664208,0.014636214208135224,0.028425937297736934,0.0089776761525328,0.03559313109400212,0.009022205420165864,0.01583129789949389,0.01081178179696756,64,4,4,16,16,8,4,4,8,4,16,4,32,16,64,4,8,8,8,16
dossantos,CELL_H,25,0.030401564022283452,0.013305909444678991,0.01217358825544258,0.001996169047507464,0.03324181009858074,0.007892473575780046,0.014288887433495748,0.010964809042706877,0.002860269825024794,0.02877475516320153,0.015590023590870222,0.01072786560677446,8,4,64,4,4,2,4,8,16,4,32,4,4,2,16,4,8,2,4,2
dossantos,CELL_H,30,0.003839872886035518,0.015952623431628416,0.0057286965230448055,0.003055487375603051,0.006879289823291803,0.012068538093264403,0.03175486016754282,0.027135228961446083,0.032670108597918614,0.0161917431445865,0.0155276449004362,0.010805007175560885,32,8,32,16,8,2,16,4,8,16,8,2,8,16,16,2,32,8,32,8
dossantos,CELL_H,35,0.007206984936752079,0.030594255037006766,0.020407050267876876,0.00295685394299161,0.03661315870675118,0.006034400110658874,0.013373855075616566,0.006405330566972609,0.03681387121789597,0.02730779536580071,0.018771355522832326,0.012598826586644817,64,2,64,32,32,32,16,8,4,4,16,8,4,2,32,8,8,32,16,4
dossantos,CELL_H,40,0.018858415929937596,0.014539893375380546,0.000706847466128105,0.011476507993410991,0.04341092722018672,0.015451962560759886,0.015726011125646353,0.02602540277870954,0.01389211496793109,0.011795619570478299,0.017188370298856913,0.010606063118132225,8,32,8,32,8,16,32,32,16,2,4,8,8,32,4,2,4,16,32,2
dossantos,CELL_H,45,0.0021896767578473576,0.009073102233676881,0.017938073029125156,0.02938516152651412,0.02929827151598784,0.0036984463835590163,0.013906769556121058,0.0029160316516007633,0.007684711047224626,0.03739939515920133,0.015348963886085814,0.01203415708859878,32,2,64,32,4,8,32,8,8,8,16,32,64,2,16,2,32,32,4,8
dossantos,CELL_H,50,0.003189628599435176,0.03618760790258833,0.027128928141688186,0.028878766846938495,0.014970545972072237,0.007135082879130084,0.00289650550522272,0.011702208478087723,0.008132418676237535,0.01652064572763902,0.015674233872903946,0.01091919680466379,64,8,64,32,16,2,8,16,64,16,4,32,8,4,64,32,8,16,4,32
dossantos,CELL_H,55,0.029577929834853765,0.013862120645080045,0.0033746595482277305,0.011780546942412127,0.015803357059216,0.017744527271091257,0.03609937498132718,0.003549740133615417,0.004782787885985345,0.015523987925389116,0.015209903222719798,0.01023728239095848,16,4,64,8,4,2,4,4,4,32,8,4,16,32,64,32,8,8,8,32
dossantos,CELL_H,60,0.000802342537181766,0.01082517840654957,0.03251983109987405,0.004597414229497256,0.0039686303806247035,0.01248312500527022,0.04396959396810468,0.01249992184271446,0.015164516775038835,0.0032142032519312104,0.014004475749678674,0.013178375512799267,8,16,32,16,64,8,64,2,16,16,32,8,8,32,16,8,64,32,8,8
dossantos,CELL_H,65,0.010322552685027804,0.015120467813001078,0.004789936930749616,0.015976216834154434,0.008970013286267831,0.009443230923810407,0.00464225302409343,0.02524333594844263,0.03666294243012403,0.01338856852548431,0.014455951840115559,0.009356594419404427,64,32,32,8,16,8,8,8,64,16,4,8,64,4,32,16,4,8,4,2
dossantos,CELL_H,70,0.011243450380802579,0.0010767384233761421,0.00533112364949268,0.03432702761015288,0.03376539143560698,0.005017106659943873,0.006620854743420263,0.00974548541649503,0.010958387618851644,0.022507863921408296,0.014059342985955037,0.011351045824629237,32,16,16,2,4,4,8,2,32,8,4,32,16,32,64,32,4,2,32,16
dossantos,CELL_H,75,0.011502492644569198,0.004319286927269016,0.01469145182656382,0.011081368799145867,0.027400971825043387,0.0037573468976040483,0.0028305501254520496,0.036180832414188804,0.013363376351256324,0.017383080783248964,0.014251075859434147,0.010106504451115883,32,2,32,2,16,16,4,2,32,2,4,32,16,2,32,16,16,16,8,2
dossantos,CELL_H,80,0.0033292192398438046,0.031086936299152032,0.0032002586476631,0.03408356858268634,0.014381443045234628,0.0030965115543917726,0.027246491441538095,0.014951437314798885,0.0011618129819767767,0.021856972097406294,0.015439465120469176,0.01194591930363307,32,32,32,4,16,32,4,32,64,16,16,32,64,32,32,2,32,16,16,16
dossantos,CELL_H,85,0.027309790521088704,0.01342225857250299,0.0070285698073728,0.004935988581982895,0.035825276138407726,0.0036376241516876693,0.014162131290764012,0.011595630600911535,0.030304371277681496,0.007909351320312133,0.015613099226271193,0.010838255737216126,16,32,8,16,32,16,8,2,4,32,4,32,16,16,16,8,64,2,64,16
dossantos,CELL_H,90,0.023162905767521627,0.002718184387878343,0.010578325016913973,0.011588044027769823,0.044380812774250586,0.012479914525420696,0.0034910216047048213,0.031302559907090625,0.027251686481775853,0.012250568135131104,0.01792040226284574,0.012604988755542073,8,8,4,32,8,16,8,16,4,4,32,16,8,32,64,2,4,32,64,2
dossantos,CELL_H,95,0.007291987153890418,0.014829766734733206,0.00299081196731713,0.010915759207662173,0.011385050983599784,0.00998334805517249,0.04294828635520403,0.01535743812486814,0.015671706090982753,0.014385276361720187,0.014575943103515029,0.010192369785758312,64,32,4,8,32,32,8,32,32,4,32,16,4,32,32,8,4,2,64,8
dossantos,CELL_H,100,0.007950917676774636,0.004044509131251387,0.01039871888524168,0.03778957264829385,0.016549114563963317,0.029762297321921545,0.013934788531243638,0.0015843646953968805,0.012959257920695537,0.024831958248096052,0.015980549962287854,0.010967703152243121,16,16,4,8,4,4,8,4,4,8,16,8,8,2,64,8,64,32,8,32
dossantos,CELL_H,105,0.002273911504372609,0.042748697486532976,0.004015504687097029,0.005094112449954159,0.0018512259377624868,0.029925778617451302,0.0024165206907728774,0.02247428426924578,0.0061109620844751016,0.016972876296382142,0.013388387402404648,0.013481622950774012,4,32,64,8,16,16,8,16,4,2,4,2,16,2,16,8,32,8,8,2
dossantos,CELL_H,110,0.011442140916363612,0.0030032896783549175,0.0019089658533096123,0.029560174246907617,0.03429479527571292,0.024909280196851263,0.016705443991701995,0.0028298509406262484,0.027948733301223407,0.016664758630249205,0.01692674330313008,0.01137881809706013,4,4,64,32,4,4,4,4,4,8,8,8,32,32,8,8,64,16,64,2
dossantos,CELL_H,115,0.009971644063172186,0.02868190595001319,0.028188742589990632,0.023432666890562805,0.004008636550998352,0.007106831268414173,0.002394680805245867,0.03351112513104026,0.004335000555683671,0.004870735990584404,0.014650196979570554,0.011650409029494886,32,16,64,2,64,16,4,16,8,8,64,32,4,2,4,32,4,32,16,32
dossantos,CELL_H,120,0.016820814489001176,0.026066017489735867,0.008613279914463605,0.03491672020721135,0.013291621783055312,0.0011450117531072992,0.0020443686376268007,0.012856546824201948,0.006291319985982599,0.014436888615768199,0.013648258970015417,0.009942063370418659,16,2,64,16,64,2,8,32,4,4,16,4,4,8,16,32,8,32,16,8
dossantos,CELL_H,125,0.04870391293155078,0.034351570113854334,0.005099213038673082,0.013353774065166664,0.016136578213431698,0.004819309566205865,0.013417548505679519,0.011058818312182445,0.008073572592714533,0.02471000498827804,0.017972430232773697,0.013371814264478268,32,2,4,32,64,32,4,8,16,32,32,32,16,16,16,4,16,4,32,16
dossantos,CELL_H,130,0.003623229909790602,0.016213671570294227,0.008501610641450243,0.02715182725623565,0.01671997730875114,0.0028221169672389803,0.03474253570544978,0.004597303115680933,0.034851554852192046,0.0069151671992267565,0.015613899452631036,0.01194036376340176,32,8,16,16,32,2,8,8,4,8,64,8,16,16,16,2,16,8,4,2
dossantos,CELL_H,135,0.030115472840318843,0.029868922841821417,0.03100801106517462,0.016767517959814574,0.002783132838381809,0.03549769421037212,0.0025888008285530895,0.022271279661593323,0.0032331773780384567,0.00443126305131228,0.01785652726753805,0.012860087257269396,32,8,8,2,8,4,16,4,8,32,4,4,64,16,4,32,32,32,16,2
dossantos,CELL_H,140,0.010287638741808698,0.01918741635501272,0.011914989325369243,0.027905410135770227,0.004413469838008336,0.002253571171467168,0.013190388020424194,0.004120792636816738,0.015078050072836491,0.04222558217102243,0.015057730846853624,0.011632672568977922,32,32,16,2,64,2,64,16,4,2,16,32,8,32,16,32,8,16,16,8
dossantos,CELL_H,145,0.01136341450014637,0.02764401123028892,0.004686877826146863,0.002201632635570287,0.003560880428403846,0.008335133496835602,0.016876556946606298,0.002550085746383929,0.03760674323452663,0.027387473107900236,0.014221280915280899,0.011981237410106581,32,16,32,8,64,4,8,32,16,32,64,2,16,32,4,32,16,2,4,2
dossantos,CELL_H,150,0.004486812108687539,0.013802450181741472,0.0112803937342236,0.02268427925931418,0.024731165478358498,0.011909765164234079,0.027219026080197908,0.03587254898675199,0.012012274932874868,0.002725148996864603,0.016672386492324876,0.010028397671621673,32,2,4,32,16,16,32,16,16,16,16,2,16,2,32,4,32,2,32,2
dossantos,CELL_H,155,0.030942782070131784,0.006808480858853252,0.03097074501423639,0.015177053893974673,0.0044323144222370705,0.011318504331426185,0.00360368533705803,0.007857777100232098,0.02764639809833259,0.0058537717388498145,0.014461151286533188,0.010597959010809972,64,4,64,32,8,8,16,32,32,32,4,2,64,32,4,8,32,2,64,2
dossantos,CELL_H,160,0.004522835874275758,0.015322998569528852,0.014474072705507494,0.008854945367329467,0.003045326051791776,0.03110780612718104,0.03403603092147652,0.004001119065763328,0.02996328699713008,0.009467962904430501,0.01547963845844148,0.011339479513256775,64,32,4,16,16,32,4,4,64,32,16,32,32,2,32,16,4,32,4,32
dossantos,CELL_H,165,0.013133277279916186,0.016220594163085824,0.0026325569046015264,0.003094499076708422,0.006077375452461173,0.03460171719904614,0.01353434372668358,0.023642760134807147,0.013178279210760285,0.01761882270854958,0.014373422585661988,0.009201119541964866,32,2,4,4,4,4,16,2,8,8,32,32,4,8,16,4,4,2,32,4
dossantos,CELL_H,170,0.02060412918632894,0.04276117661409696,0.027444345575802224,0.016813951650573505,0.012278708803241587,0.0045785971357833345,0.01517505126000079,0.01594996709108146,0.014423188217004402,0.005832995985332543,0.017586211151924575,0.010462634875617709,8,8,16,32,4,2,64,8,64,2,64,32,64,4,32,8,8,4,64,2
dossantos,CELL_H,175,0.009983594044707205,0.02514094836873883,0.015068275639178865,0.03304976565409037,0.007035101312682177,0.00950118573227705,0.004459712578146199,0.029056890334950618,0.019498959622769783,0.008526783781672785,0.01613212170692139,0.009515768118413662,64,2,4,32,4,32,8,8,4,16,8,8,4,2,16,2,16,8,16,2
dossantos,CELL_H,180,0.029647859603062612,0.018365577879856463,0.00920305658122985,0.005215590311179326,0.033048129367183605,0.005412261881411992,0.021325010136524162,0.0034633562961551806,0.010032423125561723,0.03299456180295889,0.01687078269851238,0.011222604527785732,16,2,32,8,8,4,4,32,64,2,32,8,4,32,16,32,8,8,8,16
dossantos,CELL_H,185,0.009138553909328575,0.024913047389106956,0.012542371082843668,0.003207583053788702,0.010764243769940523,0.003810352973021596,0.03155519137939369,0.004009818407227603,0.03340727671056858,0.006511107923532352,0.013985954659875224,0.011028783367564387,8,2,4,2,32,8,4,32,64,4,8,8,32,16,32,8,16,2,4,4
dossantos,CELL_H,190,0.026804187516379023,0.010149436342696045,0.016028095069268174,0.035083357912227275,0.013582098407034776,0.009820816154504326,0.001881322456729027,0.002328242792743161,0.004198463930837258,0.001167317478902451,0.012104333806132152,0.010737504536781562,64,8,8,8,32,32,64,8,8,16,64,2,8,32,4,2,64,32,8,16
dossantos,CELL_H,195,0.007441614395314956,0.009493907627990109,0.03588618243392039,0.007135605737350509,0.006672253333404769,0.014291081980020782,0.0023425991310795707,0.03410048173776909,0.027092427184913833,0.024077893878373557,0.016853404744013756,0.011724775262883208,8,32,64,2,8,2,16,4,4,2,32,2,8,16,16,16,64,8,4,32
dossantos,CELL_H,200,0.003881839711043777,0.03662368276812002,0.008167265504769332,0.019386425546253083,0.0070629594579141594,0.010825003966596065,0.0012692134904499688,0.02716780061284113,0.02954886681207068,0.025447828645161995,0.01693808865152202,0.011650776718722045,4,2,4,2,8,32,8,2,64,32,64,32,8,2,4,32,32,32,64,32
dossantos,CELL_D,0,0.0025726239018969478,0.0010214938818162676,0.00156608304282551,0.006697578158516324,0.0012827087007797788,0.0026144231566071056,0.006184039500101707,0.004976796837702067,0.0008508667648282282,0.001577521943084203,0.002934413588815814,0.0020872980803716443,16,32,4,32,64,32,4,4,32,32,8,32,4,32,64,32,4,32,4,32
dossantos,CELL_D,5,0.0028259067807613583,0.0014375722054516978,0.0009036450317589494,0.0007429733925769563,0.006712268900820021,0.0012151010515980504,0.003856341003559037,0.0043650277562736735,0.0014012407222426424,0.00340007271214267,0.0026860149557185057,0.0018235682324035554,16,32,16,2,16,32,64,8,8,32,4,8,8,4,4,8,64,32,16,32
dossantos,CELL_D,10,0.0009320445125164164,0.0024971021757208157,0.0033906807678258204,0.0022787394892237966,0.0021321573692980006,0.0029844051321417627,0.0017063351211794814,0.006186892784728531,0.0016635083319661203,0.002074613034970106,0.002584647871957085,0.0013675825345960486,64,2,8,32,32,32,4,32,64,32,16,32,64,32,32,32,8,32,4,32
dossantos,CELL_D,15,0.0013212792328152559,0.000689568163197593,0.0006185293495688902,0.006333058241735139,0.005190851263782151,0.005348646282789125,0.0032202847607322384,0.0024407835126714276,0.0019745259987284476,0.0012639463776382897,0.002840147318365856,0.00198554893604463,32,32,4,16,8,16,32,2,32,16,32,4,64,32,8,16,8,32,16,16
dossantos,CELL_D,20,0.0008262015504544426,0.0009882317424232245,0.0016233564085369441,0.0068042966748767105,0.001615155763236205,0.004478327220782933,0.001514618515768664,0.0006484604526729784,0.001572319081937301,0.0007654303368813844,0.0020836397747570788,0.001887172145752428,16,32,4,2,4,8,4,8,4,16,8,32,4,2,32,4,4,32,8,2
dossantos,CELL_D,25,0.004730777386034534,0.002146960075261822,0.0017590239745730487,0.006057791906923885,0.002168227537735536,0.0018702802868557297,0.0010061856818283101,0.0008069299164857914,0.0010341892064672721,0.004731795700152104,0.002631216167231803,0.001756982002487855,16,8,8,2,4,4,8,4,4,2,64,16,64,16,32,2,4,4,4,16
dossantos,CELL_D,30,0.0013952412012473172,0.005054686119480391,0.0021616962508391826,0.0023895132876890074,0.004423744290790262,0.0009340669829267117,0.0008509467347157666,0.006646811544419016,0.0015979896759338165,0.004583277349857872,0.003003797343789934,0.0019120010560879795,32,32,16,16,4,8,16,16,8,16,8,2,4,2,64,2,4,2,4,2
dossantos,CELL_D,35,0.002830707204121601,0.005406335930636295,0.0005608466814486512,0.0006190839851934652,0.003102625651275294,0.001468860958827548,0.001047087256077927,0.005668900152649239,0.001045654834011196,0.002035264915113612,0.002378536756935483,0.0017781217851341985,64,32,4,32,16,8,32,32,16,16,32,16,4,32,64,32,32,2,4,8
dossantos,CELL_D,40,0.002323734814721736,0.005783439829994435,0.004760764966943008,0.002485816034366022,0.004066292043389123,0.0005123415918704996,0.004387456829439317,0.0025139915559374932,0.0027734373124933156,0.001026044450803372,0.0030633319429958323,0.0015799979701719917,4,2,8,32,8,2,8,32,8,32,4,4,4,32,16,32,8,32,4,32
dossantos,CELL_D,45,0.0006192513153530751,0.0029849067763773954,0.00726779235498546,0.0021137921710183026,0.002288504179025304,0.0016488879831056207,0.004387142529477674,0.0007390953803332686,0.0007241435335724174,0.002220809292040209,0.0024994325515288727,0.0019317395062095535,8,16,32,32,4,32,32,2,32,16,16,8,64,32,4,2,32,32,4,32
dossantos,CELL_D,50,0.004721709991836111,0.0029933181354404315,0.006544415125511745,0.0012191416078963634,0.00197659248832918,0.0042767774837876886,0.0018642120169078424,0.0007111790308417462,0.005182223820106103,0.0012171414619326871,0.00307067111625899,0.0018919737283719434,32,4,8,2,16,2,8,32,64,32,64,32,8,8,8,32,4,4,32,32
dossantos,CELL_D,55,0.001946151489593301,0.0005355243159033189,0.0027705536998564014,0.006401100352174519,0.004846597509632503,0.005092528602479496,0.0008075065842664569,0.0007492200608618477,0.004019539618682235,0.002435115967133568,0.0029603838200583646,0.001944450125494541,4,32,32,4,16,4,8,4,4,8,32,2,4,16,32,32,64,4,8,32
dossantos,CELL_D,60,0.0016935138777785152,0.006452264638692884,0.0012423402673538814,0.002566752599338462,0.004696570903504367,0.001259668444485713,0.004644871112068309,0.0028493567984171878,0.000875883273529579,0.006338828100985404,0.0032620050016154306,0.00201272670820444,8,4,32,4,4,2,64,8,64,32,32,32,32,2,64,16,16,32,64,16
dossantos,CELL_D,65,0.002333010224672129,0.0023424934540959234,0.0036620802086053195,0.0038541028908991625,0.0023638693840728297,0.004693274321775602,0.005675122730058579,0.0019319868971852088,0.000805484226600125,0.0014552597352260855,0.0029116684073190965,0.0014400660793794026,4,2,4,32,64,32,16,16,4,16,4,32,16,32,16,32,64,2,32,16
dossantos,CELL_D,70,0.002954743522141245,0.005030808295894211,0.006339914182076126,0.002704906246634124,0.0011126357465925268,0.0004064714846388871,0.0046576392343687855,0.000739776125406146,0.0020796539112661297,0.0012625494313780673,0.0027289098180396246,0.0019142654952723616,64,2,16,32,64,16,32,32,4,8,8,32,8,32,64,32,4,32,64,32
dossantos,CELL_D,75,0.002989381360754903,0.0022930944335050854,0.0056488911396349725,0.001994908030980623,0.0005880390460942092,0.004392651418610803,0.005028786627971297,0.0016865218752521091,0.0005054243558638241,0.0034546546677901597,0.002858235295645799,0.0016838510074074391,4,32,32,2,32,32,32,32,32,8,16,16,32,8,16,32,64,2,64,32
dossantos,CELL_D,80,0.0007786950981284729,0.00733091592808749,0.0032083230905274925,0.002983472342018813,0.0046784058556922576,0.0025769416526841386,0.0006367806886945686,0.0021073594083194785,0.0009628302572589676,0.0012803687138396235,0.0026544093035251307,0.001975479695259997,16,32,4,32,8,4,4,16,4,32,8,32,32,32,4,4,16,2,16,32
dossantos,CELL_D,85,0.000712306972763145,0.005715941666297096,0.002747933258364323,0.005131850932693694,0.004821150633730673,0.0015119848149113277,0.0005354667132970294,0.002447462546106327,0.0019760505124493248,0.004682617392478199,0.003028276544309114,0.0018165870074681725,4,32,4,32,16,8,4,4,32,4,32,32,64,8,4,4,16,8,16,32
dossantos,CELL_D,90,0.00469856889816666,0.0024507272985260834,0.0017420662526471055,0.005529208112994618,0.0015940287827250663,0.0006869042208532255,0.004176929332191398,0.0064451179074984715,0.002651922346501209,0.0014901549343411787,0.003146562808644502,0.0018420987649201612,8,2,16,4,8,2,4,8,4,8,4,8,4,32,4,32,4,2,64,32
dossantos,CELL_D,95,0.0025299526396369374,0.006518952076055327,0.006589759250799937,0.002146732502409575,0.0007099238325465884,0.0006966298359161736,0.0005639202089151419,0.006075736611330452,0.0005803911859533586,0.0014009009757515326,0.0027812899119315023,0.0024514545075971094,32,16,64,4,4,2,8,4,4,2,4,32,4,32,32,16,8,32,32,4
dossantos,CELL_D,100,0.0004768934131089672,0.0025576324431244527,0.0016771096312891793,0.0006705451056981139,0.00590497721848285,0.004292615500145805,0.001307080436297111,0.0012245374926409336,0.0007919241056553456,0.0031678739033036865,0.0022071189249746443,0.001687700298719942,4,4,4,16,64,2,16,32,16,16,4,16,64,32,8,32,64,4,8,8
dossantos,CELL_D,105,0.007774234056758331,0.0018519196435629168,0.004937800870640233,0.0012189806506292587,0.001780328760939977,0.001312435537344961,0.0024876281613594106,0.0027579648113150905,0.0046626685718361765,0.0025241198034272852,0.0031308080867813643,0.0019625213460449987,64,2,32,8,4,2,64,32,8,32,4,4,4,8,4,32,4,2,4,32
dossantos,CELL_D,110,0.005295906765845257,0.004827809564054239,0.0017355002530106047,0.006122098395067509,0.0006155803581859557,0.004267364287535795,0.0015180348078453528,0.0025611723670990938,0.0007673950073890011,0.0008406486269474655,0.0028551510432980273,0.00197677779907165,8,16,32,32,4,8,8,4,16,8,4,16,16,16,16,2,4,16,8,32
dossantos,CELL_D,115,0.002499917807296475,0.004682146367916431,0.0008628901049832113,0.000853549019369434,0.0032015848917082514,0.0009640421615550399,0.00822155540478723,0.000777846314946279,0.0010315824054324427,0.005775274949846054,0.0028870389427840845,0.0024513623685882514,64,16,32,4,32,32,4,32,8,32,8,2,8,2,8,32,64,32,8,32
dossantos,CELL_D,120,0.00497699778316895,0.0015208173746997565,0.0019247849110002506,0.002786640772777208,0.0007718769331056465,0.004435634911068475,0.0023002349132848297,0.006044314586131666,0.0010736243906582029,0.002572237842213097,0.002840716441810808,0.0016649746102848264,16,32,4,16,4,16,4,32,16,32,64,8,16,32,8,2,64,32,4,8
dossantos,CELL_D,125,0.0015453282012797545,0.0006165177255956291,0.005164626533019924,0.002493552804666376,0.005944389018392091,0.0020868757452519537,0.005014365627991362,0.0009159879527735345,0.0018636786006979115,0.0026836498306678984,0.0028328972040336437,0.0017819995113330625,64,32,8,32,4,32,8,32,8,2,64,4,4,32,8,32,8,16,4,32
dossantos,CELL_D,130,0.009025789461313197,0.0036707743209775452,0.005671740354851582,0.0009794579872187252,0.0012695880688426535,0.0020441655622815366,0.0010504709881557252,0.0017809438868114707,0.0020928384814011087,0.0020405193628819747,0.002962628847473552,0.00242703828880546,16,2,32,32,32,32,16,32,16,32,4,4,32,32,32,8,64,4,16,4
dossantos,CELL_D,135,0.00522993596712266,0.005788088896952123,0.005722533569530185,0.004584831349515072,0.0013442977743636114,0.0012514159222644504,0.0011906736459156432,0.0008908672636829259,0.0009078154573533731,0.0031108743734248245,0.003002133422012487,0.0020144581460668927,64,2,16,32,16,8,4,8,16,32,4,2,16,8,16,4,8,16,32,32
dossantos,CELL_D,140,0.004052539762322643,0.0015264992875740823,0.0006381719229665637,0.0007271916350057729,0.0009986943175951933,0.0007591610749768828,0.002520370740136275,0.0015679639683195137,0.005806637933060292,0.0056975336809558476,0.0024294764322913068,0.0019294875487959964,16,32,8,32,4,32,8,16,64,32,8,4,32,8,32,4,32,32,4,32
dossantos,CELL_D,145,0.005021538861349025,0.0019713606959170676,0.002077173953281638,0.006961225075158164,0.0010196551190660799,0.004245791848872467,0.0020703086441491766,0.005950308918107093,0.002080392177728064,0.001589268771308792,0.0032987024064937568,0.001966561770499802,4,2,8,32,16,8,64,32,4,2,32,32,8,4,4,2,4,4,8,32
dossantos,CELL_D,150,0.002825441904758724,0.0036508706122310984,0.004279104351965853,0.0013903660061091857,0.0008803630562720169,0.0014213417453950074,0.00467970607371603,0.0021073565984535136,0.008522576083800627,0.0007530046282117839,0.003051013106091384,0.0022540228802457314,64,8,32,2,16,32,32,8,4,4,64,8,32,32,8,32,16,16,64,16
dossantos,CELL_D,155,0.0014289151376412391,0.004796969789853089,0.004155385138872404,0.0020150663080453586,0.00233608406369112,0.0007971603346143462,0.0069446123535976895,0.0030395122703290645,0.005808325582487873,0.0010349318210641277,0.0032356962800196313,0.0020012468670697957,8,2,4,8,8,32,8,32,8,32,32,32,8,16,8,32,64,2,8,8
dossantos,CELL_D,160,0.0032324706000844148,0.0014110614497945227,0.0008835498764745875,0.005961259833094623,0.0006051123055232917,0.002539274171070463,0.006072760609532258,0.0016861769332514602,0.00462355702951307,0.002471214261234146,0.0029486437069572834,0.001892937148739174,32,16,8,32,16,32,8,4,32,16,16,16,16,4,64,2,16,32,16,32
dossantos,CELL_D,165,0.0012582879533241799,0.0027658473851769763,0.0018193813422342565,0.0024941776194439885,0.0005991891125746377,0.0025677604547928133,0.003681329342006229,0.0016246612342264697,0.0023951804659124148,0.006372654568852038,0.0025578469478544008,0.0015109668303849358,64,32,32,16,32,4,16,32,32,32,8,32,64,2,32,32,16,16,32,32
dossantos,CELL_D,170,0.0044838378893802934,0.0018610465108797537,0.0027598479886925776,0.0006904040860039107,0.00089070571736419,0.0006404859694795203,0.002984762403180577,0.005790079758543447,0.005175960593659933,0.001312762447280363,0.002658989336446457,0.0018196371786455656,64,16,16,32,8,32,16,2,4,2,4,2,32,2,4,32,8,4,16,32
dossantos,CELL_D,175,0.004452686868536102,0.002640152222099816,0.002009799912036617,0.002684596776142536,0.0007485571126951964,0.0028142038615897326,0.005766239422636991,0.0005183444712234512,0.0026448704506827512,0.0004100838792716245,0.002468953497691482,0.0016201127611640796,4,2,32,32,4,2,32,32,4,2,32,16,32,32,4,2,16,2,4,2
dossantos,CELL_D,180,0.0018187469382172263,0.0056721941673462326,0.00430052776464368,0.0044125632307450285,0.0004726398490418143,0.0006036431712251023,0.0005521761089628804,0.0024484224425442348,0.0014084707589780202,0.005268016879102292,0.002695740131080651,0.001933907133470826,8,2,4,32,8,4,16,8,8,16,4,32,64,2,8,8,64,32,8,32
dossantos,CELL_D,185,0.005031288493138457,0.0012397069486745232,0.004281181552107743,0.0016437579243142582,0.002383154962253499,0.0005573025551814646,0.005713931126226,0.0011463026053809176,0.0027240234620317344,0.0006362538009495674,0.0025356903430258167,0.0017709345744519728,8,32,4,4,16,32,32,32,16,8,32,32,4,32,32,8,8,8,64,16
dossantos,CELL_D,190,0.0006739571967316974,0.0008630330036094169,0.0074205166432070235,0.005546284493937425,0.002096184895291684,0.001585421866127744,0.004788965649577875,0.000701877175073187,0.0006344255222429091,0.0038690344982629256,0.0028179700944061885,0.002309136841788828,8,32,8,32,8,2,4,32,32,32,4,32,32,32,32,16,32,8,8,32
dossantos,CELL_D,195,0.0008099147638714724,0.0006852315036636006,0.0017086095506984504,0.005134193859272359,0.0028804443267789496,0.005692126425153611,0.002509829757092045,0.0006735478951409187,0.002281921190404078,0.0016573699776051218,0.0024033189249680603,0.001674801279755368,64,8,16,2,8,4,32,2,32,2,32,32,4,2,64,32,4,32,8,2
dossantos,CELL_D,200,0.005012126720843616,0.0017454785478493839,0.0026173806192510106,0.0011575106702497162,0.0024490718916196927,0.0042695462671207525,0.0007120573204207395,0.006399780015252188,0.002553038947473339,0.001455453631081018,0.002837144463116146,0.0017375924811876594,8,32,4,2,4,2,32,2,4,8,8,2,8,16,32,32,64,2,8,32
dossantos,CELL_A1,0,0.0022997220796792095,0.023277312358191988,0.004215721552411986,0.004641914653051866,0.010480312746582801,0.006278298857488362,0.024093238044529255,0.01784895770738276,0.010823016144466902,0.0038132437946248403,0.010777173793840997,0.007777974231847329,4,16,32,4,4,32,64,32,8,32,64,16,16,32,4,8,64,16,64,32
dossantos,CELL_A1,5,0.004463998142753003,0.0027483167433896777,0.012443196354852267,0.007750779205205439,0.019514404339315016,0.004791944653506594,0.003962488858352776,0.011466414692126727,0.02326331644996136,0.003953277426032863,0.009435813686549572,0.006780910172418967,16,32,64,32,4,16,4,16,16,32,4,32,8,8,64,4,4,32,64,32
dossantos,CELL_A1,10,0.004209457352456343,0.016347144465594852,0.00644148580803069,0.005415725145433206,0.02619506573784879,0.0019129196587965981,0.009486233921913381,0.0048362635600434035,0.002926255625293029,0.007755473059026266,0.008552602433443657,0.007044363292946972,8,32,16,32,64,32,16,4,4,32,4,4,4,32,4,32,4,32,16,32
dossantos,CELL_A1,15,0.0079841946319102,0.005070445078569661,0.009574002112826911,0.004110440525309302,0.023290920032913772,0.005714785194721204,0.007399187881025814,0.01266533864553612,0.029399626286532303,0.005941838982292186,0.011115077937163747,0.00807770032791981,8,8,32,16,8,16,4,32,32,2,16,2,4,2,32,16,32,2,8,32
dossantos,CELL_A1,20,0.007964540841919873,0.023442549483307287,0.004347884146108219,0.0027511331379958415,0.0035677598827362936,0.008431157212205954,0.018114928187386248,0.0027901415620875656,0.019541558870062394,0.010217883268008706,0.010116953659181839,0.007224671971859769,8,8,4,2,4,4,4,4,4,8,64,2,32,4,8,2,4,8,16,32
dossantos,CELL_A1,25,0.019680789515518587,0.02034856940329463,0.017988235403516645,0.00884914464069592,0.002068474057227607,0.0027079283891286977,0.003916110778827077,0.006021816776479762,0.0018468319242940195,0.008110265552444871,0.009153816644142781,0.0070551753519572736,8,4,32,2,4,4,4,4,8,2,4,16,4,8,64,4,16,32,4,8
dossantos,CELL_A1,30,0.0019752933925799893,0.00781074048075562,0.008646962077318972,0.0017552261957984093,0.002602252176743325,0.009646286082093489,0.030016303273662392,0.002088781498988266,0.009169865743845415,0.01809744530431759,0.009180915622610347,0.008465436152694381,4,2,64,32,32,2,8,2,32,32,16,2,32,32,32,2,16,2,32,2
dossantos,CELL_A1,35,0.002242726162731141,0.004418206958385333,0.01642756240847591,0.018785923573094238,0.005783595813992117,0.010574362453451848,0.0017375429441384863,0.023349341600444478,0.0045560094703102115,0.007335958469742519,0.009521122985476627,0.007133440368839101,4,32,32,32,32,32,4,4,4,2,4,32,8,2,64,32,4,16,16,2
dossantos,CELL_A1,40,0.006540012832041433,0.018466849808830465,0.0016484351760767462,0.002541981638870071,0.01951823515140829,0.023195842308859124,0.005938993620001623,0.01103580291549535,0.003323464380396736,0.02118316165400674,0.011339277948598658,0.00801887787118773,4,2,16,2,64,32,4,16,8,32,32,8,16,4,8,4,64,4,8,4
dossantos,CELL_A1,45,0.0018805499833095538,0.019217375930710365,0.0020773619909506265,0.018173700475954225,0.0022860973850815616,0.008046480633963337,0.006545012002265282,0.0018561050187847867,0.021679038429939356,0.009877611165795499,0.009163933301675458,0.007426091849313242,8,4,16,8,64,32,4,32,16,32,8,32,64,8,8,8,16,16,64,2
dossantos,CELL_A1,50,0.005484044951704908,0.009059603340129108,0.013626661598403539,0.028364262536579428,0.018029384923058393,0.002863150857554685,0.020495926312460045,0.0011846067237338057,0.0209238563738953,0.010378084779254095,0.01304095823967733,0.008378290938237583,64,2,4,8,16,8,8,2,16,32,64,2,4,8,32,2,4,2,16,32
dossantos,CELL_A1,55,0.020764758957136042,0.0057419214199228,0.009320110919195298,0.01942383925130496,0.001763793139656127,0.023901183225545145,0.007851572473642949,0.0038500674330685996,0.0014299669785124822,0.0030752887628267534,0.009712250256081117,0.008045910554329558,16,32,16,2,64,16,4,8,4,4,64,16,16,16,8,8,64,32,64,2
dossantos,CELL_A1,60,0.017916710395106977,0.02263159491830766,0.002631199805552248,0.017718977642267805,0.00448066909272203,0.002399493984344691,0.006043344219176081,0.010159643401554648,0.009595848075930705,0.0031702659143451137,0.009674774744930798,0.006969759923716919,4,16,32,32,32,4,16,32,32,32,32,32,32,32,8,2,64,2,4,2
dossantos,CELL_A1,65,0.009245273527677598,0.0071561627358117,0.016368656526165228,0.022539705462569833,0.011067767555633013,0.010778881505773111,0.0017215743051176523,0.004700021597386127,0.009581133087517313,0.006616623722036173,0.009977580002568775,0.005625367245274335,32,2,4,32,4,32,4,2,4,32,16,4,32,8,16,32,16,32,32,32
dossantos,CELL_A1,70,0.017915082730515404,0.024658313157381255,0.006559599681668234,0.003428599057083411,0.00899538070779414,0.010056241794735844,0.004836237281041581,0.0195125780350901,0.011276968511854875,0.0047315368392511995,0.011197053779641605,0.006824648917341655,4,2,16,16,8,16,4,8,16,8,4,32,64,16,32,4,64,32,8,8
dossantos,CELL_A1,75,0.021211492164745823,0.006874800905555238,0.011834885308434942,0.011944134985426215,0.009593267024660882,0.017021065198276605,0.002221585982235981,0.017981454753093398,0.00927230094170368,0.0032031156577356644,0.011115810292186843,0.0059207759653267635,4,2,8,32,8,16,64,2,16,32,32,8,64,16,8,4,64,16,64,32
dossantos,CELL_A1,80,0.009790135676181477,0.006260582888994054,0.008690864062043613,0.004761906410057324,0.018326676912487103,0.023575281293308024,0.006316153306330193,0.0010920567979016938,0.013293152844881178,0.02019250201726668,0.011229931220945132,0.006995193913154786,8,32,32,16,16,16,8,2,64,8,4,32,16,16,32,2,8,16,16,2
dossantos,CELL_A1,85,0.012176496434564954,0.0019470570922043046,0.01851002903771878,0.02038296984751879,0.018464627916959808,0.010809392313802632,0.016643144765749886,0.021804470455450264,0.0031406856495365125,0.0023180823884119796,0.01261969559019179,0.007369054361196665,8,2,64,8,4,2,64,2,16,32,16,32,32,32,8,16,64,4,16,32
dossantos,CELL_A1,90,0.008672517181923927,0.016563513279727847,0.00683285982888043,0.0025204161663005347,0.0025965447835047673,0.02211918655885039,0.011665757125380278,0.004660980359184988,0.010361772705425605,0.01942636007536641,0.010541990806454519,0.006556158794057564,8,32,32,16,4,32,32,2,4,2,32,32,32,4,8,2,8,4,16,8
dossantos,CELL_A1,95,0.007996150770208762,0.02819410118270634,0.0018564351688434618,0.006747513940853264,0.009492618728995495,0.010977405349465511,0.009316270533053807,0.01873216855834211,0.006388757917678275,0.0020523574624395,0.010175377961258652,0.007521745615095631,32,16,8,8,64,16,64,32,16,32,64,4,4,8,32,32,16,2,32,32
dossantos,CELL_A1,100,0.008360153513634038,0.01882260400357773,0.003806588973455052,0.018510102213060445,0.002613026407737696,0.002069827803377421,0.008378635796239837,0.019924986632402213,0.004776377064172001,0.02338883364694198,0.01106511360545984,0.0077788125202665655,4,16,16,32,8,32,4,16,4,32,16,32,16,32,8,16,8,32,32,4
dossantos,CELL_A1,105,0.0034132095344458287,0.016383628515607342,0.003976179085479503,0.004488505318232053,0.02066943942225873,0.011648566932534039,0.008593339049822235,0.001157564704733159,0.006023285580790636,0.028432600927385566,0.01047863190712891,0.008371414042387193,16,32,64,32,32,4,16,32,16,32,16,16,32,32,64,2,16,8,32,32
dossantos,CELL_A1,110,0.004991136201893169,0.002988756883015121,0.004951494396698419,0.017866415158993676,0.018088320106448973,0.004674775815704567,0.0038477583317161846,0.02304591477149372,0.004447582021954905,0.009096407556933113,0.009399856124485184,0.0070105858913075865,64,32,32,16,64,32,32,2,8,4,32,4,16,32,16,32,4,16,16,32
dossantos,CELL_A1,115,0.005363118147733102,0.0039437212037890116,0.020722673543858927,0.020637687761586008,0.01860490409903529,0.0013227484565192728,0.0059188092952265564,0.029434453393221812,0.003351464916827531,0.007096181003963977,0.011639576182176148,0.009250738149560176,4,2,32,32,8,8,8,32,16,4,4,8,4,2,8,2,8,32,4,8
dossantos,CELL_A1,120,0.004656267595535636,0.010793070159383963,0.0026724449834127383,0.0017696882206327006,0.012614840713048156,0.004592275014347267,0.007351116391634208,0.01951366000063788,0.023476715041270822,0.005141189011482425,0.00925812671313858,0.006956643271266502,32,32,16,32,8,32,4,32,4,32,4,2,64,16,64,2,4,2,16,32
dossantos,CELL_A1,125,0.016016082785072085,0.002462109515680175,0.002992738324267884,0.01688734079109266,0.020092807405207948,0.021553150395199176,0.003876683163446939,0.007064100816114676,0.02406141641531004,0.0026947047081851624,0.011770113431957677,0.008311212535798432,4,32,32,4,32,2,64,8,4,4,4,8,32,32,64,32,4,32,16,4
dossantos,CELL_A1,130,0.017161527515192305,0.02252389971084952,0.010592812540960481,0.016156696293586147,0.005819523762262209,0.007586064803588664,0.005210970257533255,0.0034860513682096173,0.01811518470096722,0.002074590792079334,0.010872732174522875,0.0067536167569412844,32,8,16,8,16,32,64,8,32,8,64,16,64,2,16,32,32,2,8,32
dossantos,CELL_A1,135,0.006536795147524031,0.002455235205017572,0.00928037677894246,0.02769385963938756,0.008629279003636034,0.014396259302965649,0.0022114726628357164,0.018538158879515834,0.0024370887101539556,0.004109488177016593,0.009628801350699542,0.00792333862437553,32,16,32,32,4,8,8,32,4,4,8,8,16,32,32,8,4,32,32,2
dossantos,CELL_A1,140,0.009577407500908096,0.007129555143532012,0.010309088049336595,0.002042621213078463,0.018008317811694964,0.01780322835140592,0.004389319797014622,0.017908197218064723,0.010146689463345621,0.023057314472477747,0.012037173902085876,0.00647989581004829,16,8,16,32,8,8,32,2,32,32,16,32,64,32,8,8,4,16,64,8
dossantos,CELL_A1,145,0.013702296288221368,0.004630248330181075,0.012593965851678495,0.008894886393598785,0.0024468852196769192,0.01598481629869185,0.02858173504411406,0.009974334284413992,0.003976111827554554,0.003164522862104546,0.010394980240023565,0.007550438088172054,64,16,64,32,32,32,16,32,4,4,16,8,16,2,8,32,8,8,4,2
dossantos,CELL_A1,150,0.01816344190939782,0.0033400825631823695,0.003569249766730709,0.02025749602849167,0.028317718424696187,0.0069450710395202895,0.007604677465817456,0.0029498623864876975,0.008612413570315898,0.01200643364320509,0.011176644679784516,0.00806217533983594,4,32,64,4,16,2,8,32,8,16,32,8,64,8,32,32,4,2,4,4
dossantos,CELL_A1,155,0.0025573009962757015,0.0015624200052282839,0.029513539973598846,0.006096708335473478,0.002634285253999102,0.017915521847051072,0.010327375901918314,0.007385346615788899,0.012000591495843075,0.02180758472175474,0.011180067514693151,0.008808797362758716,64,32,8,8,32,2,8,32,4,2,16,16,8,32,32,16,8,32,8,2
dossantos,CELL_A1,160,0.0024786302342650383,0.0037310453490155358,0.010026992618332625,0.001565522663718056,0.004886207410028433,0.006756257049818534,0.007326179833832874,0.007410449137178328,0.014318953892830045,0.024082303394646357,0.008258254158366582,0.006357417784743579,32,2,16,32,8,32,64,2,32,32,4,16,4,16,8,32,16,32,64,16
dossantos,CELL_A1,165,0.007209571900114366,0.005975070878935857,0.014149130469945299,0.007685509231735449,0.016705628222288115,0.021812841644561837,0.001680381936667792,0.0018794096609658028,0.005620424614970948,0.005776238185877854,0.008849420674606331,0.006245077428725504,32,32,16,32,4,32,64,32,8,32,64,2,32,32,32,8,64,2,64,8
dossantos,CELL_A1,170,0.0046610838258404905,0.01835746320188886,0.010118305953233568,0.02319979125806241,0.008527248892519343,0.006008452238735755,0.010639798262748848,0.022691318059769726,0.016763460072295785,0.002379109547817565,0.012334603131291236,0.00708165724625436,4,32,32,32,32,32,64,16,64,2,32,2,16,8,8,16,4,32,32,32
dossantos,CELL_A1,175,0.02030754379352095,0.007869374169146608,0.004854594577971996,0.00224941953479479,0.014663588303312864,0.022373760092175572,0.005906031769703802,0.011771459110797447,0.0088251922416161,0.005038331104752536,0.010385929469779266,0.006454442453561014,64,2,16,2,64,32,16,8,32,4,16,4,16,16,32,2,8,8,4,2
dossantos,CELL_A1,180,0.023865398014626386,0.01811720009151002,0.009986239657228212,0.005735765249674316,0.002372972549126693,0.010191453438184445,0.0009698553585603538,0.0181728058116965,0.009024949430376053,0.00524557107446225,0.010368221067544522,0.007106813677692701,8,4,64,8,32,32,64,32,16,2,4,4,32,16,16,32,4,32,8,2
dossantos,CELL_A1,185,0.010850999154473387,0.030016827983504163,0.016304214178942577,0.002478482793761673,0.010369736937647617,0.018214054767229718,0.006043901821651185,0.010867391211074667,0.007957657391006429,0.0011067459864958164,0.011421001222578723,0.008029901036421563,64,32,16,32,8,32,4,4,64,32,4,32,16,32,16,8,32,2,32,4
dossantos,CELL_A1,190,0.018006312584636325,0.019333923828624533,0.0023437329945278636,0.002943178150774265,0.007389822045838049,0.0058667653375711415,0.008620381808276817,0.019427152989269315,0.017991010182424952,0.02270996109534664,0.01246322410172899,0.007341908313952442,4,32,4,2,8,16,4,8,8,2,8,16,64,32,4,32,8,32,8,8
dossantos,CELL_A1,195,0.0074476003155048865,0.0015074039566509657,0.022628903714167158,0.0012741582429971307,0.009456544445580379,0.016341264076916884,0.007944835034394334,0.0025272548960278934,0.018236339864364126,0.010076986744595904,0.009744129129119965,0.00694283496741068,8,16,4,32,32,2,8,16,8,32,4,32,8,16,8,32,8,2,4,2
dossantos,CELL_A1,200,0.0027047290133315935,0.0181125531663172,0.006795882929437537,0.004558313615644865,0.012885564856188442,0.029292616234871886,0.002326753493379698,0.01011546573803613,0.010484036253457564,0.007529702107963865,0.010480561740862877,0.007761209000332201,4,32,8,32,32,16,8,8,8,8,8,32,16,32,4,4,32,32,64,8
dossantos,CELL_A2,0,0.0017586501679221897,0.001173938961247859,0.001071515314941514,0.0062841046035831795,0.002533476173207915,0.004749935877044677,0.0015896145042220051,0.001771335277184317,0.002288467435120174,0.0006893422131804753,0.0023910380527654308,0.0016821308010981795,16,32,4,32,4,32,4,32,4,32,4,32,16,32,8,32,4,32,4,32
dossantos,CELL_A2,5,0.005164194081106984,0.001161688175979313,0.002332305225695158,0.0010628019738669644,0.0027404450513684345,0.006336470996467098,0.0013138726044349997,0.0025435384220689507,0.001507991729883082,0.0013931262103355256,0.0025556434471206506,0.0017130695761727738,16,32,32,32,16,32,16,32,32,2,16,32,4,8,8,32,4,32,32,32
dossantos,CELL_A2,10,0.0066332448658445115,0.0016217427366891366,0.00209830816909811,0.0034201819359620917,0.0026407854017559645,0.0017921627624521144,0.004426164972915039,0.0016710531386492122,0.001007565929799304,0.0007387033268499339,0.002604991324001542,0.0017029548494747894,16,32,32,32,16,32,4,32,32,32,4,16,4,2,64,32,4,32,4,32
dossantos,CELL_A2,15,0.002898512700213495,0.0030534398920992393,0.004485287286609125,0.0008197945079993227,0.0007256463242598735,0.005356772304458076,0.0010830754695153968,0.0009096489542153992,0.006870246858515343,0.0016893721146648748,0.0027891796412550145,0.0020492891756862925,4,16,64,32,16,32,8,8,8,2,32,4,64,16,16,32,16,16,64,2
dossantos,CELL_A2,20,0.0024886478648225947,0.0012603689537886104,0.0007300787712767495,0.001394538244724982,0.004633862507126597,0.007829694385435662,0.006492813239671393,0.004890984634311922,0.0017623319281212405,0.0017059434971114836,0.0033189264026391233,0.0023447416225353145,4,4,4,32,4,4,8,32,32,32,4,8,64,32,32,32,4,4,64,2
dossantos,CELL_A2,25,0.005994649715896208,0.005949282973812108,0.0013913936945988067,0.0005969114212925172,0.004754719848718733,0.001288566439777998,0.0016113914585721392,0.0025991045496161994,0.004258663878189766,0.0006897412238715654,0.002913442520434604,0.0020241603633033515,16,2,8,8,8,2,4,4,4,2,32,8,16,2,16,4,8,32,4,4
dossantos,CELL_A2,30,0.0022399810208469247,0.002043845439347815,0.00043432725684620536,0.004758533883988136,0.0018160625803117485,0.0022704223684913267,0.005384350227068601,0.003416379043739291,0.005394940436900018,0.0025801659095753514,0.0030339008167115417,0.0015767046328400648,4,32,4,2,32,32,16,8,64,16,32,4,16,16,16,16,16,4,4,8
dossantos,CELL_A2,35,0.002341625728836339,0.0018340962053172442,0.003586767445909055,0.0010847027393881636,0.003136989710724709,0.006001442835952028,0.0009291677566506826,0.0012619335222732045,0.002760620545371982,0.0036266250119803946,0.00265639715024038,0.0014632643901976458,64,32,64,8,64,32,64,2,32,8,4,32,64,32,4,16,16,8,8,32
dossantos,CELL_A2,40,0.004954268533678205,0.0030582711997255946,0.0038582770717822948,0.002098374449220885,0.00543835741188285,0.0020553488418239476,0.004716523249505231,0.001758163671014312,0.0010055615547270734,0.0009734748139076151,0.0029916620797268006,0.0015742485587009387,64,8,64,16,16,4,8,2,4,16,4,2,4,32,64,32,32,2,16,32
dossantos,CELL_A2,45,0.006736043341790498,0.002443184644287389,0.0005885982799418222,0.00177339371233694,0.0025272234161581326,0.0010891594007583331,0.005391446633060888,0.0008022175429438078,0.0025014652538695495,0.002338194188965195,0.0026190926414112552,0.001877423722022774,8,2,32,16,8,4,64,2,32,8,4,32,8,4,8,8,8,2,32,16
dossantos,CELL_A2,50,0.0014290504056752686,0.0070225410714581235,0.001664846465746476,0.0021039269380979317,0.002344056004974538,0.004614749730634754,0.0021553200487256395,0.002491332976698889,0.0034085489719056796,0.0005661747451317224,0.0027800547359049022,0.001756441436864542,64,2,8,32,32,32,16,32,64,8,64,2,64,2,8,8,64,16,8,32
dossantos,CELL_A2,55,0.0008872699629258538,0.0026238983265454616,0.005176198422174089,0.0011118409214444763,0.004595354888583218,0.0025241079568930668,0.0007534802900927128,0.0040504506467154144,0.006318542382974986,0.0025027423864264734,0.003054388618477575,0.001818196915793227,32,16,4,32,32,2,64,2,16,2,16,32,64,32,16,32,4,2,16,32
dossantos,CELL_A2,60,0.0015662631281327508,0.001982647918337609,0.0005907601091721609,0.00445217411987864,0.002245897925638169,0.0025679616261727626,0.005645958449616396,0.006245840407099519,0.0011509620169744144,0.0031287149010422064,0.0029577180602064633,0.0018086842656025674,64,8,64,4,8,16,4,32,64,16,16,32,64,8,4,4,16,32,64,32
dossantos,CELL_A2,65,0.00461781129909373,0.0008393679387162411,0.0031846669281174775,0.000501896552643135,0.005724093273689226,0.004984501021472623,0.0018834696230756078,0.0008814925346446407,0.0005422714817096604,0.005137281032147195,0.0028296851685309537,0.0020241600160292627,64,2,16,16,8,32,64,16,16,32,8,16,64,32,64,32,4,4,16,32
dossantos,CELL_A2,70,0.0008471619243118257,0.0007146936883618356,0.0010518773694826945,0.0055683838950313855,0.0057921255525864804,0.00256660867809052,0.001679462243276273,0.0032053270566440688,0.0028604307682925825,0.00451200069355167,0.0028798071869629337,0.00179387985063255,64,16,32,32,64,8,8,8,64,2,32,32,8,8,32,32,4,16,4,2
dossantos,CELL_A2,75,0.0006633406738518029,0.0026796257994619157,0.00689498613869149,0.001083136204834581,0.0020043821070111732,0.0028217359925354953,0.0050950385792119446,0.0032756242848574,0.006008240312082701,0.0006086833478830927,0.0031134793440421595,0.002110336897164422,64,32,8,4,32,2,4,8,4,8,8,32,4,4,8,4,32,8,4,16
dossantos,CELL_A2,80,0.0017137418593705762,0.0023101527013232857,0.004834963022969248,0.0036630323929446296,0.000769371031211981,0.001098664620328361,0.007353479479973646,0.001921009421088622,0.002534541160180288,0.0012441797834198433,0.002744313547281048,0.0019310783921783641,32,8,8,16,16,2,4,32,32,32,64,32,64,2,32,32,64,8,64,32
dossantos,CELL_A2,85,0.002182721939985168,0.0057538144210472,0.003062518916776467,0.003749204466339263,0.004578044664822962,0.001276328240464677,0.005075815466077781,0.001505533477864136,0.0008419420702836007,0.0019909503944006775,0.003001687405806193,0.0016277508788283162,8,8,64,2,32,32,8,16,64,2,16,2,16,32,4,8,32,32,64,16
dossantos,CELL_A2,90,0.0006530694998631376,0.002573917953738852,0.0026231388865399574,0.0020868590152786862,0.0008903049384933502,0.0005800344609355625,0.002043967731935315,0.0056548366655766995,0.0022160977174293583,0.004048593054413299,0.002337081992420422,0.0014917817754404193,4,32,16,16,64,2,16,32,32,32,16,8,32,2,8,32,32,32,16,32
dossantos,CELL_A2,95,0.0012810047491539672,0.002441202750237189,0.0029196777500834757,0.002685068547276234,0.000564642772539393,0.005707362898765747,0.0004363535970496346,0.0037850869014101093,0.0018970021601049836,0.003129849300242997,0.0024847251426863733,0.0014966842962159687,64,32,8,4,4,8,64,4,4,2,16,16,4,2,4,16,8,32,16,4
dossantos,CELL_A2,100,0.004216718033330603,0.0008617493467989515,0.005096196961807316,0.0019204761051157088,0.002576434328498474,0.0032518788919236197,0.001458651089879202,0.005660343428798839,0.0025804949914523816,0.002245400084589945,0.002986834326219504,0.001484979420123066,8,32,4,2,16,2,16,8,8,2,8,16,64,4,64,32,32,8,8,32
dossantos,CELL_A2,105,0.002556340603716111,0.0011220928868538342,0.0008907920254734151,0.0007748194872133675,0.0030181129724071868,0.005160298614679523,0.00084600219425989,0.0005005350126080666,0.001205952912909575,0.0075847263106605806,0.002365967302078155,0.002211247408331221,8,16,16,32,16,2,8,2,4,8,64,8,32,32,16,2,32,2,4,2
dossantos,CELL_A2,110,0.0009676155345455633,0.001340523006277475,0.0012561717897631383,0.0005168167390258401,0.0016527010809074998,0.005244623689862575,0.0007129900128794329,0.002555876900031271,0.005776991673678763,0.005763831487454463,0.0025788141914426022,0.0020481520629956804,64,32,16,32,32,32,8,2,4,8,16,16,64,32,8,8,32,32,8,16
dossantos,CELL_A2,115,0.0029624711898913613,0.005587918120200271,0.0006774880909886848,0.0011426215768553993,0.002397321749969024,0.001212420289237728,0.005064763355325578,0.0004224705225071124,0.004223542405501099,0.005210916318144734,0.0028901933618620994,0.0019045431211985621,16,8,64,32,4,16,4,2,4,4,64,4,8,32,64,16,4,8,32,32
dossantos,CELL_A2,120,0.0010173100854690498,0.0013274535827785246,0.0020646253746065845,0.002527624823840096,0.0046987310283187695,0.0021618175871027617,0.0031114051757185697,0.006932332135745423,0.0012104097365716882,0.005652442298732695,0.003070415182888416,0.0019255887228048737,8,32,16,32,16,16,8,32,4,2,64,2,4,32,64,8,8,32,16,2
dossantos,CELL_A2,125,0.0015489231623418112,0.004358037917599436,0.002801818573348469,0.0051220288108352365,0.00048669021178149763,0.0015791838148268803,0.0012855727169374456,0.006004277527128964,0.00073427364298491,0.00160237863658602,0.002552318501437067,0.0018405226534228,4,2,32,32,32,16,32,2,4,4,64,2,32,32,4,2,64,32,4,2
dossantos,CELL_A2,130,0.0022609884691419126,0.0027385108629778246,0.0013764208105460426,0.0018872204190189938,0.004931128867911629,0.0010396579186575175,0.0015147822535194321,0.00471210310937409,0.005667883801955775,0.0006037908733079713,0.002673248738641119,0.0017026429242602541,8,32,64,4,32,2,32,16,8,32,64,32,8,2,16,4,8,2,4,16
dossantos,CELL_A2,135,0.0012328731102386982,0.0018941373298657534,0.004548533781198472,0.007274026600781166,0.0025850844725228556,0.0007711774179965972,0.0026876377091523424,0.000720911353285594,0.00115653220800052,0.0022271300708387783,0.002509804405388078,0.0019244566615151287,8,2,64,16,32,32,16,32,32,2,32,32,4,32,64,2,64,16,4,2
dossantos,CELL_A2,140,0.0009185729270012994,0.004609585202366249,0.0006044875540813532,0.005725109348160217,0.0024828205511722287,0.0008242291307291443,0.0026395604520834787,0.0016744639977947374,0.002755560689087301,0.004021973060742123,0.0026256362913218132,0.0016333682221232584,8,32,8,2,64,32,16,32,8,2,32,32,64,4,64,32,4,16,32,32
dossantos,CELL_A2,145,0.004389703486611374,0.0026117866750147,0.000852367322965228,0.002600487019269147,0.0015612273938977847,0.0019895160905266493,0.0008690451410414144,0.0011910772307117854,0.007552267178690597,0.0033718216241156096,0.0026989299162844286,0.001941988477731982,4,2,8,32,16,4,64,16,8,16,4,2,4,32,32,32,16,32,8,32
dossantos,CELL_A2,150,0.002094523908810533,0.007389177479174331,0.001029312180997023,0.0025698099693646885,0.004467959553321347,0.0006584015061304969,0.002874400701483174,0.0008324026320808831,0.002271161816712826,0.0024349755094293774,0.002662212525750468,0.00190302748594107,4,2,4,32,8,2,8,8,4,2,64,8,4,32,16,16,32,2,16,32
dossantos,CELL_A2,155,0.0005824849270801711,0.0014238893019619205,0.0007490264756453553,0.00481903894890612,0.005087632049367489,0.0029613548093206763,0.007216542802320058,0.0012332660141001642,0.002219410942896666,0.00506219698551614,0.003135484325711476,0.0021596987620567283,16,32,64,2,4,32,32,2,8,16,8,32,16,16,64,32,8,16,16,2
dossantos,CELL_A2,160,0.0006660930364896925,0.0017154553762729458,0.0028180959734965313,0.0019806516533343002,0.002464771325021448,0.005969960781602185,0.0036153058838996285,0.0008068946636722556,0.0024711655004888517,0.002286674957124007,0.0024795069151401844,0.0014333231976054709,32,32,8,32,4,4,16,16,64,4,4,2,32,16,8,32,64,32,16,4
dossantos,CELL_A2,165,0.0021491789039088643,0.0012725461109969933,0.0014001345291770307,0.0006194345836615008,0.002212608128456914,0.0060250338936259015,0.002534936558349762,0.0030319137366560576,0.004229404028632665,0.0013670816706246205,0.002484227214409031,0.0015310262598386083,4,32,8,32,32,2,64,32,4,32,32,2,16,32,32,4,4,32,16,32
dossantos,CELL_A2,170,0.001362279098960568,0.005275371255508789,0.004619284488065951,0.0012368959216399417,0.006017572350221864,0.0021620343163607668,0.000782110189069907,0.000675565313032543,0.0022130822778526947,0.004832190055665594,0.002917638526637862,0.0019398028076654853,8,32,8,8,32,2,4,2,64,4,8,32,32,32,32,4,8,32,4,2
dossantos,CELL_A2,175,0.007042003283483634,0.0008606160029321283,0.0030977527299722546,0.001320781601477434,0.00286921837565915,0.0021015362097725754,0.001126138365568078,0.0013889553408195743,0.0022375030585157023,0.0010888543930754652,0.0023133359361275996,0.0017376435636154864,8,32,64,2,16,32,16,32,16,16,16,4,8,2,16,8,8,32,32,2
dossantos,CELL_A2,180,0.002399769611902506,0.003042285353900669,0.0050587216878735745,0.0024454560297340415,0.0044025899630641165,0.0008268169800000611,0.005975729648509731,0.003832059813849784,0.0011877675183070164,0.0006845617176467396,0.002985575832478824,0.0017259360513002997,32,2,4,32,64,2,16,32,8,4,16,32,32,8,32,2,8,8,16,2
dossantos,CELL_A2,185,0.0011807201237964808,0.0009585838725605985,0.004363034017154607,0.002375378324327194,0.005540630281055847,0.00101675653536235,0.0006565327220232038,0.0005152558565543,0.005188919967271631,0.0033135102419573894,0.00251093219420636,0.0018513996963823293,8,8,32,32,16,32,32,2,4,2,4,2,32,32,16,32,32,8,4,8
dossantos,CELL_A2,190,0.0009494316063576733,0.00462700876999185,0.0015148753123955046,0.0031609761885891072,0.002341954089085486,0.002237606252889938,0.005678934458509332,0.0006007907207336503,0.004807618762472382,0.0009482553377867483,0.002686745149881167,0.0017183281505289843,32,8,64,16,16,16,8,4,32,8,16,32,4,32,8,2,4,2,16,16
dossantos,CELL_A2,195,0.006428840711949075,0.005937631433631616,0.001997833165834609,0.0022052434002369807,0.0010082540586255602,0.0010728606100658055,0.0022707709523889065,0.004779216969798141,0.0011564795001137104,0.004242291451261817,0.0031099422253906225,0.0019550420095487374,8,4,16,2,32,16,4,32,16,32,32,32,64,2,4,2,16,32,4,32
dossantos,CELL_A2,200,0.001192467868894087,0.0046085121767253275,0.005112417472191073,0.0004955827152822681,0.0010451332520421243,0.0013573907827761007,0.002433104438131164,0.005561519254009066,0.001012042607276125,0.0015056556769836567,0.0024323826244310996,0.0018153364027229352,4,16,64,2,8,4,64,32,4,32,32,16,16,16,8,32,32,32,16,32
