Model,Class,T_bound,score1,score2,score3,score4,score5,score6,score7,score8,score9,score10,score_avg,score_stdev,max_depth1,min_samples_split1,max_depth2,min_samples_split2,max_depth3,min_samples_split3,max_depth4,min_samples_split4,max_depth5,min_samples_split5,max_depth6,min_samples_split6,max_depth7,min_samples_split7,max_depth8,min_samples_split8,max_depth9,min_samples_split9,max_depth10,min_samples_split10
rana,CELL_H,0,0.0029942690613583758,0.003430943382248718,0.003026116124783412,0.0032521543533039527,0.0031032073008845653,0.003572020529075931,0.003463464761198532,0.0031958723454641328,0.003637094751964696,0.0032290328462435225,0.003290417545652584,0.00021353125412145048,4,32,4,16,4,16,4,4,4,4,4,32,4,2,4,8,4,32,4,8
rana,CELL_H,5,0.0024051456669344873,0.002854110368144136,0.0028402249937300923,0.0028749063896492504,0.002964190792970564,0.003096934839814576,0.0029313959907549497,0.0025478538150303224,0.002589457211317023,0.002892464400301072,0.002799668446864647,0.00020369468478584563,8,32,4,8,4,16,4,32,4,32,4,4,4,16,16,32,8,32,4,16
rana,CELL_H,10,0.0026640940146302884,0.002721792739424444,0.0026498526959605894,0.002855864520231399,0.00260661964837009,0.0022908767794068575,0.002426509393331985,0.0026476506920231663,0.002685584160997301,0.0024391043649495386,0.0025987949009325653,0.000157499699605029,8,32,8,32,16,32,8,32,8,32,8,32,4,2,64,32,32,32,4,2
rana,CELL_H,15,0.0024864776928178994,0.002884653134235022,0.002756529690169373,0.002714420346175647,0.0024043578787544873,0.002525905122766434,0.0024631403015837163,0.002501819094620705,0.0032454278477478927,0.002492001481050566,0.0026474732589921736,0.00024684973603409147,8,32,4,8,8,32,4,8,8,32,8,32,64,32,4,16,4,4,64,32
rana,CELL_H,20,0.0022776897050553915,0.002331245373496309,0.0023957309216271084,0.002306461479741234,0.002417906177379546,0.0024139529470389998,0.002384168022573902,0.002388840539250864,0.0026956058749928956,0.0021170965130175253,0.0023728697554173776,0.00013762336366923133,8,32,8,32,8,32,8,32,16,32,64,32,64,32,16,32,8,4,8,32
rana,CELL_H,25,0.0020586375637707734,0.0021579533149563243,0.002549331751192651,0.0025166796316505266,0.0022394359871050666,0.002201765764932808,0.0023673681605465152,0.0018866865225397786,0.0027025596908531236,0.0026214688111337544,0.0023301887198681325,0.00025149887648675666,32,32,64,32,8,16,8,8,16,32,64,32,8,32,8,32,8,32,8,32
rana,CELL_H,30,0.002306894779233954,0.0020992860377710147,0.0025664021445004916,0.002480763062937729,0.0023476906013331056,0.0021280667308629666,0.0022945798332743577,0.0021064558251775055,0.0020886404301301504,0.0021527260704857177,0.002257150551570699,0.00016164928525092248,8,32,8,32,64,32,8,32,8,32,8,32,8,8,32,32,16,32,8,32
rana,CELL_H,35,0.0019695885470896704,0.00220006645831413,0.0020400801585042493,0.001996117554921871,0.0021948835214616524,0.0021724372531681533,0.0021147468142138958,0.001856044342206444,0.0018484860350509763,0.0019898121730058398,0.0020382262857936884,0.00012354148163030204,8,32,8,32,32,32,16,32,8,32,16,32,64,32,32,32,8,32,8,32
rana,CELL_H,40,0.0022531723739734164,0.002035352421058322,0.0021501749056644062,0.0019583827802572406,0.0018785257315653927,0.0023220034759126686,0.002075730291400992,0.002148458895813337,0.002075698537095504,0.0020015380739401845,0.0020899037486681463,0.00012678867891330095,8,32,8,32,32,32,8,32,8,32,64,32,8,32,64,32,8,32,8,32
rana,CELL_H,45,0.002004272268941759,0.0019090035285360253,0.0019765116703919813,0.0020382023340344887,0.0021489728431706404,0.00196543699796429,0.002133577466657399,0.002255301469472234,0.0022438006280858618,0.0018061355723717762,0.0020481214779626456,0.00013805231443956426,8,32,16,32,8,32,8,32,8,32,32,32,8,32,32,32,32,32,16,32
rana,CELL_H,50,0.0020952466586915777,0.002142631429534604,0.002042038999163092,0.002153616361170506,0.002336421485790041,0.0017573250615539725,0.0018275213277567748,0.0021370999923057033,0.002240964209730546,0.0017352179592640953,0.002046808348496091,0.00019536115817912468,64,32,16,32,16,32,32,32,8,32,64,32,8,32,8,32,64,32,32,32
rana,CELL_H,55,0.002029280372436536,0.0022422151890078594,0.002201422405108086,0.0021246065603556645,0.00208745670844827,0.0018838574553642908,0.002221153399856614,0.0022028018251921615,0.0017940823291302467,0.002116322044462345,0.002090319828936207,0.00014182901024454485,8,32,32,32,8,32,8,16,32,32,16,32,16,32,8,32,64,32,8,32
rana,CELL_H,60,0.0019605347210113425,0.002115886726507435,0.0021165108404041966,0.0023510849776311417,0.0021931272650711916,0.002045551312246037,0.002203246914687904,0.002291483876070144,0.001726428450541485,0.0022200725791854197,0.0021223927663356294,0.00017057002674738297,32,32,8,32,8,32,16,32,16,32,16,32,16,32,32,32,8,16,8,32
rana,CELL_H,65,0.0022893422958907804,0.0024045394122005487,0.0019571254455607906,0.0019425178946131875,0.0019500363036461057,0.0018572257623543104,0.0019206606016035606,0.0020938026235490393,0.0019094025604776512,0.0021321368367966534,0.002045678973669263,0.00017184015817499628,32,32,16,16,32,32,64,32,8,32,64,32,8,32,8,32,8,32,8,32
rana,CELL_H,70,0.0024072990539016005,0.00219928766904137,0.0017708538096206997,0.0017358899022284172,0.0020779381813111077,0.0022163872497843796,0.0020280757749129115,0.002000333203732393,0.002610341646850393,0.0021672260525999547,0.002121363254398322,0.0002519419496937845,32,32,8,32,8,32,8,32,8,16,64,16,16,32,16,32,8,32,8,32
rana,CELL_H,75,0.0022375395319220726,0.0020622555357793985,0.0023382112721885865,0.0020428788076692394,0.001930154980296343,0.0019904539627981963,0.002315856081290909,0.0015480870508087453,0.0022584246481590323,0.0019853424858800386,0.002070920435679256,0.0002240953209260037,8,32,8,32,8,32,32,32,8,16,32,32,8,32,8,32,8,32,8,32
rana,CELL_H,80,0.0021774201733867587,0.002046010049423034,0.0022957344676394907,0.0018845630385831468,0.002234953076925525,0.0017597028311901104,0.0019442081391009421,0.0021491130523512664,0.0021281347760159007,0.0020625407376436734,0.002068238034225985,0.00015698346834682028,64,32,64,32,64,32,16,32,8,32,64,32,8,32,16,32,8,32,8,32
rana,CELL_H,85,0.0018520132967683577,0.0020957476086987687,0.0019759431484763137,0.002221132460076185,0.0020952637289011465,0.0021037705148821933,0.0021455149086971248,0.0021270727033294965,0.0022271144731758094,0.0018051564015331932,0.0020648729244538587,0.00013607776189172318,8,4,64,32,8,32,8,16,64,32,8,8,8,16,8,16,16,32,8,16
rana,CELL_H,90,0.001813314959694082,0.002115043968784166,0.002202954386222433,0.0019900348304169617,0.002346180523567594,0.0023446921384343363,0.0019819389161258453,0.001934553244326045,0.00211407741169747,0.0018333604719634922,0.0020676150851232427,0.00018102588298248766,64,32,8,32,16,32,8,32,8,32,8,32,8,32,16,32,16,32,8,32
rana,CELL_H,95,0.0020032111991984845,0.001981245523530204,0.001985899539749429,0.002022114825066798,0.002169023799037525,0.0017836451151712865,0.001773724968402437,0.002298468610029375,0.0024466468373835343,0.0018225936320549062,0.002028657404962398,0.0002096345059199522,16,32,64,32,8,32,16,32,8,32,8,32,8,32,32,32,8,32,8,32
rana,CELL_H,100,0.0019584962362135883,0.002345601795829743,0.0019766797753694495,0.002207216565236837,0.0022167536226042725,0.0018732467391119202,0.002041146316811367,0.0017846236329501742,0.00215472687871997,0.0019081869679339009,0.0020466678530781227,0.00016922333679179587,8,32,16,32,8,32,32,32,64,32,8,32,64,32,32,32,16,32,8,32
rana,CELL_H,105,0.0018982066289001042,0.001989466722414452,0.002299284528241867,0.002363441944335652,0.0020482735155852613,0.002221054889956083,0.002137095587925085,0.002213561192154873,0.001878620701604598,0.002210099782445365,0.0021259105493563342,0.0001575034869639445,8,32,8,16,8,32,8,16,8,32,64,32,8,32,8,32,8,32,8,32
rana,CELL_H,110,0.002076020806057715,0.002151402566594671,0.0019128814200391807,0.0021247117018465696,0.0021864517400991866,0.0021027691943221677,0.001753988579843835,0.002034556582664517,0.002126976912951672,0.0016958933179457036,0.002016565282236522,0.00016271017649623946,32,32,8,32,16,32,8,16,64,16,8,32,8,4,8,32,64,32,16,32
rana,CELL_H,115,0.001975684203373075,0.002083099999591432,0.002263229244601482,0.002106470017705915,0.002284048070300686,0.0018781414070863736,0.0019881846711522905,0.0021571894170295592,0.0023032916091282845,0.002049743748551027,0.0021089082388520124,0.00013577683944650842,16,32,32,32,8,16,64,32,64,32,8,32,8,32,8,32,32,32,8,32
rana,CELL_H,120,0.002155302016824866,0.0018906549750203356,0.0020973380761125176,0.0019115777655809216,0.0021366833723522245,0.0022311507195044667,0.002212642565858132,0.002150135105893941,0.0018963553472678518,0.002017488282990946,0.00206993282274062,0.00012465179937625303,16,32,8,32,64,32,8,32,32,32,64,32,16,32,8,32,32,32,8,32
rana,CELL_H,125,0.0019703004166077326,0.0022215119085312643,0.0020121176200727153,0.002176713764559913,0.002092321507880842,0.0019280737716016656,0.0022410090625247783,0.0017011675684632619,0.002295516103266493,0.002328775800496416,0.0020967507524005083,0.00018553253867272483,8,32,64,32,64,32,64,32,32,32,8,32,8,32,8,32,8,4,16,32
rana,CELL_H,130,0.002025134226866949,0.002185599487704976,0.0020465236067665825,0.002043410061362125,0.0023099785014148227,0.0017150655300496977,0.0021471012140714565,0.0021650220253232265,0.0021241587216883316,0.002016670663019271,0.0020778664038267436,0.00014843674372155507,8,16,32,32,8,32,8,32,8,32,8,8,8,32,64,32,8,16,16,32
rana,CELL_H,135,0.0021097245931262654,0.002366654098532218,0.0021441294476813874,0.0022512559857280055,0.0021826650399650836,0.0019108523895904474,0.00233240130398832,0.0018870657253556315,0.002041776530955899,0.0021481148701361203,0.0021374639985059377,0.00015154403892987672,32,32,8,32,16,32,8,16,32,32,16,32,32,32,32,32,8,16,8,32
rana,CELL_H,140,0.0017839110678670967,0.0019575954771917214,0.0022061137706681556,0.0018288361157441754,0.002275973089299222,0.0021867234287678357,0.0017751210847262798,0.00202240509361078,0.001957297353256145,0.0025083138647015945,0.0020502290345833,0.0002274530222782687,64,32,8,32,16,32,16,32,16,32,8,32,8,32,8,32,64,32,8,32
rana,CELL_H,145,0.00216630118095529,0.001974088493675835,0.0020572901892794786,0.002442656837220196,0.002153536767418283,0.0021191257101077156,0.0019292378959357964,0.0021806678585410636,0.0019673250056682187,0.0021690958378352675,0.0021159325776637142,0.0001407923245429837,8,32,8,32,8,32,8,32,8,16,8,32,8,32,8,16,64,32,8,32
rana,CELL_H,150,0.002099646349207448,0.0021518434396560425,0.0017890302914458358,0.0022024921709949395,0.0021981812331148183,0.0025038556950655578,0.002163861933247547,0.0017907930954408533,0.0020870126293185006,0.0020004149821331546,0.0020987131819624697,0.00019808841307605716,8,32,8,4,32,32,64,32,64,32,8,16,8,32,8,32,8,32,16,32
rana,CELL_H,155,0.0021530509634811066,0.001980888432588409,0.0022898306259265637,0.002101718068603842,0.002167403073087053,0.002183051841018151,0.0024080204730459985,0.0019133252310606275,0.001918813405970102,0.002129995957091381,0.0021246098071873235,0.00014895548511184825,8,32,8,32,8,32,8,32,32,32,32,32,16,32,8,32,64,32,8,32
rana,CELL_H,160,0.002185345410208251,0.0022003265553087567,0.0021636002482486724,0.0021717774309529436,0.002086593784461292,0.002175901118502935,0.002072649903878679,0.001999803035514719,0.0020872150241336386,0.0019808178304811927,0.002112403034169108,7.490254090704976e-05,8,32,64,32,16,32,16,32,16,32,16,32,32,32,16,32,8,32,8,32
rana,CELL_H,165,0.002107467537514033,0.002213496563435675,0.0019282212847409677,0.0020789380404415293,0.0024688204230649945,0.002011700990346134,0.0021017467983140852,0.0021847207157251096,0.0017973458746471747,0.002353323389636085,0.002124578161786579,0.00018537152874685615,8,16,8,32,8,32,16,32,8,32,8,4,8,4,8,16,8,32,8,32
rana,CELL_H,170,0.0020595093121298846,0.002001409625330701,0.0021462309599009524,0.0019253316497584948,0.0021280645201806818,0.0021822501369574906,0.002025467471008993,0.0021225377089290824,0.0020481854910954617,0.0018231043593492978,0.002046209123464104,0.00010394373270886846,8,16,8,32,8,32,8,32,8,32,64,32,8,32,8,32,8,32,8,32
rana,CELL_H,175,0.001969554495539924,0.0020155957242622355,0.002399046660410686,0.001988880480956958,0.002089392766712997,0.0018883819381557007,0.0022797406145601304,0.0018697362964974827,0.0020613312446811833,0.0018973412691020714,0.002045900149087937,0.00016414543500861776,16,32,32,32,64,32,8,32,16,32,8,32,64,32,8,32,64,32,8,32
rana,CELL_H,180,0.0022780303190830797,0.0020137971534331645,0.002151546738774265,0.0020484277386671494,0.002027105307263232,0.0023283091318694383,0.0018857729200255245,0.0021706206409471455,0.0024177703152495856,0.0017579806444634432,0.002107936090977603,0.0001923764797858745,16,32,16,32,8,32,8,32,32,32,8,32,16,32,16,32,8,32,8,32
rana,CELL_H,185,0.0018931111668474428,0.0022741952520807626,0.0021900461966244985,0.0019492406403651373,0.0022627004668081415,0.0020107764206668674,0.0020746126881339157,0.0024643315513504234,0.0018492971964396393,0.002146819595438338,0.002111513117475517,0.0001831710710201089,32,32,64,32,64,32,64,32,16,32,16,32,32,32,16,32,8,32,8,16
rana,CELL_H,190,0.0023009481196415867,0.0021273224455189543,0.0019025477060513457,0.0020639762920886696,0.002016639017014543,0.002234658864506011,0.002018210262729539,0.0021672681977149364,0.0018960632339559437,0.0020499436876042342,0.0020777577826825767,0.00012524260065889905,64,32,64,32,8,32,32,32,32,32,16,32,32,32,64,32,8,32,8,32
rana,CELL_H,195,0.0019684113331917296,0.0019036099260256213,0.002005068757604993,0.0018682107080708217,0.002173534128654518,0.0020844055306466084,0.00190891302714498,0.0020559589609264873,0.002118717274070098,0.0022612723653042573,0.0020348102011640114,0.00012107401386316169,8,32,8,32,32,32,8,32,16,32,8,32,8,32,64,32,32,32,8,32
rana,CELL_H,200,0.0020045903347584485,0.0022597540749572436,0.001972771968510876,0.001957823412257171,0.0025263216541784633,0.0020495476241780275,0.001960250118229916,0.0023040941813096314,0.002092167607824037,0.0017309779278669747,0.0020858298904070788,0.00021230551056491238,8,32,64,32,8,32,8,32,32,32,8,32,8,32,8,32,8,16,32,32
rana,CELL_D,0,0.0005523821775934376,0.0005869663436607888,0.0004841564114969499,0.0005565517429559773,0.0006445800500649232,0.0005537772677433153,0.0005045650441502096,0.0005335172943442365,0.0006342765895090921,0.0005440767026581273,0.0005594849624177058,4.8253643496818704e-05,4,32,4,2,4,16,8,32,4,32,4,4,4,2,4,16,4,32,4,8
rana,CELL_D,5,0.0004994560346887712,0.00042888632922674814,0.0004838878014044858,0.00047932869304227234,0.0004241854587155751,0.0004512617372020081,0.0005262468376658614,0.0004391285520045624,0.0005420200746751021,0.0004485815467250996,0.00047229830653504855,3.872667601008945e-05,4,4,32,32,4,8,64,32,8,32,16,32,4,2,4,4,16,32,4,32
rana,CELL_D,10,0.0004661002770234411,0.00047754012497666436,0.0004514301962077652,0.00041182192996895,0.00039027864840171376,0.0004107333551271425,0.00038450373046597543,0.0004191367052591118,0.00042558944750714384,0.00038366066899870357,0.00042207950839366116,3.166914083645741e-05,64,32,8,32,16,32,32,32,8,32,8,2,16,32,64,32,64,32,16,32
rana,CELL_D,15,0.00043842550502630825,0.0004068548881876229,0.0005097604571309071,0.00042482724066111903,0.000398184243236037,0.00048068338106283827,0.0004905992249590698,0.0004015932283706077,0.0004901824079814032,0.0004415297349635585,0.0004482640311579472,3.933769211395005e-05,8,16,64,8,16,2,16,16,64,32,4,16,4,2,8,4,64,2,8,16
rana,CELL_D,20,0.00040018055243107797,0.0004362533828484331,0.0003383420900377175,0.0003617519509006658,0.00045292995157854955,0.0004137052998763526,0.00044390333133614114,0.0003379522117127695,0.00045910511004075875,0.00034937847914327927,0.00039935023599057455,4.625746157606569e-05,32,32,8,32,64,32,32,2,64,32,8,8,8,32,16,32,8,16,32,16
rana,CELL_D,25,0.00038940881285817974,0.00039943116778973063,0.00039770118328066206,0.000422685134726775,0.0003601056027356128,0.0003829376975862978,0.0003782855279991197,0.0003507528636453336,0.0003674562022578268,0.0004820902897785752,0.00039308544826581135,3.568148642049716e-05,64,4,16,16,32,32,64,32,8,32,16,32,32,32,8,2,32,2,8,32
rana,CELL_D,30,0.00037712087698311866,0.00036151409635378536,0.0003343424740523924,0.0003201352570522716,0.0004101717886014442,0.0003572397520329757,0.00037508947725041275,0.00034772947972972406,0.00044172557831215903,0.00034919036236708776,0.0003674259142735372,3.419135125205521e-05,64,8,16,8,32,16,64,2,64,4,32,8,64,2,8,2,16,16,32,8
rana,CELL_D,35,0.00035569722339656875,0.0003435894535327483,0.0004022401383619793,0.00032578173400413376,0.00035009578659408574,0.0003496316708815941,0.00035302107937285586,0.00036026573821871193,0.0003772739731849472,0.0003496008371735978,0.00035671976347212224,1.94839518593387e-05,8,8,64,8,32,32,8,2,64,32,64,32,64,8,32,8,8,8,8,2
rana,CELL_D,40,0.0002850177587177818,0.0003323015517807919,0.00037327747929128427,0.00037112269835622836,0.0003271752897818468,0.0004225684700738173,0.00034845905219207197,0.000335620838602362,0.00035558774072748714,0.00036445209807968763,0.0003515582977603359,3.425788127383231e-05,64,16,32,32,64,2,64,32,8,4,32,2,32,2,16,4,32,2,16,8
rana,CELL_D,45,0.0003404237963529464,0.000362132687228147,0.00041447883914920517,0.0002979680097000625,0.00037414516607915064,0.0003579824762057277,0.00036432611841626594,0.00035280491144382077,0.00037129387600941987,0.00032264349691771835,0.00035581993775024644,2.970969424101344e-05,32,8,64,4,8,16,16,32,16,32,32,32,8,4,16,16,16,2,16,8
rana,CELL_D,50,0.000345687579010789,0.0003749259182171737,0.0003801962443004293,0.00037342379909655434,0.000342659426547527,0.00035669905522490124,0.0004020684014672206,0.0003465724281938369,0.00041238486231194685,0.0003292177854647661,0.0003663835499835145,2.5615577942193168e-05,64,2,64,16,8,8,8,8,32,2,16,2,32,8,16,32,32,16,32,2
rana,CELL_D,55,0.00038387455663851916,0.0004040247297805454,0.00034496920546112433,0.00037421359086126815,0.00035141340336783725,0.00033422670285518873,0.0004037363776825774,0.0003130976294444103,0.0003184239811004599,0.00031540136872727233,0.0003543381545919203,3.344227286717835e-05,16,2,8,4,64,8,16,8,32,32,8,32,32,16,8,4,8,2,8,16
rana,CELL_D,60,0.00036298201782302943,0.0003532463596856569,0.0003321324232200929,0.0003879863842360741,0.00031570295965708677,0.0003600860661605878,0.0003691336666795454,0.00035551286056356056,0.0003778601451414689,0.0003912404462898331,0.0003605883329456936,2.2297143351018637e-05,32,2,64,16,64,4,16,2,16,8,64,2,64,4,32,8,32,16,16,8
rana,CELL_D,65,0.00036613927594095257,0.00037391795928427103,0.000368881659391809,0.0003794268006660267,0.0003846896890293085,0.000369016627724228,0.00034484834803999025,0.0003756938266538277,0.0003228807416638724,0.0003506019834904434,0.000363609691188473,1.7861403019928323e-05,64,4,64,32,16,32,8,16,64,4,32,4,64,2,16,8,8,2,32,8
rana,CELL_D,70,0.00036704996453035146,0.0003778171915227562,0.0003469727350794672,0.0003037741915087233,0.00036023986520044996,0.00038823352177104914,0.00040629761947327245,0.00038229414305201775,0.0003701325311463194,0.000322891084131364,0.00036257028474157704,2.9239646618111705e-05,32,2,8,8,32,2,8,2,16,16,64,16,8,4,32,16,8,16,16,8
rana,CELL_D,75,0.00033328360462855916,0.00032674959735952777,0.0003506290743792137,0.00038192888397258395,0.0004050746856263134,0.0003968169173545355,0.00036267998325390427,0.00042978987333467034,0.00035594037663722744,0.00034634224350923776,0.0003689235240055773,3.1717169990731555e-05,64,8,64,32,32,8,32,4,16,8,8,32,8,4,16,4,64,4,64,16
rana,CELL_D,80,0.0003347835653546332,0.0003345045795770279,0.00036380049491423373,0.0003902353211747719,0.00041722731206256415,0.00040358026774341897,0.0003541225369957828,0.00034300975295679616,0.0003255815997117487,0.0003678142028030552,0.00036346596332940327,2.972790023058137e-05,64,8,8,32,32,16,8,4,8,32,8,32,8,2,64,4,64,2,8,4
rana,CELL_D,85,0.00033187128414955867,0.00035942866767218736,0.0004412808289788472,0.000383936082686423,0.00036994555386646056,0.0003557916371213534,0.00042987696449917626,0.0003097564386930598,0.00036197708396266677,0.00036022156642972184,0.00037040861080594545,3.796769209962302e-05,64,4,64,8,16,16,8,8,32,2,64,16,64,16,64,32,8,8,8,32
rana,CELL_D,90,0.00033772793219661923,0.0003641334198669261,0.00034496780321869686,0.00035252670088173094,0.00044776006870365904,0.0003676789205642048,0.0003427647987758888,0.0003360815486109971,0.000401097344395847,0.0003846799844509573,0.0003679418521665527,3.3305030329276424e-05,32,16,32,2,64,16,16,2,16,2,64,8,32,8,16,32,64,32,8,32
rana,CELL_D,95,0.0004315475989501599,0.00032253362950141157,0.0003426757143642911,0.0003382564088882933,0.0003550751813292069,0.0003370453772461433,0.0003234699266890403,0.0003480821672278927,0.000351911924389147,0.0003930683965906548,0.0003543666325176241,3.188250229850225e-05,8,4,32,8,32,4,8,16,8,8,32,8,32,2,8,32,64,2,16,16
rana,CELL_D,100,0.0003732230979211207,0.00040397452548588466,0.00040491208645783455,0.00036181435878563273,0.00037634265062966033,0.0003501617418181994,0.0003581111695738708,0.00029987705089039665,0.00036552439190913984,0.00043910593749860784,0.0003733047010970348,3.5537760765830265e-05,32,4,8,4,64,8,32,16,32,4,64,32,16,16,32,4,64,2,64,4
rana,CELL_D,105,0.0003642015226514886,0.0003764013055410742,0.00035755364889747827,0.0003519966576998638,0.00034337219514481393,0.0003592942020590495,0.0003904025909476028,0.00039922033225403233,0.00038867019288586324,0.00040107383543292076,0.00037321864835141875,1.9641642131224045e-05,64,4,8,32,16,32,8,2,8,32,16,2,64,4,32,2,64,2,64,4
rana,CELL_D,110,0.00037433609139003,0.00034912618789995455,0.00038101952126778113,0.00030415877880495625,0.0003404159121209655,0.0004251590394115387,0.0003623833512728778,0.0002837572433205556,0.00036804897748667287,0.00035548764674237106,0.0003543892749717704,3.755269072429905e-05,16,16,32,2,32,32,16,8,8,16,16,16,32,32,8,2,32,32,16,4
rana,CELL_D,115,0.0003607706975850661,0.000354943788047175,0.0003887946540538961,0.0003219030872856484,0.0003417998288224322,0.0003278827939025364,0.0003759767514743353,0.0003789784407939563,0.0003902664672862693,0.0003928281864716834,0.0003634144695722999,2.4823432317024392e-05,64,2,16,8,64,32,64,16,32,4,32,32,32,32,32,16,64,8,8,4
rana,CELL_D,120,0.0003956413338610647,0.00033586463949949,0.00037624521867121085,0.0003469090819233509,0.0003388496873200145,0.0004333563759462346,0.00033279918072136154,0.00039928084354192583,0.0003741161027701489,0.00040649491124057776,0.0003739557375495379,3.288294003285304e-05,8,32,32,16,8,16,32,8,16,8,64,2,64,32,16,4,8,2,64,2
rana,CELL_D,125,0.00032818182327091545,0.00038212384409749703,0.0003477674194294151,0.0003492689119020987,0.000342137356777644,0.00037322153153641636,0.00037884619572459794,0.00039685892745503236,0.00028747452380502504,0.0003395676962539631,0.00035254482302526056,3.0159447556459887e-05,32,8,8,4,32,4,8,2,16,32,32,8,32,4,32,32,32,16,64,32
rana,CELL_D,130,0.0003777905712627464,0.00033424288371433793,0.0003844101208908361,0.00044250669108596575,0.0003601242471540936,0.0003328703986121091,0.00033966361681197517,0.0003525190521540885,0.00036659236835297177,0.00036885281082613423,0.00036595727608652585,3.058699970256387e-05,16,4,8,16,32,16,64,4,64,32,64,16,32,32,8,32,32,8,32,32
rana,CELL_D,135,0.0003464100713347717,0.000339038549520971,0.0003979560284056116,0.00033320383842813325,0.00037955342001020167,0.0003576360991758668,0.0003489914478073052,0.00032267978576485664,0.00035735963083822933,0.0003835338440847897,0.0003566362715370737,2.2654669458538904e-05,8,32,8,32,32,32,32,4,8,16,64,4,32,16,64,16,8,16,16,32
rana,CELL_D,140,0.0003693592761361761,0.00034085986584219443,0.0003403494967203767,0.00040345324348811104,0.0003930146649971165,0.0003834780726634288,0.00031968334678187364,0.00030312601106117446,0.0003838296107352884,0.00037275931847856764,0.0003609912906904308,3.154419528699451e-05,16,16,64,4,16,8,32,4,8,8,16,8,64,4,64,2,32,2,64,8
rana,CELL_D,145,0.00031840359527664203,0.00031906966980596287,0.0003512416410423767,0.0003608105666178871,0.00030665532557307357,0.00037038575375977144,0.00037460660500895064,0.00037966922092427856,0.00040724599021614956,0.0003588895981787661,0.0003546977966403859,2.9981579339897937e-05,8,2,64,2,32,4,32,32,8,32,64,16,32,16,64,16,64,2,16,32
rana,CELL_D,150,0.00040169170187691116,0.0003406317642060084,0.00038340973827738446,0.0003876868039313764,0.00036816774059523,0.0003521241275082044,0.0003307221772943245,0.00037947918710930776,0.00030236391650822515,0.0003453598172626174,0.00035916369745695896,2.8848798171669514e-05,8,16,16,8,8,8,32,32,32,8,16,16,8,4,32,8,32,2,32,32
rana,CELL_D,155,0.0003560090059938377,0.0004364664350707639,0.00036192826361236265,0.0003227109527833943,0.00039639263235340523,0.00032450392086989577,0.00035072541272712074,0.00040969179942938484,0.0003582229177276845,0.0003334029142044684,0.00036500542547723174,3.5856580070384606e-05,16,2,64,8,16,4,32,16,8,16,32,8,8,8,64,2,16,2,8,2
rana,CELL_D,160,0.0003839688991708665,0.00035752816278671507,0.0003784649017052003,0.0003513655916846171,0.00039850817540286666,0.0003454248535788726,0.0003547874528797186,0.00035527006032396916,0.0003991687083640372,0.00037164710238095827,0.00036961339082778217,1.8672576223407317e-05,16,8,8,32,64,32,32,32,8,2,32,8,64,2,32,4,16,2,8,32
rana,CELL_D,165,0.00037151745902175195,0.0003836769549099358,0.0003275790734620997,0.0003554710960903175,0.0003769369979805912,0.00038219164120173004,0.00034369134501323627,0.00034051872466038557,0.0004288801222489371,0.0004332013325093661,0.00037436647470983513,3.350917937934611e-05,16,16,8,4,8,16,16,8,64,8,32,8,8,32,16,32,64,8,16,16
rana,CELL_D,170,0.00032771175915237053,0.00042057612532053,0.0003651098100245296,0.0003644432637193325,0.00036878249450895663,0.0003941470857329065,0.0003583051805500252,0.0003689680060660177,0.0003665692904508788,0.00032090746518795353,0.00036555204807135007,2.710614857123954e-05,32,4,32,2,16,32,16,32,16,16,8,16,16,32,32,32,8,16,32,8
rana,CELL_D,175,0.0004085111213934908,0.00032011434476290413,0.00040014100428430134,0.00040128618373676494,0.0003519987422405407,0.0003491324609648714,0.00033559681607740787,0.00034567061672290133,0.0003002092475174832,0.00037290175273999807,0.00035855622904406643,3.458837707464396e-05,8,8,32,8,16,16,16,4,16,2,64,16,64,8,32,16,8,8,8,2
rana,CELL_D,180,0.00034522335635743897,0.00041864117688919506,0.00032539890122685916,0.00038278866388582376,0.00035623493660042187,0.00036199521817456597,0.0003860804852513767,0.00039627109967794435,0.0003430751649096646,0.0003445490580088231,0.00036602580609821137,2.7476745263909558e-05,16,8,16,32,16,2,16,2,8,4,32,32,64,32,16,32,32,8,8,32
rana,CELL_D,185,0.0003324145511357779,0.00032055688207460373,0.00036347650454163596,0.0003598974176048451,0.0003337922734506404,0.00032372031367144255,0.00031483653787802265,0.0003862937772842204,0.00040247020231610434,0.00038121805270644035,0.0003518676512663733,2.9420312098215506e-05,32,32,8,32,16,8,32,16,16,8,32,8,8,32,32,32,16,16,16,32
rana,CELL_D,190,0.00042994131883953467,0.00037627027901495144,0.00034042742723189605,0.0003474803557214905,0.00037229923811768354,0.00037008983362855934,0.0003307772409411031,0.0003902780297908225,0.00032230654045462557,0.0003961149564796296,0.0003675985220220297,3.1413139764513106e-05,64,16,32,4,32,2,32,32,8,2,8,2,16,8,8,4,64,8,8,8
rana,CELL_D,195,0.00035233879527290753,0.00036435205706477274,0.0003401843109006172,0.0003524207050379657,0.00038911955842071456,0.0003485486614945245,0.00034837382100959995,0.00037746921843196014,0.00038790415412811577,0.0003717547997725758,0.00036324660815337544,1.6608966440385392e-05,32,32,16,8,32,32,16,2,32,8,32,16,32,4,8,32,8,32,8,32
rana,CELL_D,200,0.00034289191138112975,0.0003477892311972526,0.00031862535702886503,0.0003865758949806369,0.00037763516788648425,0.0004046330845623812,0.0003617082678151475,0.00042763155168227553,0.00037383782559231523,0.00030325264523069255,0.0003644580937357181,3.599025824392792e-05,64,8,64,32,8,16,8,16,64,32,32,32,16,4,64,32,64,4,16,8
rana,CELL_A1,0,0.002257964835752979,0.002197344711727539,0.002379237153876302,0.002002379221595901,0.002263453968996534,0.0021933522734948765,0.002118575079095347,0.0019651263354889485,0.002245153710759386,0.0021981488628281063,0.002182073615361592,0.00011800080010017215,4,8,4,32,4,8,4,32,8,32,4,4,4,32,16,32,8,32,4,32
rana,CELL_A1,5,0.0016892995398264112,0.0018611610568963243,0.001904262307976521,0.0020708456475645107,0.0021700275198458957,0.002010674420161866,0.001953967111757864,0.0018391197993676035,0.002037383930342557,0.0020465464499568866,0.0019583287783696444,0.0001316130043586112,4,8,4,16,4,8,4,16,4,32,4,4,8,32,4,8,16,32,8,32
rana,CELL_A1,10,0.0017609609937041134,0.001720246274450984,0.0016919284701663413,0.0018803417286364888,0.0016236012938177743,0.001850170585282016,0.0019254697451994561,0.001656958265257456,0.001578452283551788,0.0018420508199493131,0.001753018046001573,0.00011163993809923242,8,32,4,32,8,32,4,2,8,32,4,8,4,32,8,32,4,16,16,32
rana,CELL_A1,15,0.0016960247245238797,0.0016968179763597877,0.0016773859337931981,0.0015596657387910062,0.0020210299841962828,0.001879086226378869,0.001783551504210263,0.0017596709749876916,0.0017296861926635568,0.0014752094821282853,0.0017278128738032823,0.00014476916894160324,4,2,8,32,8,32,8,32,4,8,4,16,4,16,8,32,8,32,16,32
rana,CELL_A1,20,0.0018322466627163784,0.0016147557565278545,0.001603211626156233,0.0013770672817772557,0.0014640195407060559,0.0016910249251689778,0.0017203373094580522,0.0016719672291742266,0.001405835606499697,0.001723110543328219,0.001610357648151295,0.00014215672244196953,16,32,8,32,32,32,32,32,8,32,32,32,8,32,8,16,8,32,8,32
rana,CELL_A1,25,0.0016643030813094394,0.0014735336294804913,0.0012602453881080616,0.0015926425073240073,0.0017373460341564813,0.0013666948128340046,0.0016966529472873108,0.0013770246705422443,0.0016295884132342363,0.0015887980235021332,0.001538682950777841,0.0001521098762683833,8,32,64,32,16,32,8,16,8,32,8,32,8,16,8,32,8,32,8,32
rana,CELL_A1,30,0.0014832003830033496,0.0015496847388127009,0.0014684818037872702,0.001382884752593197,0.0013131624677631844,0.0014436148708304385,0.0015426221888485054,0.0012926289704108505,0.001365972346599662,0.0012659408856781397,0.0014108193408327299,9.67379452886719e-05,64,32,8,32,8,32,32,32,8,32,16,32,8,32,16,32,8,32,8,32
rana,CELL_A1,35,0.0014433924416893855,0.0013771678386049954,0.0013405989934812347,0.001396892185293936,0.001460791044642554,0.001299196610890342,0.0017698482138851451,0.0013563684164025643,0.0013658038211072456,0.0014099448970691954,0.0014220004463066597,0.00012446635035023,32,32,64,32,8,32,8,32,32,32,32,32,16,32,64,32,8,32,8,16
rana,CELL_A1,40,0.0015786960368540546,0.0014448418137512759,0.0013583905178828667,0.0012036119234622269,0.001310194665840134,0.0013357697246720178,0.0011349780126629484,0.001329907892808884,0.001202740633423992,0.0015047832354079533,0.0013403914456766354,0.00013264303889396842,64,32,8,32,8,32,64,32,16,32,8,32,8,32,8,32,8,32,8,32
rana,CELL_A1,45,0.0012745757101699795,0.001478392410962274,0.0012617323353239296,0.0014438438695460038,0.0013223312744411668,0.001344215849654391,0.0012293787090715156,0.0016137374933908805,0.0013614736270992844,0.0011536917770792608,0.0013483373056738684,0.00012740415227272735,32,32,8,32,8,32,64,32,32,32,32,32,16,32,8,8,32,32,8,32
rana,CELL_A1,50,0.0013881069536703066,0.001347494211370845,0.0015252120432732942,0.0015830564891151564,0.0014712835344150225,0.0014429731049493983,0.0013454591139581268,0.0013706903866194356,0.0014170893145565733,0.0011819678349236928,0.001407333298685185,0.00010494766556558799,8,16,8,32,8,16,32,32,8,32,8,8,8,32,64,32,16,32,8,32
rana,CELL_A1,55,0.0013445303529092134,0.001426556142444631,0.0012558511813653432,0.0012207550572020099,0.0013173189586242868,0.001479738748199494,0.0014318050166760548,0.00143233370278303,0.0011699911533581185,0.0015068366116215554,0.0013585716925183736,0.00010913124043074923,64,32,16,32,16,32,64,32,32,32,8,32,8,32,8,32,8,4,32,32
rana,CELL_A1,60,0.0012956279039778532,0.0012525304487445517,0.001214052931880971,0.0014252967978957748,0.0016124015496318351,0.0013354459040426183,0.001363155066871065,0.0015646904979237945,0.0014268384371775352,0.0012704519139374528,0.0013760491452083452,0.00012545348769803778,8,32,8,32,8,32,8,32,64,32,16,32,64,32,32,32,64,32,16,32
rana,CELL_A1,65,0.001545869373079746,0.0013420370829437295,0.0013929665019769796,0.0011433096710064307,0.0014450778218798583,0.0010807208835364602,0.0014020836567766857,0.001479038453063563,0.0014533540829085648,0.0012197605673189614,0.001350421809449098,0.00014544844215261054,8,32,8,32,8,32,16,32,16,32,8,32,8,32,16,32,8,16,8,32
rana,CELL_A1,70,0.0012266571366873708,0.0013619670126490601,0.0012598720442000084,0.0014809100192922748,0.0014010247524481347,0.001411620649277537,0.0014474753831370888,0.0011622151163971717,0.0012513516782000202,0.0015767481787480407,0.0013579841971036706,0.0001234063002534804,16,32,16,32,8,32,32,32,8,16,8,32,8,32,8,2,8,32,16,32
rana,CELL_A1,75,0.0015016120336550612,0.0012818085673311516,0.0014096567251570078,0.0012476933430285524,0.0014862303953502834,0.001171694753430938,0.0012899310583778668,0.001426152251075023,0.0013708789715532587,0.0014366723063554065,0.001362233040531455,0.00010386160462556693,8,32,64,32,8,32,64,32,8,32,8,32,16,32,32,32,8,32,8,32
rana,CELL_A1,80,0.0013798120187810496,0.0014640370800395425,0.0015255618824370934,0.0011383610630358756,0.0014436112712698421,0.0014672946382243912,0.0012480731236517465,0.0015641117227605072,0.001377396908074879,0.001402112874124906,0.0014010372582399834,0.00012069737836320742,8,16,8,32,8,32,8,32,8,16,8,16,8,32,8,32,8,32,8,16
rana,CELL_A1,85,0.0012530622514980172,0.00134979391361536,0.0013838097625058117,0.0015150493650055229,0.0015973511746101765,0.0015498969400152443,0.001368258505522117,0.001351264867147565,0.0012560297259500786,0.0012248574526595648,0.0013849373958529458,0.0001231026315222253,8,32,8,32,8,32,64,16,8,32,8,32,16,32,8,32,8,32,8,32
rana,CELL_A1,90,0.0013436447722903054,0.0012859446113498987,0.0011817331801670312,0.0014440933016858371,0.0015406593837426817,0.0012256352875971615,0.001558705605005459,0.0013686570986938015,0.0015022078878513096,0.0012306857526397904,0.0013681966881023276,0.00013081528548839445,8,16,16,32,8,32,32,32,8,32,16,32,8,2,64,32,16,32,32,32
rana,CELL_A1,95,0.0015604525580344886,0.0013391685054669914,0.001260798977900799,0.0015635569738155807,0.0015827900796581904,0.0013262954714205171,0.0012183692122861086,0.0014936777907948683,0.0013619562044795142,0.0012732851217696752,0.0013980350895626734,0.00013177576660551582,64,32,8,32,8,32,64,32,32,32,8,32,64,32,8,32,8,32,8,32
rana,CELL_A1,100,0.0011602367852713929,0.0013521655706711954,0.0014360879417664146,0.001399194768979171,0.0014937840837118649,0.001681756418214736,0.0013436639785796545,0.0014385953967047003,0.0014589169969027069,0.0013748810210723504,0.0014139282961874188,0.00012493406521154926,64,32,8,32,8,32,8,32,8,32,8,32,16,16,64,32,8,32,8,32
rana,CELL_A1,105,0.0014432019117543147,0.0012372039664092257,0.0012043971498772559,0.0015735802882106658,0.0014333909878455516,0.0015412730640459603,0.0013138598021086554,0.0013498878580902108,0.0013547527190988873,0.001414844814261072,0.00138663925617018,0.00011324598558000472,64,32,64,32,16,32,8,16,8,32,32,32,16,32,8,32,32,32,32,32
rana,CELL_A1,110,0.0013461970661279555,0.001380887018496674,0.0013395822321898743,0.0014450681164295675,0.0013557834550495529,0.0013951861092709023,0.0014802238530023614,0.0015375688800665845,0.0013728850652141738,0.0015748039426420736,0.001422818573848972,7.897189893381181e-05,32,32,16,32,16,32,32,32,64,32,8,8,8,32,8,16,8,32,8,32
rana,CELL_A1,115,0.0014070688253500837,0.0012338762755960573,0.0013620440478765766,0.0014926084704676755,0.0014799031540977765,0.0013789521840005892,0.0014435976001716904,0.0013591546449248037,0.0014823405996549936,0.0012847568279357798,0.0013924302630076025,8.218796472009709e-05,8,32,8,32,8,32,32,32,8,32,64,32,64,32,8,32,16,32,8,32
rana,CELL_A1,120,0.0017260262895357414,0.0012193536322742682,0.0014932916733167824,0.0013484168408091635,0.0013760278778353818,0.0014166667063482796,0.001240470082663165,0.0014339340056015292,0.001520300578828499,0.0012644314480717003,0.001403891913528451,0.00014506679664754842,8,16,8,32,8,32,16,32,32,32,64,32,64,32,16,32,8,32,32,32
rana,CELL_A1,125,0.0013531155345433497,0.0015244633187938533,0.0014387831317336213,0.0013237163330740034,0.001308143367160792,0.0013886940684652088,0.0013670286273419303,0.0013473240045713995,0.0012717494874398532,0.001434920175228027,0.0013757938048352038,7.017702667767579e-05,64,32,8,32,64,32,64,32,8,32,64,32,32,32,64,32,16,32,32,32
rana,CELL_A1,130,0.0013658692616592483,0.0012337197702683037,0.001291107872480864,0.0015448016997408193,0.0014825860456309902,0.0015887850669815643,0.0012267923248601201,0.0015270179465059332,0.0012832251037596055,0.0014221189319577581,0.0013966024023845205,0.0001281576960390083,16,32,64,32,8,32,32,32,8,32,32,32,8,32,32,32,8,32,8,32
rana,CELL_A1,135,0.001428655244535885,0.0014021461871238715,0.0014666382648543495,0.0014056588846857031,0.0012358641672141376,0.001311133177878153,0.001351506113392211,0.0014739489500463303,0.0013075818495454567,0.0014029780529994252,0.0013786110892275523,7.206353217799109e-05,16,32,32,32,8,32,32,32,8,32,64,32,8,8,64,32,16,32,32,32
rana,CELL_A1,140,0.0014702279498997701,0.0013081584736992077,0.001550446120718725,0.001226337794918222,0.0013285451843503754,0.0013725914915757636,0.0015440422287957111,0.0015642216780741031,0.0013925384416266324,0.0013769110453027591,0.0014134020408961272,0.00010886964477465326,32,32,8,32,32,32,8,32,8,32,8,16,64,16,8,32,8,32,8,32
rana,CELL_A1,145,0.0013679676740798812,0.0014841675820800877,0.0013588255007808646,0.0013544012612750646,0.0012744944634739653,0.0014206954279411715,0.0015220417711684813,0.0016146757282992114,0.0013958677902313494,0.0014791522613430206,0.00142722894606731,9.376174027679237e-05,8,32,32,32,8,32,8,32,64,32,8,32,32,16,32,32,8,32,8,32
rana,CELL_A1,150,0.0012355710842915418,0.0014880820155853836,0.0015372776215122502,0.001318625849951935,0.0013572906031905966,0.001452592067514375,0.0013202928208093721,0.0014162325199996886,0.0012448138346452353,0.0013756079983103671,0.0013746386415810746,9.471783642561037e-05,8,32,8,32,32,32,8,32,8,16,32,32,64,32,8,32,64,32,16,32
rana,CELL_A1,155,0.001242708384877765,0.001419178248376173,0.0014472086661678363,0.001501329789250522,0.0014497909163777647,0.001397878062913919,0.001372083512867773,0.001372999541506614,0.0014912063992921672,0.0014958991766430374,0.0014190282698273572,7.449251207957764e-05,8,32,16,32,32,32,8,16,8,32,32,32,8,32,8,32,8,32,8,32
rana,CELL_A1,160,0.001501923435482617,0.0013783443094910785,0.0013058154368892675,0.0012684604522608055,0.0015346369330262192,0.0013786234172987303,0.001456605485989096,0.0012610084749784703,0.0013891598852929907,0.0013294856135997032,0.0013804063444308977,8.910011260656032e-05,8,32,32,32,8,32,8,2,16,16,32,32,8,32,8,32,8,32,8,32
rana,CELL_A1,165,0.0014206958598143554,0.0014100278293897818,0.0014106594600049923,0.0014411930363979364,0.00153976582575069,0.001184308398428132,0.0013597506377217938,0.0014837191970415403,0.001429613175898732,0.0013566417587803686,0.0014036375179228326,8.924695869696496e-05,16,32,16,32,8,32,8,16,64,32,8,32,16,32,8,32,8,32,32,32
rana,CELL_A1,170,0.0013923852948054707,0.0012451741949165516,0.0014421246763544338,0.001224021693651997,0.0011059167716474662,0.0017473684626118618,0.0016250220297356023,0.0014082485847821905,0.0013451319817057751,0.0013038501393374709,0.001383924382954882,0.00018008210734383844,8,32,16,32,8,32,8,32,16,32,8,16,8,32,64,32,64,32,8,32
rana,CELL_A1,175,0.0013928440883820942,0.0014896457841832007,0.0015335866490207093,0.001258121709810967,0.0013471919292993657,0.0014693050307605677,0.0014424109043319293,0.0012272304109053535,0.001539387169514551,0.0013385241555963605,0.00140382478318051,0.00010409807100283894,8,32,16,16,32,32,8,32,8,16,8,32,8,32,8,32,8,32,8,32
rana,CELL_A1,180,0.0011329649861873804,0.0011866061151156705,0.0013668350264495709,0.001425659023630978,0.001380157416778122,0.00155308695292933,0.001241595921575629,0.0013502343468580374,0.0015282455367767662,0.0014266683653654838,0.0013592053691666966,0.00013058210658379866,8,32,32,32,32,32,8,32,8,4,16,32,16,32,8,32,8,32,32,32
rana,CELL_A1,185,0.0013143079726461787,0.0015135322122847364,0.0014106871788125835,0.0013632850960171687,0.001520464942365454,0.0013791991884647115,0.0014113533097878672,0.0014272124361749316,0.0014534517163162473,0.0015125026541186295,0.0014305996706988507,6.607519342474553e-05,8,32,8,2,8,16,32,32,32,32,8,32,16,32,64,32,8,32,16,32
rana,CELL_A1,190,0.0014555098814959377,0.0013465665511463876,0.0012840223338282607,0.0013508045498475524,0.001432497572483854,0.0013180166479680297,0.0014402125536974544,0.001489128101050478,0.0014341973725488593,0.0013992950926231184,0.0013950250656689933,6.32994307506658e-05,32,32,64,32,8,32,8,32,16,32,8,16,16,32,8,32,8,32,64,32
rana,CELL_A1,195,0.0013632145775576694,0.001494703498664717,0.0014901881202354305,0.0013695967544730366,0.0012986228240741114,0.0014602956748245874,0.0013105763607990683,0.0015199856864089635,0.0012728748887617897,0.0014625737188469184,0.001404263210464629,8.693718496075476e-05,16,32,16,32,8,32,8,32,16,32,8,32,8,32,8,32,32,32,8,32
rana,CELL_A1,200,0.001495017036284094,0.001562369480613677,0.0011510111037055153,0.0014543793104864907,0.0014404001665087676,0.0016715978197299841,0.0013014302717204282,0.0015346356709710594,0.0012959081371759016,0.00133171875692791,0.0014238467754123828,0.00014608070603567996,32,32,8,32,8,16,8,32,64,32,8,16,64,32,32,32,64,32,8,32
rana,CELL_A2,0,0.0005337513213429295,0.0005074294080551248,0.0006117914572056716,0.0005332922824554516,0.0005181568308507884,0.000490001018468151,0.0005835369906926631,0.0005294962818536202,0.0005542607321432052,0.0005269701531355468,0.0005388686476203152,3.4120465855035075e-05,4,8,4,4,4,2,4,8,4,32,4,16,4,32,4,32,4,2,4,4
rana,CELL_A2,5,0.00045816513155414986,0.0005267137340891647,0.0005090553520637696,0.0004901582332149537,0.0004467557866471923,0.0005438246178225364,0.0005368030415102566,0.00045854768415583226,0.00044370682291230165,0.0005276025444890524,0.000494133294845921,3.749344112330495e-05,64,8,4,32,4,32,4,4,8,32,4,32,4,8,4,2,4,4,4,32
rana,CELL_A2,10,0.00039996122652527743,0.00042966213314266224,0.0004266949430938509,0.0004061060758655353,0.00044163081778474567,0.0004937501503896666,0.0004889452205786882,0.0004059263608948939,0.00046886339064038736,0.00041609227844964004,0.0004377632597365348,3.292237481846694e-05,16,8,64,32,8,8,8,4,16,32,4,32,8,32,8,32,8,32,16,32
rana,CELL_A2,15,0.00044782802354031797,0.0004058537000367757,0.0004152081014860481,0.00035821703613515723,0.0004524233043139251,0.0004248903005557329,0.00048020769679067753,0.00043483687091945447,0.0004409463974350476,0.0004741641291957194,0.0004334575560408856,3.361003587751997e-05,16,8,4,4,8,32,16,4,8,16,8,32,16,4,32,32,16,8,8,32
rana,CELL_A2,20,0.00045672760574043056,0.0004921243317338208,0.00039228829359494374,0.00038828016190225144,0.00038714905436134663,0.0004135112609156736,0.000348068657834987,0.0003874873163533227,0.00043803521523866866,0.00046301725239689606,0.00041666891500723413,4.2121485871610156e-05,32,4,32,8,16,32,32,32,32,16,64,2,8,32,32,4,32,2,64,16
rana,CELL_A2,25,0.0003699305891619753,0.00037226842981307444,0.00046844440866080505,0.00041412858458701453,0.0003735781779498393,0.000410135695586664,0.00043157927326252987,0.0003862841775456939,0.00033050893721206715,0.00035228785691743383,0.00039091461306970976,3.850155395772782e-05,32,8,32,2,8,16,64,32,64,4,32,2,16,2,32,4,64,32,16,8
rana,CELL_A2,30,0.0003309433843292346,0.00031963387492737,0.0003524158118935624,0.0003441464024722028,0.00041936646759296127,0.0003552806541185823,0.0003857114253352579,0.0003373758740008648,0.000353835505581406,0.0004940455763927767,0.0003692754976644219,4.9646766837445226e-05,32,32,32,32,8,32,16,4,64,16,8,8,64,16,64,8,32,8,16,4
rana,CELL_A2,35,0.0003597005641011939,0.00032149225466813797,0.0003392392533135495,0.0003909494203820387,0.00036064829528822164,0.00038722048396030653,0.0003819606537212527,0.00041816808132438653,0.0003728557614008443,0.00033970418928197315,0.0003671938957441905,2.7456604928719787e-05,16,8,32,4,64,32,16,2,8,4,8,16,32,2,32,16,8,4,32,16
rana,CELL_A2,40,0.00033967454994362887,0.00033549458095349086,0.00031739330154197755,0.00040071632750771503,0.00038489552833116246,0.0003693495378270668,0.00045522790874357025,0.0003375327456621683,0.0003635091980040375,0.0003630655915565922,0.0003666859270071409,3.787059412558068e-05,8,4,16,8,32,4,32,2,8,32,16,32,32,4,8,16,16,2,32,8
rana,CELL_A2,45,0.00037881056192792437,0.0003693156779256684,0.000399259860115044,0.0003530665819132183,0.00034338304195157904,0.0003652429334482375,0.00030174801787485607,0.00034758357339609075,0.0003078469520690317,0.00034767424150976186,0.0003513931442131412,2.8305804670444694e-05,16,32,8,16,8,4,32,16,16,32,16,8,64,2,64,32,16,4,64,2
rana,CELL_A2,50,0.0004408007146296899,0.000361217914340578,0.0003252900735541425,0.0003745149946230287,0.0003743169091704392,0.00035120359775773547,0.0003798346056716907,0.00033909072530411175,0.00031108576179583183,0.0003492740296241131,0.0003606629326471361,3.400281920151177e-05,64,2,32,4,16,16,8,8,64,2,64,2,8,32,32,32,8,2,16,16
rana,CELL_A2,55,0.000321147185172651,0.00037290278050322936,0.00036716802737486606,0.00035696982969472704,0.00038955946400301536,0.00038196424415259576,0.00038405132485127755,0.0004087758803810418,0.00039117083893501313,0.00035923649348754545,0.00037329460685559625,2.2923932054285037e-05,16,8,64,2,64,8,16,32,16,32,16,8,8,32,64,2,32,8,64,2
rana,CELL_A2,60,0.00038995352046993756,0.00032871539894340504,0.0003951536400212337,0.0003834384745665507,0.0003946637179545414,0.00032453566164467756,0.00031003443116404516,0.0003598329996525124,0.00040346792519029635,0.0003691268910925927,0.00036589226606997924,3.20039550855249e-05,32,8,8,8,64,16,8,32,64,8,16,8,64,8,32,32,8,4,64,32
rana,CELL_A2,65,0.0003614022720523558,0.00042912886684173736,0.0003521630849860939,0.0003314012110634171,0.00034768647289121663,0.00037227900643454993,0.00037818051687083117,0.000351550265441074,0.0003401466019348389,0.0003751710060370444,0.0003639109304553159,2.6145293627415674e-05,64,16,16,8,16,8,16,16,32,2,64,32,16,4,16,8,64,8,8,4
rana,CELL_A2,70,0.00031480769888011975,0.00039000352163225257,0.0003804471115031563,0.0003791673578398888,0.0003610327430358066,0.0003687873858179428,0.00035105179842684516,0.00031895660105558927,0.0003791753513367455,0.00033824476300096126,0.00035816743325293077,2.5255384394569053e-05,64,16,8,8,8,16,16,2,32,32,8,16,8,16,64,32,8,8,32,8
rana,CELL_A2,75,0.0004358976702491732,0.0003672915877946038,0.0003396932714299015,0.00035073263212476494,0.0003090997190233045,0.0003847727344107019,0.00036509832122859614,0.0003219495925084935,0.0003842767942438166,0.0003625814954228499,0.0003621393818436206,3.397128435654042e-05,16,4,64,32,8,32,64,16,32,32,16,4,32,8,64,32,64,2,16,32
rana,CELL_A2,80,0.0003573550547372315,0.0003716058936894298,0.00039404771022713374,0.0003094502300463056,0.0003128140875139535,0.0003836496777736151,0.0003386545377304748,0.00035715515563725217,0.00042015253288194606,0.0003923538600431267,0.0003637238740280469,3.4105989073440655e-05,16,8,16,2,32,2,64,4,32,16,32,4,8,32,16,2,64,4,16,2
rana,CELL_A2,85,0.0003624020876244811,0.00038263716895632974,0.00035926170918076494,0.00034580637307083463,0.000290798658252603,0.00036268785338315146,0.00033543181400570336,0.00036666452582558565,0.0003940434595262403,0.0003657222905828775,0.00035654559404085714,2.6901022333277282e-05,8,2,32,2,16,2,64,32,8,16,32,4,8,32,32,4,8,32,64,32
rana,CELL_A2,90,0.0003400019338985018,0.00038431635512415756,0.0003941504359278616,0.00033593199918230285,0.00033408725149083803,0.0003547628474004012,0.00035691822319291517,0.00038264853264286604,0.0003568251407073183,0.0004126958089466069,0.000365233852851377,2.5438310181552656e-05,8,32,64,4,8,8,64,8,32,2,16,8,8,8,32,4,32,32,64,8
rana,CELL_A2,95,0.00039063290787561943,0.0003144565383429225,0.00039665288093721944,0.0003438039283642845,0.00033414739952687043,0.00036515316577707946,0.000363826363654514,0.0003514293361135774,0.00037297360553107984,0.00033710135670079403,0.00035701774828239606,2.4505227649262607e-05,32,8,32,8,64,32,64,32,8,32,64,32,16,4,64,2,32,4,64,2
rana,CELL_A2,100,0.00033264282529883786,0.0003439110237952008,0.0003270631101491489,0.00033706415853350586,0.00038414732514570614,0.00037342794999794664,0.00033097461646478514,0.0003849162254666875,0.00038747357507287994,0.00039494089289711034,0.0003596561702821809,2.6113860627009242e-05,64,8,64,2,8,32,64,32,8,4,32,2,8,2,8,8,8,8,64,8
rana,CELL_A2,105,0.0002824441030773938,0.0003629860489670587,0.0003078401275667609,0.00036571998921081035,0.0003587893036029576,0.00036366333859907675,0.0003868475400867488,0.00034764415800303056,0.0003373079839087665,0.000322052314395764,0.0003435294907418368,2.9845812043096512e-05,32,32,16,2,64,4,64,2,16,16,8,32,64,32,16,4,8,32,16,4
rana,CELL_A2,110,0.0003855552454438852,0.0003612471805178364,0.00033810907275197606,0.00037181103654511296,0.0003934233771944637,0.000365595611445828,0.00041900348461530013,0.000395939559875145,0.0003932940004942334,0.0003571493935899205,0.0003781127962473701,2.242926219722902e-05,8,32,16,32,64,32,64,8,32,8,16,2,8,2,32,16,8,2,8,16
rana,CELL_A2,115,0.00036117239330574875,0.00037577222021506967,0.00033181077367153903,0.0003681433357297206,0.0004041694023458598,0.0003742475726157484,0.0003408668680245828,0.0003403584483757968,0.00040452697982930943,0.0003350740566889706,0.0003636142050802346,2.547589125398961e-05,64,2,64,8,16,8,16,8,8,32,8,16,8,32,32,32,32,32,32,32
rana,CELL_A2,120,0.0003746626979222025,0.00033886318501467595,0.00039449843108192066,0.0003634047172838448,0.0003540229540358464,0.0003429949355805312,0.0003641940702855485,0.00041138542091027094,0.0003144173044146809,0.00037989573020196226,0.00036383394467314845,2.6782593986687983e-05,16,2,16,2,16,16,16,8,32,32,64,8,8,32,8,8,32,32,32,4
rana,CELL_A2,125,0.0003663580919112768,0.0003530843518266569,0.00036505102151747186,0.0003673563738812016,0.00032981421203250803,0.0003639698755284625,0.00041426859713416777,0.000442288295217001,0.0003300020141690175,0.00038354355745934574,0.00037157363906771096,3.305443009353113e-05,64,32,32,32,16,4,32,2,8,16,64,2,8,2,8,2,16,16,64,8
rana,CELL_A2,130,0.0003124690396279949,0.0004335799825470073,0.00035416843684108113,0.00034202094069536265,0.00034945772943161386,0.00037397236137836287,0.0003360883095924963,0.00039656758712433067,0.0003679461558865467,0.0003529609539314594,0.00036192314970562555,3.212707263407211e-05,16,2,64,4,8,32,16,4,8,4,8,4,64,32,64,16,16,32,8,32
rana,CELL_A2,135,0.0003927429554629901,0.0003515086422498479,0.0003250037130497054,0.00035438428612261856,0.00036179316314710207,0.0003648467207197677,0.0003501578336846196,0.00044803494284028917,0.0003339498483950891,0.0003673600826222171,0.00036497821882942465,3.280115966508022e-05,64,8,16,32,32,16,64,4,32,32,32,8,64,32,32,4,16,32,8,32
rana,CELL_A2,140,0.0003987582189866133,0.0004091502828109941,0.00037355080805777374,0.0003447861127460155,0.00037562170131075326,0.0003819299193755404,0.00034393890985597866,0.00034789665328641476,0.00033459301882866156,0.00032892114437602473,0.00036391467696347704,2.630704875049108e-05,32,4,32,16,16,32,16,8,32,32,8,4,16,2,64,8,64,2,16,8
rana,CELL_A2,145,0.00033406876561012654,0.00036324660018739936,0.00031984345792295514,0.00032995935041573295,0.00034347091988077573,0.00036918626518045325,0.0003672814631736574,0.00039403133667986436,0.00037055578019781733,0.00037225465942129803,0.00035638985986700803,2.213137461575484e-05,64,4,64,2,16,16,64,8,64,32,32,2,8,2,16,32,32,16,16,4
rana,CELL_A2,150,0.00031679337131045244,0.00035126049177259194,0.00036700289373539847,0.00034894631731610096,0.00039103287516257195,0.00036393378662474336,0.0003500574782257839,0.00033513012788962315,0.00035040598744057714,0.0003737206036306491,0.00035482839331084923,1.9552849838087752e-05,64,2,32,2,16,16,32,4,8,2,64,4,64,4,64,2,32,16,64,8
rana,CELL_A2,155,0.0003968714437371893,0.0003480115115138257,0.0003434196656825145,0.00035798096973593563,0.0003252383277937901,0.00037315965835582566,0.0003637264453703427,0.0003369098359870232,0.0003682915122154153,0.00038745453992191113,0.0003601063910313773,2.1291292744264302e-05,16,4,8,2,16,8,32,8,32,32,32,32,64,2,32,32,16,2,8,4
rana,CELL_A2,160,0.00039243898984110903,0.0003909340678830282,0.0003409367712037886,0.00034440315971435114,0.00031413052625768237,0.00041750761321246834,0.0003634735365225115,0.0004015250974777313,0.0003599939366432418,0.0003440309580231272,0.00036693746567790397,3.0882247570633394e-05,32,4,8,32,64,8,16,32,32,32,16,16,32,8,16,8,32,4,32,32
rana,CELL_A2,165,0.00039769005018491,0.00034394802950062987,0.00034190266280565237,0.0003921079500705052,0.0004055245324209616,0.0003825861437488651,0.00038422126390466973,0.000359014889583646,0.00036513937520992314,0.00037687539700810904,0.00037490102944378716,2.073085173661912e-05,64,32,8,16,8,16,8,4,64,16,8,32,32,16,32,2,32,2,16,32
rana,CELL_A2,170,0.0003633236579780299,0.00035902595908155757,0.00031906421055342266,0.0003784555219766379,0.00039588048403460313,0.0003164298532306142,0.00033224218040422705,0.000362404248931822,0.0003326091481568169,0.00033325958827521275,0.00034926948526229436,2.5108272165476558e-05,32,8,64,2,16,4,8,4,32,8,16,32,32,32,32,32,32,32,64,32
rana,CELL_A2,175,0.0003541025997234022,0.00033714766094104906,0.00040385713526020335,0.00036814210459774785,0.0003634864435476387,0.00034226526527518123,0.0003802533608492507,0.00037134088622146406,0.0003127583415802692,0.00034537496380645974,0.0003578728761802666,2.4109460296350347e-05,8,16,8,8,8,4,64,2,8,16,32,32,64,16,16,16,32,4,16,4
rana,CELL_A2,180,0.0003465131050660798,0.00033016394409966223,0.0004085472161272367,0.00036362920849372784,0.0003206166142382708,0.00030749680634097987,0.00038020568226575707,0.0003168007660187797,0.00044007327071244863,0.0003613389791742487,0.0003575385592537191,4.0468635247347536e-05,16,2,64,4,32,2,32,8,8,32,8,2,16,4,64,4,32,32,32,2
rana,CELL_A2,185,0.00035962647102890576,0.00040580935619728963,0.0003806672703380324,0.00038318792642407136,0.0003639058791091117,0.0003627259753621988,0.0003688674615080864,0.00032259932265419835,0.0003442749627485203,0.00037189818799915515,0.00036635628133695696,2.132698421452625e-05,16,8,32,32,16,8,64,8,32,2,32,8,64,32,8,16,16,16,64,32
rana,CELL_A2,190,0.0003590455409275809,0.00030825464765476743,0.00032777033784853914,0.0003715353078949043,0.00032561837959368294,0.0004245712040628632,0.00037081818879942436,0.0003872132848345624,0.0003577080973862396,0.0003587757472697185,0.0003591310736272283,3.1715359859672616e-05,64,32,64,4,16,8,32,32,64,32,32,8,16,32,8,2,32,16,64,32
rana,CELL_A2,195,0.00033333011407775127,0.0003646161129038928,0.0003662994734829118,0.00035639625695566533,0.000324189744115728,0.00033893594786755805,0.0004143174744048103,0.00041393418435389193,0.00038131778001341003,0.00038557023650250216,0.00036789073246781216,2.9759473753107644e-05,8,4,32,2,32,2,8,32,16,32,32,4,64,8,64,2,8,32,16,2
rana,CELL_A2,200,0.0003486215791052577,0.0003748027838138693,0.00038032992734769207,0.00039121581912626393,0.00034432621795184304,0.00035313956488807456,0.0003797620830631129,0.00037497786752307543,0.00034062226153179644,0.0003304231226947603,0.0003618221227045746,1.9649480258521846e-05,8,16,64,32,64,32,8,32,64,2,16,2,16,32,16,16,64,32,64,32
