Model,Class,T_bound,score1,score2,score3,score4,score5,score6,score7,score8,score9,score10,score_avg,score_stdev,alpha1,alpha2,alpha3,alpha4,alpha5,alpha6,alpha7,alpha8,alpha9,alpha10
moonchai,CELL_H,0,0.00038173535384334543,0.0003671979735841459,0.0003591964655744981,0.0003828286095310591,0.0003386780315932653,0.0004107611985489008,0.0004173740611972844,0.00032062022621591403,0.00034682869194619287,0.0003536091375689289,0.00036788297496035354,2.917673070055626e-05,1e-15,1e-07,1e-15,1e-07,1e-15,1e-15,1e-15,1e-07,1e-15,1e-07
moonchai,CELL_H,5,0.0003875980193176051,0.0004109419617792288,0.0003887340618863305,0.0003560792335735612,0.0003089237026497487,0.0003617023335939178,0.00035747716626706227,0.0003427675629970341,0.0003415566606073564,0.00035384411111643113,0.0003609624813788276,2.735241956329305e-05,1e-07,1e-07,1e-15,1e-15,1e-07,1e-15,1e-15,1e-15,1e-15,1e-15
moonchai,CELL_H,10,0.00038552915973305335,0.0003473648338417422,0.0003409679410704353,0.00039497747404260077,0.00036708225043842273,0.0003453693618790662,0.0003580484755919316,0.00036497072850155823,0.00034908153921951333,0.0003424044738131753,0.00035957962381314996,1.7654480951568848e-05,1e-15,1e-07,1e-15,1e-07,1e-07,1e-15,1e-15,1e-07,1e-07,1e-15
moonchai,CELL_H,15,0.00038607546842176903,0.0003737277756284242,0.00036276968108171054,0.0004018302818789749,0.00035581156066829167,0.00034563234826944644,0.000333316734481485,0.0003454579209061062,0.0003226600897338547,0.00038006449057991756,0.00036073463516499805,2.358966394109355e-05,1e-07,1e-15,1e-07,1e-07,1e-15,1e-07,1e-07,1e-15,1e-07,1e-15
moonchai,CELL_H,20,0.0003221778176403469,0.00037113510536819304,0.000377886597516004,0.00041230850065690386,0.00034558356588995556,0.0003388986041063845,0.0003500206135096497,0.00039419270742705506,0.00037094796174891434,0.00031493604418674935,0.00035980875180501563,2.9466424554021166e-05,1e-15,1e-15,1e-15,1e-07,1e-15,1e-15,1e-07,1e-15,1e-15,1e-15
moonchai,CELL_H,25,0.00033218823436660617,0.0003204455570658259,0.00034863117604981174,0.0003642468598810304,0.0004053074775496928,0.0004224401174443292,0.0003314196319793966,0.0003649555545634858,0.00033336589187100616,0.00038179961977233165,0.00036048001205435165,3.234278900815982e-05,1e-07,1e-07,1e-07,1e-07,1e-15,1e-07,1e-07,1e-15,1e-07,1e-07
moonchai,CELL_H,30,0.0003454187514532789,0.00037185570542438116,0.0004153435191918687,0.0003483269250492039,0.00031257577359655595,0.0003894909699061601,0.0003445378875532083,0.00033491936785568,0.0003887173841226398,0.0003707715509607307,0.00036219578351137074,2.9037434029790705e-05,1e-07,1e-07,1e-15,1e-07,1e-07,1e-15,1e-15,1e-15,1e-07,1e-15
moonchai,CELL_H,35,0.00038037919830448343,0.00036890908095532984,0.0003419410450830958,0.0004059786289558291,0.00036597516526388455,0.0003649749182120489,0.0003868615328272802,0.00031873711907545705,0.00033620515070817886,0.00036172594464731016,0.00036316877840328977,2.426566605633675e-05,1e-07,1e-15,1e-15,1e-15,1e-15,1e-07,1e-07,1e-15,1e-15,1e-15
moonchai,CELL_H,40,0.00042569895657205975,0.00030801596543279683,0.00036305322207638203,0.0003975425762164622,0.00036035783104008474,0.00032672460330652764,0.00034926927952747135,0.0004118708110555429,0.0003621421920238028,0.00030834858374433326,0.00036130240209954635,3.8737662143878395e-05,1e-15,1e-07,1e-15,1e-15,1e-07,1e-07,1e-15,1e-15,1e-15,1e-15
moonchai,CELL_H,45,0.00035659236356485734,0.0003943800031344459,0.0004303229895522721,0.0003484627821446817,0.0003565085209801628,0.00033408198102412604,0.00035277594749399114,0.00040865718742573795,0.0003539863483032463,0.00028198428895019937,0.0003617752412573721,3.932781480745969e-05,1e-15,1e-07,1e-07,1e-15,1e-15,1e-07,1e-07,1e-07,1e-15,1e-15
moonchai,CELL_H,50,0.0003380102931986228,0.0003976948941629847,0.0004330367841871074,0.0003859230868164543,0.0003426011542170573,0.0004041532295006121,0.00035544611314824694,0.00031714493919794923,0.00028928484357742954,0.0003704766524144264,0.00036337719904208914,4.12512921220142e-05,1e-15,1e-15,1e-15,1e-15,1e-07,1e-07,1e-07,1e-15,1e-07,1e-07
moonchai,CELL_H,55,0.0003216649991831479,0.0003764476105037666,0.00030922030638944335,0.00036427659424163124,0.0003811881461670633,0.00039191103164952273,0.00041821780605375404,0.0003735367811727496,0.0003558809295805043,0.0003454223015962648,0.00036377665065378477,3.0762991915335596e-05,1e-15,1e-15,1e-15,1e-07,1e-15,1e-07,1e-15,1e-15,1e-07,1e-07
moonchai,CELL_H,60,0.00030943211508659683,0.00031584448125655486,0.0004016274295441294,0.0003971628634920323,0.00036789501941959015,0.00040587270750543785,0.0003787090789613053,0.0003911742548650537,0.0003572824392034916,0.00029358112568491826,0.00036185815150191106,3.93618689760896e-05,1e-07,1e-07,1e-15,1e-07,1e-07,1e-15,1e-15,1e-15,1e-07,1e-07
moonchai,CELL_H,65,0.0003457957310914774,0.0003946924160126065,0.0003643141761807904,0.00032607747340838663,0.0003087870425380901,0.00034717444904363464,0.0003277724310734401,0.0003723706201596596,0.00042064864157938383,0.000409223461513936,0.0003616856442601405,3.553361513411845e-05,1e-15,1e-07,1e-07,1e-15,1e-07,1e-07,1e-15,1e-15,1e-07,1e-15
moonchai,CELL_H,70,0.00035828208908595906,0.000352059134122209,0.00034542708557163673,0.000402106038937923,0.00038925371221945257,0.0003149285308846366,0.0003308852910296146,0.0003763507064544316,0.00037614370251446604,0.0004234145167387049,0.0003668850807559034,3.140302931171898e-05,1e-15,1e-07,1e-15,1e-15,1e-15,1e-07,1e-15,1e-15,1e-07,1e-07
moonchai,CELL_H,75,0.00037635691895411094,0.0003636438222265173,0.00037580299678229636,0.0003547892449230702,0.0003950181776576338,0.00036357120055375614,0.00036859687854976105,0.00034336241852722703,0.0003386218322801465,0.0003605196439884641,0.00036402831344429837,1.5628427894896755e-05,1e-07,1e-15,1e-15,1e-07,1e-07,1e-07,1e-15,1e-07,1e-15,1e-15
moonchai,CELL_H,80,0.0003422325825653159,0.0003901745177973393,0.0002722002192959824,0.0003620976110231622,0.00041606434347527346,0.0003409724545782767,0.0003496917569579926,0.00034313691661413574,0.00037243531470057046,0.00042173593320039946,0.0003610741650208448,4.0975224044738985e-05,1e-07,1e-15,1e-15,1e-15,1e-15,1e-15,1e-07,1e-15,1e-15,1e-15
moonchai,CELL_H,85,0.000411178752055571,0.0004263809442279046,0.00033111512776612937,0.00032755318046039165,0.0003629279042909255,0.0003537837753440283,0.00034448397761335515,0.000343132753774621,0.00037178581117258984,0.0003591594472643311,0.00036315016739698475,3.086368044612408e-05,1e-07,1e-07,1e-15,1e-15,1e-15,1e-15,1e-15,1e-07,1e-15,1e-15
moonchai,CELL_H,90,0.0003231254995125564,0.0003457190083436524,0.00038297943442493004,0.00032634504037939836,0.0003557566750132156,0.00037763165586976704,0.0003734681773859045,0.00039292856165083024,0.0003539004441479761,0.0003935063337227813,0.0003625360830451012,2.4319767888701293e-05,1e-15,1e-15,1e-07,1e-07,1e-15,1e-07,1e-15,1e-07,1e-15,1e-15
moonchai,CELL_H,95,0.00042089079095814695,0.0003624276980569442,0.0003378421509722441,0.00031079542044792896,0.00040641320392279255,0.00039368018529600314,0.00034810919756591543,0.00037086258432106507,0.00033753860429381347,0.00033301996665304287,0.0003621579802487897,3.37037654770784e-05,1e-15,1e-07,1e-15,1e-15,1e-07,1e-15,1e-07,1e-15,1e-07,1e-07
moonchai,CELL_H,100,0.00034609863170061367,0.00040100184033935063,0.0003943429085661191,0.0003365978092406426,0.00033443519483389756,0.00033421694805336387,0.0003983378433039425,0.0004311033240033358,0.00033501936622790975,0.0003104702535029447,0.00036216241197721197,3.804702668203866e-05,1e-15,1e-07,1e-15,1e-15,1e-15,1e-15,1e-15,1e-15,1e-15,1e-07
moonchai,CELL_H,105,0.0003237665940754219,0.000402142257931413,0.00039487330532359227,0.0003351532710811816,0.0003517929592472132,0.0003730105837908511,0.00037652681604622047,0.0003802107698513742,0.00031883593776442325,0.0003715641626608375,0.0003627876657772529,2.7551910493906392e-05,1e-15,1e-07,1e-07,1e-07,1e-15,1e-07,1e-07,1e-07,1e-07,1e-07
moonchai,CELL_H,110,0.00035737679320965623,0.00038277059448618917,0.0003535578433651169,0.00036384620075391867,0.000365984452008227,0.00040137113553384866,0.0003360738654143624,0.00032196618249390755,0.0003669387259489656,0.0003744772029792083,0.0003624362996193401,2.132245601826137e-05,1e-15,1e-07,1e-07,1e-07,1e-07,1e-15,1e-07,1e-15,1e-07,1e-07
moonchai,CELL_H,115,0.0003351546617557626,0.0003258222746227238,0.00034413607579732863,0.00038598670810006106,0.0003768144648054466,0.00036233093296098436,0.00041922710167104267,0.00035052627631182974,0.0003672325711040057,0.0003617352910397273,0.0003628966358168912,2.5631148336867528e-05,1e-07,1e-07,1e-15,1e-07,1e-07,1e-15,1e-15,1e-15,1e-15,1e-07
moonchai,CELL_H,120,0.0003458831175233178,0.0003684165792556492,0.0003566604466876673,0.0003819741974563916,0.0003583071046644435,0.00036655839163447703,0.0003548886087183595,0.0003687805307090084,0.00034896004293284147,0.00038837740791998633,0.00036388064275021424,1.2999267802356348e-05,1e-07,1e-15,1e-15,1e-15,1e-15,1e-07,1e-15,1e-07,1e-15,1e-15
moonchai,CELL_H,125,0.00032192814136448525,0.0003783301498500635,0.0004239750320138226,0.0003004980993021742,0.00039504092346574445,0.00032953163981371393,0.0003751987906306425,0.00033157380870256416,0.0004092657804094322,0.0003538279466293617,0.00036191703121820045,3.8784586983288534e-05,1e-07,1e-07,1e-15,1e-07,1e-15,1e-07,1e-07,1e-07,1e-15,1e-07
moonchai,CELL_H,130,0.00039944335829305026,0.00034220659957476046,0.0003254623292167605,0.0003323502317335709,0.00039725440287509016,0.00035570559877937786,0.00034480390689415106,0.0003504085787655018,0.00041924928931441694,0.00036511294775996606,0.00036319972432066457,2.99887165190927e-05,1e-15,1e-15,1e-15,1e-15,1e-15,1e-15,1e-07,1e-07,1e-15,1e-07
moonchai,CELL_H,135,0.00037610180930803156,0.0003346602213341645,0.00033310796382847175,0.0003578243643541119,0.0003902445451263208,0.0003980824042963438,0.0003444082757795349,0.0004167129226129259,0.0003388769449731258,0.0003492475643146485,0.0003639267015927679,2.8038109067739752e-05,1e-07,1e-15,1e-15,1e-07,1e-07,1e-07,1e-15,1e-07,1e-15,1e-07
moonchai,CELL_H,140,0.0003929740075749244,0.0003406788180442187,0.00032015045456370173,0.0003980547267430757,0.00033909159433742457,0.00037712336250137504,0.0003472968515466685,0.00038633509901099387,0.0003703031163462464,0.0003631654747982229,0.00036351735054668515,2.4646454159573732e-05,1e-15,1e-15,1e-07,1e-07,1e-07,1e-15,1e-15,1e-15,1e-07,1e-15
moonchai,CELL_H,145,0.0003771045368290768,0.00037813270677190965,0.0003631449394754232,0.0003366317834875577,0.00036010828359741415,0.0003510323863212159,0.0004093302151653307,0.0003807161975931484,0.00035436011450704893,0.00031828327029735035,0.0003628844434045476,2.4102445771357907e-05,1e-07,1e-15,1e-07,1e-07,1e-07,1e-15,1e-15,1e-07,1e-07,1e-07
moonchai,CELL_H,150,0.0003368266799826386,0.0003793905795822055,0.000380881913044541,0.00037710450529637545,0.0003470612967839749,0.00035145084015865066,0.0003420790543515872,0.0003820529079502891,0.00036907762958698014,0.0003766983906061503,0.00036426237973433926,1.693861194329076e-05,1e-15,1e-15,1e-07,1e-07,1e-07,1e-15,1e-07,1e-07,1e-15,1e-07
moonchai,CELL_H,155,0.000342842379898142,0.0003322023575183851,0.00035569618554860287,0.0003779319130856953,0.00033049641217144736,0.0003789179815958298,0.0003651667927944415,0.00034795327457482394,0.0004078529920713868,0.00039033331713221435,0.0003629393606390969,2.435356403746456e-05,1e-07,1e-15,1e-07,1e-07,1e-15,1e-07,1e-07,1e-15,1e-07,1e-15
moonchai,CELL_H,160,0.0003819110748822176,0.00038959979690349504,0.0003840429557118292,0.00032626738947105435,0.0002912125564411451,0.00033014359035387557,0.0003598969630262817,0.0003530023699660977,0.0004313604812783121,0.00036292381507412757,0.0003610360993108436,3.719465406177439e-05,1e-15,1e-07,1e-15,1e-07,1e-15,1e-07,1e-07,1e-15,1e-15,1e-15
moonchai,CELL_H,165,0.0003963598003231011,0.000370014009370743,0.00030311565580731857,0.000335531080013496,0.0004024990750926258,0.0003403209329791134,0.0003528786337925484,0.0003648536362287759,0.0003763935546655631,0.0003906343100942054,0.0003632600688367491,2.9369218457274144e-05,1e-15,1e-15,1e-15,1e-15,1e-15,1e-15,1e-07,1e-15,1e-15,1e-07
moonchai,CELL_H,170,0.00034855247309821075,0.0002992545845010836,0.0003972184560182324,0.00037302708590911907,0.00036460471043720617,0.0004240478698747132,0.0003556105634225758,0.0003428906430190801,0.0003636315688935925,0.00036174318045368995,0.00036305811356275033,3.119936928934719e-05,1e-07,1e-07,1e-07,1e-15,1e-15,1e-07,1e-07,1e-07,1e-15,1e-15
moonchai,CELL_H,175,0.0004288840409056297,0.00039093271622412263,0.00033934989491921525,0.0003490417163351888,0.00034899192567581415,0.00034538511116981644,0.00037395472765396526,0.0003595719720177554,0.0003722505831743412,0.0003159163779905218,0.0003624279066066371,2.9685923205439174e-05,1e-07,1e-15,1e-15,1e-07,1e-15,1e-15,1e-07,1e-15,1e-07,1e-15
moonchai,CELL_H,180,0.0003657450623285302,0.00035326706974694145,0.00034034836015873885,0.00040137389461472703,0.00032969801303709046,0.00037540470553045716,0.00036952369678244177,0.0003214107111280391,0.00039224275611336035,0.0003819531835760901,0.00036309674530164167,2.5174020047857183e-05,1e-07,1e-15,1e-07,1e-15,1e-15,1e-07,1e-07,1e-07,1e-07,1e-15
moonchai,CELL_H,185,0.00035341506648650553,0.0003443368334546993,0.0003253690281022732,0.0003716445412949687,0.000326965439075425,0.0003679973330307275,0.00040247114030515487,0.0003792463134196243,0.00036064021836135446,0.00038618820080684683,0.00036182741143375794,2.3676762865460264e-05,1e-15,1e-07,1e-15,1e-15,1e-07,1e-07,1e-15,1e-15,1e-07,1e-15
moonchai,CELL_H,190,0.0004425816831405654,0.00034560224855409866,0.000336189793344137,0.00031099198307773775,0.00041422021938507437,0.0003444801320844133,0.000367244397669601,0.0003774410018280008,0.0003387604015581822,0.0003421197022276423,0.00036196315628694533,3.776955837396694e-05,1e-15,1e-07,1e-15,1e-07,1e-15,1e-07,1e-07,1e-15,1e-15,1e-07
moonchai,CELL_H,195,0.00040579653480805455,0.0003882771940461328,0.00039062193716205533,0.000384121319808549,0.0003593861008385853,0.00035785952551510266,0.0003341095209105419,0.00036908978185017566,0.0003027038937906866,0.00036235519945509477,0.00036543210081849787,2.8579147138038324e-05,1e-07,1e-07,1e-15,1e-15,1e-07,1e-15,1e-15,1e-07,1e-15,1e-07
moonchai,CELL_H,200,0.0003199413717092268,0.0004021783717725412,0.0003316823969988344,0.0003343529828446528,0.00035953494767469355,0.00038550514164357384,0.00039328476148695686,0.00038154470381889655,0.00034621481312494754,0.00037133467997192183,0.0003625574171046245,2.7054104186253695e-05,1e-07,1e-15,1e-15,1e-15,1e-07,1e-15,1e-07,1e-15,1e-15,1e-07
moonchai,CELL_D,0,0.0004911154398922821,0.0004885172400032084,0.00041327235568260745,0.0005165314341822428,0.0005057077711740445,0.0004564487062080786,0.0004907619160631834,0.0004638008306715369,0.00045497609403995687,0.0005143241711400469,0.00047954559590571876,3.062561869785515e-05,1e-15,1,1e-15,1,1,1,1,1,1e-07,1
moonchai,CELL_D,5,0.00042945557414690843,0.000575995969828246,0.0004930589601638129,0.00041711012177979973,0.0005336533202550734,0.00045435304830730396,0.0004647756184000073,0.0004586434797330431,0.0004939963518266055,0.00046862121896656755,0.00047896636634073677,4.5204708412484255e-05,1,1e-07,1e-15,1e-07,1,1,1,1,1,1
moonchai,CELL_D,10,0.00047002155222163956,0.0005117414020893157,0.00046709741794020087,0.0004724329053847011,0.0004908475453466769,0.0005539836826434552,0.0004893550373620723,0.00043829944411041783,0.00046804067798059216,0.00047204933896144257,0.0004833869004040514,2.9732236116904748e-05,1e-07,1e-15,1,1,1,1,1,1e-15,1,1
moonchai,CELL_D,15,0.00041083920146683776,0.0004686351671565606,0.0005619828169337368,0.0004989017406077636,0.0005008875603733582,0.0005250364525873123,0.00043365187580149747,0.00047842437362940164,0.00044727366030830075,0.0004676103285416582,0.0004793243177406428,4.222083467694979e-05,1,1,1,1,1,1,1,1,1,1
moonchai,CELL_D,20,0.0004693482525027595,0.0004821809743677647,0.0004783964213819758,0.00044263471376285434,0.00046963634591530795,0.00048645105958415694,0.0005054867212731462,0.0004982798287695138,0.00047488354437194124,0.0004981451945339851,0.00048054430564634055,1.7326749744983297e-05,1,1,1,1,1,1,1,1,1,1
moonchai,CELL_D,25,0.0004012550140054912,0.0004591198643586208,0.0004918389958772407,0.00044533813770851553,0.0003694677095094546,0.0005014277857288939,0.0005130423804771966,0.0005678165557275926,0.0005222781906918382,0.0005180508233477961,0.000478963545743264,5.716905736997716e-05,1,1,1,1,1,1,1,1,1,1
moonchai,CELL_D,30,0.0004542259938066096,0.0004953277794377145,0.0005133997872055861,0.00046332968989281834,0.0004595921237254325,0.0004434685873092483,0.0004863105352559255,0.0005032493214391055,0.0005297613774513733,0.0004615512316103018,0.00048102164271341156,2.7258354269154786e-05,1,1,1,1,1,1,1,1,1,1
moonchai,CELL_D,35,0.00047182690369170513,0.0005312079132235713,0.0004579012270130389,0.0004832046457103347,0.0004257038533601077,0.00047335216922683693,0.00046728091456266484,0.0005421260531726822,0.0004712400116073264,0.0004813975388038528,0.00048052412303721206,3.2058237123255286e-05,1,1,1,1,1,1,1,1,1,1
moonchai,CELL_D,40,0.0004913673760376631,0.0005071477786587217,0.0005016961110865165,0.00042049231746017887,0.0004990424481881627,0.0003981502229725077,0.0005167023895674339,0.00048129173248434153,0.00047942605704092014,0.0005036069685298233,0.000479892340202627,3.721067308476383e-05,1,1,1,1,1,1,1,1,1,1
moonchai,CELL_D,45,0.0005002863427028407,0.0004778118280510381,0.0004325507039206061,0.0005349957004258869,0.0005302785497326113,0.00044839509865139855,0.0004641722207266681,0.0004755159313963602,0.0004405132253903667,0.0005054040169315125,0.0004809923617929289,3.418250430700489e-05,1,1,1,1,1,1,1,1,1,1
moonchai,CELL_D,50,0.0005080212956562238,0.0004701441364323064,0.000438793799918951,0.0004748038419027936,0.0004025496421219852,0.000465003421036663,0.0005073457947120929,0.0005704973529671221,0.000455432819163434,0.0005000253876040788,0.00047926174915156503,4.3321372461332603e-05,1,1,1,1,1,1,1,1,1,1
moonchai,CELL_D,55,0.0004621138697145747,0.00044785602809543684,0.00046293652673237175,0.0005179986981771301,0.0005461015973927886,0.0004680677345436372,0.0004659535299558346,0.00048673110589107554,0.0005056940467560514,0.00044105409252909454,0.00048045072297879944,3.165052803495778e-05,1,1,1,1,1,1,1,1,1,1
moonchai,CELL_D,60,0.000519574897200883,0.00036686520198065385,0.0004658915849744477,0.0004388452105576732,0.0004360826971039865,0.0005713061836404268,0.0005175986773803966,0.0004980066277649369,0.0004261055394642257,0.0005336043958460606,0.00047738810159136914,5.8285239062962665e-05,1,1,1,1,1,1,1,1,1,1
moonchai,CELL_D,65,0.0004407560874847294,0.0005112876845927108,0.000517693247403107,0.00042959088844587057,0.0004313799440811852,0.0004982389943275747,0.0004684627497789575,0.00047860549018529513,0.0005036436509128443,0.0005246600178298413,0.0004804318755042116,3.4444391579185565e-05,1,1,1,1,1,1,1,1,1,1
moonchai,CELL_D,70,0.0005251529102414786,0.0004566524802428491,0.0005698795490028742,0.0005263014295057292,0.0005181926747525895,0.0004771615983242762,0.00037021931146123915,0.0004387497682978764,0.0005004807716817958,0.0003999131731209707,0.00047827036666316786,5.9016617438741315e-05,1,1,1,1,1,1,1,1,1,1
moonchai,CELL_D,75,0.00046843334035002684,0.000510791778852159,0.00045653046496554157,0.00045935079792235734,0.0005082775367106056,0.00048620126637440866,0.0005010716562306463,0.0005121724802636492,0.0003971042686788612,0.0004986405947046659,0.0004798574185052921,3.405181140348153e-05,1,1,1,1,1,1,1,1,1,1
moonchai,CELL_D,80,0.00044546605329646055,0.0005622073472668504,0.0005218134662548342,0.00047749529470194236,0.0005213669432748146,0.00043420196061002013,0.00041783163860080355,0.0005072009582695756,0.00046690993035094396,0.0004338046217610819,0.00047882982143873274,4.517790648266388e-05,1,1,1,1,1,1,1,1,1,1
moonchai,CELL_D,85,0.0004858055807351604,0.0004339810951503061,0.00045538635607087304,0.0005023377227687281,0.0005619205636131062,0.00046593685829462,0.00046864224864101204,0.0004772638926605116,0.0005110160150197207,0.00043927867472758406,0.0004801569007681623,3.5946430330361546e-05,1,1,1,1,1,1,1,1,1,1
moonchai,CELL_D,90,0.0005365935018227611,0.0004943898541820053,0.0004182168605564129,0.0004564875059048397,0.00047162030183358245,0.0004679538983264282,0.0005250532959269415,0.0004462431310589259,0.0004922883653317102,0.0004925690901509913,0.00048014158050945985,3.3872297133264164e-05,1,1,1,1,1,1,1,1,1,1
moonchai,CELL_D,95,0.0004965872581591281,0.0004950903436794693,0.00046998894494312344,0.000503630941415085,0.0004449036742582,0.00041892442074452244,0.00047558880070096917,0.0004779343071391161,0.0004955217048383082,0.0005215703864075665,0.00047997407822854884,2.848897344081493e-05,1,1,1,1,1,1,1,1,1,1
moonchai,CELL_D,100,0.0004738103175789289,0.00059020366560898,0.0004758934055213736,0.00042822857073793413,0.0005011600214044067,0.0004771214327032567,0.00040909728133550424,0.0004836444698150752,0.0005252699994481235,0.00043404101752894864,0.0004798470181682531,4.953602961819215e-05,1,1,1,1,1,1,1,1,1,1
moonchai,CELL_D,105,0.0004291511574015307,0.0004846799576261888,0.0005067407052406711,0.0004008606776261725,0.0005617786465602181,0.0005244803907430913,0.0004711670837699159,0.0004762450372047311,0.00045431605852703426,0.0004814253773440545,0.0004790845092043608,4.3585883178312727e-05,1,1,1,1,1,1,1,1,1,1
moonchai,CELL_D,110,0.0004416480016973078,0.0004369587471861879,0.0004271386478896285,0.0005102970364506853,0.0004254010638755166,0.0005059696496548127,0.0004450668530622264,0.0005522488120365662,0.0005160716808333984,0.0005388254142863053,0.0004799625906972635,4.6789872661245846e-05,1,1,1,1,1,1,1,1,1,1
moonchai,CELL_D,115,0.0004651250947238508,0.0004854696624841476,0.0005425871062421092,0.00047585232245461533,0.0005152732889898464,0.0004964915329408063,0.0004746608678230157,0.0004436975746016519,0.0004459861126797966,0.0004661906433200271,0.00048113342062598675,2.8953192480179783e-05,1,1,1,1,1,1,1,1,1,1
moonchai,CELL_D,120,0.00045728407333654535,0.0004280274706137201,0.000537953452703141,0.000511472818774145,0.0005218844074369835,0.0004349564082151756,0.000514756431801337,0.0004978000056428367,0.000434989893497726,0.0004547552410351711,0.0004793880203056781,3.941299149714397e-05,1,1,1,1,1,1,1,1,1,1
moonchai,CELL_D,125,0.000460369208491313,0.00042902348127434926,0.0004403325708494904,0.0005233699727739585,0.00047184279831935673,0.00043917350336772804,0.0005166496939522362,0.0005164940167845366,0.0005095352624803713,0.0004986285011361423,0.00048054190094294814,3.473212521988681e-05,1,1,1,1,1,1,1,1,1,1
moonchai,CELL_D,130,0.0004709390997367674,0.00044511392589410793,0.0004409459280555612,0.0004471559981652185,0.0005370569232505656,0.00045695119310049787,0.0005214392535766634,0.00045268293890198165,0.00048613017409929464,0.0005371049533506213,0.000479552038813128,3.6673980784497305e-05,1,1,1,1,1,1,1,1,1,1
moonchai,CELL_D,135,0.00045947864672932855,0.00047359016275355057,0.0004991149316845812,0.0005395818811241887,0.0005673072534769816,0.00039730272631732094,0.0005023733272773335,0.0004293171966090784,0.00045849596219427066,0.00046225926731920976,0.00047888213554858443,4.761613389507412e-05,1,1,1,1,1,1,1,1,1,1
moonchai,CELL_D,140,0.0004569484803758645,0.0005150820323367727,0.0004435662092181874,0.0005103540340392944,0.0005238893263934012,0.0004925676476562126,0.0004347750111738702,0.00046782966648461913,0.0004785952405438518,0.00048090359332937806,0.00048045112415514516,2.8791144670070268e-05,1,1,1,1,1,1,1,1,1,1
moonchai,CELL_D,145,0.0004370701052969942,0.0005354497311790506,0.00045408292592186524,0.00044109169437441654,0.0004259211296530765,0.0005071075859259082,0.0005525780899485438,0.0005247332404215871,0.0004526652031273572,0.0004608863858931979,0.00047915860917419984,4.3745432759849056e-05,1,1,1,1,1,1,1,1,1,1
moonchai,CELL_D,150,0.0005319121431005701,0.0004526923730633197,0.00047103507820433224,0.0005136440217720404,0.00048573022109407206,0.0005434470248860856,0.00044393177493791077,0.0004704573116464134,0.00042919308272878706,0.0004582450994198858,0.00048002881308534175,3.627370606203384e-05,1,1,1,1,1,1,1,1,1,1
moonchai,CELL_D,155,0.0004423886893890817,0.0005273285590822485,0.000540848984813249,0.0005141469938827191,0.00041687029960107795,0.0004727031972440611,0.00045012608901335275,0.0005115062028987655,0.0004625270635383006,0.00046160003891944004,0.00048000461183822957,3.8846846693168736e-05,1,1,1,1,1,1,1,1,1,1
moonchai,CELL_D,160,0.00045544099325794284,0.0004920413957553391,0.0005120947094831063,0.0004883786804289282,0.0004492389228616048,0.0005430643636500534,0.00048515684360870756,0.00045849249059714116,0.0004548308148739785,0.0004706179277929889,0.0004809357142309791,2.823772664368072e-05,1,1,1,1,1,1,1,1,1,1
moonchai,CELL_D,165,0.00043961390179499794,0.000481462588383533,0.00048509566839806666,0.0004778127875713768,0.00048701561281298806,0.00047911306970709305,0.00043231610206403016,0.0005017975450160358,0.0005534050162926131,0.00048163050438989507,0.0004819262796430629,3.133156206777201e-05,1e-15,1,1,1,1,1,1,55,1,1
moonchai,CELL_D,170,0.00047581155357488176,0.0005263215614926349,0.0005030012060971966,0.00046711018663822405,0.0005416707957197402,0.0005140081473294466,0.0004158626382747059,0.00044012453069477693,0.0004889648245850211,0.0004190001228999699,0.0004791875567306598,4.1613316028982195e-05,1,1,1,1,1,1,1,1,1,1
moonchai,CELL_D,175,0.00043145222965287894,0.0004482029013215745,0.0004697345011742805,0.0005083221040849707,0.0005181792034692666,0.0004509313315594388,0.0004636003570268806,0.0004942049921728981,0.0004990840659864743,0.0005159532441196337,0.0004799664930568297,2.9505353414025725e-05,1,1,1,1,1,1,1,1,1,1
moonchai,CELL_D,180,0.0004649348524358861,0.0004602318824898028,0.0004752043976694142,0.0004629068457589571,0.0004999428378647775,0.00043135554940045305,0.00046565298906853085,0.0005784365286641338,0.0005085325540153207,0.000462963183363611,0.0004810161620730887,3.8323010092036214e-05,1,1,1,1,1,1,1,1,1,1
moonchai,CELL_D,185,0.00045031281262230714,0.000552265098521994,0.000503816578825974,0.0005090571449187924,0.0004645611428661891,0.00046177597435819725,0.0004023210603258976,0.0005226561692025087,0.00043924575100515943,0.00048638162629350515,0.0004792393358940525,4.1994057178578405e-05,1,1,1,1,1,1,1,1,1,1
moonchai,CELL_D,190,0.0005361212731733439,0.0004826549273942066,0.00045035552070002937,0.00047526529662876083,0.000442696210196459,0.00043254762967986145,0.0005316108148395944,0.00046458301226993384,0.00048400464618843025,0.000498932300881407,0.00047987716319520266,3.3131309560263936e-05,1,1,1,1,1,1,1,1,1,1
moonchai,CELL_D,195,0.00042153712729070335,0.0005239667682005,0.0005022836255649325,0.0004190886747916109,0.0005203768610470014,0.00046895667907979085,0.00047657494409807387,0.00045344970318430644,0.0004768737396678918,0.000530043251181774,0.0004793151374106586,3.8126157604867485e-05,1,1,1,1,1,1,1,1,1,1
moonchai,CELL_D,200,0.00045462398907755264,0.0004508481599665566,0.0005542458115841289,0.0004588584310380438,0.000526986387006589,0.0005255302188770844,0.000456250660874449,0.00043034690051421855,0.0004568786968483679,0.0004791403488719615,0.00047937096046589514,3.910848722226571e-05,1,1,1,1,1,1,1,1,1,1
moonchai,CELL_A1,0,0.0005009841061165404,0.0005366579973724106,0.0005277836580353379,0.0005511837323724747,0.0005466398702307643,0.0005535349103400972,0.000592643103955205,0.0004998164118589778,0.0004821125470781705,0.0005272895559268445,0.0005318645893286824,3.0449443654672122e-05,1e-07,1e-07,1,1e-15,1e-07,55,1,1e-15,1,1e-07
moonchai,CELL_A1,5,0.0005909200264388498,0.000510782168261941,0.0005112872569085877,0.0005284228357739775,0.0005321290895752859,0.0005513854946716293,0.00050358277289769,0.0004845743084699544,0.0006042364641188979,0.00046971796780034684,0.0005287038384917161,4.096906184792638e-05,1e-07,1,100,1,1,1e-15,1,1e-07,1e-15,1
moonchai,CELL_A1,10,0.000515886839539457,0.0005190476545399355,0.0005093284516923636,0.0005702386558963904,0.0004908808993368104,0.0006098323526933962,0.0004999406740880555,0.00045220442378172184,0.0005661347241130497,0.0005429333338269222,0.0005276428009508103,4.317666773935721e-05,1,1,1,1,1,1,1,1,1,1
moonchai,CELL_A1,15,0.00048598926708469647,0.0005349084888526262,0.000524446817283786,0.0005475635456080625,0.0005534581184115142,0.0005869282597978872,0.0005642505795450817,0.0005110931908599519,0.0004952624475209961,0.00048604644171216447,0.0005289947156676767,3.278801676485906e-05,1,1,1,1,100,1,1,1,1,1
moonchai,CELL_A1,20,0.000516553031035106,0.0005825586256274212,0.0005964784411951179,0.00044027768702173154,0.0005495432262139171,0.0005007872446218367,0.0005644331133857979,0.0004676548395343952,0.0005593613882668906,0.0004971716020166845,0.0005274819198918898,4.857671803595296e-05,1,1,1,1,1,1,1,1,1,1
moonchai,CELL_A1,25,0.0005548494411848414,0.0005007269147869978,0.0004780414263726311,0.0005502661993571187,0.0005426925758168561,0.0005509174006737463,0.0005787401647555347,0.0004455149437684476,0.0005481039471167986,0.0005335477576926002,0.0005283400771525572,3.874219149812813e-05,1,1,1,1,1,1,1,1,1,55
moonchai,CELL_A1,30,0.0005488516865206428,0.0005044716487562812,0.0005522668468867734,0.00048189821339921895,0.0005109335439568233,0.0005230183850689571,0.0005410939548681702,0.0005573044713087799,0.0005532336077618949,0.0005283942441227972,0.0005301466602650338,2.374810248579757e-05,1,55,1,1,1,1,100,1,1,1
moonchai,CELL_A1,35,0.0005239117509288514,0.0005813675268851183,0.00048185366331717367,0.0005063638042794736,0.000540656001177523,0.0005716174403480273,0.0005176359106690225,0.0005275493785009763,0.0005489617590140865,0.0005095287336350402,0.0005309445968755292,2.8855788762420745e-05,55,100,1,1,1,1,1,1,1,1
moonchai,CELL_A1,40,0.00046793488128773055,0.0005228658016654498,0.0005428746039085248,0.0005504059415552552,0.0004546143390188169,0.0005457003112315365,0.0005076849745430966,0.0005994598457225688,0.0005713544052569775,0.0005378209995526694,0.0005300716103742626,4.184323767849369e-05,1,100,100,1,1,1,100,1,1,1
moonchai,CELL_A1,45,0.0004807529576040667,0.0005630095280771319,0.0004993340124890867,0.000546260356367336,0.00047927285350457213,0.0005837869575450267,0.0005824547582156707,0.0005432873271680766,0.0005132155269014819,0.0005054493621600914,0.000529682364003254,3.7413206830431006e-05,1,1,100,1,1,1,1,1,1,1
moonchai,CELL_A1,50,0.0005092794544676233,0.0005329965635214059,0.0004993953792065313,0.0005838793139271392,0.000537256837913563,0.000512492871456502,0.0005597008129388691,0.000492088603158611,0.0005263949608609584,0.0005409918200258443,0.0005294476617477048,2.662195122174688e-05,1,1,55,1,1,1,1,55,1,1
moonchai,CELL_A1,55,0.0005365682026537529,0.0005023081249327155,0.0006009592981024349,0.00044025091181206665,0.00047811375730542904,0.0005151374455030278,0.0005416221801810334,0.0005440818108353886,0.0005751662846278885,0.0005533429672614606,0.0005287550983215198,4.440263709518187e-05,1,1,1,1,55,1,1,1,1,1
moonchai,CELL_A1,60,0.0005579837602344611,0.0005629891762795996,0.0005068661616817282,0.0005002730710842994,0.0005065221983348287,0.0005766182856477089,0.0005322004349915478,0.0005591372368272103,0.0005067406237175608,0.0005013175813947611,0.0005310648530193706,2.8672066861257923e-05,1,1,1,1,1,1,1,100,55,1
moonchai,CELL_A1,65,0.0006276457577352071,0.0004881879212801456,0.0004619059430282841,0.0005883564274534429,0.0005423501350868471,0.0005748166080045281,0.0005464089604630712,0.0005154331527932902,0.00048558597022871185,0.00044531010759590444,0.0005276000983669433,5.572710920075626e-05,1,1,1,1,1,1,1,1,1,1
moonchai,CELL_A1,70,0.0005501350904979585,0.0005727513272119264,0.0005430477565789297,0.00048198677878748015,0.000499641775294822,0.0005126555557203278,0.000609455512992537,0.0004605737542202334,0.0005367909205126199,0.0005197616705169896,0.0005286800142333825,4.1470183603474344e-05,1,1,1,1,1,1,1,55,1,1
moonchai,CELL_A1,75,0.0005696131160128694,0.0005165012480010391,0.0005394620857390371,0.0004717965144551458,0.0005056366619897096,0.0005558565103208445,0.0005405513322362738,0.0005764456390848057,0.000436686161698145,0.0005699672699299262,0.0005282516539467795,4.362744477261017e-05,1,100,1,1,100,1,1,1,1,1
moonchai,CELL_A1,80,0.0005201805186308799,0.0005725767467507588,0.0005471698658041359,0.0005422424948175249,0.0004962642981919973,0.0005501115826816355,0.00048005402530590575,0.0005303198906060425,0.0005033878788446059,0.0005563120018202694,0.0005298619303453756,2.7913252053086778e-05,1,1,100,1,1,1,1,1,1,1
moonchai,CELL_A1,85,0.0004712902510163042,0.0005335893750298204,0.0005596492055100842,0.0005573470765353343,0.0005520572014251375,0.000558732274430597,0.0005321430176413852,0.00047860475807605965,0.0005003741133686564,0.0005452412780150265,0.0005289028551048404,3.184766209936388e-05,1,1,1,1,1,1,1,1,1,100
moonchai,CELL_A1,90,0.0005643488556660472,0.0005516703525851593,0.0004957713565173075,0.0005065617270388423,0.0005441203941606205,0.0004942409354841662,0.0005747509850119414,0.0005288157906344698,0.0004947250655353855,0.0005429041046832335,0.0005297909567317174,2.8745347287407897e-05,1,100,1,1,1,1,1,1,1,1
moonchai,CELL_A1,95,0.0004922572504470999,0.0005183340124818496,0.0005335802647630632,0.0005645407881175982,0.0005595105792301276,0.000509583059706619,0.000549403839449259,0.0004918126326223821,0.0005540327315747394,0.000519903343083863,0.0005292958501476601,2.5619447487937892e-05,1,1,1,1,55,1,1,1,1,1
moonchai,CELL_A1,100,0.0004540722369219673,0.0005517608035962765,0.0005267069947258556,0.000538403976162006,0.0004980146831327002,0.0005789428644430447,0.0005229156642067552,0.0005127690959849638,0.000481364233872925,0.0006248671814756251,0.0005289817734522119,4.630381931863275e-05,1,1,1,1,55,1,1,1,1,1
moonchai,CELL_A1,105,0.00048282114448659394,0.0005548558306885607,0.0005728266011933753,0.0005389785353378309,0.0005249331815732772,0.0005484157374704729,0.0005136027233278667,0.0005025055844176059,0.00047527080856659884,0.0005777298909810583,0.000529194003804324,3.378601010586499e-05,1,1,1,1,1,1,1,55,1,1
moonchai,CELL_A1,110,0.0005354086960425073,0.0005373314104102679,0.0004983507296431577,0.0005243230630428948,0.0005498349448037432,0.0005200926650820919,0.0005170102707666509,0.0005804506175008056,0.0004980038566818447,0.00055619235585278,0.0005316998609826743,2.450180219877984e-05,1,1,100,55,1,1,100,55,1,1
moonchai,CELL_A1,115,0.0005009442453545842,0.0005195615249766667,0.0004555894285888778,0.0005130008003934928,0.0005982785015853854,0.0004929916109003081,0.0005731912970034073,0.0005267989077417862,0.0005788126379033346,0.0005325959638419854,0.0005291764918289829,4.131470116686599e-05,55,1,1,1,100,1,1,1,1,1
moonchai,CELL_A1,120,0.0005736207210789798,0.0005286012058265735,0.0004904364228376003,0.0005308475511624958,0.000575517703175832,0.0005118245104161007,0.0005225586518676982,0.0005186927451187979,0.0004783931084632213,0.000562106330514915,0.0005292598950462214,3.12166085157178e-05,1,1,1,1,1,1,1,1,1,1
moonchai,CELL_A1,125,0.000597559856806569,0.0005057560920625333,0.00045675913739406856,0.0005077918792476174,0.0005355428504785132,0.0005744785503924852,0.0004508362267480612,0.0004500072082093991,0.0006578942865438957,0.000539142674868882,0.0005275768762752024,6.485843200793096e-05,1,1,1,55,1,55,1,100,1,1
moonchai,CELL_A1,130,0.0005480821281439823,0.0004905677938684144,0.0005200642795545379,0.0005046622778254972,0.0005353740872997985,0.0005415493119035691,0.0004949244059122901,0.0005979667501440498,0.0005946091561314201,0.00047034016300342936,0.0005298140353786989,4.0457283853406447e-05,1,1,1,1,1,1,1,1,1,55
moonchai,CELL_A1,135,0.0005914239147598471,0.0005879000516549335,0.000570237648676876,0.0005127994360084557,0.0005011936686360782,0.0005266442693978868,0.0004849639149984465,0.0005041020010050092,0.0005113772185122532,0.0005059371727894416,0.0005296579296439226,3.67490401777979e-05,1,1,1,1,1,1,1,1,1,1
moonchai,CELL_A1,140,0.0005530721225728071,0.000557006906222528,0.0005448777002924217,0.0005044061828290052,0.0005473913070175124,0.00044608259976893427,0.0005792633006747064,0.0005165443292880008,0.00047144333313255924,0.0005620934275192937,0.000528218120931777,4.0641999397812465e-05,1,1,1,1,1,1,1,1,1,1
moonchai,CELL_A1,145,0.0005614030935040941,0.0005845473543286195,0.000580859547744952,0.0005125914131480993,0.0005163916686143416,0.000466148567711533,0.0005180610951112065,0.0005285165667350524,0.0005479056031318777,0.0004832851550332211,0.0005299710065062998,3.709599669644366e-05,1,55,1,1,1,1,1,100,100,1
moonchai,CELL_A1,150,0.0004390574758544762,0.0005377663106014349,0.0005352412309443906,0.0005306893869237565,0.0005151654784019843,0.0004916947108301771,0.0005644647102711603,0.0005254733684470934,0.0005957351420159848,0.0005587923490390703,0.0005294080163329529,4.049823786735122e-05,1,1,1,100,1,1,1,1,1,1
moonchai,CELL_A1,155,0.0004950716818361156,0.0004538386273843928,0.000514777149322067,0.0005455376174323903,0.0005333260879891561,0.0005469146827754019,0.0006358688444536223,0.0004646911077981472,0.0005302342388911388,0.0005682036443662582,0.000528846368224869,4.9709750005373394e-05,1,1,1,55,1,1,1,1,1,1
moonchai,CELL_A1,160,0.0005391176314661229,0.0005270066675150142,0.0005341948606774784,0.0004924679541266444,0.0005598621014922188,0.0005078753639741919,0.0005951359753626168,0.0005328535574405115,0.0005052026166356751,0.0005047982249270942,0.0005298514953617568,2.898317515393967e-05,1,1,1,1,1,1,100,1,1,100
moonchai,CELL_A1,165,0.0005371428307887029,0.0005714580251167943,0.0005539138243072675,0.0005629835622706529,0.0004951606734217826,0.0005131885612845202,0.0005302251717054878,0.0005097833466971159,0.0005335932853381641,0.0005160935819527286,0.0005323542862883217,2.3421389146779526e-05,1,100,1,100,55,1,1,1,1,1
moonchai,CELL_A1,170,0.0005455964098580641,0.0005686564006847447,0.0005722692776893301,0.0004627438647012284,0.000541632988782183,0.0005688491721126827,0.0005557951479328635,0.00046434488050648326,0.0005269870661784208,0.000492730811578516,0.0005299606020024517,4.008275004822563e-05,100,1,55,1,1,1,1,1,1,100
moonchai,CELL_A1,175,0.0005546436723528053,0.0005593611186114792,0.0005546334694271198,0.0005395192254469719,0.0005125097213918758,0.0005308003928641912,0.0005686068043437762,0.0004712415113319789,0.00047848935658479107,0.0005280925695327549,0.0005297897841887744,3.173790780463581e-05,1,1,1,1,1,1,1,1,1,1
moonchai,CELL_A1,180,0.000541808896580291,0.0005088947547289652,0.000509190864980519,0.0005079065288121783,0.0005394237279354927,0.0005666863313154764,0.000531405131767251,0.0005623108485054166,0.0005205775777613666,0.0005126686281467409,0.0005300873290533699,2.0918327115996795e-05,1,100,1,100,1,1,1,1,1,1
moonchai,CELL_A1,185,0.000586928168667967,0.0005342256014507524,0.0005902584816664928,0.00047467641851664527,0.000512702868941269,0.0005886161738439039,0.0004722520512252098,0.0004994317604705797,0.00047432067876695977,0.0005518280099449713,0.0005285240213494751,4.637845244545448e-05,1,1,1,1,1,1,1,100,1,1
moonchai,CELL_A1,190,0.0005686212952481217,0.000603664099458702,0.0005149416705394693,0.0005024273381597431,0.0005390828726657337,0.0005652449264581822,0.0005367990072440539,0.0004972317297414111,0.0004525970214264795,0.0005029884541184538,0.000528359841506035,4.1283945934301006e-05,55,1,100,100,100,1,1,1,100,55
moonchai,CELL_A1,195,0.0005465532561423463,0.000524235829065241,0.0005559979156244298,0.000509976311901097,0.00048752119464029676,0.000563941896852758,0.0004925760168706313,0.0005517272093308405,0.0005288928258924903,0.0005345759736947094,0.0005295998430014841,2.49675132446646e-05,1,1,1,1,1,55,1,100,1,1
moonchai,CELL_A1,200,0.000513287850252588,0.0005173732049301192,0.000619315180946618,0.0005137033041216663,0.00052187260732322,0.0005218800048427354,0.0004996834066761584,0.0005493740137930453,0.0005691239931839887,0.00046253507762964493,0.0005288148643699784,4.021953499205448e-05,1,55,1,1,1,1,1,55,1,55
moonchai,CELL_A2,0,0.0003991238122904344,0.00044154476555180797,0.0003417652099063917,0.0003960618035270144,0.0003672722077154604,0.00034061669502246137,0.00039861505629527205,0.00034827970206414283,0.00034038930582047503,0.00044188511023242496,0.00038155536684258853,3.783342490511582e-05,1e-15,1e-07,1e-15,1e-15,1e-15,1e-15,1e-07,1e-15,1e-07,1e-15
moonchai,CELL_A2,5,0.00036177762157050554,0.00036948383953624774,0.00032951743026635194,0.0003936799666510127,0.0003290229010523128,0.0003309237393247993,0.0004110628742753544,0.0003397605614015811,0.00034666948931084957,0.0004230952956865849,0.00036349937190755996,3.3188785418603434e-05,1e-15,1e-15,1e-07,1e-15,1e-15,1e-07,1e-15,1e-07,1e-15,1e-15
moonchai,CELL_A2,10,0.0003280956346955638,0.00035416327123390643,0.00034198243232941603,0.00035600028184075866,0.00038664480679538333,0.0003318114447050755,0.00035037316398262946,0.0003819043879233935,0.0003813469020258523,0.00041324289435447494,0.00036255652198864533,2.5874201355068547e-05,1e-15,1e-15,1e-07,1e-15,1e-15,1e-07,1e-07,1e-07,1e-07,1e-15
moonchai,CELL_A2,15,0.00034325560358518904,0.0002849891330901716,0.0003588952343917892,0.00037650881749648235,0.0004212891536388482,0.00037466075165260845,0.00035792741837636065,0.0003705315765414919,0.00038133039434422533,0.0003637858270262233,0.000363317391014339,3.25983766430106e-05,1e-07,1e-15,1e-07,1e-15,1e-07,1e-07,1e-15,1e-07,1e-07,1e-15
moonchai,CELL_A2,20,0.0003686626890262623,0.00033944433952616743,0.0004064454037768066,0.00031743103383126447,0.00037080280443614887,0.00037761578849997813,0.00034514158641085036,0.0003845845984537251,0.0004068766677215536,0.00033536985391832957,0.0003652374765601086,2.8720751662395645e-05,1e-07,1e-07,1e-07,1e-07,1e-15,1e-07,1e-15,1e-07,1e-15,1e-07
moonchai,CELL_A2,25,0.00037459006285109255,0.00038346926708795814,0.00038186814059058876,0.0003555153018999986,0.0003523624726561628,0.0004001817542724834,0.0003313110473276133,0.0003357298886397449,0.0003879199439384222,0.00034150185536138163,0.00036444497346254463,2.2958943282675293e-05,1e-07,1e-15,1e-15,1e-15,1e-15,1e-07,1e-07,1e-07,1e-07,1e-15
moonchai,CELL_A2,30,0.00038851101199735804,0.0002851721130363735,0.0003826840961851899,0.00037146915463605405,0.00039480452674326143,0.0003526487592520183,0.00040858617564366547,0.0003718529457380771,0.00034467371955766306,0.00034355438706830616,0.0003643956889857967,3.3371899929972884e-05,1e-07,1e-15,1e-15,1e-15,1e-15,1e-15,1e-07,1e-15,1e-07,1e-07
moonchai,CELL_A2,35,0.00034367360487096084,0.0003838298778123255,0.00036795966653775674,0.00033273268065722484,0.00035219809611230796,0.000420247123212487,0.00038012080933397604,0.0003441238238460033,0.0003924318614070599,0.00034547805074431866,0.000366279559453442,2.618615420864918e-05,1e-15,1e-15,1e-15,1e-07,1e-07,1e-15,1e-07,1e-15,1e-07,1e-07
moonchai,CELL_A2,40,0.0004207871180028155,0.0003179325182339476,0.00038777258981248367,0.000379688894795728,0.00037848005862975626,0.00034796981550947614,0.000313370814268549,0.00036052422567424343,0.0003610101145741963,0.0003781514345230793,0.0003645687584024275,3.066964152719618e-05,1e-15,1e-15,1e-15,1e-15,1e-15,1e-07,1e-07,1e-07,1e-07,1e-07
moonchai,CELL_A2,45,0.00035498313673643854,0.0003627528071193993,0.00033834740737367897,0.00038792362893289793,0.00035991975115539016,0.0003875685083391195,0.0003336051758339338,0.00032341011516633556,0.00034202701347522816,0.000452724304010851,0.0003643261848143273,3.5791775926215515e-05,1e-07,1e-15,1e-07,1e-15,1e-15,1e-15,1e-15,1e-07,1e-15,1e-15
moonchai,CELL_A2,50,0.0003531936889368149,0.00036719347612564334,0.0003968709165578054,0.0003224564777868948,0.0004364134694089031,0.00034726198627461875,0.0003908324262402603,0.0002971050907131419,0.0003725621275460719,0.0003957573934598441,0.0003679647053049998,3.817953492310394e-05,1e-15,1e-15,1e-07,1e-15,1e-15,1e-07,1e-07,1e-15,1e-15,1e-15
moonchai,CELL_A2,55,0.00036162223543400706,0.00037072393071394926,0.00035893116709374997,0.0004449347487283656,0.0003917693528203344,0.0003328851711116547,0.0003543010994488294,0.0003421173065014139,0.0003373044457002856,0.00036519768078364283,0.00036597871383362327,3.100663812971831e-05,1e-07,1e-07,1e-15,1e-07,1e-07,1e-15,1e-07,1e-15,1e-15,1e-15
moonchai,CELL_A2,60,0.0003370065779343797,0.00033920715961897603,0.0003826885198518073,0.0003363724180342845,0.00031783845684321276,0.0003674366983959118,0.0004014450997852538,0.0003518066999469676,0.0004489745428901021,0.0003771794200962688,0.0003659955593397164,3.67476969860141e-05,1e-07,1e-15,1e-07,1e-07,1e-15,1e-07,1e-07,1e-07,1e-15,1e-07
moonchai,CELL_A2,65,0.00038155859760525054,0.00036710929202679794,0.00033003038266822207,0.0003440549202476848,0.00041171685152893614,0.0003751636339478718,0.0004316585845320512,0.00032879048060607054,0.0003327705627269872,0.00034140790441696515,0.00036442612103068374,3.40183727686196e-05,1e-15,1e-15,1e-15,1e-07,1e-07,1e-07,1e-15,1e-07,1e-15,1e-15
moonchai,CELL_A2,70,0.0003609121462036776,0.00036386428025437395,0.0003228878494022952,0.00038184983937481127,0.00041252703257474904,0.0003535406475407437,0.0003427621615122727,0.00040701993263038796,0.00037417012541412966,0.00031723924411453217,0.00036367732590219734,3.0122033200149133e-05,1e-15,1e-15,1e-15,1e-15,1e-07,1e-07,1e-07,1e-07,1e-07,1e-15
moonchai,CELL_A2,75,0.00037088670414234275,0.0003575506363932532,0.00037392696720616885,0.0003415405426190362,0.00040088860247562306,0.00033399125821076723,0.00038899271373178646,0.000410735138332393,0.00035551757058901545,0.00034501235053204996,0.0003679042484232436,2.4580777536860528e-05,1e-07,1e-15,1e-07,1e-15,1e-07,1e-15,1e-15,1e-15,1e-15,1e-15
moonchai,CELL_A2,80,0.00035266514400831656,0.00036920585315072834,0.00037492876388248706,0.00039580421035686044,0.0002888078724091658,0.0003517152885238268,0.000408147770360834,0.00039647757243042907,0.000335104607953932,0.00039209535090048577,0.00036649524339770655,3.414256009422398e-05,1e-15,1e-07,1e-15,1e-15,1e-15,1e-07,1e-07,1e-15,1e-15,1e-07
moonchai,CELL_A2,85,0.00035793668111364644,0.0003664555017172624,0.000363584065660126,0.00037704558307754345,0.0003539715379363812,0.0003618805948061703,0.00035848795041339794,0.0003718757676842245,0.000382646113846042,0.0003653478803686295,0.0003659231676623424,8.503731564908872e-06,1e-15,1e-07,1e-15,1e-07,1e-15,1e-07,1e-07,1e-15,1e-07,1e-07
moonchai,CELL_A2,90,0.00038353113752258164,0.00040979405061231566,0.0003548931616708236,0.00033689651707193377,0.00041730674289815504,0.000362353776972139,0.00034290465292240277,0.0003435359353847913,0.00036293298838982094,0.00034266011786339125,0.0003656809081308355,2.7262572796967956e-05,1e-07,1e-07,1e-15,1e-07,1e-07,1e-07,1e-15,1e-15,1e-07,1e-07
moonchai,CELL_A2,95,0.0003794063271824586,0.00039932519583208315,0.0003277426098914791,0.00037847550782931026,0.00041707824717011015,0.00033474529013226143,0.000327195919666614,0.00040179612257672004,0.00034588169485441503,0.000344022933911714,0.0003655669849047166,3.188791363396436e-05,1e-15,1e-15,1e-07,1e-15,1e-15,1e-07,1e-07,1e-15,1e-07,1e-07
moonchai,CELL_A2,100,0.00035821641878473217,0.00041477940541983713,0.00034994667777858045,0.00036201919502833565,0.0003903737205041766,0.0003681854547249995,0.0003695032981088298,0.0003502857845644078,0.0003726874839530592,0.00031875187638738094,0.0003654749315254339,2.4178472403538767e-05,1e-07,1e-15,1e-07,1e-15,1e-15,1e-07,1e-15,1e-07,1e-15,1e-07
moonchai,CELL_A2,105,0.00040211742147259577,0.00039326648147047473,0.00038374191529157235,0.00034781202547767403,0.0004222271891433088,0.00035599426316121704,0.00034949844944968527,0.00032862470451444306,0.0003303585431223849,0.00034261843819727213,0.0003656259431300628,3.072449229550078e-05,1e-15,1e-07,1e-07,1e-15,1e-07,1e-15,1e-15,1e-15,1e-15,1e-07
moonchai,CELL_A2,110,0.000364429730649665,0.0003752767593932855,0.00034091775156279224,0.0003895348667766143,0.000404064598892861,0.00031291608204649085,0.00036010632456052604,0.0003389238098722378,0.00040181335118517864,0.00036521106747019967,0.0003653194342409851,2.7540500191260614e-05,1e-15,1e-15,1e-15,1e-07,1e-07,1e-07,1e-15,1e-15,1e-15,1e-15
moonchai,CELL_A2,115,0.0003693264856708384,0.0003590487525617888,0.00034268611209071635,0.00035812860221786204,0.00035671002642889964,0.00038019157129962533,0.0003456870501170917,0.00036267846208926975,0.0003689071450631377,0.00039212618968666917,0.00036354903972258987,1.4167539269211136e-05,1e-15,1e-15,1e-15,1e-15,1e-07,1e-07,1e-07,1e-15,1e-07,1e-15
moonchai,CELL_A2,120,0.0003562897410183812,0.0003092831143355483,0.00038893794768585243,0.000338839804926709,0.0003838961373450863,0.0004052405922794004,0.0003350060588546737,0.00034539137380522686,0.00038484655106312834,0.00039348267973181625,0.00036412140010458224,2.9825415942844695e-05,1e-07,1e-15,1e-15,1e-07,1e-07,1e-07,1e-15,1e-15,1e-07,1e-15
moonchai,CELL_A2,125,0.00039902650682828434,0.00034191450085530067,0.0003335146895519691,0.0003460349606260525,0.00036214329524113557,0.00034780915720630524,0.0003588317277279108,0.00040694349426234513,0.00032886605937821874,0.0004219504918055009,0.0003647034883483023,3.1130165518521125e-05,1e-15,1e-07,1e-07,1e-07,1e-07,1e-15,1e-07,1e-07,1e-15,1e-07
moonchai,CELL_A2,130,0.00039946483707945256,0.00043887291167041384,0.0003175994958522943,0.00039775434205552713,0.0003701949087758191,0.0003743205020903401,0.00034388793677227116,0.0002947141811881805,0.00034334790880473967,0.00036210629781223413,0.00036422633221012724,3.9919371379943164e-05,1e-07,1e-07,1e-07,1e-07,1e-07,1e-07,1e-15,1e-07,1e-15,1e-15
moonchai,CELL_A2,135,0.0003703615363480265,0.00039134144421196844,0.0003824214552428968,0.00037926013331130495,0.0003744409655273905,0.00038845748618114714,0.0003421653393940802,0.0003565421429315504,0.0003486896675752155,0.0003260147762174517,0.00036596949469410323,2.058711790608209e-05,1e-15,1e-15,1e-07,1e-07,1e-15,1e-07,1e-15,1e-07,1e-15,1e-07
moonchai,CELL_A2,140,0.00039531396711745074,0.0003618057515387449,0.000341756555290834,0.00033590849015917214,0.00043228069866298413,0.0003979563404727236,0.00032219106298410333,0.000352130399491548,0.00036584464787720695,0.00036136232909019856,0.0003666550242684967,3.148541410621754e-05,1e-07,1e-07,1e-15,1e-07,1e-07,1e-07,1e-07,1e-07,1e-07,1e-15
moonchai,CELL_A2,145,0.00035525815132779535,0.00036051546018925384,0.00031927533343393974,0.00039882778131968363,0.00038041553689070593,0.0003624995643474003,0.0004103690000042851,0.0003871417367145484,0.0003479487459309784,0.00033170041829728693,0.00036539517284558774,2.7460185811071683e-05,1e-07,1e-15,1e-07,1e-15,1e-07,1e-07,1e-15,1e-15,1e-15,1e-07
moonchai,CELL_A2,150,0.00037584741670176636,0.0003589638102893151,0.00035462043689164145,0.0003626737218034183,0.00034743251635654493,0.00033950504702573935,0.000377272920311171,0.00042629809657719034,0.00036277850572094,0.00035693197988245025,0.00036623244515601776,2.2778889429448326e-05,1e-07,1e-07,1e-15,1e-07,1e-15,1e-15,1e-15,1e-07,1e-15,1e-07
moonchai,CELL_A2,155,0.00030130153101333424,0.00038934914331264803,0.0003948785643648657,0.0003328119696515411,0.0003593736374901234,0.00043420627936379064,0.00032133634994859726,0.0003746497391741015,0.0003338789878535087,0.00039791898090215793,0.00036397051830746685,3.929573624840364e-05,1e-07,1e-15,1e-15,1e-07,1e-07,1e-07,1e-07,1e-15,1e-07,1e-07
moonchai,CELL_A2,160,0.0003501646009595873,0.0003029063231556754,0.0004147220844898366,0.0004006088016319838,0.00031757619579813576,0.00033689995505975235,0.0003498642474366861,0.0003842677386386542,0.00039989411672057903,0.0003808568453037471,0.00036377609091946375,3.5929113664637375e-05,1e-15,1e-07,1e-15,1e-15,1e-07,1e-15,1e-15,1e-07,1e-07,1e-15
moonchai,CELL_A2,165,0.0003378112843232516,0.00037041946035394597,0.00034573439067572923,0.00040958896401072244,0.00042475071488702317,0.000370759313167136,0.0003577005236668162,0.0003414927932833449,0.0003252211128464525,0.00038232328733687647,0.0003665801844551298,3.032261743830509e-05,1e-07,1e-15,1e-15,1e-07,1e-15,1e-15,1e-07,1e-07,1e-15,1e-07
moonchai,CELL_A2,170,0.00037738096841072587,0.0003657646548711669,0.0003254560886111451,0.0003569432403077405,0.0003568149231488329,0.000371834027698825,0.0004087376157612892,0.00035391316858765395,0.0003650198257502748,0.00039639501540957034,0.00036782595285572245,2.199520163950188e-05,1e-15,1e-15,1e-15,1e-15,1e-07,1e-07,1e-15,1e-15,1e-15,1e-07
moonchai,CELL_A2,175,0.00036098957169112487,0.00037045586369442073,0.00038114143454301083,0.0003317022371723572,0.000386063358139233,0.00038754846383259954,0.00035634670497273845,0.00031528647352295155,0.0004136870239364095,0.0003606424303916069,0.0003663863561896453,2.6988412860078444e-05,1e-07,1e-15,1e-15,1e-15,1e-07,1e-07,1e-07,1e-15,1e-15,1e-07
moonchai,CELL_A2,180,0.00034314802948631274,0.00038134559161356765,0.0003844589941127162,0.0003505933529895724,0.0003987867425515279,0.0003548033836112314,0.0003375843583308116,0.000351927496582878,0.0003644632271034901,0.0003934484992474547,0.0003660559675629563,2.0730094505023398e-05,1e-15,1e-15,1e-07,1e-15,1e-07,1e-15,1e-07,1e-07,1e-15,1e-07
moonchai,CELL_A2,185,0.0003344481686185989,0.0003339336071228166,0.00041595117795039884,0.00036851279851112456,0.0003823542003790595,0.0003193385358250858,0.0004069973036518987,0.000386564122135577,0.00035286876525307396,0.00035514593260142617,0.00036561146120490603,3.059795837421353e-05,1e-15,1e-07,1e-15,1e-15,1e-07,1e-07,1e-15,1e-15,1e-15,1e-07
moonchai,CELL_A2,190,0.0003179477006642399,0.0003453452539521452,0.0003788634408722299,0.00035635047870392417,0.0003648565449914022,0.00040123690203438926,0.00039534135191495574,0.00034790456677935214,0.00038036357247505547,0.00036851274766811415,0.0003656722560055808,2.3742539295283222e-05,1e-07,1e-15,1e-15,1e-07,1e-15,1e-15,1e-15,1e-07,1e-07,1e-15
moonchai,CELL_A2,195,0.0003419463103187301,0.0004098759765310452,0.00036248326324335396,0.0003862282547874609,0.00036907645095317473,0.0003545988997242651,0.00034856462211722226,0.00034845790481789806,0.000360051365183584,0.00035027793236281295,0.00036315609800395473,1.9692866875068565e-05,1e-07,1e-15,1e-15,1e-07,1e-07,1e-07,1e-15,1e-07,1e-07,1e-07
moonchai,CELL_A2,200,0.00038979268060577733,0.000357714600588129,0.0003658489942140363,0.0003683612858877143,0.0003444278681536243,0.0003711477336664085,0.00038372278939842767,0.00036620119448862,0.00037283303773579803,0.00036220292494944933,0.0003682253109687985,1.2074435141050894e-05,1e-15,1e-07,1e-07,1e-15,1e-07,1e-15,1e-07,1e-07,1e-15,1e-15
