Model,Class,T_bound,score1,score2,score3,score4,score5,score6,score7,score8,score9,score10,score_avg,score_stdev,max_depth1,min_samples_split1,max_depth2,min_samples_split2,max_depth3,min_samples_split3,max_depth4,min_samples_split4,max_depth5,min_samples_split5,max_depth6,min_samples_split6,max_depth7,min_samples_split7,max_depth8,min_samples_split8,max_depth9,min_samples_split9,max_depth10,min_samples_split10
rana,CELL_H,0,0.0008760155804255626,0.0009402208785463177,0.0009029513733911839,0.0008908430405455713,0.000945274457865077,0.0009113769240616177,0.0009493649324880729,0.0008844546950575133,0.0009381120784016781,0.0009869319937429123,0.0009225545954525507,3.32654479332882e-05,4,32,4,32,4,2,4,8,4,2,4,32,4,32,4,8,4,8,4,16
rana,CELL_H,5,0.0008816499534652585,0.0009383611251624801,0.0009000153355313459,0.0008208874693571371,0.0008964594923884228,0.0009257581668196978,0.0009371422929450149,0.0009154476950481755,0.0010656013949441598,0.0010928759712107079,0.00093741988968724,7.809210796674791e-05,4,4,4,8,4,4,4,32,4,8,4,2,4,2,4,32,4,32,4,32
rana,CELL_H,10,0.000988786034967084,0.0009523016208814602,0.0009342781056201453,0.0010440366998590326,0.001037151397945372,0.0009110351472277596,0.0009749153314441269,0.0009590966548852921,0.0008498451434965446,0.0009077428360463656,0.0009559188972373183,5.6465220603889826e-05,4,8,4,4,4,16,4,8,4,4,4,16,4,16,4,32,4,2,4,32
rana,CELL_H,15,0.0009120430763285749,0.0009690358776587121,0.0009009785917525831,0.0010714244041353108,0.0008436220071365704,0.000893939838450039,0.000878730535502825,0.0009258314512952475,0.0008943339537660306,0.0010356128748012772,0.0009325552610827169,6.815983813802571e-05,4,32,4,32,4,32,4,4,4,32,4,4,4,32,4,2,4,32,4,4
rana,CELL_H,20,0.000876369831100953,0.0010152565651817482,0.0008853099579445626,0.0008545207873183476,0.0008526301788855559,0.0010002181893995423,0.0009572861304457129,0.0007956232820933897,0.000996802008425029,0.0008610129173851691,0.000909502984818001,7.251065886073943e-05,4,16,4,32,4,16,4,32,4,16,4,32,4,32,4,8,4,32,4,32
rana,CELL_H,25,0.0008958428664492085,0.0008697040340403708,0.0009200153806436706,0.0009539830543016859,0.0008844351589594036,0.0008955749957867013,0.0009643401338948835,0.0008812335371389595,0.0011865719682406933,0.0010868875859975217,0.0009538588715453098,9.851206685663089e-05,4,4,4,32,4,32,4,16,4,32,4,16,4,32,4,4,4,8,4,4
rana,CELL_H,30,0.0009607444899935917,0.0010284812678294974,0.0010366979450755645,0.000993532453416425,0.0008894961245949783,0.000854253226711285,0.001013441658405304,0.0009198511910954738,0.0009574208563469978,0.0010233641833533832,0.00096772833968225,5.978524241739728e-05,4,32,4,32,4,32,4,16,4,8,4,32,4,4,4,16,4,2,4,4
rana,CELL_H,35,0.0010209054772789892,0.0008480190247672233,0.0010611530862290985,0.0009187092973830489,0.0009199612931274513,0.0009973371902428918,0.0008704797967044631,0.000929550458899751,0.0009667899480863284,0.0009272720245835115,0.0009460177597302758,6.26789306448046e-05,4,32,4,8,4,16,4,4,4,8,4,32,4,8,4,32,4,16,4,2
rana,CELL_H,40,0.0008358397227842974,0.000931399080369345,0.000953074482463103,0.001024962351890639,0.0009918990324186165,0.0009284255597337714,0.0009613495092753335,0.0009756308543047283,0.0010301193877821628,0.000916999326285138,0.0009549699307307135,5.4106622368805255e-05,4,32,4,4,4,4,4,4,4,4,4,32,4,2,4,32,4,16,4,16
rana,CELL_H,45,0.0009074951115998662,0.0008731386709896822,0.0010049815399037177,0.0009729479049348918,0.0010393566066318007,0.0009445082055913988,0.0009777293613884399,0.0010490315591152267,0.0009376994901095034,0.0008891649155645554,0.0009596053365829082,5.7257681386630974e-05,4,32,4,4,4,4,4,32,4,32,4,2,4,16,4,32,4,8,4,2
rana,CELL_H,50,0.0009564905876709715,0.0008080643848815367,0.0009278724081819455,0.0010337572811300179,0.0008403979417321973,0.0009620905141070346,0.0008916909499321946,0.0010520725166885173,0.0008032512682467721,0.001043277413781894,0.0009318965266353083,8.979354288284739e-05,4,2,4,8,4,16,4,4,4,32,4,16,4,2,4,32,4,32,4,32
rana,CELL_H,55,0.0008872039629191323,0.0009814747070989527,0.0009264785784196302,0.0010317701308649565,0.0009526912422728628,0.000951434664601494,0.0009589313959167833,0.0008188018744181975,0.0010277285321952092,0.0010714392560871885,0.0009607954344794407,7.007098804197312e-05,4,32,4,4,4,16,4,16,4,2,4,32,4,4,4,32,4,32,4,2
rana,CELL_H,60,0.0009068890868167781,0.001032699893541673,0.001056976901729752,0.0009222573580448895,0.0010413252119925588,0.0008905512482720032,0.0008263059350274692,0.0009666695166405833,0.001028193523407038,0.0009129145252306808,0.0009584783200703425,7.425282369386703e-05,4,32,4,4,4,32,4,16,4,32,4,8,4,32,4,8,4,8,4,32
rana,CELL_H,65,0.0009735334458837078,0.0009183717863237728,0.000929693569346014,0.0010009453240889012,0.000953458241380494,0.0010139623925589235,0.001100928679816236,0.000999977561273251,0.000965509611198491,0.0009611795041657915,0.0009817560116035583,4.9217274293085214e-05,4,2,4,16,4,32,4,32,4,4,4,32,4,8,4,2,4,2,4,32
rana,CELL_H,70,0.0009229006576905719,0.0009520048533117027,0.0009449126042057663,0.0011794105399613708,0.0010042614756752266,0.001004733484931407,0.0008662931621698161,0.0010285800143922425,0.0009572867172399125,0.0009599735754765537,0.000982035708505457,7.899676510452708e-05,4,4,4,8,4,2,4,16,4,4,4,2,4,4,4,4,4,32,4,32
rana,CELL_H,75,0.001040167586511052,0.0008672843045011006,0.0009699828426893208,0.0008353217442641267,0.0007852333331459026,0.0009457594945261505,0.0008972915942776746,0.001021815837888293,0.0009859171503414552,0.0009515653988783325,0.000930033928702341,7.805784740152639e-05,4,32,4,4,4,32,4,8,4,32,4,16,4,2,4,16,4,4,4,32
rana,CELL_H,80,0.0010310527089246143,0.0009380600443652063,0.0009663212647068851,0.001010586156225752,0.0007992196919651504,0.0008427843522875704,0.0011143883041332266,0.0009391753296754842,0.0009710469923393908,0.0008719451318897544,0.0009484579976513036,8.861800901122948e-05,4,32,4,32,4,16,4,32,4,4,4,8,4,8,4,4,4,2,4,32
rana,CELL_H,85,0.000955469263239716,0.0009533972274345925,0.0008250758143256084,0.0009184644682444329,0.0010030960922500765,0.0009321298935505555,0.0009822640375878385,0.0009749200151228312,0.001058860124626946,0.0009317133824710159,0.0009535390318853613,5.7881073386443085e-05,4,32,4,8,4,4,4,2,4,32,4,4,4,2,4,8,4,16,4,32
rana,CELL_H,90,0.0010037420614390023,0.0009824290977587964,0.0010061726420163744,0.0009740963662608717,0.0008505693193962972,0.0010775248855943317,0.0009770907928735746,0.0010083567868255897,0.0010442061539726797,0.000912040824835782,0.00098362289309733,6.0807110989305605e-05,4,32,4,8,4,8,4,4,4,2,4,2,4,8,4,2,4,8,4,8
rana,CELL_H,95,0.0010214248160807626,0.0008918126855271718,0.000839243984096083,0.0009962514367977812,0.000951234049320339,0.0009211996001593407,0.0010179612612615486,0.0008895285672834624,0.0010239729531900722,0.0010608752424818403,0.0009613504596198402,6.962532539350016e-05,4,16,4,32,4,32,4,4,4,2,4,32,4,2,4,32,4,8,4,4
rana,CELL_H,100,0.0009086071218220328,0.0009691875912529206,0.0010520755887931774,0.0009793066627409768,0.0009267802164819544,0.000968604617949402,0.0009852933616593257,0.000982837422277,0.0009333455147082149,0.000995073485056067,0.0009701111582741072,3.85142210479277e-05,4,32,4,16,4,32,4,8,4,32,4,8,4,8,4,32,4,8,4,8
rana,CELL_H,105,0.0009143018733147445,0.0009713554784737461,0.0008482137643347181,0.0010763927454669026,0.0010331804507367124,0.000983491922237609,0.0008259472508804587,0.0009560582432980927,0.0010770267350056987,0.0010418592702874311,0.0009727827734036113,8.421153662503756e-05,4,16,4,16,4,16,4,32,4,8,4,8,4,8,4,16,4,32,4,4
rana,CELL_H,110,0.0008273901835500553,0.0010290676072809677,0.0009479366248782429,0.0011650941072709712,0.0009287856516422468,0.0010465510147315675,0.0009400513003894383,0.0009587061556031753,0.0010025600553532502,0.000934508922909729,0.0009780651623609645,8.522177327805582e-05,4,32,4,16,4,8,4,16,4,16,4,4,4,4,4,4,4,2,4,32
rana,CELL_H,115,0.0008219591120623135,0.001022755802126791,0.0009493224304206306,0.0010885208550990664,0.0009585521149725017,0.0009566676577333629,0.0008762293237061418,0.000998290883844422,0.0009255171796775675,0.0009134192815414234,0.0009511234641184221,7.119902831921834e-05,4,8,4,16,4,32,4,32,4,16,4,16,4,16,4,4,4,32,4,32
rana,CELL_H,120,0.0009035437346312157,0.000915066833747858,0.0008697984866452826,0.001052328347271244,0.0009592437280707936,0.0009741201865085878,0.0008719466016187646,0.0010283802083149197,0.0009168773277184798,0.0010169662662294103,0.0009508271720756557,6.225725190820874e-05,4,32,4,32,4,2,4,32,4,32,4,16,4,2,4,2,4,8,4,32
rana,CELL_H,125,0.001038256956550908,0.0008989634375449392,0.0009017418729782992,0.0011508200232316671,0.0008767824047195097,0.0010676790561351876,0.0009618768576950035,0.0010498521184362458,0.0009708770847792019,0.0010692385533210618,0.0009986088365392023,8.567247330837166e-05,4,8,4,8,4,32,4,4,4,4,4,8,4,2,4,8,4,4,4,32
rana,CELL_H,130,0.0009239627676875026,0.001012524177943836,0.0010433607648558103,0.0009960880038170498,0.0009130319526655918,0.0009541730124164801,0.0009558135994536242,0.0009914303630408176,0.0009331846207287232,0.0010320471924845334,0.0009755616455093969,4.3637589122393375e-05,4,4,4,2,4,16,4,8,4,32,4,8,4,2,4,32,4,16,4,2
rana,CELL_H,135,0.0009290904208831116,0.0010371924200157786,0.0009456431431983899,0.0009143178835391374,0.0010211258473598,0.0008133019328163989,0.0010490083335762102,0.001048240446034912,0.001048425523390453,0.00092881234777256,0.0009735158298586752,7.558939413343784e-05,4,2,4,16,4,32,4,8,4,32,4,32,4,16,4,4,4,16,4,32
rana,CELL_H,140,0.0009041230903859991,0.0009059451565607103,0.0009814729551511927,0.0009666921530702158,0.0009519579247945073,0.001019893847958069,0.000877569740613037,0.0010497559308505833,0.0008654599924671456,0.0009685399710857742,0.0009491410762937234,5.734494965998326e-05,4,32,4,32,4,32,4,32,4,2,4,16,4,4,4,4,4,2,4,16
rana,CELL_H,145,0.0009694725584619129,0.0010270126261815225,0.0009540409626358958,0.0009291408255233893,0.0010442323150726802,0.0010741531279633149,0.0009498317391563575,0.000889830454073412,0.0009214466405307177,0.0008198830868167232,0.0009579044336415927,7.19698515633014e-05,4,32,4,4,4,2,4,16,4,8,4,2,4,2,4,2,4,32,4,32
rana,CELL_H,150,0.001032193486889092,0.0009427189696323484,0.0010413830587404904,0.0009516635824530564,0.001036397834110733,0.0009316588555992412,0.000965448363285865,0.0010985499091532478,0.001052073459563388,0.000963649370668334,0.0010015736890095796,5.4107270179214676e-05,4,32,4,16,4,4,4,32,4,16,4,16,4,8,4,2,4,16,4,32
rana,CELL_H,155,0.0009392763879414253,0.0010204968227743522,0.0010548779786262554,0.0008447769087055242,0.000987934183979693,0.0009352867226511043,0.0009939200812118514,0.0010028725997455843,0.000981160937452352,0.0008308748925939389,0.0009591477515682081,6.918167174266437e-05,4,32,4,32,4,32,4,32,4,32,4,32,4,32,4,32,4,32,4,16
rana,CELL_H,160,0.0009786646130458087,0.0010267962945022227,0.0008599770646752433,0.0009073268716158987,0.0010088959303405035,0.0009532923819184356,0.0010234928492037247,0.0009629569223189492,0.000865928571513962,0.0009482099542630914,0.0009535541453397838,5.712967410269424e-05,4,32,4,32,4,32,4,32,4,8,4,32,4,16,4,8,4,16,4,4
rana,CELL_H,165,0.0009930366357290366,0.0009874122538689476,0.0009070395899267752,0.001000148145404414,0.0009309945386704648,0.0009218221757331816,0.001057615127670605,0.0009839649911452123,0.0009137623905149771,0.0011316083284452889,0.0009827404177108901,6.71397762332066e-05,4,4,4,32,4,8,4,4,4,8,4,2,4,2,4,2,4,4,4,2
rana,CELL_H,170,0.0008927605261750391,0.0009943517881111186,0.001007206527479057,0.0009437336028239588,0.0010074249666615148,0.001001481138946179,0.0009218353762926279,0.0009768818659405363,0.0008599001361895913,0.0010389701899683704,0.0009644546118587994,5.47388621751159e-05,4,32,4,32,4,8,4,32,4,32,4,16,4,32,4,16,4,8,4,16
rana,CELL_H,175,0.0009426352663623593,0.0009450788462342916,0.001007555160479225,0.0009378266654975622,0.000805332445727718,0.000977517530508659,0.0010195597892198411,0.0010689716283940563,0.000973643951290526,0.0011826355829794766,0.0009860756866693714,9.267241834778053e-05,4,8,4,4,4,2,4,4,4,32,4,16,4,16,4,4,4,2,4,4
rana,CELL_H,180,0.0009952751249276224,0.0009616120046874895,0.0010439231976545299,0.0008842012104413561,0.0009282827917053895,0.0008743398827747615,0.0009453802950128533,0.0010225819700428005,0.0008357501127478026,0.0010215215918496273,0.0009512868181844233,6.70619964709269e-05,4,8,4,32,4,32,4,8,4,32,4,4,4,32,4,4,4,32,4,32
rana,CELL_H,185,0.0010556562690839477,0.0009156608900444423,0.0009062705415959124,0.0010396160219623592,0.0008731851909113091,0.0009519227996450643,0.0008657855923482416,0.0010673234684247335,0.0009138212988798597,0.0010624101887454853,0.0009651652261641356,7.790500718795144e-05,4,2,4,16,4,16,4,32,4,32,4,32,4,4,4,2,4,8,4,16
rana,CELL_H,190,0.0010735624763441353,0.0008878283389246379,0.0007945586152242551,0.0008926121359506286,0.001130398546448079,0.0009748224966385514,0.0008748151536698889,0.0008505372009681552,0.0008742177796072782,0.0009255945993321772,0.0009278947343107788,9.835951110527874e-05,4,2,4,32,4,8,4,16,4,8,4,32,4,2,4,16,4,2,4,32
rana,CELL_H,195,0.0009379432908663662,0.0009856653725613487,0.000929969699862783,0.0009897838819250548,0.0008643196250740583,0.0009538638554070889,0.0010080072597155683,0.001074109155526427,0.0009931130314423816,0.0009082889826666559,0.0009645064155047733,5.569516626252109e-05,4,32,4,32,4,16,4,32,4,8,4,4,4,8,4,32,4,8,4,8
rana,CELL_H,200,0.0010609529801649466,0.0009227093594560753,0.0010398093420371148,0.0008632280064381229,0.00095867760116633,0.000776947459826391,0.0010939098885158303,0.0009203835150498802,0.0009803996557324545,0.0009373472066527527,0.0009554365015039899,9.002710204750209e-05,4,8,4,16,4,32,4,8,4,4,4,32,4,4,4,4,4,32,4,8
rana,CELL_D,0,0.0002151440586618887,0.00018649357221950827,0.00019831343585463318,0.00018346020915472388,0.0001913858171775504,0.00018837368273113628,0.0002174495021018517,0.00017926198376126126,0.0002099241285813208,0.0001877338685095123,0.0001957540258753387,1.304133609408734e-05,32,32,8,32,16,32,32,4,16,8,64,2,16,2,16,16,32,2,8,2
rana,CELL_D,5,0.00020121095662922677,0.00018789485199353822,0.0002204936334644123,0.00019517638129934982,0.00019223527833630544,0.00018354902630366752,0.00019212576507974922,0.00019296481393291353,0.00020226811543792836,0.00019294433135884888,0.00019608631538359402,9.671802963541043e-06,64,16,4,8,16,4,8,4,8,4,64,2,64,16,32,4,8,2,32,8
rana,CELL_D,10,0.00018053583146840162,0.00021282670098510476,0.00019583507226844166,0.00022949947266981624,0.00017927858493739496,0.00017383795131672538,0.00019879281581310353,0.0001926335172117791,0.00017705418357045753,0.00021522011920732691,0.00019555142494485515,1.777852677113056e-05,16,4,8,4,8,8,64,16,8,16,64,32,32,2,32,8,4,16,4,2
rana,CELL_D,15,0.00020889578865179584,0.00020668356934049582,0.0001986576398264266,0.0002020619177082698,0.00020019880735324194,0.00020019139748849395,0.00019917780846857375,0.00018142202016457038,0.00019102448410429407,0.00017024281085690788,0.000195855624396307,1.1269621915695148e-05,16,16,64,4,4,2,64,4,16,8,64,32,8,16,32,2,16,2,32,8
rana,CELL_D,20,0.00017740783245704753,0.00018375230484447488,0.0001934577552695785,0.0001989428064556161,0.00019805480306015556,0.000186755037058198,0.00019384416035998718,0.0001953682895359112,0.00021007493106255765,0.00021953545977564467,0.0001957193379879171,1.1648046816372872e-05,64,16,16,2,32,8,4,16,8,8,8,8,32,8,32,4,16,32,32,4
rana,CELL_D,25,0.00020126280839709908,0.00019598883803580492,0.00019649568784083028,0.00018264767141281443,0.00020985054475562988,0.000169711551190391,0.00020551114626260103,0.00019168358817902355,0.0001921567449429469,0.00021161170375492776,0.0001956920284772069,1.2065606267429787e-05,16,32,32,32,64,4,8,4,4,16,64,4,64,32,16,4,4,32,8,8
rana,CELL_D,30,0.00019647473629542183,0.00020872934964139274,0.00018370894876581636,0.00016862852051246772,0.00021261243549991363,0.00019035340755912798,0.00022404041665624857,0.00019001110990468737,0.00018188250322819305,0.00019862139700354422,0.00019550628250668135,1.54798456213319e-05,64,2,4,2,32,2,64,8,8,8,16,16,8,8,4,2,8,4,16,8
rana,CELL_D,35,0.00018264440826642575,0.00016968654466129244,0.00019228128692825143,0.00019185238106491243,0.00020105458497617778,0.000221806333602544,0.0002123912798358046,0.00017226637714469137,0.00019498207098484903,0.00021465562987762603,0.0001953620897342575,1.664414411880979e-05,32,32,16,4,4,4,4,8,16,32,16,32,16,2,16,2,4,4,4,32
rana,CELL_D,40,0.00018706112659231018,0.0002167860469621739,0.00021312800764883806,0.00019165084113515837,0.00019541529837555178,0.00019371526490510147,0.00018925350502785895,0.00018043863902604925,0.0002071164307259852,0.00018283293804756084,0.0001957398098446588,1.1890120430645512e-05,16,16,16,2,16,32,8,2,64,8,32,2,16,8,64,4,32,4,16,2
rana,CELL_D,45,0.00019004345626743896,0.0001911009239004388,0.0001848725388352746,0.00019249137019515379,0.00019511623183355312,0.0002142422127482923,0.00020019191641561696,0.00018519327887918182,0.00019333464397186553,0.0002139119110282229,0.00019604984840750384,9.95713223018631e-06,64,4,16,8,16,32,32,16,16,2,8,4,64,2,4,4,4,8,4,2
rana,CELL_D,50,0.0001989680748201368,0.00019569768392201323,0.0001786647515340147,0.00021756903649163765,0.00020707791716858092,0.0002071208428654887,0.0001919430556661539,0.00018283845686761533,0.00019508125666206657,0.00018465406620728252,0.00019596151422049906,1.1577015759200852e-05,64,4,64,8,4,4,64,32,4,16,64,4,8,32,4,8,32,8,8,16
rana,CELL_D,55,0.00016941039163317797,0.00021458953329267535,0.0001910439332002105,0.00020075687577826522,0.00020108288379129576,0.0002068127995492071,0.00020351399357643616,0.00019431217654805838,0.00017390757928294567,0.0002005985871745961,0.00019560287538268684,1.345167146921901e-05,64,8,8,4,4,16,64,8,16,2,8,32,32,2,8,32,4,4,32,8
rana,CELL_D,60,0.00019382854372794066,0.0001792585073110448,0.00019281866238390167,0.0001862068593150536,0.00019857685024343366,0.00020415140411269517,0.00017294991965222434,0.00022574917364297088,0.00019662277553677426,0.00020527134244898758,0.00019554340383750264,1.4016722996414627e-05,32,2,4,32,32,16,4,2,32,2,4,4,64,2,64,4,16,32,32,2
rana,CELL_D,65,0.00016512238193642226,0.0001896820156931057,0.00022631910383430481,0.00022626731251888812,0.00019942406094603337,0.00017888065633040622,0.00018463045325422655,0.00020971669385707041,0.00018387738290743456,0.00019031552765892804,0.00019542355889368203,1.9044319676757467e-05,4,4,16,4,64,4,32,4,16,2,64,8,16,16,8,32,4,32,32,16
rana,CELL_D,70,0.0002023287419260828,0.00019736981274889095,0.0002053545039850311,0.00020177439943167548,0.00017087809964652209,0.0001846733856157884,0.00018988432144701037,0.0002299438340342559,0.0001754303978905735,0.00019753206125403523,0.00019551695579798656,1.5921336892481857e-05,64,16,32,4,4,32,4,8,16,4,32,8,16,4,4,8,4,2,64,2
rana,CELL_D,75,0.00021502237536420734,0.00019482528371525705,0.00020810988704076693,0.00019072920380164965,0.00018269205530513802,0.00018577443850574234,0.00018744185446198632,0.000221896914541586,0.0001995272115100206,0.00017337840321314434,0.00019593976274594982,1.4447693567504983e-05,32,2,16,4,64,8,4,32,16,32,8,2,32,8,64,32,4,8,32,32
rana,CELL_D,80,0.0001762585562830923,0.00021025251565705156,0.00019691645960212803,0.00020917060268930567,0.00019661983801716275,0.0002150895451994768,0.00019397086235863883,0.0001661689394161434,0.00020143513287830455,0.00019133100035767826,0.0001957213452458982,1.4410176017470792e-05,32,8,4,32,4,16,8,32,8,32,32,32,8,8,32,16,16,2,16,4
rana,CELL_D,85,0.000174005886555269,0.00019547969407657256,0.00019144205619565284,0.00019875985625628686,0.0001814381241078058,0.00021210261470643697,0.00019568282183561115,0.00020522807745564526,0.00017919555796184634,0.00022253405052675686,0.00019558687396778837,1.4330883526624675e-05,4,4,32,4,4,2,16,16,32,8,8,32,32,8,32,2,8,4,16,8
rana,CELL_D,90,0.00017585852548028289,0.0001774757191679988,0.00019800558829275575,0.0002037024118742355,0.00019820996739222682,0.00019959346814252244,0.00019865263036185663,0.00018676134038259992,0.0002110619617757732,0.00020913744631511,0.0001958459059185362,1.1496005811317009e-05,4,32,16,32,64,16,16,4,16,16,32,32,8,2,16,16,4,2,32,4
rana,CELL_D,95,0.00017532161793100488,0.0002188119819457945,0.00018319129988654732,0.00020266887951836266,0.00019470208736788367,0.00019755975984878484,0.0002146906735156435,0.00019273003295624578,0.00018420226659237072,0.00019292676378237632,0.0001956805363345014,1.2916194760480214e-05,8,16,64,4,16,8,4,8,16,2,32,4,64,8,32,16,8,4,16,16
rana,CELL_D,100,0.00017905023489864276,0.00019921726600917553,0.00019570470085313846,0.00020428468398352157,0.00018493206452563165,0.00017601092627195388,0.00020159440567261755,0.00021274302778859715,0.00019909301385529827,0.0002054225566706913,0.0001958052880529268,1.1393109004506467e-05,64,16,32,8,8,4,32,8,64,4,32,16,32,4,64,4,32,8,8,8
rana,CELL_D,105,0.00018404392879768153,0.00017669812198028626,0.00021634233493928985,0.0001969575386324208,0.0001894617749132826,0.00020735573216691783,0.0002088060082342375,0.00020112429151663644,0.00018049296626770678,0.00019479851213419783,0.00019560812095826573,1.2379688331716903e-05,64,16,16,8,16,4,32,8,8,8,32,8,32,32,4,4,8,16,4,16
rana,CELL_D,110,0.00021195993597606391,0.00020453835969000544,0.0002165438325965261,0.0001830663907133739,0.00018403224512373385,0.00018387674645454054,0.00019392881013551122,0.0001827109732330326,0.00019360206227058693,0.00020297335911099366,0.0001957232715304368,1.2006877191215606e-05,64,8,64,32,64,8,32,8,4,4,32,2,16,16,32,2,4,8,32,8
rana,CELL_D,115,0.00020152154860735559,0.00017911959798881473,0.00018581690777025726,0.00018361102869848754,0.00019790715786180914,0.00020963369774104344,0.00020494921260112844,0.0002105177070207547,0.00019367932719976358,0.00019066856952514372,0.0001957424755014558,1.0421761469909504e-05,64,16,4,8,8,2,16,2,64,32,32,16,64,16,32,16,16,4,16,8
rana,CELL_D,120,0.00019819148459134295,0.00017073671353801126,0.00022816961567486208,0.00019775383434746623,0.00019174379314474384,0.00017747175671783147,0.0001918663195675558,0.00021548351791428246,0.0001844245878194245,0.00019989217384915782,0.00019557337971646784,1.6082354837125207e-05,32,8,4,32,4,4,32,32,4,2,64,4,4,8,32,2,64,32,32,8
rana,CELL_D,125,0.0002048985720773289,0.00020636249690078064,0.00019424277152371022,0.00015610515105139228,0.0002089784985918647,0.00019676104045894758,0.0001968850744640316,0.0001981148786865321,0.00020471752925641572,0.00018853946478395708,0.00019556054777949608,1.4440405631540468e-05,8,16,8,4,8,4,32,32,8,4,4,2,32,4,64,8,8,4,32,2
rana,CELL_D,130,0.0002113740308083576,0.00018382126861120172,0.000199361472563951,0.00018037779573102565,0.00017866339719855862,0.0002001108052977047,0.0002108478946681202,0.0002079657199011269,0.00019384239379979917,0.00019089458198558962,0.00019572593605654353,1.1623680477546536e-05,16,32,16,8,64,8,16,32,32,8,8,16,4,2,32,2,16,4,8,32
rana,CELL_D,135,0.0001980309757348933,0.00019163263917379574,0.0002069801857144772,0.00019507338220477386,0.00019674756231669743,0.00021185253214154362,0.00019930963921933897,0.0001861048587434319,0.0001898523651904267,0.0001858077973415408,0.00019613919377809195,8.042584277176429e-06,64,8,4,4,32,4,64,2,16,8,64,8,8,32,16,2,8,8,64,2
rana,CELL_D,140,0.00019559860603269552,0.00020187884385675602,0.00021334162362212473,0.0001660018612212471,0.00019895802028450568,0.0002088287612621351,0.0001849714126471805,0.00019641085485346828,0.00019140840956501714,0.00020081634289850203,0.00019582147362436322,1.2547624665466567e-05,4,32,32,4,4,2,4,4,64,8,64,8,8,8,8,8,4,16,8,16
rana,CELL_D,145,0.0001696613764641805,0.00017433493402015007,0.0001844246814098405,0.00020536333693672173,0.00019774639521112457,0.0002142444364169174,0.0002119295505386489,0.00019574071524433464,0.00020492752372930473,0.00019731844335718117,0.0001955691393328404,1.43320200312369e-05,4,16,16,32,4,8,8,4,8,4,64,4,4,2,32,2,32,2,16,16
rana,CELL_D,150,0.00016870643786959862,0.00021061394588097908,0.00018668070120020545,0.0001698035030292154,0.00020497547302676314,0.00018834087955527275,0.00019538132197422187,0.00022171905272387526,0.00021041961108252726,0.00019977221326008597,0.00019564131396027448,1.6593835087442758e-05,4,2,64,2,8,16,4,32,64,2,4,32,16,4,8,32,8,4,32,32
rana,CELL_D,155,0.0001944961101233719,0.00020184501953295268,0.0002088838474361839,0.00018687549330945581,0.00019141814454065224,0.0001920253604542177,0.00021595143359000505,0.0001859652788451497,0.00018925529163646245,0.00019235332030674077,0.00019590692997751923,9.380433457634359e-06,32,16,8,2,32,8,32,2,32,8,64,32,64,8,4,4,4,16,64,16
rana,CELL_D,160,0.0001983046133957217,0.00019396129705132818,0.00018375518487761036,0.00020131040476374626,0.00020595301008648762,0.00021489198257537253,0.00018736034837607297,0.00018346031972186897,0.00016837741563911792,0.00021777200324352324,0.00019551465797308496,1.4526292538024266e-05,32,2,64,2,16,4,64,8,4,4,4,2,8,4,16,16,64,4,4,4
rana,CELL_D,165,0.00018682767380620986,0.0002042874963334839,0.0001924633747419747,0.00018585529724638393,0.00019699403859526032,0.00019579319207238256,0.0001978664972071851,0.0001837086053489054,0.0001953889821569551,0.0002190196929827124,0.0001958204850491453,9.766203477533936e-06,16,2,4,16,16,16,4,16,16,16,32,4,8,8,4,2,4,4,16,8
rana,CELL_D,170,0.0001967389554520723,0.00020346697206954676,0.00020056729473925098,0.00023756639199012358,0.0001911367360088994,0.00018933705699431352,0.0001828706902789147,0.00020327336568236388,0.00018479146924340104,0.00016578492277576846,0.00019555338552346545,1.7705482281164986e-05,16,8,4,32,32,2,64,2,8,4,16,4,8,4,64,16,8,16,8,32
rana,CELL_D,175,0.00018856245807496061,0.00019824460838515446,0.00020603233909300103,0.00018812627923493836,0.0001893419662100717,0.00017567473460327782,0.00020971578405270527,0.00020163492431887045,0.0001977114618655044,0.00020357225399017794,0.00019586168098286618,9.799981354121228e-06,32,32,4,4,4,8,8,16,64,16,8,4,16,8,8,4,32,2,4,8
rana,CELL_D,180,0.00019656076621500258,0.00019281234495450615,0.00019276527202917166,0.00022384844264391047,0.00017876752763861862,0.00020037175434744646,0.00019558333149332033,0.00017840842045486165,0.00020657223896880788,0.00019178378646020718,0.0001957473885205853,1.2454288487514457e-05,4,32,64,2,8,2,32,2,64,32,16,32,4,16,4,32,8,32,16,8
rana,CELL_D,185,0.0002013442435935459,0.00018890945404149862,0.00019986240426219553,0.00023525955637286508,0.0001691016327266638,0.00019207064602129285,0.00017528540619855275,0.0001955418722187413,0.0002080896185938088,0.00018823363449829836,0.00019536984685274627,1.7337353771263965e-05,4,4,64,2,8,4,32,8,4,8,4,2,64,4,8,4,32,2,64,4
rana,CELL_D,190,0.00019006800621526563,0.000183587629636323,0.00020860564734808117,0.000194546500459103,0.00021206602870992898,0.00019040746242769013,0.00020668817489783535,0.00019833915972881035,0.0001705164330738179,0.0002017978557674259,0.00019566228982642814,1.2005248157968624e-05,16,8,8,16,16,4,16,16,8,32,8,2,4,8,4,2,16,16,16,32
rana,CELL_D,195,0.00017775509745975599,0.000185258643664327,0.00019147260667748842,0.00019872518828519586,0.0001878199554001091,0.0002145250558193541,0.0002076820491523084,0.00020254564156193793,0.00019656022488726013,0.00019870650405730928,0.00019610509669650464,1.035911303018014e-05,64,32,8,4,16,2,8,4,64,32,64,2,8,8,64,16,8,4,8,8
rana,CELL_D,200,0.00017975086494284595,0.00021842420296702125,0.0001851575609957126,0.00016949060377892684,0.00021280127137232794,0.00019078368257940845,0.00020896232770278747,0.00020934141682822565,0.0001949408473065448,0.0001851813373694392,0.00019548341158432398,1.535640094431982e-05,16,4,32,4,16,4,4,4,16,4,4,16,64,16,4,8,4,32,4,32
rana,CELL_A1,0,0.0006196736419743434,0.0006552220941624837,0.0006779989601593427,0.0005852334817265595,0.0006776216559583765,0.0006477478576956994,0.0006273270757403989,0.0006495096052302076,0.0006295661260828895,0.0006554694760350083,0.0006425369974765308,2.6642871892626267e-05,4,16,4,4,4,32,4,4,4,16,4,32,4,16,4,8,4,8,4,16
rana,CELL_A1,5,0.0006189978121670684,0.0005974442251780183,0.0005870380819487037,0.000712313473723566,0.0007114676897476779,0.0007467391497442507,0.0006349575817057789,0.0005331664751597916,0.0006173003054005614,0.0007051544644718445,0.000646457925924726,6.524517314803559e-05,4,16,4,32,4,2,4,32,4,4,4,8,4,16,4,8,4,32,4,4
rana,CELL_A1,10,0.0007790177528892292,0.0006235463593139323,0.0006580431133923201,0.0006144113817325322,0.0006596847720020754,0.000643235084158088,0.0006007380107880089,0.0006588473459942486,0.000659889125027934,0.0005694248449744319,0.0006466837790272801,5.272700663087277e-05,4,32,4,4,4,32,4,8,4,32,4,32,4,8,4,8,4,32,4,8
rana,CELL_A1,15,0.0006172573595787384,0.0007346434968222105,0.0006362477355513307,0.0007294341494337266,0.0006119919281996573,0.0006926919878443164,0.0006799809564803395,0.0006268542700340196,0.0006705089105135488,0.0005330026941903637,0.0006532613488648251,5.782727198992881e-05,4,2,4,16,4,16,4,32,4,32,4,32,4,8,4,32,4,32,4,8
rana,CELL_A1,20,0.0006485601726212814,0.0006608282083580296,0.000730942645354924,0.0007448352031771318,0.0005026004685337655,0.0006520508845663849,0.00060849389900474,0.0007055935160430336,0.0006745926059726897,0.0006388588965590089,0.000656735650019099,6.517990863008715e-05,4,32,4,32,4,32,4,2,4,16,4,32,4,2,4,4,4,32,4,16
rana,CELL_A1,25,0.0007012154833385702,0.00059125510879979,0.0006723722063923809,0.0006870635712673749,0.000682243275515142,0.0006430028091564067,0.0007044901531319577,0.0006986802743729611,0.000621028160156604,0.0005717607739028928,0.000657311181603408,4.560916305580104e-05,4,2,4,16,4,32,4,16,4,16,4,32,4,32,4,8,4,16,4,32
rana,CELL_A1,30,0.0005936084556056251,0.0007533716994764676,0.0005607145194981203,0.0006796573623183191,0.0006657061409916218,0.0006688114518871312,0.0006343546443410568,0.0006513939447826103,0.0006797016026534108,0.0005946848556100529,0.0006482004677164416,5.2415657734436494e-05,4,2,4,4,4,2,4,32,4,2,4,16,4,32,4,16,4,4,4,8
rana,CELL_A1,35,0.0007354396455142462,0.0006759563130890495,0.0006727529497370169,0.0006472722377997567,0.0006408897356343903,0.0007040837185308947,0.0006475794106313324,0.000516470510899398,0.0007608816426332189,0.0006664678700913262,0.000666779403456063,6.252461553452788e-05,4,32,4,16,4,16,4,8,4,8,4,2,4,16,4,32,4,32,4,32
rana,CELL_A1,40,0.0006230065176348083,0.0006091941807508214,0.0007307270964351805,0.0006398578165073471,0.0006268432755616346,0.0006418533550248558,0.0007307431556673547,0.000663941853295933,0.0006246510861843334,0.0006480071802291606,0.0006538825517291429,4.101916846322215e-05,4,32,4,32,4,4,4,16,4,16,4,4,4,32,4,16,4,8,4,8
rana,CELL_A1,45,0.0006451379791745337,0.0006714369225309809,0.0006286789123090124,0.0006298980324488269,0.000592554092185762,0.000729222845105137,0.0006634883013961426,0.0007208823413229013,0.0006648673297672444,0.0005951727577592679,0.0006541339513999809,4.3795615437328354e-05,4,16,4,32,4,4,4,32,4,32,4,16,4,8,4,8,4,32,4,32
rana,CELL_A1,50,0.000608194636137871,0.0006977469352323573,0.0006918448696357519,0.0006804273377796074,0.000689762255364961,0.0007224019938018108,0.0006254484834929457,0.0006467708932620538,0.0007468463575559897,0.0005490045512345443,0.0006658448313497893,5.5865261890004686e-05,4,16,4,4,4,16,4,32,4,16,4,16,4,8,4,8,4,4,4,16
rana,CELL_A1,55,0.0006570109472204637,0.0007105378203056415,0.0006613988013253024,0.0006836973931498775,0.0006159647785744435,0.0006111451330733159,0.000617994923690895,0.0006787412286896624,0.0006606725714351199,0.0007042390280130151,0.0006601402625477737,3.394913085487468e-05,4,2,4,16,4,32,4,32,4,32,4,32,4,32,4,16,4,32,4,32
rana,CELL_A1,60,0.0006278129388968687,0.0006220479850699188,0.0005940718881054938,0.0006791203112704337,0.0006622248048867417,0.0006240464259012667,0.0006817889395405699,0.0007100992121610479,0.0006061607077621534,0.00065424410694114,0.0006461617320535635,3.5337778466513207e-05,4,2,4,32,4,16,4,32,4,32,4,32,4,16,4,32,4,16,4,32
rana,CELL_A1,65,0.0006797028550923554,0.000547869106814184,0.0007439769096201966,0.0006948390220547252,0.0007144709856386968,0.0006754209238517442,0.0006388388182074058,0.00069746304273741,0.0006305649926023442,0.0006789277372194517,0.0006702074393838513,5.144545419803661e-05,4,32,4,8,4,16,4,8,4,32,4,32,4,32,4,2,4,32,4,32
rana,CELL_A1,70,0.0006997028980391694,0.0007068953533755844,0.0007191127640959147,0.0007366717939186317,0.0006470799119726489,0.0006580321712274954,0.0007476403071473472,0.0006881972169419467,0.0006193108583935528,0.0006686626481662323,0.0006891305923278524,3.878120456066457e-05,4,8,4,8,4,16,4,2,4,4,4,32,4,4,4,32,4,32,4,32
rana,CELL_A1,75,0.0007639627212079381,0.0006650933040169981,0.0005900868495125607,0.0006050207626600662,0.0006342659442558695,0.0007752590052744717,0.0007144305017618632,0.0007246134041603581,0.0007643597767390405,0.0006502118384896744,0.0006887304108078842,6.523926102612337e-05,4,16,4,2,4,16,4,16,4,32,4,2,4,16,4,2,4,32,4,2
rana,CELL_A1,80,0.0006508735573005151,0.0005805797401696286,0.0006817385075316409,0.0007858935232634168,0.0006433813335696408,0.0006058345801801227,0.0006626328797101405,0.0007417705966729579,0.0007886323586511274,0.0006861941699258996,0.0006827531246975091,6.683668023362046e-05,4,16,4,32,4,16,4,32,4,32,4,16,4,32,4,2,4,16,4,4
rana,CELL_A1,85,0.0006747858650609267,0.0006070544871843248,0.000635720099729565,0.0007120636695482753,0.0006748533132408697,0.0006392743779552461,0.000702116877784544,0.0007556870192243742,0.000541389053059919,0.0007143296648308414,0.0006657274427618886,5.88168606365331e-05,4,32,4,32,4,32,4,2,4,32,4,2,4,2,4,2,4,16,4,16
rana,CELL_A1,90,0.0006321980357319769,0.0005569339993256152,0.0006545488427344685,0.0006278008687258819,0.0006291850792350936,0.0006725971044254487,0.00059127632007944,0.0006941935044598871,0.0006779921864140785,0.0007435709395026438,0.0006480296880634534,5.033624163162203e-05,4,32,4,2,4,16,4,2,4,32,4,32,4,2,4,32,4,32,4,4
rana,CELL_A1,95,0.0005269280449039085,0.0006994049320887531,0.0007037991744221943,0.0005457351417139791,0.0006600032393775662,0.0006864149279287554,0.0007395158432078097,0.0006637489254849509,0.0007419735864876692,0.0006408370422981039,0.0006608360857913691,6.953430020612277e-05,4,32,4,32,4,4,4,16,4,32,4,32,4,8,4,2,4,4,4,32
rana,CELL_A1,100,0.0006379778134449825,0.0007258336274751366,0.0006083255298815144,0.0006075831614775275,0.0006750744271287207,0.0006841049637411523,0.0006577775811505154,0.0007060776371497787,0.0007220704880435367,0.0006686952244108669,0.0006693520453903733,4.028267535140762e-05,4,16,4,4,4,32,4,8,4,16,4,16,4,16,4,16,4,16,4,16
rana,CELL_A1,105,0.0006327976920265343,0.000626516453371795,0.0006094540280366897,0.0008216252768281414,0.0006554916171230609,0.0006797057522025397,0.0006261492874610242,0.0006350065689103529,0.0006528226374703719,0.0006788053868587027,0.0006618374700289211,5.7523314851591425e-05,4,16,4,32,4,32,4,32,4,32,4,32,4,32,4,16,4,32,4,4
rana,CELL_A1,110,0.0006394498579240204,0.000662200504887245,0.0007192661383405043,0.0006987253162643891,0.000696600116227561,0.0007047946050953253,0.0007310022554954277,0.0006034579815226829,0.0006864701539446005,0.0006292684227920238,0.000677123535249378,3.966946611727036e-05,4,16,4,2,4,32,4,4,4,8,4,32,4,32,4,8,4,4,4,8
rana,CELL_A1,115,0.0006990479378391081,0.0006300892536693276,0.0006889241789484672,0.0006952700742675739,0.0007784704521633463,0.0006380563686566882,0.0007074393359729741,0.0006590630647929662,0.0006044964674122426,0.0006846653409683972,0.0006785522474691091,4.638456878417916e-05,4,32,4,32,4,32,4,16,4,2,4,4,4,32,4,16,4,32,4,2
rana,CELL_A1,120,0.0005684947265956121,0.0006825431166985218,0.0006389966068466757,0.0007257976256657603,0.0007707602370511495,0.0005647020454217529,0.0006797752781688198,0.0006968860075661869,0.0006448642436554941,0.0007174189864876623,0.0006690238874157636,6.282099359785541e-05,4,32,4,32,4,32,4,8,4,2,4,32,4,32,4,16,4,8,4,16
rana,CELL_A1,125,0.0006986295437274318,0.0006722339476116753,0.0007305725638744519,0.0006589305864060572,0.0005534557718870819,0.000713487374130551,0.0006951665602201526,0.0007113235091898039,0.0007409774729967413,0.0006722033429763312,0.0006846980673020277,5.031225522376911e-05,4,4,4,32,4,32,4,2,4,16,4,8,4,32,4,16,4,4,4,2
rana,CELL_A1,130,0.0007688247555580041,0.0006858723501867225,0.0006802899526539287,0.0006845402845234152,0.0006302325413472471,0.0006847844633359801,0.0007341371257401011,0.0006572739659331991,0.0005859482226866508,0.0007177070274411832,0.0006829610689406431,4.906311183797766e-05,4,16,4,4,4,32,4,16,4,16,4,32,4,8,4,4,4,32,4,4
rana,CELL_A1,135,0.0007568015794078406,0.0006746601622490454,0.0006938636272282072,0.0006402497364187699,0.000670720889310034,0.0007224199536764415,0.000577967691421939,0.0006748020991768265,0.0007126899524804324,0.000588887052725894,0.000671306274409543,5.351339843535906e-05,4,2,4,32,4,2,4,32,4,16,4,32,4,4,4,32,4,2,4,32
rana,CELL_A1,140,0.000676410565481715,0.0006163622394286375,0.0006202032136602648,0.0007132730206993979,0.0006572969272418806,0.0006847246459935365,0.0006144937105634715,0.0006618535076561514,0.0006748257297291164,0.0005802378926756777,0.0006499681453129849,3.8553400988083776e-05,4,32,4,32,4,8,4,2,4,32,4,8,4,32,4,8,4,4,4,32
rana,CELL_A1,145,0.0006814468889358404,0.0005894675350044926,0.0007100569356538941,0.0005910195064415621,0.0007524345411830474,0.0007904510623922028,0.0006529119497572538,0.000639798134476605,0.0006322568928081865,0.0006862995830352381,0.0006726143029688322,6.211998433871773e-05,4,2,4,32,4,2,4,16,4,8,4,32,4,32,4,16,4,32,4,32
rana,CELL_A1,150,0.000697459889181361,0.0007776739894209589,0.0006364727476675552,0.0007290348723142347,0.0006386896406227007,0.0006269327599270072,0.0006330049910837664,0.0006331473174418226,0.0006314671250140881,0.0008297588007191197,0.0006833642133392614,6.909445553602952e-05,4,32,4,8,4,16,4,16,4,32,4,8,4,16,4,16,4,32,4,16
rana,CELL_A1,155,0.0007005873409170895,0.0007464527260946605,0.0005733177514690904,0.0006369200087329211,0.0006424654555608109,0.0007107257408648358,0.0006364850658978116,0.0007081411615565492,0.0007409354792833438,0.0007074037271531093,0.0006803434457530222,5.2514851422974725e-05,4,2,4,2,4,32,4,4,4,32,4,8,4,16,4,8,4,32,4,16
rana,CELL_A1,160,0.0008061323737985174,0.0006907963479034621,0.0006581883277580591,0.0007520700690248049,0.0007169721328370833,0.0007260403296244463,0.0006415870442290147,0.0006542788660949614,0.0006766963528643061,0.0006894245598467808,0.0007012186403981437,4.7871695824831744e-05,4,4,4,32,4,2,4,16,4,32,4,32,4,16,4,32,4,32,4,32
rana,CELL_A1,165,0.0007371834840245248,0.0006173060931943514,0.0006259292406492998,0.0008196693598838851,0.0006924391558971084,0.0006630069194528996,0.0006467138037254405,0.0007063764893733126,0.0006974568144793782,0.000661199869605452,0.0006867281230285653,5.6643049196366625e-05,4,32,4,16,4,8,4,2,4,32,4,16,4,32,4,16,4,32,4,32
rana,CELL_A1,170,0.0005737703537631167,0.0007607634987651919,0.0005710162908160333,0.0007024051683308268,0.0006435296085719491,0.000690773616294191,0.0006908088113480866,0.0006644827876191896,0.000541822985202447,0.0007290093029974007,0.0006568382423708433,6.936917505893541e-05,4,16,4,8,4,16,4,32,4,8,4,32,4,32,4,4,4,8,4,16
rana,CELL_A1,175,0.0006782518057987393,0.0007340688126983608,0.0006710656893972247,0.0006831229774765198,0.0007421238141532603,0.0006497681686280038,0.0006948869864425286,0.0005939123262035484,0.0006122644083477986,0.0006273498874256788,0.0006686814876571665,4.636935082134867e-05,4,8,4,32,4,2,4,32,4,16,4,16,4,8,4,16,4,16,4,32
rana,CELL_A1,180,0.0006710842984340231,0.0007916710876223574,0.0006355869573005176,0.000661936945497193,0.0006902861917148564,0.0006792822443802157,0.0007489869698968292,0.0007194016089374981,0.000716770586884731,0.0007157780381195556,0.0007030784928787777,4.309605468773129e-05,4,32,4,2,4,32,4,32,4,16,4,4,4,16,4,32,4,8,4,2
rana,CELL_A1,185,0.0006828157699076161,0.0006941185218398226,0.0006950331336121649,0.0007567806611142495,0.0006235622424230687,0.0005853651883356247,0.0006293736377804202,0.0007384726669445296,0.0006522580405745615,0.0006160240309897499,0.0006673803893521807,5.265127807684489e-05,4,32,4,4,4,32,4,8,4,32,4,4,4,32,4,32,4,32,4,2
rana,CELL_A1,190,0.0006262481021126251,0.0007586797349541529,0.0006114909631390019,0.0006663985046726409,0.0006653650062306615,0.0007347861627518054,0.0006095829659686198,0.0006358978879060719,0.0007386463963916833,0.0006063332089605296,0.0006653428933087792,5.549360847569321e-05,4,16,4,2,4,8,4,4,4,32,4,32,4,32,4,4,4,8,4,2
rana,CELL_A1,195,0.0006639826937681546,0.0006410050289948244,0.0007042757521756088,0.0007011227749043884,0.0006218344753916434,0.0006345963234039616,0.000625935307217565,0.0006105310671431525,0.0006889146155398902,0.000710055566779627,0.0006602253605318815,3.616453396496559e-05,4,2,4,32,4,2,4,2,4,16,4,32,4,16,4,32,4,4,4,2
rana,CELL_A1,200,0.0006390878719792933,0.0006770496670461311,0.0006275503126082637,0.0006234440152089485,0.0008059700756969478,0.0006281557283684448,0.0006628145288908729,0.0005643910898908607,0.0005882575618045817,0.0007422214856084662,0.0006558942337102811,6.806350956722995e-05,4,16,4,32,4,32,4,32,4,32,4,32,4,8,4,32,4,2,4,16
rana,CELL_A2,0,0.00017711836347133697,0.00022683921422933723,0.00018152430272970276,0.00018010651678885547,0.0001939050104235597,0.00020827787761432175,0.00019865265600481794,0.0001918497374538604,0.00019705645928678035,0.0002288292952186569,0.00019841594332212293,1.723261264251133e-05,4,2,32,2,16,2,32,16,16,32,64,16,32,16,16,32,4,16,4,4
rana,CELL_A2,5,0.00019433605714723603,0.00017799550387044392,0.0002191392711210421,0.0002200727832968277,0.00019681831197013787,0.00019005682723782145,0.00018457917883237868,0.00017615526136173187,0.00022337997193533747,0.00020098026875830594,0.0001983513435531263,1.6496281005510466e-05,64,16,32,2,8,2,8,32,32,16,64,4,8,32,4,16,64,8,4,32
rana,CELL_A2,10,0.0002000204687665148,0.00018719447279384025,0.00019868565981005266,0.0002186349849125662,0.0002136290699943101,0.0002018185498922884,0.00018892786156597351,0.00018823391287943353,0.00019845657574177694,0.00019323142984579964,0.0001988832986202556,9.993944705340866e-06,8,32,4,8,32,8,8,2,32,32,8,8,64,8,8,4,16,4,64,32
rana,CELL_A2,15,0.00020934241542174608,0.00017671232276055245,0.00020137272750539816,0.0001895500156811964,0.0002068820832998612,0.00022894222194290702,0.0002045500628532639,0.00018268985411606502,0.0001994981071132084,0.000185780356755634,0.00019853201674498326,1.458404297962578e-05,32,4,16,2,16,16,64,32,4,32,64,4,32,4,64,16,64,16,32,8
rana,CELL_A2,20,0.00019384298045916888,0.000157913333542094,0.00020706194677780923,0.00021511312256191983,0.0002184181640557613,0.00021180982218287737,0.00020673104831486465,0.0001768659817950549,0.00018461665813855626,0.00021070691271975642,0.0001983079970547863,1.86261130488294e-05,8,32,16,2,8,16,4,2,32,32,8,2,32,8,8,16,64,32,4,32
rana,CELL_A2,25,0.00020547386276377076,0.00018541989652170953,0.0001918416559793852,0.00017258272028331802,0.00020022599558147943,0.00020803694800383476,0.00022425363961320075,0.000221604280489458,0.00019022413413855087,0.00018437271452012338,0.00019840358478948305,1.5794714818432258e-05,16,8,8,32,64,2,64,32,64,8,16,32,4,16,16,2,32,4,4,16
rana,CELL_A2,30,0.000200412107823321,0.00019564383245364257,0.00019925520492601357,0.00021429749921598665,0.0001879504227721886,0.00019320373683874253,0.00021550742709480484,0.00016981800948414572,0.00019234014321439124,0.0002177356811781815,0.00019861640650014185,1.3860079603345918e-05,8,8,8,2,4,16,32,16,8,4,32,8,16,16,4,32,32,32,8,32
rana,CELL_A2,35,0.00020018399335480205,0.00020952633078000742,0.00019002425863995744,0.00022242773643970352,0.0002024096122376743,0.00021418750987699185,0.00019542438000024175,0.00017923761036268065,0.00018167966728930917,0.00019087852900414383,0.00019859796279855118,1.323475401838633e-05,32,4,4,8,8,16,32,8,16,4,32,16,32,2,4,8,4,2,16,16
rana,CELL_A2,40,0.0001888898558608471,0.00018026661351459283,0.0001955184565098896,0.00020344350668393497,0.00020586524754762255,0.00016808395675246368,0.00021944202322741734,0.00020388204648965602,0.00022343745513991162,0.00019432195498208732,0.00019831511167084232,1.595006998308014e-05,8,32,32,8,8,4,16,2,4,16,4,4,32,32,4,2,64,32,64,4
rana,CELL_A2,45,0.00019695748624178565,0.00021049529687817547,0.00017674608009369324,0.00019211529051214938,0.00020825442394575684,0.00017063434719790424,0.0002180058551859787,0.00022057177919681842,0.00020514810421118444,0.0001854289011948479,0.00019843575646582944,1.616959770598538e-05,4,16,64,16,16,2,16,4,64,2,32,8,64,4,64,4,16,16,16,8
rana,CELL_A2,50,0.00018916889791744916,0.00019274434646031376,0.00018885030003842996,0.00019020244269040787,0.00020196511969852935,0.00019446651052336666,0.00019431033177520085,0.000237134143177901,0.00020684435255264195,0.0001913761173684717,0.00019870625622027123,1.3930334232144034e-05,32,8,4,16,64,2,64,4,4,8,16,32,8,4,8,32,32,4,32,4
rana,CELL_A2,55,0.00019264706341181608,0.00019968396623410423,0.00019354157959905442,0.0002299377179883847,0.00018512876944791525,0.00019741649048969843,0.00017993597181890106,0.00021494483333786663,0.00020299057083508412,0.00018926576340466605,0.00019854927265674913,1.396068138405059e-05,8,16,32,16,32,16,16,2,8,8,16,4,4,2,32,4,64,32,8,4
rana,CELL_A2,60,0.00020507303801862363,0.00022212538660366482,0.00020873612301856295,0.00019769764241640457,0.00018703674678727448,0.0002150189546816194,0.0001832423812870408,0.00018400889685075042,0.00020413152867347907,0.00018376607795698213,0.0001990836776294402,1.341361445917375e-05,8,32,16,4,64,2,32,4,32,2,4,8,4,32,8,8,64,8,4,2
rana,CELL_A2,65,0.00018636639015761255,0.0002227442101022105,0.00021055841122162136,0.00020035500384022552,0.0002091464132540454,0.0001840893300461985,0.0002143177477080687,0.00019380966215490057,0.00017352986859316626,0.0001926221521325183,0.0001987539189210568,1.460985378748903e-05,16,4,32,8,4,32,64,32,64,16,4,16,32,8,64,2,32,32,8,2
rana,CELL_A2,70,0.00018432768045265218,0.00019536322175187724,0.00018435362664635837,0.0002050769682016084,0.00020228039944595905,0.0001916257583567362,0.00019943328583697472,0.00020129381347575435,0.00023663246450400166,0.0001865444341699492,0.00019869316528418716,1.4563449860671378e-05,64,4,8,16,16,4,32,32,64,8,4,4,64,16,32,8,4,4,8,2
rana,CELL_A2,75,0.0001994556160459105,0.0002040775222492783,0.00021061913792292346,0.00019824639562307107,0.0001754163408538613,0.000194687443531188,0.00021869032014406467,0.00021213117505283023,0.0002061334152295395,0.0001671078186798386,0.00019865651853325053,1.537303398317619e-05,4,16,4,2,16,4,16,2,4,4,16,2,4,2,4,4,64,8,8,8
rana,CELL_A2,80,0.00018905022860067592,0.000218348090026242,0.00019384152005133415,0.00019378665310455895,0.0001936525958269654,0.00020840956469042184,0.00015668112797675437,0.00022653942008433857,0.0001814853383469178,0.00021923611806148476,0.00019810306567696938,1.9752963326984365e-05,16,8,16,8,32,16,32,16,8,4,4,4,4,4,16,2,16,4,8,4
rana,CELL_A2,85,0.00017838053127346805,0.00018968675650137576,0.0001981472324120604,0.00019913445792444035,0.00022802703535352754,0.00019020901959672617,0.00020693356176419662,0.00019718797839444753,0.0001983124654998349,0.0002020701952468404,0.00019880892339669176,1.228109493820439e-05,16,8,8,4,16,2,4,2,4,4,4,8,32,32,64,16,8,16,16,8
rana,CELL_A2,90,0.00017279393611116262,0.00020240317431623455,0.00022068732634295332,0.00020879122251804528,0.00020684343485387013,0.0002041440854192482,0.00018279491272432942,0.00016918336538189463,0.00020116827444444308,0.00021683241625228196,0.00019856421483644633,1.680762498783991e-05,16,4,16,16,16,8,8,2,4,8,4,4,4,2,16,16,16,8,64,4
rana,CELL_A2,95,0.0001926665766677086,0.00021355586625121847,0.00019737077337625886,0.00019097464072831993,0.0001722842751706603,0.0002273767188482723,0.00022163159365142364,0.00019011450520136635,0.00017322922125704332,0.00020264515969259129,0.00019818493308448632,1.76066246750088e-05,64,8,16,8,16,4,4,16,16,2,64,32,8,4,16,32,64,32,64,16
rana,CELL_A2,100,0.00018469312192883467,0.0002057079294107265,0.00018245440998380778,0.0002221410971954609,0.00019762869877292032,0.00018952325484956106,0.00021279305282314367,0.0002099213053235816,0.00020208637393966927,0.0001793409839236326,0.00019862902281513384,1.3619062977460235e-05,16,4,4,32,8,2,4,4,32,32,8,8,16,4,4,16,4,32,8,16
rana,CELL_A2,105,0.00021084064826019393,0.00018594955787257532,0.00021294612499231675,0.00019745350085425737,0.0001794195236798609,0.00019447188013084943,0.00020347065292795037,0.00018240714830411377,0.0001899634445200691,0.00023006066304855923,0.00019869831445907458,1.5007076406251676e-05,32,8,8,32,8,2,8,32,8,32,64,16,8,2,64,2,4,16,32,16
rana,CELL_A2,110,0.0001812866816867211,0.00020519455206580885,0.0002026491955488929,0.00022333686833211455,0.00018029075283653082,0.00020523365864560524,0.00021272257559958532,0.0001973516975038325,0.0001952054115442449,0.00018467553213697655,0.00019879469259003125,1.3254516554188889e-05,8,32,16,4,32,32,8,32,8,2,16,4,8,2,32,8,8,8,64,4
rana,CELL_A2,115,0.0002011585403010473,0.00020809294337128308,0.00019973102974106682,0.00018910462672201844,0.0002005052327841469,0.00020307169958208875,0.00021159106762034318,0.00018781534844947316,0.00020388251655537287,0.00018435785975421298,0.00019893108648810537,8.523223320405846e-06,32,32,32,2,64,4,64,2,16,32,16,16,32,2,4,16,64,32,64,8
rana,CELL_A2,120,0.00023115251402267922,0.0002202032729450878,0.00020675894217718756,0.00019451244295650837,0.00018373287813295953,0.00019716711790807362,0.0001966060338143163,0.0002067934053185177,0.00017688040236474664,0.00016901202557676067,0.00019828190352168376,1.802779405514034e-05,16,2,16,32,32,16,4,32,64,8,8,2,32,4,32,2,16,2,16,32
rana,CELL_A2,125,0.0001909560805458669,0.00020168621083555213,0.00018077384714208346,0.00020536936430875981,0.0002343178123060799,0.00018829352358199747,0.00019453296062438416,0.000195298118699338,0.0002005758121459375,0.00019491986070263164,0.0001986723590892631,1.3632218905229687e-05,32,8,16,32,64,32,32,32,4,32,4,8,16,2,64,4,64,16,32,2
rana,CELL_A2,130,0.00020783134623299817,0.00020087720515801066,0.00021099662296905562,0.00021850964643495323,0.00019014411317536646,0.0001664917631160972,0.00021214861647618534,0.00019787640233368944,0.00019247731059098726,0.00018967102445865375,0.0001987024050945997,1.429724540033988e-05,64,8,8,32,32,2,4,16,64,8,32,16,4,2,8,4,4,16,64,16
rana,CELL_A2,135,0.00017716714371813363,0.00020408650623531509,0.00021571510047497063,0.0002020452250917129,0.000178010022116551,0.00019878950956147157,0.00019799341899866268,0.00020128429838561456,0.0001994075889551441,0.00021224218646149757,0.0001986740999999074,1.1884983651608774e-05,8,32,8,8,4,8,32,16,4,8,32,2,32,16,64,2,16,16,64,4
rana,CELL_A2,140,0.00016252960966424396,0.00018799195043543842,0.00019854847521521803,0.00022156543199906156,0.00019523968578251795,0.00019640599689061013,0.00020353958919185313,0.0002297891392725782,0.00017868968037910372,0.00020977471018315,0.0001984074269013775,1.864191229079853e-05,64,32,32,16,8,16,4,32,4,8,4,4,8,2,4,16,16,16,64,4
rana,CELL_A2,145,0.0001994234913786275,0.0002104889114980662,0.00020969262661059383,0.0002027412883114977,0.00019462868228403024,0.0001882953846689046,0.00018126283282733668,0.00019831555321149518,0.00019571007477028367,0.00021067322405122425,0.00019912320696120598,9.253176088856085e-06,32,16,16,32,32,4,8,2,16,4,4,8,4,32,4,32,64,8,8,32
rana,CELL_A2,150,0.0002001172017549003,0.00021034703314947164,0.00020559255303565036,0.00020808046834591164,0.0001841310829915236,0.00022256567750141633,0.00021152490016068724,0.00018310120092648294,0.0001760606958155942,0.00018532819624931005,0.00019868490099309485,1.467694711957104e-05,32,2,64,4,32,16,4,16,4,32,32,16,64,16,64,4,8,8,32,4
rana,CELL_A2,155,0.00019945122665055942,0.0001948411682207322,0.0001979554233386461,0.00019852751063294277,0.0001933863218370745,0.00018328560624520832,0.00020204406880286612,0.00018778098613710193,0.0002201460121127603,0.0002126286292962782,0.00019900469532741698,1.0321313863550784e-05,64,4,8,32,8,16,32,8,32,16,64,4,4,8,4,32,32,4,16,32
rana,CELL_A2,160,0.0001830058491967486,0.00018595863026113377,0.00020741363399878814,0.0001916440967493076,0.00019417910693265777,0.00019194119562089174,0.00020095531845117624,0.0002244709319206196,0.00020285019052540296,0.00020363712071838058,0.00019860560743751066,1.1450849345646629e-05,16,8,4,4,16,16,8,4,16,16,16,4,32,8,4,4,4,2,64,32
rana,CELL_A2,165,0.00020555111538674855,0.00018457686434634595,0.00018871032446652464,0.00021912536247812025,0.0002136965117031305,0.00021857207898112545,0.00016223273172714012,0.00017634928648954445,0.00021529004090482684,0.00020103622974572565,0.0001985140546229232,1.8689415181279127e-05,4,4,16,16,16,2,8,4,64,4,4,2,64,16,8,4,32,4,4,8
rana,CELL_A2,170,0.00021586159991400186,0.00019978908529681117,0.0001956509353186497,0.00019801303397467578,0.00018626907574804984,0.00019826678580166509,0.00020259711344800205,0.00019692678747058718,0.00019744725569663453,0.00020098175614672749,0.00019918034288158044,6.949756477081237e-06,4,8,8,2,32,32,4,32,8,2,32,8,4,8,8,8,32,32,16,16
rana,CELL_A2,175,0.00022137371391698195,0.0001965763336646971,0.00020348568724608734,0.00017342602972918812,0.00018866240631420448,0.0002276904279164859,0.0001985995455341217,0.00018695915149737573,0.00019305966939051652,0.0001962897624164027,0.00019861227276260618,1.5155477767181459e-05,16,2,16,16,16,8,8,8,32,16,64,2,32,8,64,8,8,16,64,4
rana,CELL_A2,180,0.00021983791597395377,0.000199529481935435,0.00017429858332393817,0.00018705998876088266,0.00020691743807703787,0.00021397579120214507,0.00020563725520090573,0.0002095023429034147,0.00017219724501476327,0.00019663641595762734,0.00019855924583501034,1.5331559021617624e-05,4,4,4,16,64,2,16,4,32,4,32,16,4,32,32,16,32,4,4,2
rana,CELL_A2,185,0.00020508343879078108,0.00021524610144573738,0.00020670663955738898,0.00017758766586239034,0.00019158916144703604,0.0002224995120828871,0.00020654983294681262,0.00019439221199989842,0.00018042950909596768,0.00018670095439359994,0.00019867850276224995,1.4139659545658393e-05,4,8,8,2,8,4,32,32,64,32,64,4,32,4,16,16,8,2,32,16
rana,CELL_A2,190,0.00021501990564013685,0.00021061629330143612,0.0002033382940204805,0.00020505636702930773,0.00019157087991715334,0.00015027931282675144,0.00022339582012108523,0.00021548891710758937,0.00019284614937239164,0.00017331178563853827,0.00019809237249748704,2.1053574498835226e-05,32,4,16,4,8,32,32,4,64,16,16,32,8,32,8,32,8,8,64,4
rana,CELL_A2,195,0.00020858738933166577,0.00019769471226234982,0.00017941522081890555,0.0001997816050963989,0.00022684914303152756,0.00016406738293882694,0.0002064136375417871,0.00021173503195616526,0.00018787038251048927,0.0002023874362293721,0.00019848019417174884,1.6803103832067982e-05,16,2,16,16,32,2,8,32,32,16,16,8,4,32,8,4,4,4,16,8
rana,CELL_A2,200,0.00017450793994577298,0.00020012011452312934,0.00017413670662501564,0.00021295287981156378,0.00018576353783814105,0.0001823542079201926,0.00022156254221594593,0.00020254627670996756,0.00023379141605616853,0.0001934011634225228,0.000198113678506842,1.90311495536401e-05,32,2,16,4,8,2,8,8,64,32,32,4,64,8,8,2,8,8,16,2
