blobs,corners,healthy,infected,dead
61129.486206896545,-0.020175055488850964,91896,455838,92266
1082073.5068965517,-0.009923234954006151,91860,455979,92161
574137.5586206894,-0.006639128112594552,91387,456464,92149
36183.61724137931,-0.013914770898424899,92105,455963,91932
333260.8965517241,-0.017420342682728573,92042,455484,92474
54260.27931034482,-0.018116603540370896,91596,456522,91882
70564.42758620689,-0.017317279439976446,91253,456738,92009
1795559.317241379,-0.0015766127585550803,90758,457153,92089
436537.45517241384,-0.013943295337268102,91299,457134,91567
24189.63448275862,-0.01186371250433729,91649,456381,91970
68996.88620689654,-0.0246638685723382,91153,456828,92019
1922504.0586206894,0.009097800463365922,91177,456718,92105
837778.6206896551,-0.006460544712634466,91083,457358,91559
536433.872413793,-0.012587402474552296,90622,457420,91958
339224.97586206894,-0.003424326200316811,91184,456709,92107
951738.2310344826,-0.008483693612565379,91790,455754,92456
436928.2172413793,-0.006396864321519803,91658,455770,92572
383094.275862069,-0.014124409098589061,91235,456885,91880
54264.47931034482,-0.017431473152545632,351979,240903,47118
556261.6965517241,-0.008986875103250398,91708,455986,92306
489117.74827586196,-0.016242479447389813,91044,456843,92113
751695.0551724138,-0.017553992954041503,91550,456615,91835
443812.38965517236,-0.011898806130578426,91539,456308,92153
351088.7655172413,-0.008008444126766698,91207,456670,92123
1055870.748275862,-0.007570007631216623,91360,456406,92234
182729.12413793104,-0.022403339700456104,91142,456295,92563
489719.7034482758,-0.009243726820621856,91289,456379,92332
719820.0793103448,-0.010534343012887833,91407,456817,91776
677848.5103448275,-0.013724935672112979,91502,455779,92719
974349.5172413792,-0.00857895475096573,91692,456497,91811
276254.3,-0.014462278483855976,91546,455485,92969
267887.70689655177,-0.012346518040906362,91716,455342,92942
314713.3896551725,-0.008569121696324735,91788,456072,92140
521270.424137931,-0.009738901583478449,91788,456313,91899
44474.66206896552,-0.013216050298281915,95559,453124,91317
444425.4275862068,-0.014218545795038211,91759,456202,92039
1270609.3344827585,-0.006658148980831284,91247,456472,92281
1211493.589655172,-0.010196402017868648,91279,456823,91898
14479.11379310345,-0.007163498289190688,91734,456289,91977
203264.71724137932,-0.01762926565845067,91491,456644,91865
266433.0379310345,-0.015607637551265334,91685,455829,92486
261938.9827586207,-0.014839586488653207,91369,456067,92564
271412.9275862069,-0.006027172166049896,91462,456732,91806
1101828.6931034485,-0.00414759566429881,91480,456166,92354
773628.9724137932,-0.015838840912264743,91363,456523,92114
1341268.448275862,0.004488068932128196,91674,455749,92577
2029220.9758620686,0.0014009537809725279,91029,456823,92148
942710.9103448275,-0.013707021334193749,91504,456629,91867
1478399.4551724135,-0.0035095211364536234,91418,456751,91831
324298.02413793106,-0.01667244198752354,91102,456794,92104
824402.1758620688,-0.010962660242688323,91224,456465,92311
1156365.1068965518,-0.00640966618029831,91666,455773,92561
567406.3103448276,-0.015075704620412928,91751,455979,92270
382661.948275862,-0.014980884425748447,91122,456732,92146
719972.7344827587,-0.003570695595474033,91575,456142,92283
13321.844827586207,-0.006162391462179494,91538,456819,91643
797506.5862068965,-0.005524084514891949,91664,456111,92225
1205351.1689655173,-0.007655262145951145,91237,456767,91996
746592.8172413794,-0.00924606140033873,91651,455936,92413
503346.3862068965,-0.013510186390058054,91841,455603,92556
503420.0310344827,-0.004904482253640181,91321,456558,92121
1704135.6724137932,0.008279876524015779,91284,456348,92368
414578.18620689644,-0.012197321672052544,91900,455003,93097
1015873.7793103447,-0.011513245246667737,91713,456216,92071
1111857.2,-0.007006446556437476,90884,456981,92135
10224.720689655172,-0.003171169603166304,91684,456060,92256
750216.8827586207,-0.012052109336226049,91569,456412,92019
62627.7,-0.020743852400049695,122482,430833,86685
654037.5241379311,-0.009403171532336878,91806,455717,92477
2322174.227586207,0.0008044169383429806,91101,457173,91726
49031.855172413794,-0.013324169082320604,91531,456135,92334
248808.775862069,-0.015736317598627283,91603,455881,92516
21885.596551724135,-0.006948572962080316,91502,456448,92050
69168.08275862069,-0.017776707763192966,91792,456111,92097
408476.9103448276,-0.011350271614496841,91384,455939,92677
532680.3448275862,-0.013989704851183872,92099,455892,92009
195135.46896551724,-0.008958114301992223,91668,456010,92322
404054.6448275862,-0.013773481472351082,91087,456901,92012
44504.72758620689,-0.014883211105203993,91171,456416,92413
499068.5310344827,-0.009735456710260649,91236,456655,92109
50753.33103448276,-0.014251404054262572,91419,456385,92196
474856.47586206894,-0.020169559427024603,90924,456893,92183
459136.0999999999,-0.007242957248747011,91827,455324,92849
1377465.1827586207,-0.006325918983449431,91136,456605,92259
1347456.3827586207,-0.008601970083240476,91354,456588,92058
1318902.94137931,-0.005756326315397981,90951,456966,92083
565204.4793103448,-0.007814223007272166,90897,457046,92057
61574.52068965517,-0.02095315247923897,91723,456615,91662
741606.4068965517,-0.008656071192471354,91212,456354,92434
533291.9172413793,-0.00537982233658702,91363,456429,92208
446459.63103448274,-0.0002396327109910972,91200,456412,92388
451752.8068965517,-0.006377142183000802,92167,454618,93215
605480.1793103449,-0.011135202890949436,91421,456533,92046
303739.9379310345,-0.01691005898987959,91209,456808,91983
703690.9689655172,-0.01016739454885316,91486,455841,92673
1857437.0999999996,0.0016653139684883068,92380,454811,92809
328626.39310344827,-0.00412501291984457,92328,454678,92994
1206719.344827586,-0.004942405734810391,91370,456900,91730
155151.23448275862,-0.018608033615945475,91819,455728,92453
25487.737931034484,-0.01137366893031546,91750,456753,91497
460135.06551724137,-0.00999376901143795,91717,456056,92227
622142.1482758621,-0.000224320048626945,91591,456018,92391
387186.71034482756,-0.012348125723557058,91441,455923,92636
770313.9724137931,-0.006987099597814586,91849,455730,92421
186643.48965517245,-0.008894148752978509,92133,455105,92762
1935947.765517241,0.008625672513676512,92001,455607,92392
1153033.2551724138,-0.012604201813071167,91414,456804,91782
478012.5413793103,0.0027296095483672106,91552,455378,93070
582433.8999999999,-0.015731270746105076,91286,456096,92618
1026937.0586206897,-0.005644032550569579,91688,455957,92355
608123.3517241378,-0.015689083008310255,92026,455447,92527
690186.1137931035,-0.004325218437233088,91629,456114,92257
362542.66896551725,-0.007206849510936406,91520,455962,92518
53277.0448275862,-0.014452877690321612,91477,456388,92135
63265.675862068965,-0.01992450309651417,93095,455180,91725
2230147.6724137934,0.010713138235827866,91401,456351,92248
1442709.375862069,-0.0006548217640904247,91355,456937,91708
478978.71034482756,-0.004721283661296736,91988,455643,92369
49132.3,-0.015769977745424685,91785,456024,92191
68970.30689655173,-0.018094064174915388,90992,457448,91560
300795.2448275862,-0.01741055989492396,91503,456360,92137
806131.7344827584,-0.009710899168353687,91894,455832,92274
1142294.8965517243,-0.006661725510586181,91847,455650,92503
34245.979310344825,-0.010307655169031172,91748,455952,92300
534886.2793103447,-0.007591754755193295,91827,455786,92387
348175.6034482759,-0.0093129400530422,92168,455082,92750
919731.0620689655,-0.000659757970769037,91475,456506,92019
60365.837931034475,-0.018642849615386987,91458,456427,92115
32879.362068965514,-0.011957295761609213,91323,456030,92647
820932.0689655172,-0.0091603285096006,91121,456578,92301
586126.7310344827,-0.010707593478641383,91258,456661,92081
742176.5034482758,-0.013128016736360108,91622,456035,92343
464340.45862068963,-0.004031916597992331,91816,455575,92609
2366488.0517241377,0.012065268010793962,91925,456022,92053
186181.06896551728,-0.007666047280899284,91617,455914,92469
87823.60344827586,-0.02710705664867687,92042,456159,91799
1069189.0482758621,-0.012266321717379078,92103,455713,92184
608139.4034482759,-0.015341968122366744,92097,455868,92035
17391.189655172413,-0.007721936765387292,107923,442846,89231
759581.7172413793,-0.006321380916884732,91552,456353,92095
70966.04137931034,-0.012266782104239697,91541,455966,92493
38250.279310344835,-0.017964222103484525,92080,455382,92538
462449.74137931026,-0.002998693944028148,92039,455678,92283
505190.7517241378,-0.006297790560448102,91132,456263,92605
701307.5,-0.016767071656920263,91590,456231,92179
253163.38965517242,-0.019518264973913336,91400,456930,91670
1014586.8310344827,-0.005719802466712549,91288,456553,92159
358908.9172413793,-0.006769236480436672,91581,456106,92313
550086.4137931033,-0.013102291544118978,91636,456926,91438
929919.6793103446,-0.007951681984550724,91609,456193,92198
871948.1448275861,-0.00901029385942357,91921,456463,91616
72369.28620689653,-0.01999520935040816,91537,456275,92188
991845.4034482759,-0.0017289970950935913,91442,456150,92408
758335.5724137931,-0.008661223866609277,91663,456077,92260
566344.2793103447,-0.005633077280915456,91223,456830,91947
399394.6275862069,-0.001705404766635257,91841,456119,92040
221802.72758620686,-0.01365313926021077,91082,456797,92121
209012.57586206892,-0.015923324367894343,91831,455359,92810
1071300.7896551725,-0.004016173337242616,91621,455999,92380
1034533.9344827586,-0.006457720273129777,91654,455995,92351
536562.8896551725,2.862625261360334e-07,91814,456207,91979
47810.76551724138,-0.015083965638532494,92047,455195,92758
54422.52413793103,-0.012308250360832225,91471,456307,92222
391470.36896551726,0.00228787550135997,92280,454649,93071
33607.95862068965,-0.010892165448186601,98109,451192,90699
24767.586206896547,-0.007805039595284314,91753,456059,92188
302397.01379310346,-0.007649436723020623,91381,456287,92332
1737446.9689655174,-0.0021429666393730454,91090,456801,92109
855796.172413793,-0.014343106988317946,92087,455297,92616
376235.27931034483,-0.013606303236799478,91732,455943,92325
1042800.9137931035,-0.011949774164663593,91220,456545,92235
36981.644827586206,-0.01655559571170887,91407,456557,92036
304006.1103448276,-0.009739033811531999,92234,454970,92796
1004364.7241379309,-0.011132714477547915,91515,456416,92069
132852.66551724137,-0.012116194601185617,92005,455634,92361
442950.55517241376,-0.002182436115065288,91530,455120,93350
424648.8,-0.011624967363328194,91766,455946,92288
594451.648275862,-0.014529432417576196,90993,456293,92714
967491.3448275862,-0.010293344680679654,91509,456671,91820
1667624.2103448275,0.001544207175310999,91591,456431,91978
935076.4896551725,-0.009246552344473552,91997,455182,92821
966247.6689655171,-0.0012332360742772913,90887,456719,92394
951055.0310344826,-0.007818156327691006,91701,456418,91881
775032.0931034484,-0.013104904895128196,91289,456140,92571
1425813.696551724,-0.0020801631410069595,91372,456386,92242
407637.0517241379,-0.004161504044215505,91661,455586,92753
616189.048275862,-0.010229983628450942,91536,456059,92405
642710.5482758621,-0.012617790960745159,91390,456615,91995
474011.21034482756,-0.016177350006797837,91619,455148,93233
26832.79655172414,-0.006349005112651374,91214,456317,92469
548463.4758620688,-0.007049433307251148,91769,455523,92708
627479.2344827586,-0.008186365206303692,91152,456969,91879
0.0,0.0,640000,0,0
693586.8310344827,-0.012058861918090562,91555,456222,92223
379591.71724137926,-0.0123927696259717,91459,456375,92166
609929.4551724137,-0.007564626258836651,91242,457154,91604
460471.7896551724,-0.0006195347062582486,91438,456230,92332
1218717.1999999997,-0.009989662002983827,91164,457314,91522
622936.0551724137,-0.014552622229539474,91740,455578,92682
475282.348275862,-0.013760884415137363,92255,455383,92362
445766.46206896554,-0.006568846302404263,91611,455892,92497
673028.2241379311,-0.011045742023330205,91595,455111,93294
517891.6344827586,-0.01491103568010139,91233,456816,91951
712144.624137931,-0.014463305387880416,91420,456248,92332
1109561.7034482756,-0.009872489224410964,91320,456810,91870
1004801.9586206895,-0.009005252695079275,91764,455979,92257
25813.527586206896,-0.012303005355256127,91766,455855,92379
710262.0551724138,-0.0003350278357814385,91685,455852,92463
1268940.1517241378,-0.002703335473298643,91535,456409,92056
495732.9931034482,-0.00786146602316979,91712,456081,92207
554623.9275862067,-0.0045167542384313055,91567,456010,92423
2109752.0068965517,-6.6648242765286e-05,91350,456142,92508
572508.9655172414,-0.007928160544443775,91690,455739,92571
36937.63103448276,-0.014082819619211318,167983,393115,78902
964750.2103448275,-0.004603695757554609,91249,456727,92024
16493.1724137931,-0.01026064079123994,92480,454843,92677
442681.08620689646,-0.01525244117133618,92320,455127,92553
475327.8586206896,-0.014264417897334566,91181,456698,92121
512893.02413793094,-0.013834818599312518,91719,455872,92409
595446.948275862,-0.013710247297052232,91720,456071,92209
53871.34827586207,-0.017695338334650635,91118,457166,91716
901319.2862068966,-0.0038391376141161345,91777,456088,92135
986307.920689655,-0.00236764567374638,91224,456253,92523
708236.0586206897,-0.008427717826461243,91334,456852,91814
850418.5,-0.006867303496082767,91701,456109,92190
1637274.1793103449,-0.004322065382887482,91926,455795,92279
48692.30689655172,-0.017268905848285845,91830,456219,91951
1096542.2896551723,-0.011648853920214029,91849,455790,92361
1074457.8586206895,-0.010518557765920818,91673,456004,92323
358341.4620689654,-0.005556520712666433,91562,456284,92154
1210571.9034482758,-0.011957868938414983,91662,456426,91912
1098588.875862069,-0.006217464516873554,91461,456332,92207
702246.1551724139,-0.0034485290507800547,91463,455857,92680
463936.77931034483,-0.007045588659500809,91453,456138,92409
1277058.0275862068,-0.0010838149089782922,91375,456565,92060
1083703.251724138,-0.005398601481346943,91774,455307,92919
452763.4931034483,-0.018296107851375722,91608,455711,92681
39790.97586206897,-0.0136916714329639,91144,456504,92352
73737.5620689655,-0.015922094313795,91529,456296,92175
1047790.6275862068,-0.015069809097596178,91674,456497,91829
67543.55172413793,-0.020700093352036084,91211,457069,91720
379256.7896551724,-0.011672680595283149,91509,456278,92213
36528.048275862064,-0.010357741593817893,91747,456073,92180
329771.1827586207,-0.00881596493369237,91493,455955,92552
612840.0689655172,-0.002766776112864732,92458,454421,93121
1153958.4275862067,-0.011645147207690108,91539,456316,92145
25328.189655172413,-0.009231560502055727,91924,455778,92298
471496.7827586207,-0.014328235129514099,91294,456194,92512
21420.872413793102,-0.013322118971819655,91557,455026,93417
486982.3448275862,-0.01080635253243718,91928,456034,92038
541835.6586206896,-0.011593434133421553,91177,456911,91912
11307.08620689655,-0.007411581017473646,92027,456562,91411
667878.5068965517,-0.0007592265697361578,91931,455155,92914
1323191.7896551725,-0.009113996072820783,91462,456539,91999
48362.71379310344,-0.01358899154009427,91750,455605,92645
855908.2103448274,-0.006053414162912605,91631,456208,92161
42179.2,-0.016542449225049997,91736,456284,91980
1024371.2103448275,-0.00704972014047395,91965,455461,92574
47875.07241379311,-0.017465112504889427,91722,456147,92131
1584991.6620689654,-0.004015737816874623,91893,455584,92523
640970.0896551723,-0.007454913491823861,91826,455651,92523
84679.35517241381,-0.021937067135290478,91662,456425,91913
53785.56206896552,-0.020008631074808228,448517,160169,31314
773482.9965517242,-0.007430153052018988,91255,456836,91909
638214.9793103449,-0.01632472682682576,91491,456229,92280
828875.675862069,-0.012558121738603488,91795,456373,91832
578848.0931034482,-0.012937319288235776,91697,456042,92261
703183.4448275862,-0.013711278200139263,91750,456504,91746
854679.0827586206,-0.0038875952913433047,91726,455804,92470
1647885.1827586205,0.0031511578581170704,91786,455225,92989
14152.572413793103,-0.007785563928191107,195844,370512,73644
562746.1344827586,-0.015729322331584958,91821,455756,92423
162314.60689655173,-0.013502497365331295,91890,455571,92539
655404.5931034483,-0.006207646098282501,91324,456444,92232
1294987.8206896551,0.0021322704607895666,91536,456271,92193
1138443.972413793,-0.004470647494571468,91172,456463,92365
524587.7448275862,-0.008595619877420586,91434,455749,92817
287573.7655172413,-0.008375037940333644,91778,455748,92474
571855.5758620689,-0.013605698399489915,91774,456623,91603
908187.2,-0.005415788612423217,90865,456701,92434
941940.5413793102,-0.01054125795069853,91683,455954,92363
700639.9068965518,-0.010566636097977642,91726,455479,92795
697897.6344827586,-0.015885202803344822,91605,456226,92169
29163.213793103445,-0.017213363413923117,91594,456336,92070
554477.1758620688,-0.01967380922549296,91930,455492,92578
21912.513793103448,-0.007868928618000988,91810,455965,92225
543964.9275862068,-0.006345287576587371,91492,456003,92505
964725.1896551724,-0.011841318342341992,91582,456315,92103
2198890.2827586206,0.002280682565604801,90932,456845,92223
782056.8,0.0009069412013897982,91170,457185,91645
2330240.1310344827,0.0026060323282702576,91230,456851,91919
556906.848275862,-0.008639415985978961,91506,456154,92340
1102699.7379310345,-0.01313452221043575,91972,455519,92509
759031.7172413794,-0.012124352262896902,91440,456496,92064
430426.01034482755,-0.0014467354382484887,91175,456634,92191
883058.848275862,-0.012434355884551579,90643,457263,92094
578870.8862068965,-0.015164912129260072,91360,456550,92090
331731.21379310347,-0.0170036449128802,91333,456455,92212
431095.7620689655,-0.011014575249884978,91878,455087,93035
356961.4655172414,-0.008685360165975564,91570,455904,92526
1079330.6620689654,-0.005836704372924377,91575,456380,92045
514014.1827586206,-0.013273459714033986,91418,456185,92397
228595.06551724134,-0.007868033231272923,90632,457721,91647
58938.10689655172,-0.01621605025592968,91056,457100,91844
476673.3103448275,-0.01314230951103913,91354,456531,92115
1613176.172413793,-0.010357850228979561,91988,455596,92416
1208850.1068965518,-0.010009819817363284,91359,456380,92261
1449409.2620689655,-0.007793146425513329,91431,456714,91855
697598.779310345,-0.014984173686740022,91299,456812,91889
24798.78275862069,-0.015746052430353794,91785,456053,92162
714308.7241379311,-0.010250155417388098,91808,455525,92667
509086.0931034483,-0.014895986416521973,91565,456109,92326
186986.30000000002,-0.004009933800279626,91659,455619,92722
540925.8931034482,-0.005778499875084304,91773,455661,92566
38463.93793103448,-0.01591023073428474,91477,456474,92049
550159.6724137929,-0.006451836875182931,91870,455983,92147
584802.2689655172,-0.0073351995125489,91386,456112,92502
1479292.9413793106,-0.010723712150239642,91761,455471,92768
1056231.103448276,-0.010120978915096394,91227,456724,92049
241159.39655172412,-0.00303638635607312,91703,455785,92512
18668.758620689656,-0.008378713624583168,92254,455400,92346
860486.9793103448,-0.009144243375124613,91466,456094,92440
557101.7137931034,-0.006064325572930432,91683,455648,92669
1185452.9344827586,0.003676476299423228,91134,456671,92195
759137.1103448275,-0.014511355277797669,91182,456470,92348
275712.4103448276,-0.013821283566059783,91647,456149,92204
936986.1586206895,-0.006740092276775845,91352,456204,92444
560616.3103448275,-0.015147844553829722,90729,456920,92351
61549.16551724138,-0.019954169218119676,91443,456467,92090
1052382.227586207,-0.007501108094143434,91384,456780,91836
4383.179310344828,-0.003239344850192003,103678,446810,89512
407049.03793103446,-0.011557128826185963,91556,456358,92086
702783.1413793103,-0.014466706688626766,91570,456080,92350
576440.9896551723,-0.011975982084565675,91825,455900,92275
290157.7379310345,-0.0073789667161318455,91038,456665,92297
1061885.8551724136,0.002090320394495525,91449,456711,91840
443208.5758620689,-0.011301420244132497,91809,455754,92437
45519.73103448276,-0.010924202121361071,91534,456017,92449
1236928.6862068966,-0.01801597912688283,92041,455576,92383
53102.51034482759,-0.01921161040668933,91550,456479,91971
917405.5551724138,-0.008324117947196435,91618,456250,92132
556055.9931034483,-0.015160581769402572,91492,456401,92107
32609.38965517241,-0.012120263304830169,91421,456242,92337
26607.989655172412,-0.014421240510299459,91731,456094,92175
69519.73448275862,-0.02192199093198115,91300,457255,91445
1472775.2137931034,-0.00472365011633086,91899,456276,91825
47881.27241379311,-0.019531280190274405,91337,456268,92395
646406.2965517242,-0.017463897804804975,92069,455337,92594
914511.9310344827,-0.014769031174047403,91533,456103,92364
416548.9689655172,-0.01090604824908406,91550,455971,92479
1027244.6068965517,-0.004858801161599216,92065,455856,92079
931211.3655172413,-0.0007683629554403051,91201,456622,92177
792424.5448275862,-0.004023783571230791,91513,456158,92329
847525.8931034481,-0.011888316396583665,91039,457227,91734
672336.9931034483,-0.009134702283723713,92125,455118,92757
30394.993103448272,-0.012890398819789652,333882,256193,49925
732546.3034482759,-0.015308676040958286,91539,456116,92345
52313.1551724138,-0.01491423379755463,91753,455579,92668
1010163.1172413791,-0.006472697403097723,91546,456015,92439
352512.8724137931,-0.007424138872727856,91935,455532,92533
813631.1862068966,-0.014746296113511723,91576,455704,92720
1236303.4379310342,-0.00813883223385971,90979,457107,91914
390031.6,-0.0073767879522075985,91700,455278,93022
409188.8,-0.016690854947250356,91633,456829,91538
925141.1068965514,-0.002960789008194333,92017,456065,91918
545746.1379310344,-0.01166807684714622,91230,456223,92547
1737564.1448275861,-0.0001325093565430793,92075,455523,92402
806709.824137931,-0.0005250369745852144,91565,456167,92268
1016480.1517241378,-0.009581556736008868,91868,456374,91758
60219.88965517241,-0.022071250713380716,91661,455816,92523
51685.01724137931,-0.013018901457198794,91503,455688,92809
743535.6827586207,-0.005906201303330884,91965,455032,93003
597137.7448275862,-0.004855180945389585,91240,455891,92869
373734.4103448276,-0.006320552111724588,91859,455370,92771
18237.972413793104,-0.013122116160836297,113857,438115,88028
1352342.8620689653,0.003155949273523019,91787,456395,91818
637640.4482758621,-0.006558262386081812,91650,455745,92605
366083.1827586207,-0.010336711682333796,91710,455712,92578
503213.3586206896,-0.02294637493803037,91164,456692,92144
24389.293103448275,-0.009508234866226208,91202,456229,92569
13698.46896551724,-0.006295098472278666,95860,452373,91767
455419.3068965517,-0.010968762870549088,91698,456376,91926
70821.8620689655,-0.007869046185067471,91267,456906,91827
39023.5448275862,-0.01101892730016335,91950,455269,92781
36054.11724137931,-0.008091782485340598,91842,455760,92398
702586.1068965517,-0.0026629499682882074,91826,456418,91756
13377.275862068964,-0.006573022637374111,202228,365393,72379
525728.7896551723,-0.007218650605890462,90923,457109,91968
1246711.0517241377,-0.0031742593147685923,91417,456154,92429
49367.096551724135,-0.01914754847659257,91621,456422,91957
29010.45172413793,-0.007688464868494528,381391,216230,42379
372686.5206896551,-0.012461547860415364,91648,456216,92136
513522.39655172406,-0.010457174967126986,90727,456959,92314
34591.78620689655,-0.010895744703238121,91154,456471,92375
36522.47586206896,-0.013288310738554571,91330,456392,92278
53607.85862068966,-0.01708018305490524,91644,455661,92695
594098.7137931035,-0.0028089647006859252,91414,456632,91954
30739.068965517243,-0.010604535259796436,91674,455773,92553
311328.9379310345,-0.0012351946049118305,92111,455578,92311
443185.92413793097,-0.01152970563880944,91695,456103,92202
239097.3551724138,-0.01624083824549367,91214,456481,92305
489283.82758620684,-0.012985832670860039,91641,455833,92526
411772.82068965514,-0.004818971660858968,92041,455368,92591
735473.9965517242,-0.010747908156706672,91803,456063,92134
1185951.8517241378,-0.011685123264949158,91415,456333,92252
66834.69310344828,-0.018309830948730125,91864,456216,91920
1490944.9896551725,-0.0020425334113966217,91645,456486,91869
360989.1068965517,-0.01884866967681805,91261,456975,91764
524015.4862068965,-0.010370034631169768,91295,456781,91924
455877.7620689655,-0.006259491478329589,91103,456843,92054
972607.2517241378,-0.0068099801486781585,91743,456514,91743
16255.537931034482,-0.006079522998275741,91618,456696,91686
596871.8379310344,-0.014599514423399127,91357,456672,91971
45714.68275862069,-0.016619573325978083,91314,456389,92297
470527.5758620689,-0.011035393512873897,91724,455892,92384
434694.8517241379,-0.007453740807391858,91597,455864,92539
937016.4689655171,-0.00042263353612263164,91857,455688,92455
1259787.6103448276,0.0009344766719749438,91531,456279,92190
966790.7103448275,-0.00624120266884704,91229,456492,92279
22780.734482758617,-0.00956815227331128,91431,455922,92647
480126.73448275856,-0.006092365005204976,91428,456401,92171
1956634.1620689654,8.321941587095111e-05,91687,456548,91765
685844.9034482759,-0.011087738225413046,91373,456683,91944
613201.5620689655,-0.006237915373952428,91573,456476,91951
962135.4275862068,-0.0016818293751312621,91433,456002,92565
13805.024137931034,-0.006404973653433788,93832,453863,92305
45849.22413793103,-0.010057519675325336,91726,456150,92124
1052150.524137931,-0.005342906557432355,91136,457000,91864
415660.0206896551,-0.017237667985169396,92351,454652,92997
124726.89655172414,-0.0010486788581367925,91637,456176,92187
33390.55517241379,-0.011055414265925117,91355,456258,92387
40805.01379310344,-0.015123394395487075,90947,457238,91815
1327472.2241379311,0.007936884869729103,91764,455974,92262
672269.5482758621,-0.01861183686977953,92190,454679,93131
1070479.3862068967,-0.0045430075611953705,91440,455746,92814
766768.2655172414,-0.006404320762845791,91411,455674,92915
977115.7379310343,-0.008072578663997331,91713,456057,92230
1073707.096551724,-0.007743038668716364,91947,455495,92558
1406494.744827586,-3.751748958509321e-05,91143,456445,92412
1038948.4413793103,-0.006805406266154412,91111,456717,92172
604261.9034482759,-0.008873011207149253,91238,456355,92407
2071442.8172413793,-0.0006367233271706296,91621,455848,92531
178247.08275862067,-0.005880879941463367,91461,456719,91820
755097.8620689656,-0.010439584406452459,91886,456115,91999
32516.058620689655,-0.010048080771120939,91214,456997,91789
1675385.589655172,-0.0032580757295528786,91157,456482,92361
47092.503448275864,-0.01616179162046484,91207,456260,92533
399934.8931034482,-0.006977391289528787,91811,455697,92492
630695.2931034482,-0.000165859258837241,91754,455790,92456
1213622.8137931032,-0.00903484313709916,91570,456201,92229
70044.90689655172,-0.01157843463565938,90855,457243,91902
862162.7793103447,-0.012306975297664141,91643,455856,92501
513135.85517241375,-0.014637832995769796,91723,455667,92610
1611067.872413793,-0.0076180103016513555,91085,457124,91791
442751.0275862069,-0.007346367817242721,92040,455366,92594
1665314.772413793,-0.005524657160052967,91419,456414,92167
28969.527586206892,-0.014398399068196026,90997,457183,91820
29931.641379310342,-0.011340549958813633,91240,457242,91518
1316146.8344827588,-0.003115358676091278,91250,456570,92180
15239.048275862067,-0.006279974155417235,92020,456623,91357
65646.33103448276,-0.020624644090369293,92016,456315,91669
1036716.4586206896,-0.008367210554930343,91916,456049,92035
895383.5413793103,-0.004761840734112617,91368,456717,91915
909835.2586206897,-0.005294150690483366,91168,456379,92453
47468.910344827586,-0.014513937108410714,91732,456103,92165
23552.089655172414,-0.008978938560985677,91587,456196,92217
1102014.4,-0.00443346495292438,91437,456639,91924
538203.3689655171,-0.009460330107680357,91855,455692,92453
937506.9310344827,-0.00707409111504063,91202,456639,92159
364589.4103448275,-0.006764514072127378,91367,456221,92412
375376.3310344827,-0.01691711738824677,91487,455971,92542
290326.4206896551,-0.017846972442744347,91688,455211,93101
52888.14827586206,-0.01944927019301767,127456,426719,85825
636960.8862068965,-0.007096948309182041,91905,455531,92564
557666.2344827587,-0.0158656543341086,91332,456511,92157
53140.14827586207,-0.017216151970694073,91713,456131,92156
36562.441379310345,-0.016191882257010078,91670,456590,91740
1389371.948275862,-0.011887141781405675,91865,455839,92296
39957.33448275862,-0.013115186462654714,91836,455694,92470
21893.989655172416,-0.006351129669137502,91438,456195,92367
1526927.3586206895,-0.008759737409580193,91535,455901,92564
1094538.9655172415,-0.005296048208810885,91897,455968,92135
622699.7586206896,-0.011717434791472874,91086,456815,92099
244470.3206896552,-0.004478677428615373,91238,456581,92181
625147.051724138,-0.014710723786827475,91078,456675,92247
8002.075862068967,-0.0051253257619355225,147515,410312,82173
218912.60000000003,-0.0004506915624792654,91587,455976,92437
65551.4448275862,-0.015355426032793796,91717,456124,92159
13575.45172413793,-0.009990384494762075,91466,456366,92168
447124.81034482754,-0.012845557547197094,91850,455964,92186
409032.05862068967,-0.009089479928161552,90915,456652,92433
504890.5206896551,-0.0018697412169824006,91436,456021,92543
1592615.2344827587,-0.001600226014363047,91514,455944,92542
966526.7793103447,-0.008054384632802189,91357,456636,92007
38042.94482758621,-0.012754307975970812,91615,456004,92381
1220051.317241379,-0.007640557394399841,91644,456753,91603
496206.8827586206,-0.014050420367264286,91119,456188,92693
23502.206896551725,-0.009926886646430695,327221,261291,51488
508825.4137931034,-0.006167707674799992,91725,456256,92019
13855.272413793102,-0.006364464183530729,640000,0,0
209246.30344827584,-0.02093076354708769,91183,456689,92128
1276817.227586207,-0.011519560378144682,91356,456206,92438
19751.38275862069,-0.008077214457517773,91391,456587,92022
559871.3862068965,-0.014621291621794546,91640,455946,92414
895607.7655172412,4.51629862955975e-05,91237,456506,92257
1466649.3034482757,-0.005026337406490748,91343,457411,91246
312848.22068965517,-0.007976404983389628,91463,456549,91988
38503.83448275862,-0.01386294610889726,236317,336751,66932
67927.51379310344,-0.01520102650164244,91370,456417,92213
54712.75862068965,-0.012853056341023374,91264,456350,92386
35373.534482758616,-0.012006325614380997,91308,456505,92187
675744.3793103448,-0.0021731757201952123,91508,456633,91859
805550.9862068964,-0.008600540193731862,91327,456261,92412
497847.3068965516,-0.008800027702230309,91868,455863,92269
585931.096551724,-0.007172350899987718,91696,455602,92702
54234.206896551725,-0.012385715170031581,91818,455925,92257
909067.5344827585,-0.005194772046252875,91699,455957,92344
569860.1862068966,-0.007478471868572531,91348,456595,92057
256264.26206896553,-0.005897500631063419,91520,456134,92346
34677.6,-0.011485760374990132,91393,456287,92320
661204.4137931035,-0.00853435264044073,91760,455777,92463
491099.9379310345,-0.011959340327602158,91212,456623,92165
992116.5379310343,-0.007381782824510219,91457,455622,92921
857532.6999999998,-0.005470818928801149,91476,455938,92586
535729.4620689654,-0.012004804035677717,91284,456583,92133
931904.0275862069,-0.0012315125373990508,92051,456245,91704
26547.85172413793,-0.00856610805226266,108498,442475,89027
41057.69310344828,-0.018375639149852158,440815,166445,32740
1390999.9620689654,-0.01274214908702333,90937,457154,91909
395997.6275862068,-0.010896316403842287,91633,455936,92431
19910.489655172412,-0.006653248554758599,91395,456564,92041
1820619.0827586204,0.0010040655331787578,91450,456524,92026
1168489.8034482757,-0.0082760194949817,91522,456639,91839
705326.4206896551,-0.0032695977582391706,91542,456267,92191
1026150.6517241378,-0.0034203153704751,91486,456136,92378
1526550.9206896552,-0.003551114614430076,91469,456730,91801
1038559.5689655171,-0.010885001328218616,91748,455695,92557
500766.6896551723,-0.010009972613434651,91618,456046,92336
27020.124137931034,-0.008514052034487171,94078,454269,91653
37356.04827586207,-0.008215280125005851,91439,455973,92588
685136.3827586207,-0.01141556758594642,91260,456350,92390
20448.793103448275,-0.010431308921387005,91750,456024,92226
884904.3586206897,-0.0009939531356502368,91580,456363,92057
817972.1448275861,-0.000683820878367703,91299,456590,92111
315468.46551724133,-0.004791643802260417,91402,456666,91932
885049.4758620689,0.00011558805366234032,91576,456328,92096
171462.74137931035,-0.010773660182177132,91488,456263,92249
1593796.5137931034,-0.00038399473539864424,90871,457098,92031
1220260.5310344826,-0.012916763957520346,91273,456491,92236
77463.87586206896,-0.01671483570223468,91586,456390,92024
963878.324137931,-0.008066741277689039,91270,456943,91787
39954.62413793104,-0.016951408306797366,91593,456678,91729
1166784.7310344828,-0.010053169751804755,90946,456746,92308
954951.3413793102,0.0002943970501597175,91293,456584,92123
938622.7758620689,-0.0059463752707863814,91786,456255,91959
37288.30344827587,-0.013131558960664315,92137,455922,91941
36111.24827586207,-0.015115720663290241,96171,452368,91461
1243953.5896551723,-0.0077670473265809324,91554,456233,92213
807042.4862068966,-0.021455981644454208,91938,455431,92631
46059.206896551725,-0.013084938913036899,91416,456629,91955
763727.2586206896,-0.00010468105868890565,91161,456753,92086
17977.010344827584,-0.006489864107236049,91788,456052,92160
39065.66206896552,-0.011178089936562264,91760,455840,92400
780325.648275862,-0.00732200361227772,91238,456392,92370
940200.8896551724,-0.009842788795280109,91305,456393,92302
650286.3620689656,-0.01143193566215363,91685,455424,92891
301410.3172413793,-0.014613012278790577,90767,456820,92413
5903.868965517241,-0.006128313879876704,357629,235863,46508
1283348.6310344827,-0.0017680693311918452,91347,457048,91605
929348.7586206896,0.002738069200048277,91267,456642,92091
2420814.8620689656,0.0072917628847187325,91634,455979,92387
1197431.4,-0.005810782039684392,91014,456762,92224
28207.455172413793,-0.009723888958033628,91450,456112,92438
598135.6068965517,-0.010805914822799143,91614,456619,91767
2025378.575862069,0.0031581868229955965,91347,456332,92321
1047055.3827586207,-0.001568325339614086,91592,456058,92350
916428.1827586206,-0.01111659467269225,91479,456227,92294
582762.6379310344,-0.004056731247226798,91885,455645,92470
1110340.4896551722,-0.007277091535926158,91587,456003,92410
21877.344827586207,-0.011532382221102281,142155,414788,83057
1178741.4931034483,-0.010927968143401308,91741,455873,92386
12537.258620689654,-0.006437987612551578,91437,456436,92127
864008.4448275861,-0.0012845895861299502,91348,456727,91925
12692.62068965517,-0.008134162931673494,158213,401693,80094
1124240.9034482758,-0.007163109471342491,91674,456150,92176
396475.81724137935,-0.012565811599950915,91421,456122,92457
360944.2827586207,-0.011134263108447626,91444,455668,92888
16437.641379310346,-0.010876806343857095,91935,456045,92020
70295.02068965518,-0.019819060875001286,91669,456289,92042
56064.57586206896,-0.01801183242226065,160908,399121,79971
1605249.793103448,0.00086570350444222,91318,456247,92435
707484.324137931,-0.008293763183928717,92023,455596,92381
1718657.948275862,-0.011336370057625365,91786,456138,92076
792520.1689655173,-0.017351802956208157,91450,456183,92367
34506.84137931035,-0.00918868643772798,91668,456611,91721
760897.9241379311,-0.010953353216291133,91555,455638,92807
1392333.4620689657,-0.011522254813794696,91433,456422,92145
594491.5620689655,-0.007129850484286497,91244,456911,91845
956892.5068965517,-0.010428956900352638,91691,456782,91527
461266.55862068955,-0.007696958116692347,91846,455852,92302
8741.696551724137,-0.00799124385376721,91221,456374,92405
37780.2,-0.009891678821595617,91803,456114,92083
1257930.5586206894,-0.0007000313617327878,91264,457203,91533
1155404.5896551723,0.00047625771501033735,91795,455772,92433
1241181.5551724136,0.0047917264146082935,91581,456034,92385
1150516.955172414,-0.006212394641245942,91131,456954,91915
1671473.5275862068,0.002561017283166377,92059,455696,92245
109860.74482758621,-0.013815506524108876,91272,456230,92498
1293961.4137931033,-0.006149607423311748,91729,456015,92256
1786286.0344827585,0.0006453626652601427,91168,456769,92063
49467.282758620684,-0.016728296144301703,91440,457034,91526
1056291.4586206898,-0.0058933627561573235,91361,456329,92310
899324.4206896551,-0.013366331583419287,91488,456088,92424
589802.2551724138,-0.013640960912508823,91368,455768,92864
838896.3379310344,-0.011829241614942662,91597,456366,92037
347229.15172413795,-0.005479897052675038,91100,456559,92341
434510.2689655172,-0.0057155357445670095,91177,456426,92397
590297.5137931034,-0.010162061714292493,92475,455137,92388
247315.65517241383,-0.017749746259482214,91690,455944,92366
1001752.0103448275,-0.0027251997816706884,91126,456383,92491
129929.69655172413,-0.02018416775554098,91219,456120,92661
580230.9931034482,-0.009309613269442522,91858,455613,92529
421722.65172413795,-0.0048358386827925875,91758,455573,92669
22604.731034482757,-0.009892582364927975,92089,455844,92067
955304.3275862068,-0.006442441467634011,91616,456236,92148
530264.5206896551,-0.008192943378962795,91949,455824,92227
191628.62758620692,-0.01226378518849203,91614,456597,91789
569478.748275862,-0.017585995905135352,92025,455738,92237
53841.97586206897,-0.013612572454907865,91381,456616,92003
553612.451724138,-0.005819584744509346,92219,454836,92945
40045.66896551724,-0.01773698807628715,92448,455222,92330
512067.02413793106,-0.010403712561455919,91563,455854,92583
534123.0758620689,-0.006248890918492763,91679,456178,92143
433813.6827586207,-0.0031356869913890064,91318,456252,92430
233959.3620689655,-0.005975829695761873,91692,456407,91901
66553.77241379309,-0.015193412832743608,91206,456695,92099
12280.496551724136,-0.00886839856871902,91789,456297,91914
381877.66206896555,-0.002014029322873115,91683,455488,92829
757777.5862068967,-0.003703732615279138,91722,455516,92762
540239.4724137931,0.0030903411758252176,92361,455556,92083
536067.1206896552,-0.014134132448395162,91732,455484,92784
37762.472413793104,-0.015495143664136414,92034,455939,92027
1425856.8896551724,0.0011512961707217167,91374,456290,92336
1518996.375862069,6.181309399301998e-05,91777,456622,91601
2178481.44137931,-0.003405343569220915,91651,456049,92300
71183.54482758621,-0.02300305930460561,91845,456372,91783
1455462.4344827584,0.004835413187663941,91505,455911,92584
103729.59999999999,-0.009601963184502085,91426,456229,92345
621792.9896551723,-0.011529016869827727,91824,456381,91795
250694.5,-0.01883663949307247,91721,455792,92487
543239.3275862068,-0.015376242534175575,91182,456645,92173
18019.489655172412,-0.007328137449173049,232543,339901,67556
59208.52413793103,-0.015943407658359207,92055,455880,92065
560796.1620689656,-0.006046771073597174,91302,457310,91388
2584768.6275862064,0.008326872552801694,91616,456198,92186
32177.255172413796,-0.01619384791839055,91007,456162,92831
467004.82758620696,-0.008608880238847564,91597,455914,92489
938755.0551724138,-0.0035928095396496372,91430,456470,92100
546971.9517241378,-0.008030870818515693,91586,456284,92130
1421305.8827586207,-0.003979050669005984,91328,456271,92401
979770.8413793105,-0.006694279778704455,91075,456725,92200
297948.3965517242,-0.0055025130708264754,91869,455316,92815
732450.3413793104,-0.0079280396523633,91968,455715,92317
410803.2310344827,-0.013675909644925273,91618,456567,91815
610697.2931034481,-0.0024043178770416338,91112,456505,92383
649260.3793103448,-0.008443183529682563,91596,456452,91952
24951.78620689655,-0.01006333322093049,91183,456755,92062
297465.65172413795,-0.011282374072041305,91908,455543,92549
316147.2551724138,-0.00568733929254358,91790,455707,92503
32013.21034482758,-0.011224865110167803,118621,434005,87374
528503.6137931033,-0.009433533949287318,91684,455146,93170
899493.444827586,-0.005566492222119214,91465,456381,92154
1081628.9103448275,-0.0011841486652837568,91313,456856,91831
753444.1827586207,-0.0070412023549538474,91602,455765,92633
588618.3103448276,-0.004123384246593825,91526,456063,92411
723304.5620689655,-0.004032689308569181,91663,455914,92423
28177.120689655174,-0.006597560970378096,91999,455951,92050
580089.5310344826,-0.010640519301279447,92060,455874,92066
556671.824137931,-0.006068140220655325,91966,454936,93098
1139458.9620689654,-0.013492858419139893,91267,456909,91824
497040.95517241384,-0.006686982303318699,92439,455350,92211
1692131.4,-0.012018491049921169,92308,455471,92221
899983.1172413792,-0.011221327408503897,91249,456743,92008
895185.8931034482,-0.004490611497608495,91005,457400,91595
40663.15172413793,-0.0136532569104997,91569,455732,92699
27313.337931034483,-0.009713836127904597,140657,416085,83258
579749.2655172413,-0.0011921360769071325,91134,456749,92117
678778.4344827586,-0.010476902640431914,91753,455583,92664
654440.0379310345,-0.00455455707264985,91292,456273,92435
259690.6655172414,-0.012352477798215179,91707,455746,92547
51687.334482758626,-0.028507167221276688,91741,456165,92094
26479.53103448276,-0.009650584841458263,207113,361081,71806
39492.0551724138,-0.013764057812077764,91099,456808,92093
1213455.1827586207,0.0076467747991559275,91891,456417,91692
57203.42068965518,-0.017297184989473014,91962,455511,92527
739958.5310344828,-0.011857958446222443,92006,455190,92804
659734.224137931,-0.010227664747571977,91230,456391,92379
42184.03448275862,-0.010454961783094588,92801,455170,92029
16277.993103448276,-0.004692004082879149,91733,455922,92345
731299.7448275861,-0.0005571241099128076,91016,456758,92226
600528.3689655173,-0.002187593843359475,91763,456019,92218
432594.2758620689,-0.009742933057184324,92152,454817,93031
567728.0551724137,-0.01092559092374609,91800,456281,91919
1777785.0379310346,-0.006813380840444673,91354,456088,92558
759121.8103448277,-0.011488411944441999,91726,455621,92653
941215.1620689655,-0.009423182727340936,91471,456595,91934
1187572.4896551725,-0.010934614564623107,91473,456479,92048
448794.4413793103,-0.009856381980299101,91695,455884,92421
254302.90344827587,-0.009054602472215076,91963,456191,91846
32113.41724137931,-0.008889230695946706,91806,455856,92338
388944.4034482759,-0.0046490969083188205,91217,456363,92420
29930.441379310345,-0.015256486329660843,91113,457008,91879
250351.6482758621,-0.005584446491186744,91207,456320,92473
299575.2103448276,-0.007086019401312837,91311,456214,92475
454836.2827586207,-0.009185701983844736,91004,456897,92099
566471.8551724138,-0.005724782011974746,91357,456944,91699
1011802.2275862069,-0.007674659161993648,91685,455840,92475
1221864.8551724139,0.0016379561809905627,91499,456316,92185
44925.62413793104,-0.013685829202624887,91918,455668,92414
2036277.8413793105,0.0013925437496144788,91758,455549,92693
23561.227586206893,-0.006257928403390362,92513,455341,92146
1416121.420689655,-0.0002701972112269851,91188,456706,92106
42005.93793103448,-0.015676331628982514,91630,456864,91506
71688.83103448276,-0.021264506014705795,91639,456125,92236
326933.275862069,-0.0073231946453919585,92023,454699,93278
33111.02068965517,-0.009811178051987267,91672,456399,91929
517223.6344827586,-0.006546750045825932,91304,456282,92414
37939.403448275865,-0.00952257766078741,91781,456101,92118
1223217.1172413793,-0.0028861953485224217,91220,456578,92202
428499.9379310345,-0.010515641766238856,91607,456203,92190
917483.7758620689,-0.009630510358782813,91374,456168,92458
889184.8379310344,-0.0037698302450756877,91827,455395,92778
20644.255172413796,-0.006312423786549219,91123,456926,91951
469179.2689655172,-0.01366072199004388,91725,456015,92260
966625.3448275861,-0.0052583971766259775,91526,456464,92010
513270.39310344815,-0.012054418382096602,91666,455916,92418
517977.7827586206,-0.01005096186196198,92016,455251,92733
1571313.8862068965,-0.0030561686684179527,91243,456857,91900
660478.1620689655,-0.013476103028144918,91225,456085,92690
32228.78620689655,-0.011442281516209435,96963,452424,90613
37834.92068965517,-0.008113053200711519,91426,456342,92232
1253565.5413793104,-0.0039476729804543195,91467,455906,92627
470513.4103448276,-0.008740253170201075,91601,455952,92447
103468.42758620689,-0.013326091772991593,91690,456013,92297
1100724.3862068965,0.0031131328615660687,91631,455914,92455
30454.60344827586,-0.011407767817539823,91785,456129,92086
977574.0413793103,-0.012780748791641282,91280,456337,92383
65670.20000000001,-0.017118680341554438,90914,457150,91936
579626.8344827587,-0.010705058691825132,91689,455630,92681
577219.5310344826,-0.012589813546288662,91511,456431,92058
228544.42068965515,-0.011189156175455727,92116,455950,91934
20597.71724137931,-0.010809949409889061,91416,455869,92715
991686.0103448277,-0.006688906337478043,91488,456568,91944
1089422.6310344827,-0.0013983294383628445,91617,455393,92990
443988.5931034483,-0.0066504541777203195,91871,455960,92169
590128.9827586208,-0.00976511445392308,91417,456969,91614
527145.1517241378,-0.01644387116407363,92140,454879,92981
1949631.0655172411,0.0018596837283478456,91534,456685,91781
1955831.6999999997,0.0022984719965620177,90816,456909,92275
414771.3517241379,-0.010691226925136972,91915,455969,92116
37639.0724137931,-0.010742108745487441,91616,455879,92505
869909.5172413791,-0.009474633048402485,90755,457555,91690
1216065.572413793,-0.006707779450748424,91343,456784,91873
435721.55172413785,-0.010847244046645728,91675,455720,92605
530844.596551724,-0.00835878937105812,92132,455469,92399
1373144.0275862068,-0.007195099902195988,91965,456162,91873
48219.168965517245,-0.010502549098102167,92155,454907,92938
884988.1517241378,-0.004572778891374896,91179,456397,92424
244096.13448275859,-0.01918675241435342,91367,456181,92452
563916.272413793,-0.006125592724128603,91808,455787,92405
541004.2620689654,-0.013076210399430905,91739,455709,92552
387828.8931034482,-0.010566239613652419,91979,455393,92628
999485.3034482757,-0.006992141626451656,91955,455763,92282
49660.81034482758,-0.017353108910350995,91942,455767,92291
1262579.3068965515,-0.01089782138470354,91942,455395,92663
440091.2896551724,-0.005760457252270962,91544,456120,92336
556646.4999999999,-0.009046054672847971,92026,455523,92451
983141.2655172412,-0.006094649802439126,91730,455985,92285
599956.3862068965,0.002496484513020673,91447,456484,92069
629312.8724137931,-0.004778279247662494,91222,456645,92133
599721.0620689655,-0.0017649354245944707,91481,455843,92676
546441.0724137931,-0.008825547652578038,91836,455564,92600
1148885.2551724135,-0.0055162279577698654,91347,456311,92342
461361.5,-0.007176732196333553,91718,455951,92331
32630.03793103448,-0.01397648063686638,91641,456086,92273
727732.5758620689,-0.009685933559087905,91554,456070,92376
648965.5413793104,-0.007786757029187716,91533,456053,92414
1021601.7827586206,-0.0033547191683913208,91469,456418,92113
988835.9310344825,-0.0009351211325486095,91717,455608,92675
44189.88965517241,-0.017729948382262477,91131,456526,92343
597321.4999999999,-0.016602931409045327,91030,456415,92555
663916.375862069,-0.0008599897794193616,91231,455884,92885
228165.6172413793,-0.014258626985571976,91374,456343,92283
534327.8758620688,-0.006686529513640373,91639,455799,92562
926891.6758620688,-0.009497693272907455,91505,456298,92197
531194.672413793,-0.00421304234808352,91469,456465,92066
763409.2655172414,-0.004017027683255541,91459,456364,92177
671217.424137931,-0.015938677443820482,91623,456385,91992
1353963.7620689652,-0.0037422681459420024,91510,456085,92405
1330496.596551724,0.0018970218902366186,91301,456899,91800
1403047.1586206895,-0.011909237718721767,91607,456109,92284
697374.3620689656,-0.002352996815931907,91498,456404,92098
847233.6862068966,-0.003939223996458524,91401,456377,92222
451553.7551724137,-0.003275543896439968,91528,455943,92529
31327.027586206896,-0.01312891595978251,91638,456424,91938
616460.6172413792,-0.01611733231701733,92261,455752,91987
322580.8,-0.014014576539733863,91777,455910,92313
564835.0344827585,-0.0033804986297651944,92286,454903,92811
11441.568965517241,-0.006594939946063893,92078,455112,92810
28481.95517241379,-0.01329893444451253,135117,420694,84189
246848.37931034484,-0.010284026672536547,91559,456543,91898
1371227.8896551724,-0.005149592655622821,91262,456635,92103
637297.4034482759,-0.007107522978180104,92580,454517,92903
32622.74137931034,-0.010234150368731447,91471,456637,91892
37393.072413793096,-0.01381567833567503,90899,456930,92171
566603.6206896551,-0.01183569899610122,91089,456293,92618
444938.6310344827,-0.005092510102315009,91727,455807,92466
622831.5620689655,-0.012209665960616279,91584,456353,92063
865435.6448275861,-0.0006443815390244892,91324,456597,92079
495411.63793103443,-0.0033492007622989567,91866,455973,92161
481277.0413793103,-0.010710879143000293,91081,456552,92367
571071.7275862067,-0.008833364220848088,91470,456238,92292
32881.71034482759,-0.01003653667262546,91706,456187,92107
1025167.6551724137,0.0011484059635822382,91122,456575,92303
1710236.5931034482,-0.008537653654474703,91371,456444,92185
29400.372413793106,-0.012364928113771835,91502,456098,92400
669785.8862068965,-0.020631366613157877,91361,457074,91565
516187.8862068965,-0.011264361642685225,91689,455588,92723
32376.051724137928,-0.012903221106526065,91322,456302,92376
57286.42758620689,-0.015198060863326548,91458,456193,92349
26242.810344827583,-0.0063677420093830395,91513,456268,92219
40035.53448275862,-0.015716621238399488,91325,456280,92395
658238.3413793104,-0.0006930103369776441,91848,455267,92885
25099.989655172412,-0.00971295390016277,93628,454886,91486
41252.558620689655,-0.01724818745967908,143462,413794,82744
453728.6103448275,-0.017405515503016753,91219,456786,91995
1630352.1034482757,-0.0050941233736304485,91228,456840,91932
453998.1758620689,-0.013809579013209033,91523,455756,92721
853262.0965517242,-0.008977079509488653,91759,455877,92364
554875.4758620688,-0.014152334572783675,91797,455931,92272
38372.44827586207,-0.014709977135029752,91363,456653,91984
1873971.9137931033,0.0018887532183927103,91036,456415,92549
18251.810344827587,-0.009756122657433693,91694,455962,92344
286247.8896551725,-0.012256761246272172,91584,455720,92696
914468.1586206896,-0.009264065582670507,91514,456361,92125
1097402.2758620689,-0.0068644006646366275,91145,456908,91947
309374.8896551724,-0.010058037866619667,91715,455824,92461
1178536.2551724138,-0.002631792592077792,91659,456231,92110
1554008.3,-0.010789391920176881,91275,456147,92578
239324.9586206897,-0.011110822459136981,91129,456939,91932
342493.33793103445,-0.010650965844586798,91308,455740,92952
42363.5,-0.014403548336504998,91409,456402,92189
744858.1275862068,-0.018227060291494346,91963,455954,92083
74657.46896551724,-0.016920989009744387,91235,456860,91905
442690.02758620685,-0.010892527269494126,91366,456286,92348
1028113.0206896551,0.0001894250853076723,91757,456119,92124
872120.172413793,-0.0006321764811073172,91353,456156,92491
54831.472413793104,-0.0169909017676489,91336,456568,92096
1192109.5379310343,-0.0009804939328301857,91399,456805,91796
536985.1103448275,-0.009674281958375873,91400,456276,92324
1118736.6896551722,-0.015669261944532872,91554,456412,92034
38592.97586206897,-0.014834940156072597,91885,456229,91886
1109072.8482758622,-0.01169444703775688,91545,456146,92309
1065404.0137931034,-0.0071418636980350395,92046,455674,92280
886564.0896551723,-0.01110364885883461,91434,456538,92028
862482.9827586206,-0.008383562677177873,91705,456221,92074
532528.6344827585,-0.006127475728831033,91442,455834,92724
558367.7482758621,-0.008753646644357746,91816,455712,92472
530309.6620689654,-0.012661418279165605,91194,456525,92281
1020412.6758620689,-0.015688279535644202,91026,456380,92594
196403.5172413793,-0.0064985403789778115,91849,456125,92026
27085.193103448277,-0.009237935232118065,91429,456597,91974
784018.7620689656,-0.00538203848055447,91829,455206,92965
26616.837931034483,-0.014451579627912067,91689,455850,92461
19811.137931034482,-0.009447359706039785,193073,372650,74277
1330982.0068965517,-0.01265709552611045,91482,456991,91527
697137.5344827586,-0.009462844750665665,91050,456421,92529
294378.6724137931,-0.017906823382252184,91578,456110,92312
384906.1206896552,-0.0049010377062857526,91591,455965,92444
387614.6793103448,-0.006852609568489464,91410,455473,93117
896657.7068965517,-0.0039862583752183055,91255,456666,92079
1068307.893103448,-0.006830270870960137,90849,457049,92102
591957.3620689656,-0.0028429918677805926,91147,456543,92310
757316.0689655172,-0.002517687181870626,91027,457013,91960
25696.896551724138,-0.012436085056244677,109800,441312,88888
983267.2827586208,-0.004409232356675057,91581,455918,92501
18973.344827586207,-0.007219292345256552,92106,455155,92739
366313.80689655175,-0.01000986794265688,91495,456178,92327
952610.472413793,-0.013736207506003434,91179,456790,92031
904472.7517241379,-0.008555002279468078,91466,456807,91727
501082.23448275856,-0.002396491239931142,91238,456696,92066
53094.41379310345,-0.01744165670308061,91317,456088,92595
41181.25862068965,-0.013054731886699736,91684,456269,92047
1012596.2379310345,-0.015844652880702803,91181,456634,92185
569540.9137931033,-0.0080662068857373,91588,455756,92656
758350.9896551725,-0.01557971325476736,91039,456056,92905
1519159.420689655,0.0006567167060611819,91381,456496,92123
203262.47931034485,-0.0024270962720932456,91980,455184,92836
1460110.344827586,-0.013112869787348935,91416,456574,92010
476077.8999999999,-0.009457604062519257,91722,455175,93103
32731.103448275862,-0.012068865229611545,92136,455331,92533
57859.762068965516,-0.018208422771348837,91480,456356,92164
797181.0482758621,-0.02049871504400305,91545,456296,92159
852848.4275862067,-0.0018243242933670076,91170,456330,92500
802241.8034482759,-0.009071192472280921,91338,456850,91812
26635.28965517241,-0.00804135453937733,92204,455697,92099
727665.4172413793,-0.011863251941563202,91599,456463,91938
970657.7310344827,-0.006005413240821262,91051,456162,92787
769676.3310344827,-0.010312212578799985,91281,457220,91499
1022916.6620689654,-0.010687722565021564,91128,456472,92400
27733.22068965517,-0.006552800287720172,92394,455422,92184
1289039.1586206895,-0.003307128488072098,91502,456328,92170
161526.19999999998,-0.017776851188662367,91504,456474,92022
1934892.8482758617,-0.0023580681750820977,91403,456571,92026
37581.15862068965,-0.014272096370494794,92004,455509,92487
426360.18620689656,-0.008577569073904633,91715,456072,92213
48886.10344827586,-0.015831567931408264,92286,455032,92682
1316978.5379310343,-0.002781615028082196,90946,457267,91787
331668.3103448276,-0.017311773809331833,91468,456149,92383
43489.85862068966,-0.018833428318940356,91515,456691,91794
680242.8965517242,-0.008120128409512116,91086,456406,92508
416146.8517241379,-0.017811477909606944,92011,455692,92297
831378.8655172413,-0.006949809750235701,91135,457036,91829
849159.8344827585,-0.0016205861678516488,91959,456096,91945
36061.010344827584,-0.012703371455148027,109654,441363,88983
35168.68620689656,-0.016427205570453015,92288,455660,92052
45023.97586206896,-0.018098284581543223,147110,410612,82278
1199389.6379310344,-0.0075133509932002445,91442,456427,92131
343903.4310344827,-0.0041428342593631245,91914,455500,92586
44362.868965517235,-0.011677556372524187,91909,455512,92579
482501.48965517245,-0.009421726361306872,91941,455868,92191
808395.524137931,-0.016087854741349914,91507,456649,91844
55715.77931034482,-0.020830702519760783,91565,456129,92306
841391.0999999999,-0.0033156195771164554,91782,455931,92287
292809.79655172414,-0.014211989933830615,91992,455767,92241
38288.04827586207,-0.012427945934678448,91667,456362,91971
555290.8448275861,-0.013374377773515,91200,456187,92613
796765.2413793103,-0.005553689655733143,91482,455939,92579
389445.8172413793,-0.008592436866854136,90761,457002,92237
13047.73448275862,-0.006731096878996769,91741,455785,92474
911295.1413793103,-0.0038920415531768847,91450,456385,92165
75976.51379310344,-0.02246552323548178,91378,456496,92126
586860.4551724137,-0.016745125688469017,91484,455955,92561
838321.7172413792,-0.012902821062451858,92034,455486,92480
999389.8551724136,-0.005005271708504346,91190,457080,91730
39161.872413793106,-0.011983329294226637,91412,456409,92179
620481.2896551723,-0.010816364470293032,91976,455117,92907
154615.46896551724,-0.01592477792227866,91705,455991,92304
48834.61034482758,-0.010442905866968796,91607,456078,92315
51375.84137931035,-0.01690533268330922,166430,395145,78425
493134.5862068965,-0.013057507091780614,91898,456035,92067
480324.324137931,-0.007638719237822923,92001,454823,93176
1239925.5586206897,-0.004434601845450186,91879,455836,92285
952777.751724138,-0.003374288470757366,91924,455424,92652
27508.434482758617,-0.011401749747890022,91255,455891,92854
1196516.375862069,-0.008391971398119596,91832,456515,91653
465837.04482758616,-0.015133591175582236,91291,456700,92009
399081.6,-0.013559472791806604,91400,455823,92777
817787.5206896551,0.0004671286700612772,91202,457098,91700
15936.179310344829,-0.006141158504350762,91538,456090,92372
1217602.0344827585,-0.00105752697577551,91690,456166,92144
688509.6758620689,-0.0019175956639052797,91363,456506,92131
496901.45862068963,-0.01401825260840818,91673,456006,92321
971624.3206896551,-0.00124899491968989,91292,456794,91914
476913.43448275863,-0.011410396607301023,91423,455841,92736
1276456.1965517239,-0.0043396449403677664,91211,456865,91924
946006.1034482757,-0.006512975872394106,91208,456334,92458
757796.4689655172,-0.007600643143818436,91546,455881,92573
32502.510344827584,-0.011635908469514202,263757,313954,62289
806670.1793103447,-0.0016459626685586828,91674,456045,92281
33846.7,-0.012794929285867097,92175,456040,91785
1222281.1896551724,-0.006310440064089567,91819,456560,91621
947637.3827586207,-0.014095887818890053,91710,456271,92019
40922.534482758616,-0.006197048490185434,90834,457132,92034
362524.66551724134,-0.014755016677543035,91470,455835,92695
567154.6275862069,-0.01360821015302222,91662,455855,92483
654481.1965517242,-0.013536098989713915,91483,456328,92189
58782.43103448276,-0.022739395714476748,91666,455891,92443
432849.80689655175,-0.005653878291524034,91949,455243,92808
41331.72758620689,-0.010868438703216942,91306,456334,92360
732026.6275862069,-0.008395743586708183,91585,456689,91726
63586.33103448275,-0.021140280365168594,91206,456836,91958
612264.0758620689,-0.018959733220637248,91798,455569,92633
60096.25172413793,-0.017307337666135077,92195,455691,92114
228236.17586206898,-0.010635610009744867,91343,456366,92291
1670953.7275862065,-0.0010451271026189657,91538,456319,92143
26862.272413793104,-0.011626509625080717,376889,219738,43373
17532.91379310345,-0.008223124441797567,91291,456170,92539
113728.01034482758,-0.00852891101152358,91307,456316,92377
19639.682758620685,-0.009850622859201777,92015,455710,92275
1144186.772413793,-0.00048195359184308075,91904,454987,93109
890757.7137931032,-0.010628112934373003,91888,455590,92522
1454410.0620689653,0.0036329575392332406,91574,456354,92072
575120.1275862069,-0.012312948602141894,91861,456078,92061
1577176.272413793,-0.0073606941649282,91543,456216,92241
369644.26551724144,-0.003817628672530967,91250,456872,91878
228144.51724137933,-0.0015275842281899136,91631,455845,92524
285026.7103448276,-0.01729608087757622,91514,456463,92023
910600.7241379309,-0.0023247129413651443,91730,456118,92152
54980.16551724138,-0.014177093571896872,91140,456541,92319
