Model,Class,T_bound,score1,score2,score3,score4,score5,score6,score7,score8,score9,score10,score_avg,score_stdev,alpha1,length_scale1,alpha2,length_scale2,alpha3,length_scale3,alpha4,length_scale4,alpha5,length_scale5,alpha6,length_scale6,alpha7,length_scale7,alpha8,length_scale8,alpha9,length_scale9,alpha10,length_scale10
gonzalez,CELL_H,0,0.002991175703761197,0.0026113951286418457,0.003569434544443239,0.008214115327645443,0.002594234708906178,0.0029204006111609266,0.01711142913201322,0.0021988346044922425,0.00221819817574977,0.026585085744106708,0.0071014303680920765,0.007850208905779373,10000.0,0.0001,10000.0,100.0,10000.0,100.0,10000.0,1,1,1
gonzalez,CELL_H,5,0.0035377363434878763,0.004009708801570761,0.002931562941774077,0.0023412414274623853,0.0022071712881991255,0.025204800230490418,0.018662725774171485,0.0025699673945302785,0.002372854353539938,0.0037010522146366997,0.006753882076986304,0.007751796149784541,1,100.0,0.01,1,100.0,1,100.0,1,10000.0,0.0001
gonzalez,CELL_H,10,0.016840628578870392,0.002377329162899254,0.004052560081560507,0.0023377213741425534,0.00371412562640173,0.0027397288553499843,0.00309134329003484,0.0024854379428438213,0.002224199713808679,0.026530034748151108,0.006639310937406287,0.007849628071835665,100.0,100.0,10000.0,0.0001,0.0001,100.0,0.0001,100.0,0.0001,10000.0
gonzalez,CELL_H,15,0.02517400130162522,0.002577523627852281,0.0023857609318532706,0.002615520719085136,0.018591536060135742,0.002825880494884515,0.004781914872995503,0.0023792363084985894,0.0026034425448307765,0.0038647296990224,0.006779954656078344,0.007727232749821846,1,10000.0,1,10000.0,10000.0,0.0001,100.0,0.0001,10000.0,0.0001
gonzalez,CELL_H,20,0.0035548055404099822,0.002941906076248077,0.025247972840863553,0.0031349531604522723,0.00419895915939276,0.008288571730418463,0.0168296959631578,0.0025247616114267824,0.0028211163342372427,0.001821363652657025,0.0071364106069263964,0.007392677348986749,100.0,0.0001,0.01,10000.0,0.0001,1,1,0.01,1,10000.0
gonzalez,CELL_H,25,0.0028953261941604734,0.003625253195754031,0.016858607146462323,0.025369319836288325,0.0038484759378016654,0.002575049413788766,0.0021312825528576533,0.002497065086561655,0.008344045396690801,0.0023890821233931467,0.007053350688375882,0.007479257930535089,100.0,100.0,100.0,1,100.0,0.01,10000.0,1,100.0,1
gonzalez,CELL_H,30,0.0028211779195200107,0.004367631705929194,0.003668805749873654,0.002227377176108386,0.008497852947953763,0.002894236424512795,0.025213355167764108,0.016817816209214537,0.0024904950417099633,0.0021557873705743643,0.0071154535713160785,0.007410479848432905,10000.0,10000.0,0.0001,10000.0,10000.0,100.0,1,100.0,0.01,0.01
gonzalez,CELL_H,35,0.002440757186874371,0.0026796755031930947,0.0020664595144736625,0.002775592731364916,0.0042549154637378395,0.017019549058990044,0.02527972770741281,0.0024029993525790413,0.0033826452429154075,0.008218523172323432,0.007052084493386461,0.007479224398039068,1,0.01,10000.0,0.01,10000.0,100.0,0.0001,10000.0,100.0,1
gonzalez,CELL_H,40,0.002716529296083892,0.0027070917935280345,0.002105580549665309,0.0031570390581564262,0.0304150301482365,0.008208693447633725,0.0024215787204517852,0.0028032360030354297,0.004150012334561322,0.002503078637099921,0.006118786998845235,0.008272723776075715,0.01,10000.0,10000.0,0.0001,100.0,0.01,1,100.0,0.0001,1
gonzalez,CELL_H,45,0.0025172889365660113,0.002944097389682933,0.008532866283060603,0.002427205548099727,0.0024594100744134637,0.00370235608178393,0.03024599230167069,0.0022637051790791616,0.0038539173686908583,0.003211899920420584,0.0062158739083467964,0.008198806208633093,100.0,1,0.01,1,10000.0,0.0001,100.0,0.01,0.0001,1
gonzalez,CELL_H,50,0.002765805905702194,0.0030160802854112137,0.0024983523893082394,0.002643456652781685,0.0024266804849341337,0.0035454798857728763,0.03125141149682742,0.0030748582269323117,0.0033692717419555036,0.0037459462676350964,0.005833734333726068,0.008482925630551747,0.01,0.01,0.0001,100.0,10000.0,1,100.0,0.01,1,100.0
gonzalez,CELL_H,55,0.016792443746182512,0.0026312566217970485,0.008211160029174377,0.002389004280328395,0.003650580520155295,0.0024467833648870612,0.02543728745195726,0.0038475449595325897,0.002752380040999373,0.002408069161830896,0.00705665101768448,0.007474115386297726,100.0,10000.0,100.0,10000.0,0.0001,10000.0,0.01,0.0001,0.01,0.01
gonzalez,CELL_H,60,0.002843476905977515,0.00245217381844994,0.003992411114882559,0.0026546445322430186,0.0024678350473890383,0.0030948824318815637,0.0024342681588258473,0.017108381827900854,0.008204019471653813,0.025258729997497138,0.007051082330670129,0.0074800244319052096,0.01,10000.0,0.01,10000.0,0.01,100.0,10000.0,0.0001,0.01,0.0001
gonzalez,CELL_H,65,0.003202494381747275,0.025342277951492784,0.0038648371692467523,0.016920930042902117,0.0027214864570455103,0.002222036919214012,0.0020324745688297436,0.002735188729122388,0.008339851248767578,0.00298999918876256,0.007037157665713072,0.007489828720603945,10000.0,0.0001,10000.0,100.0,0.01,10000.0,100.0,10000.0,100.0,100.0
gonzalez,CELL_H,70,0.002360133739470436,0.008295278934668998,0.0024573157887733295,0.002275780394852974,0.003560104721927253,0.003997703137662137,0.01689983167296851,0.0023532836333989256,0.025390049014739197,0.002540723231989478,0.007013020427045123,0.007514539240806886,10000.0,0.01,10000.0,10000.0,0.0001,100.0,10000.0,0.01,0.01,0.01
gonzalez,CELL_H,75,0.0025366966198472596,0.008466027447842483,0.0026504307007149714,0.002666866003965847,0.00236528559308733,0.0024197583444144325,0.003494679937422409,0.004625024966975404,0.016828083853676113,0.025195307322726734,0.007124816079067299,0.0074003833247420995,0.01,0.01,10000.0,100.0,10000.0,10000.0,0.01,0.0001,10000.0,10000.0
gonzalez,CELL_H,80,0.0032238644040658198,0.003258457575303039,0.004180407343633686,0.0037546226035013977,0.0024869997518298815,0.025210870734768114,0.016825402821989206,0.0024128845851612447,0.008161039264133389,0.00264707897605618,0.007216162806044197,0.0073222451446017,1,0.01,0.0001,0.0001,10000.0,100.0,10000.0,0.01,100.0,100.0
gonzalez,CELL_H,85,0.0022739853751914296,0.002876429955503897,0.0021991530350297783,0.008605956364742961,0.01682291264479698,0.0033134462544463852,0.025272109842248446,0.004009049751628187,0.0027830333586615404,0.0026746664351479364,0.007083074301739753,0.007445029543925194,100.0,0.0001,0.01,0.0001,100.0,0.01,10000.0,0.0001,10000.0,100.0
gonzalez,CELL_H,90,0.0024828436236690424,0.008266512046929369,0.0037405275845106556,0.003333056897311496,0.025194503774171536,0.0025119033275555315,0.016856483227047275,0.0035897698018529977,0.002846957551298368,0.0030952990115214116,0.007191785684586768,0.007335999805615606,10000.0,10000.0,0.0001,10000.0,1,0.0001,0.01,100.0,100.0,0.0001
gonzalez,CELL_H,95,0.00322696447582299,0.0020738100317849234,0.025203164707825455,0.008185931410841759,0.003971690197258396,0.002636180101883239,0.0023173505834625146,0.004128544667246986,0.016825171250987193,0.0032042165388622584,0.007177302396597571,0.0073503634590987585,100.0,10000.0,0.01,0.01,0.0001,10000.0,10000.0,0.0001,10000.0,10000.0
gonzalez,CELL_H,100,0.0026092579340034486,0.0046523959840028325,0.0031543975883190764,0.002808572562483883,0.008354816161770676,0.0025679830656462352,0.005938049237431438,0.003017535747960347,0.02519227984417386,0.0024573373649129765,0.006075262549070478,0.006623111658968524,10000.0,0.01,0.0001,1,1,1,1,100.0,1,10000.0
gonzalez,CELL_H,105,0.0037299967985132383,0.005689690392788525,0.0023815853863189706,0.004257453169761588,0.0022776515336001917,0.008274954220420105,0.0024740324376714344,0.025187615427291282,0.0026793619079197016,0.002500735235928237,0.0059453076510213275,0.006665196973105738,0.0001,1,100.0,1,0.01,0.0001,1,1,1,100.0
gonzalez,CELL_H,110,0.0025936045551435585,0.002246831318183997,0.008354777462350079,0.003484981166396943,0.004510561200620476,0.003349826950598777,0.0035469274127286183,0.025173408930298628,0.0053957741765040335,0.00368214858402075,0.006233884175684586,0.006524029643734002,100.0,0.0001,1,1,1,10000.0,1,1,1,1
gonzalez,CELL_H,115,0.0021808913316535366,0.00299981200212173,0.00403745696961576,0.01697576768669242,0.0025744186653245764,0.004015692631400185,0.0026150383503917903,0.02521113838241082,0.008298951793367355,0.00356236932081425,0.007247153713379242,0.007346951448464825,10000.0,1,1,0.01,10000.0,0.0001,1,1,10000.0,1
gonzalez,CELL_H,120,0.0022603792039184597,0.00269153248574896,0.004003078175188098,0.005959078311632748,0.003311417118612223,0.0024595709691031748,0.02517119276259826,0.0029861682916629256,0.00824087658780379,0.004777774317383181,0.006186106822365181,0.006568637815390813,1,100.0,1,1,1,10000.0,0.01,1,1,100.0
gonzalez,CELL_H,125,0.011907598114098202,0.003357660487826714,0.005735795489640735,0.0031111197624503857,0.0024442976977062545,0.0037203772484312742,0.002399293560200046,0.0037694984195197,0.00869154033973696,0.0023383103566227068,0.0047475491476232975,0.0030173342309444784,1,0.0001,1,1,1,1,10000.0,1,1,1
gonzalez,CELL_H,130,0.01406855956899991,0.002181372945766,0.002956944390201155,0.0031195319874882913,0.004219756103265737,0.0022482709168108,0.002619213493973493,0.005740394374265209,0.002538869151848792,0.002412803308739862,0.004210571624135925,0.0034468763999503478,1,0.0001,1,1,1,1,1,1,1,1
gonzalez,CELL_H,135,0.002871173996087458,0.0038606788677698583,0.003425264081523985,0.0027001373050055894,0.0021448736073716034,0.011884637643628675,0.008242124523361701,0.005950623242252674,0.002504132628676794,0.0036874364495364585,0.00472710823452148,0.0029626277264326317,1,1,1,0.0001,1,1,100.0,1,1,1
gonzalez,CELL_H,140,0.002639186159049064,0.002756313834806909,0.002989139067737806,0.003667292999713295,0.0028071638344354813,0.008055320018949081,0.006718833065246367,0.003072810754793639,0.011757330950694544,0.0036899281571956045,0.004815331884262178,0.0029030325915852155,0.01,1,1,1,1,1,1,1,1,1
gonzalez,CELL_H,145,0.0033256906088138913,0.025343482456521467,0.002934091729997691,0.0027510397623469233,0.0029398012166383177,0.0063089933362227655,0.0035303965526591752,0.0024937316211341358,0.008024828509943065,0.0030958597802147984,0.0060747915574492235,0.00664536647716983,1,100.0,1,1,1,1,1,0.0001,1,1
gonzalez,CELL_H,150,0.002674206891621635,0.008353537074777083,0.002235220370922927,0.003320197811821543,0.0030906038395175648,0.030393703365471418,0.00279646222881887,0.0021788519973197423,0.005091310231283633,0.002918417397694856,0.006305251120924928,0.00822025671228533,1,10000.0,1,10000.0,1,1,1,1,1,1
gonzalez,CELL_H,155,0.002177769664842622,0.0028056774921485666,0.008154982575070427,0.0028048929957009546,0.003008082930688968,0.0032673516452503557,0.002608166961947998,0.004985623498792284,0.030218795059679428,0.0031835065186819993,0.006321484934280361,0.008136752236334118,10000.0,1,1,1,1,1,1,1,1,1
gonzalez,CELL_H,160,0.008107089364984778,0.0038462153195305978,0.0053833550926304236,0.0026211421882810886,0.011474514489879016,0.0022952429436661013,0.0038399737733281294,0.002957455104935493,0.006610645623564957,0.002902568066419141,0.005003820196721973,0.0028024471848075013,1,0.01,1,1,1,1,1,1,1,1
gonzalez,CELL_H,165,0.008245018410244413,0.004444430754387515,0.011236080101783194,0.0024406045305831086,0.002565930169989113,0.002677815283534186,0.0026664984878243055,0.0036534165332785503,0.00296772782217869,0.006891151463064733,0.00477886735568678,0.002864809655218701,1,1,1,1,100.0,1,1,1,1,1
gonzalez,CELL_H,170,0.0028445282618495236,0.008931531859353995,0.0029378324902299938,0.003831142829013861,0.0025221342578727836,0.0072192036756874405,0.02518384177443668,0.0026890117570092585,0.0027625724988620736,0.0036444948875157747,0.006256629429183138,0.006637521245423282,1,0.0001,1,1,1,1,100.0,1,1,1
gonzalez,CELL_H,175,0.008379442132050966,0.0031359552016825003,0.003791473343912775,0.006588058629073781,0.0032714133766955566,0.0027701298275775656,0.0023545541469209325,0.003110252537422742,0.0037143356001135023,0.02518426425015541,0.006229987904560573,0.006567620381625796,100.0,1,1,1,1,1,1,1,1,0.01
gonzalez,CELL_H,180,0.0025433377725461934,0.002509346039339079,0.002556847608292774,0.003406387790673593,0.02528471877470077,0.008829553237745069,0.003046295494127514,0.006410947303200966,0.004129402673138202,0.002413219477529155,0.0061130056171293315,0.006691425299828358,1,1,1,1,0.0001,1,1,1,1,1
gonzalez,CELL_H,185,0.002416108433377092,0.002952911193602153,0.004162580896361431,0.008993419480564657,0.006570820381697029,0.0028494061940926253,0.0034181840776218407,0.0031502739462131815,0.011135851125803986,0.0033342110920061346,0.004898376682134014,0.0028434511658340426,1,1,1,1,1,1,1,1,1,1
gonzalez,CELL_H,190,0.01150227763785159,0.0025926918101354386,0.002033792042621732,0.00278167545998887,0.007007186463956462,0.0036435160568945644,0.0022693494470997044,0.002492961674690511,0.008148390051403383,0.004007184100918382,0.0046479024745560635,0.003017663948463271,1,1,1,1,1,1,1,1,1,0.0001
gonzalez,CELL_H,195,0.0030307386368805334,0.0024247382096666656,0.008220834683910251,0.0033484806933767606,0.003043066022784679,0.006782267167281819,0.010944714833499444,0.0027494759658592046,0.0034038827279170222,0.004576399290670924,0.00485245982318473,0.002711663000490984,1,1,1,1,1,1,1,1,1,1
gonzalez,CELL_H,200,0.002811709187125366,0.006978782202310571,0.002431040632585591,0.0023612904367724843,0.0028293607453247255,0.010933854509498558,0.004639848763288091,0.00274377406277063,0.004093625982307633,0.008172582408946923,0.004799586893093058,0.002790954020593295,1,1,1,1,1,1,1,1,1,1
gonzalez,CELL_D,0,0.0009504628902850573,0.0005597828041148054,0.0014531481312532056,0.0004885196416379026,0.0014783531040293031,0.0006011067121736088,0.0030061097774060673,0.0005078991122698404,0.0004852861642103918,0.004420198742534511,0.001395086707991469,0.0012537755964856475,0.01,100.0,100.0,0.01,10000.0,1,1,0.01,1,10000.0
gonzalez,CELL_D,5,0.0005045636865387395,0.000622370659847535,0.0005176543054701697,0.00040093036654394496,0.0008213926033594066,0.004441671204985834,0.000487175753250728,0.000584524476087603,0.0014565957660728622,0.0029870164420611038,0.0012823895264217925,0.001290406461029931,0.0001,1,10000.0,1,100.0,0.0001,1,1,0.01,100.0
gonzalez,CELL_D,10,0.0005410527802376874,0.000821662292651542,0.0004205157571405201,0.0005758697255117579,0.0006331069549552337,0.0029828363853621736,0.004430693583597029,0.0005448360342546914,0.001471810752870029,0.00047318950124791985,0.0012895573767828584,0.0012830786666194875,100.0,0.0001,10000.0,1,10000.0,0.0001,100.0,1,10000.0,100.0
gonzalez,CELL_D,15,0.0005553625360422933,0.0005854438542510954,0.0006031546565569289,0.0014696924910413195,0.002990771682525594,0.0005392976292491079,0.004394063945041129,0.0006733034132694762,0.0007522915288661578,0.0005927874000505395,0.001315616913689364,0.0012562052798176678,1,1,1,1,0.0001,100.0,0.0001,10000.0,10000.0,1
gonzalez,CELL_D,20,0.0006673193290968857,0.0005303446308946608,0.0044180059365525074,0.0005247718503987736,0.00048659817880094245,0.0015690241983807559,0.0005087249008781643,0.0004308756442605199,0.0006689387456609115,0.0029931019480768845,0.0012797705363001006,0.00129196842432027,10000.0,0.01,100.0,100.0,10000.0,0.0001,0.0001,1,1,1
gonzalez,CELL_D,25,0.00068966873819958,0.00047823960216427194,0.000788038461587207,0.004390458606992158,0.0004961284992825142,0.0014656875747463302,0.0005114786284441263,0.0007579578008382513,0.0029840251293963335,0.0005832184846073507,0.0013144901526258124,0.00125688852378034,0.01,0.0001,0.01,1,0.0001,0.01,0.0001,100.0,100.0,1
gonzalez,CELL_D,30,0.0029928795362793538,0.0006249764020906901,0.0005761731672360962,0.0005718446023954228,0.0007107408614269548,0.0008251366916954271,0.0004994942207977761,0.000457121802075517,0.0014668565162428294,0.004389268409206594,0.001311449220944666,0.0012597506799580647,100.0,0.01,0.01,0.0001,10000.0,100.0,10000.0,0.0001,10000.0,0.0001
gonzalez,CELL_D,35,0.0006954186183607311,0.0030421937728342305,0.0004729958968667583,0.0006424501637737892,0.0014593340378605613,0.004408841126075967,0.00048139586665730286,0.0006040720919328014,0.0005155238622045488,0.0005235527317987251,0.0012845778168365416,0.0012875429685930773,0.0001,0.0001,0.0001,10000.0,0.01,0.01,0.01,100.0,0.01,1
gonzalez,CELL_D,40,0.0007950806453961705,0.0006194296170313433,0.0004851619310552761,0.0005254356660586115,0.002984102516288878,0.0005006226639239789,0.0007573849995962799,0.0004435606308624753,0.0015374672595830975,0.004388028463480873,0.0013036274393276985,0.0012679642872257407,100.0,1,0.0001,0.0001,0.0001,0.01,0.01,1,1,0.0001
gonzalez,CELL_D,45,0.0008114949825692601,0.0005460365010832476,0.00048809383071234694,0.0006028151497507179,0.0014331770545591006,0.000763312479987364,0.0053083227689432,0.0005312312718608145,0.0004432424171424327,0.0005210560235730966,0.001144878248018158,0.0014147771042502199,0.0001,0.01,1,100.0,0.01,0.01,10000.0,1,0.0001,0.0001
gonzalez,CELL_D,50,0.000539266485339192,0.0004736782551214126,0.0014235409478088826,0.0006913385398443253,0.0007754469681171734,0.0005055708408052985,0.0006024354096207854,0.002992153019052012,0.000796442664926256,0.004385748973317283,0.001318562210395262,0.0012520174589283257,1,0.01,0.01,0.0001,0.0001,0.0001,0.0001,100.0,1,0.01
gonzalez,CELL_D,55,0.002989320749047807,0.0005102858899055267,0.000819702071389095,0.0005298704782717071,0.0004902002313958894,0.004391479150637985,0.0005839993897414817,0.0006794621946845089,0.0015190471008897368,0.0005302200258475146,0.0013043587281811252,0.0012669780760135086,100.0,0.01,100.0,10000.0,10000.0,0.0001,0.01,1,0.0001,0.0001
gonzalez,CELL_D,60,0.0004498577150151221,0.0007576385032537694,0.00047657518412389297,0.0005472948031718576,0.004392259634738288,0.0015517547201647371,0.0006269514732526872,0.0005148558445151096,0.0030203473110423725,0.000519936825515779,0.0012857472014793615,0.0012853967945638829,0.01,1,0.01,1,1,10000.0,0.0001,1,0.01,10000.0
gonzalez,CELL_D,65,0.000552126657116993,0.0030289429745134736,0.0005180516940639313,0.0007111312522825892,0.0005161946707627281,0.0014706769292540938,0.000682018006154511,0.0043910287046588095,0.0006116601512729306,0.000531390886272243,0.0013013221926352302,0.0012708722887249018,100.0,0.0001,100.0,10000.0,0.0001,0.0001,0.0001,10000.0,100.0,100.0
gonzalez,CELL_D,70,0.0008044837260936362,0.0014574658007338252,0.0005025576097459503,0.0005455309109582383,0.0030045671729388105,0.0005227352662751355,0.004390557869517656,0.0005035192795691932,0.0005146925249931039,0.0008027500515850441,0.0013048860212410594,0.0012662865249963601,0.0001,1,0.0001,0.0001,1,100.0,0.0001,10000.0,0.01,0.01
gonzalez,CELL_D,75,0.000467300033230538,0.0004868141832405875,0.004380944055845228,0.000555504357784515,0.0005277527219601868,0.0030074811291738762,0.00145669074067397,0.0006149444401655135,0.0008747781546057141,0.0007178810923837893,0.0013090090909063919,0.0012619716962030305,100.0,0.01,0.0001,0.01,10000.0,100.0,10000.0,0.01,0.0001,100.0
gonzalez,CELL_D,80,0.0004262884595520114,0.0005123767034946954,0.0015665571131372982,0.0006322549778044813,0.004385708206305974,0.000832437294835241,0.0005605998423909651,0.002999326891217741,0.00047117410195987185,0.0005565177680033709,0.001294324135870165,0.0012772896680304908,0.01,0.01,0.0001,0.01,100.0,10000.0,100.0,0.0001,100.0,0.0001
gonzalez,CELL_D,85,0.0029907566704515357,0.001475474092381254,0.004403187976009193,0.000775581055632052,0.000473625271480149,0.0004821532059418802,0.0005138657507553042,0.0004901758220812376,0.000843765256255296,0.0005262608702120397,0.0012974845971199943,0.0012738363339435124,100.0,10000.0,100.0,100.0,0.0001,10000.0,100.0,100.0,0.0001,100.0
gonzalez,CELL_D,90,0.004392925777327665,0.0005056059197525247,0.0016167981707898948,0.0005875341593320325,0.0005211920882235513,0.0004593050109913041,0.0004989110197925022,0.0030411491152530674,0.000590938766903293,0.00047523452121114954,0.0012689594549576987,0.0013025070007715218,0.0001,100.0,0.01,0.0001,10000.0,0.01,0.01,0.01,0.01,0.0001
gonzalez,CELL_D,95,0.000627887423736753,0.000572575916124754,0.0014521586387430372,0.0005865199124159567,0.002982028432460861,0.000501597766390339,0.0043818368364219205,0.0007464141392277206,0.000670335563749748,0.0007477209012178113,0.00132690755304889,0.001244113254757337,10000.0,0.0001,0.01,0.01,100.0,0.01,10000.0,100.0,0.0001,10000.0
gonzalez,CELL_D,100,0.0005433156374040896,0.00045930437918705687,0.0006067646950985621,0.0007418139794822242,0.0005076038118927096,0.0014555192195074508,0.0006465700331069311,0.0007472177543241186,0.004395535427986512,0.0029915243147765756,0.001309516925276623,0.0012609041369976866,100.0,0.01,10000.0,100.0,0.0001,100.0,100.0,0.0001,0.0001,0.01
gonzalez,CELL_D,105,0.00048349173034793947,0.0006006207545239283,0.0005259833348452058,0.0004965063546851697,0.005328039922376089,0.0006245078308916769,0.0005761247329387088,0.000502270101277534,0.0014822231712738124,0.0007010647222212821,0.0011320832655381348,0.0014266132290766894,0.0001,0.01,100.0,10000.0,0.01,100.0,0.01,0.0001,0.01,100.0
gonzalez,CELL_D,110,0.0007342051870700266,0.0005751500246161901,0.004441184486596661,0.0005508044248005635,0.0005162518630048817,0.0014594343111565655,0.0029909865503945977,0.0004665326251292604,0.0005437934534173292,0.0005811949862999669,0.0012859537912486042,0.0012866314583168275,10000.0,0.0001,0.01,0.0001,10000.0,10000.0,100.0,0.0001,0.0001,100.0
gonzalez,CELL_D,115,0.004388596869729946,0.0005386596613835326,0.003284813395096563,0.0006729803092733117,0.0005642419034910136,0.0007916174770122219,0.0006132752058900607,0.00047666750389443617,0.0006880491584521765,0.0008120222044499173,0.001283092368867318,0.001304251326646307,0.0001,0.01,10000.0,0.01,0.0001,1,0.01,100.0,100.0,0.01
gonzalez,CELL_D,120,0.0005128697068849426,0.0005324562077408202,0.0005081644891514694,0.0005378427367969704,0.004632814028752479,0.0005154132343967891,0.0007442491527230171,0.0009113518975282265,0.0005728137140055557,0.0005539222623851404,0.0010021897430365413,0.0012164801367000782,10000.0,100.0,0.0001,10000.0,0.0001,100.0,0.0001,1,0.01,0.01
gonzalez,CELL_D,125,0.0046395904184048506,0.00299079798787681,0.0006923236831305528,0.0005670584256382728,0.0005048860797029725,0.0005579707766392754,0.0005381787347878382,0.0005624768086472272,0.0005496144635167611,0.0005863686598527258,0.0012189266038197288,0.001350254815056302,100.0,10000.0,10000.0,0.01,0.01,100.0,100.0,0.0001,0.01,0.0001
gonzalez,CELL_D,130,0.0003895288555535576,0.0006667398192082506,0.004604022909095089,0.0005489521136361776,0.002974829885861451,0.0008354715862021351,0.0004963588462856846,0.0006749934879011811,0.0007909385509917436,0.0004456408517416455,0.0012427476906476916,0.0013313236028332709,100.0,10000.0,10000.0,100.0,0.01,10000.0,0.0001,1,10000.0,100.0
gonzalez,CELL_D,135,0.000728722097096683,0.0006423568867841352,0.0008523569130401361,0.0006042140600746671,0.0005581730991310466,0.0014868234224000164,0.0006763108604442284,0.0003954632426480372,0.0052889184873604065,0.0005052769310538142,0.001173861600003317,0.0014007029249630688,1,100.0,0.0001,1,100.0,100.0,1,100.0,10000.0,1
gonzalez,CELL_D,140,0.001518375011389635,0.0005094102573684627,0.0007834571323390704,0.0005130892352598074,0.0004715274663236123,0.00045973451105323245,0.0007473227057377148,0.002994982438549052,0.0043994604712254805,0.0006754686167825266,0.0013072827846028594,0.0012698724201233753,1,0.01,1,100.0,0.01,1,1,100.0,100.0,0.0001
gonzalez,CELL_D,145,0.00046902106330228374,0.0006528074861953865,0.0005669855711285473,0.0005212704462442768,0.0008471292164555724,0.0006623172195285914,0.00040809042433957043,0.00300439781540157,0.000626542941837208,0.004597493075933351,0.0012356055260366358,0.0013360710462259155,100.0,0.0001,0.01,0.01,0.0001,0.01,0.01,0.0001,1,0.0001
gonzalez,CELL_D,150,0.004383168625972839,0.0030080949715986234,0.0005561244623004226,0.0005262039926520597,0.00054936696253133,0.0004827162356639256,0.0006864772826802623,0.0007046477277321804,0.0014511489478188913,0.0007828567494451574,0.0013130805958395692,0.0012580324944950285,100.0,10000.0,0.0001,10000.0,1,0.01,10000.0,0.01,10000.0,0.01
gonzalez,CELL_D,155,0.0030104490321706894,0.0014530216263439588,0.0008423140664206491,0.0004980516876627946,0.0006275455586860358,0.004430241420598766,0.0004826638290780849,0.0006148154707820355,0.00041785829394346555,0.00048467065274661824,0.0012861631638433097,0.0012896043174245417,0.0001,0.0001,0.0001,100.0,1,1,0.0001,100.0,0.0001,10000.0
gonzalez,CELL_D,160,0.0008138430377166473,0.0005194070906400285,0.0015265400105088048,0.0005892998141938502,0.0006383855240134383,0.0010056147243237468,0.0006864732209721212,0.004389552272301095,0.0005287362796105566,0.0005423485806888582,0.0011240200554969149,0.0011272722723779324,1,1,1,1,1,1,1,1,0.01,1
gonzalez,CELL_D,165,0.001235591649242272,0.00046662239492731425,0.0005830904736625825,0.0007329978701356217,0.0015009426327768052,0.0005897956215108927,0.0005226328203553671,0.0007316217732196126,0.0043932544555948605,0.0005347155937142832,0.001129126528513961,0.0011343784646691674,1,1,1,1,1,1,100.0,1,1,0.01
gonzalez,CELL_D,170,0.001084722466155145,0.0006484576825446608,0.0007465132010180915,0.0005651452580908417,0.0006453668353480845,0.001477798208236054,0.0006187094847654838,0.004404824424863508,0.000521669547123511,0.0006323930431471709,0.0011345600151292552,0.0011251334432693556,1,1,1,1,1,10000.0,1,1,1,1
gonzalez,CELL_D,175,0.0007010162067337072,0.001666924571198629,0.0008181594755730676,0.0005175729862563002,0.0006843780921602598,0.0006281130712718461,0.0006095039704604014,0.0020852436701400286,0.0005219494205720136,0.0005820927234245077,0.0008814954187790762,0.0005129215370749274,1,1,10000.0,100.0,1,1,1,1,0.0001,1
gonzalez,CELL_D,180,0.0005892621723067392,0.002094426391596213,0.0014916994828801306,0.00041499093928984903,0.0007637923028449946,0.0005883141246027385,0.0010357479784992008,0.0006477115474825433,0.00046998886573473435,0.0008758190814418703,0.0008971752886679015,0.0004991739747435408,1,1,0.01,10000.0,1,1,1,1,1,1
gonzalez,CELL_D,185,0.0006216586763848405,0.0006584866920798763,0.0006537835172759869,0.0005144162032342074,0.0009067720912943056,0.001446656295423715,0.002050779419897702,0.001069901483789398,0.0007443436459737356,0.0005623653592406501,0.0009229163384594418,0.00046153149519117815,1,1,1,10000.0,1,100.0,1,1,1,1
gonzalez,CELL_D,190,0.0014491756563371513,0.000667200832425265,0.0008176882588584306,0.0004589723717888568,0.0007221763652895147,0.0005754927826850399,0.0007085450054133948,0.0005590490591388218,0.0005945101775463627,0.005291575712223116,0.0011844386221705953,0.0013934527854820636,1,10000.0,1,100.0,1,1,1,0.0001,1,1
gonzalez,CELL_D,195,0.0005405071855569557,0.0014532906546870998,0.000617613797715955,0.000746149503098913,0.0005231372610033939,0.0006017608645634126,0.0006263655078015182,0.0007451310825403124,0.0005830060231638793,0.005290008997690778,0.0011726970877822217,0.0013963393950616211,100.0,1,1,1,10000.0,1,1,100.0,0.01,0.01
gonzalez,CELL_D,200,0.0005220680867305846,0.0005340762324134105,0.0004966534416856153,0.0007133784091495401,0.0006154280267294114,0.0015009273307494925,0.0007892022386403274,0.0010687180461983956,0.0006923663722138326,0.0020606519107393946,0.0008993470095250006,0.00048449003129074334,0.01,0.0001,100.0,1,1,1,1,1,1,1
gonzalez,CELL_A1,0,0.0025812461836000116,0.017416113504647102,0.002199867089464916,0.010989565906124878,0.0018071891573043985,0.0021924281752732588,0.0016448084594392874,0.00198346887370861,0.005336718284942225,0.00164194953971833,0.004779335517422302,0.005030527939904254,10000.0,0.0001,100.0,10000.0,10000.0,10000.0,10000.0,10000.0,100.0,1
gonzalez,CELL_A1,5,0.0016006063396375642,0.0016475453249580787,0.0020241435663004106,0.005816073107903146,0.001519153315564903,0.0025540886184523357,0.011055574589918056,0.0016471997050279616,0.0015174910179130614,0.016622255258632836,0.004600413084430835,0.0049389730215187826,0.01,0.01,0.01,0.0001,0.01,0.01,10000.0,10000.0,100.0,1
gonzalez,CELL_A1,10,0.012127513376610742,0.0018701746942298748,0.016714913678898543,0.0017059599655025422,0.001475784862231988,0.002404611608126154,0.0015194947520254707,0.002665355399114777,0.0018604231668225837,0.001520228970773673,0.004386446047433636,0.005134287055152418,100.0,10000.0,0.0001,1,1,100.0,1,1,10000.0,10000.0
gonzalez,CELL_A1,15,0.001659544275305844,0.005868976072596313,0.002471720007902499,0.0015680614586619844,0.0019160944629543326,0.0014908858364454441,0.001889472025725671,0.0013205448206204885,0.016621333243785768,0.01106490872769654,0.004587154093169488,0.004952336648633426,1,0.0001,100.0,0.0001,10000.0,0.0001,100.0,100.0,0.0001,1
gonzalez,CELL_A1,20,0.016611987052250785,0.011036972497461809,0.0017336999523171195,0.0020882584034281524,0.0025991153595553928,0.0019691584800112924,0.0053773156333786045,0.0022540836981880907,0.0019381162835499393,0.0015091272898919842,0.004711783465003317,0.004835220187581871,0.01,0.01,0.01,100.0,100.0,10000.0,0.01,0.01,0.01,0.0001
gonzalez,CELL_A1,25,0.0013283849801268047,0.0014359958961990972,0.005419245740119265,0.001825091997693992,0.002408973755100337,0.016627790885563157,0.002261334351757844,0.00284341128021213,0.0019032742675844697,0.010957252705177478,0.004701075585953458,0.004844520659891168,100.0,1,10000.0,0.01,1,100.0,1,0.0001,0.01,0.0001
gonzalez,CELL_A1,30,0.002603744442184316,0.0018140384394328998,0.0017904382235318257,0.0017531811513745708,0.011083152992262394,0.0016936169303395626,0.0016697463089567189,0.0014678801393705455,0.01741129967142176,0.002459396680834248,0.004374649497970884,0.005146098358358557,1,10000.0,10000.0,10000.0,10000.0,0.01,0.01,0.01,0.01,0.01
gonzalez,CELL_A1,35,0.0017932765949546419,0.010994776317029083,0.0016380183720968125,0.0016634497308429237,0.0026878582750232975,0.0017683340699482875,0.016650383052293556,0.0019723004561252636,0.005655224780659697,0.0017088902657395326,0.00465325119147131,0.004892875795680967,0.01,100.0,1,10000.0,0.01,0.01,0.0001,100.0,1,1
gonzalez,CELL_A1,40,0.010917895050266536,0.017507678146931733,0.0019341812551846083,0.0018601612423536412,0.0014342603991155663,0.0025783482021527943,0.0018812112143722578,0.0015669240099139097,0.0023844083375628095,0.001696794408953744,0.00437618622668076,0.005144648945372073,0.0001,0.0001,10000.0,100.0,10000.0,1,0.01,0.01,0.01,10000.0
gonzalez,CELL_A1,45,0.005411050338321744,0.0017053056506858208,0.0017508119929735052,0.0017710230345680008,0.0020122189943587677,0.0018519000450854188,0.0016262519030072924,0.0026622966573723672,0.01995223835709381,0.0017442903934396907,0.004048738736690642,0.005411210465386629,1,0.0001,0.0001,1,1,10000.0,10000.0,1,10000.0,0.0001
gonzalez,CELL_A1,50,0.0016111352567538479,0.011085385639099183,0.0016262609041980353,0.0019277790977479926,0.0030645752533707,0.005496657964937687,0.01662443904665322,0.0017189180072761966,0.00162337865947622,0.0015427106799525288,0.004632124050946561,0.004911452877108331,100.0,0.01,100.0,1,100.0,10000.0,10000.0,0.0001,100.0,1
gonzalez,CELL_A1,55,0.005373857822894774,0.0015321003109734085,0.0027691449583410245,0.0018986775511143344,0.0016261280247664373,0.0020160101166281984,0.001776333431022667,0.0023110488197154683,0.019914303709185247,0.0015964237631997786,0.004081402850784134,0.005387515981461474,100.0,0.01,0.0001,0.01,10000.0,0.01,100.0,100.0,0.01,10000.0
gonzalez,CELL_A1,60,0.0022433129376989254,0.0018377120345459477,0.0016838035269538824,0.0018824223541464148,0.010980320964315518,0.0024022800849965694,0.0022902805932984117,0.001601014147272997,0.0166557670831883,0.00540950516569587,0.004698641889211283,0.004846032846707705,10000.0,10000.0,10000.0,0.01,0.01,100.0,0.01,0.01,100.0,100.0
gonzalez,CELL_A1,65,0.0018924893228085802,0.0017242582660233563,0.0020607989253484606,0.0019516726838250153,0.00172677599568475,0.011042177388151768,0.016692475379790475,0.001727387850443876,0.005723407830006828,0.0014458027922424526,0.004598724643432557,0.004944791201085812,0.0001,100.0,0.0001,0.0001,0.0001,0.01,100.0,10000.0,10000.0,0.01
gonzalez,CELL_A1,70,0.0029241840809488447,0.001938784824435509,0.010922349540741554,0.005359837917296975,0.0016332214679328626,0.0018163565710892435,0.002598494443549213,0.0016381860082587453,0.00196060855136699,0.016618443963240536,0.004741046736886047,0.004806028875170385,0.0001,0.0001,10000.0,100.0,0.01,0.0001,100.0,0.0001,0.01,0.01
gonzalez,CELL_A1,75,0.0019747360235885456,0.0026318118044429645,0.010938653746220545,0.0017077661633120437,0.0024980544029361046,0.005414675534622464,0.016720356659691463,0.002047162765968465,0.0014861829810054509,0.001505627301577322,0.004692502738336537,0.0048682301699834625,1,0.0001,100.0,0.01,0.01,100.0,0.0001,0.01,0.01,10000.0
gonzalez,CELL_A1,80,0.01985030095463868,0.0015442105840594211,0.002475808046004536,0.0018277540869701652,0.0017984504592235243,0.0019616881395033356,0.0017742884697508057,0.005409390118649359,0.002374809169634031,0.0024280437381463487,0.00414447437665802,0.005339944069371039,10000.0,0.01,0.0001,0.0001,10000.0,0.01,0.0001,10000.0,100.0,10000.0
gonzalez,CELL_A1,85,0.0017143928041211233,0.0032057695262895807,0.016612123270589772,0.001440099565133398,0.0019134087343935934,0.0054812281716869905,0.0018824575120723762,0.011007331317601402,0.001780735655904252,0.0016464852205567578,0.0046684031778349245,0.004874470866483462,0.0001,0.01,10000.0,100.0,0.0001,10000.0,0.01,0.0001,0.0001,10000.0
gonzalez,CELL_A1,90,0.0024505263207734926,0.0015138540102861528,0.0017492231292335254,0.002130524718951348,0.0021611443428435502,0.005443247706469411,0.016629861660692326,0.0025028634951619845,0.010940856162320172,0.0017525960506352867,0.004727469759736725,0.004819710453232323,0.01,10000.0,100.0,0.01,0.0001,10000.0,100.0,100.0,0.01,10000.0
gonzalez,CELL_A1,95,0.0021176081606302036,0.0015767974902487895,0.002382782794978261,0.0017680791965958428,0.010942686687068715,0.005850865434005665,0.0016946409400444057,0.0016494665111789594,0.016644509058331747,0.0033185205872761914,0.004794595686035878,0.004832314779084611,10000.0,10000.0,10000.0,10000.0,0.01,100.0,0.0001,0.01,1,1
gonzalez,CELL_A1,100,0.0056307614726342605,0.01662218478547761,0.0025685487047500473,0.0015545138584062358,0.0018844504116236603,0.002126349201363545,0.0017656579047698462,0.010920616869823872,0.0026941522439982626,0.0018116475858325175,0.0047578883038679855,0.004812815233222004,0.0001,100.0,0.0001,0.0001,10000.0,0.01,10000.0,10000.0,1,0.0001
gonzalez,CELL_A1,105,0.001728741310873041,0.01987833406923362,0.0018307052715579415,0.005387303112936558,0.002644071595671654,0.0016906975986076904,0.001702350739110566,0.0023070653063250878,0.0021163763875993898,0.0023335802186721603,0.004161922561058771,0.005341254547931412,10000.0,100.0,100.0,1,0.01,0.0001,1,1,100.0,0.01
gonzalez,CELL_A1,110,0.0023248285341786914,0.0013784308820626939,0.0013593035015444504,0.0017947897402764987,0.010928637754415157,0.005473078261698461,0.016757049433238802,0.002227283377907393,0.0025504247665159366,0.0015452061359955008,0.004633903238783358,0.004916145010460854,100.0,0.01,1,10000.0,10000.0,1,0.0001,0.0001,1,1
gonzalez,CELL_A1,115,0.0021335840006820998,0.003804446221878786,0.0015667782104171835,0.0028649120793478593,0.005403386583702023,0.016637125003566195,0.0018667083108775309,0.0015223148369804985,0.001973264801812769,0.002508503619475361,0.004028102366874032,0.004352141333539237,10000.0,1,1,1,1,100.0,1,0.0001,1,100.0
gonzalez,CELL_A1,120,0.001781896047981529,0.0016007855340644276,0.0021485052377842547,0.01208117503733148,0.0024090169382735434,0.0025376872070957505,0.016619560439116846,0.0022789163142612097,0.0021805290955045557,0.002049151335632585,0.004568722318704617,0.0050017646155780795,1,1,10000.0,100.0,10000.0,1,1,100.0,1,1
gonzalez,CELL_A1,125,0.0020749795170494473,0.005340715489203663,0.0022248879252959497,0.002183012560921305,0.0015110976051435781,0.0039053149947193637,0.0027810644921265498,0.008155222199007005,0.0021498623448232795,0.0023028858252588337,0.0032629042953548973,0.0019437352926329659,1,1,1,1,1,1,10000.0,1,1,1
gonzalez,CELL_A1,130,0.002583242687798632,0.0019826122053133526,0.0016634786404848983,0.0018407229299582481,0.01985862336218971,0.0054736602619039,0.0025075434279327735,0.001848442933110691,0.0015549623756369003,0.0021415243823030973,0.00414548132066322,0.0053473693600395965,1,1,1,10000.0,10000.0,1,1,1,1,1
gonzalez,CELL_A1,135,0.0015532558065756042,0.001905619223158487,0.0019672242244963794,0.0024439408500635663,0.0026353412098916148,0.0021656723039196863,0.009263564411340743,0.004410081564965768,0.0015572093700269658,0.0016146926767411397,0.0029516601641179953,0.0022515232022705164,1,100.0,1,1,1,1,1,1,1,1
gonzalez,CELL_A1,140,0.0021168803776093785,0.002055687084364832,0.0019153886321347626,0.007926766767162781,0.004046105169144757,0.0023902835542473173,0.0016775068199307481,0.005554914436639748,0.0018068729211011506,0.0018155110130437786,0.0031305916775379258,0.001987957002317253,1,1,10000.0,1,1,0.01,1,1,1,1
gonzalez,CELL_A1,145,0.0026667176744599817,0.0014126331441297168,0.0018480633124721326,0.0018998803485649615,0.002011464171131245,0.017422870131710382,0.0023466945252049215,0.0014165424900277823,0.0024819271085554967,0.004223228269720289,0.003773002117597691,0.004613977978449744,1,1,1,1,10000.0,100.0,1,1,1,1
gonzalez,CELL_A1,150,0.0015678014204635357,0.0017923477712765712,0.0024281711061435968,0.007874710698647735,0.005402550816242533,0.0019928611844753107,0.0019618083523057833,0.0017705351981369655,0.0043936426618918925,0.0013992185644552105,0.0030583647774039134,0.00203583129389124,1,10000.0,1,1,1,1,0.0001,100.0,1,1
gonzalez,CELL_A1,155,0.0017992575210810284,0.0023322079751536876,0.0017998841224690129,0.0027670734892517,0.0018022196860820814,0.016618177189497537,0.0020548315546425155,0.0016826406539752925,0.006715280627229834,0.002430824465356685,0.0040002397284739375,0.0044387266646391775,10000.0,1,1,1,1,10000.0,1,1,1,1
gonzalez,CELL_A1,160,0.0016771443782359829,0.0022297534355892163,0.002443008753870722,0.0019004132406103052,0.004395495457897034,0.007787047528544349,0.001572868130222377,0.002304819488556951,0.005701130052934533,0.001989344818050427,0.00320010252845119,0.0019789615263372377,1,0.01,1,1,1,1,100.0,1,1,1
gonzalez,CELL_A1,165,0.0016686284293977055,0.0023876502045176713,0.0020024457937593385,0.001733384092914584,0.0057387461543398815,0.0021484005496784087,0.001449071637695832,0.008039031246101211,0.0017387054383567965,0.010948411991774012,0.0037854475538535437,0.003152284221815211,0.0001,1,1,1,1,1,1,1,10000.0,100.0
gonzalez,CELL_A1,170,0.0023884594873537306,0.007659620165224408,0.0017559054541086553,0.0017249515648377468,0.0023941558454408374,0.003007128047813091,0.0014957259752438183,0.0023944410634481783,0.00551663519912111,0.00444199601096512,0.0032779018813556696,0.0018946427688157318,1,1,1,1,1,1,1,1,1,1
gonzalez,CELL_A1,175,0.0023578375584642776,0.001411434134259418,0.0016124101490260362,0.002071709830159559,0.016750197532681064,0.0023295809775700305,0.005530252687017877,0.0017593246965642293,0.0023303467996570325,0.004456291332706348,0.004060938569810587,0.004410161033709455,1,100.0,1,1,0.0001,1,0.01,1,1,1
gonzalez,CELL_A1,180,0.0018803994099181823,0.0018943746209297624,0.0019448128630409497,0.002039673729623933,0.007588758365580096,0.005281764112131958,0.004736029048512435,0.0013929451989035371,0.0033613584380480523,0.001855922153421877,0.003197603794011078,0.0019344289502987305,0.01,1,1,1,1,1,1,1,1,1
gonzalez,CELL_A1,185,0.001799059749928403,0.0018648297773515923,0.0015415885655077207,0.0023752615284834727,0.005512001379496585,0.0014554332450675135,0.002319983485165571,0.002175162893776289,0.007716570884347069,0.004659736374907988,0.0031419627884032206,0.0019971474282165004,1,1,1,1,1,100.0,1,1,1,1
gonzalez,CELL_A1,190,0.00760019064582788,0.005451995735488146,0.002065333391516923,0.004815534343380953,0.001950455937669733,0.001937036232786254,0.002229730984695721,0.0017048157185905843,0.0020080343807150043,0.0017874782260377676,0.0031550605596708968,0.0019508926711706777,1,100.0,1,1,1,1,1,1,1,1
gonzalez,CELL_A1,195,0.009149751805298922,0.0016744703665521584,0.004748362191383372,0.001584038964845861,0.0018359004340270137,0.0026147924000283398,0.002581773353351722,0.001703247288304139,0.001770026692447069,0.002096746862125477,0.002975911035836407,0.0022432361374924207,1,1,1,1,1,1,1,1,1,1
gonzalez,CELL_A1,200,0.0020027121186187136,0.002173212762335975,0.0019226243950143816,0.004587294709423497,0.0018720554735893213,0.00914152405719706,0.0020530954692414456,0.0025003684792826854,0.0022863759932714904,0.0017357138539006807,0.0030274977311875247,0.0021816360104321884,1,1,1,1,1,1,1,1,1,1
gonzalez,CELL_A2,0,0.0005309828135630275,0.0006273356646608915,0.0014539268205987286,0.0005911426956354018,0.0008680194983285159,0.004227235103898392,0.0006006700993115298,0.0006384282317324527,0.002940055213869023,0.0014237539671156025,0.0013901550108713567,0.001177960347213435,100.0,10000.0,0.01,10000.0,0.01,1,10000.0,10000.0,100.0,100.0
gonzalez,CELL_A2,5,0.0005575019904981735,0.0004857337212478475,0.0005952083120260655,0.0007693627927686973,0.0005233718002548927,0.0032334881054407764,0.0004565196306061439,0.004206327249634797,0.0006292485116337422,0.0006751625649802528,0.001213192467909139,0.0012750426961116179,0.01,0.01,1,10000.0,0.01,100.0,1,1,100.0,0.0001
gonzalez,CELL_A2,10,0.0005407094308825411,0.000495085007581464,0.0005896081174968862,0.002981268315202702,0.0014167319319219234,0.0005836820971329511,0.0006746488079249188,0.0005718642868642027,0.0005825100137899255,0.004208020553689403,0.0012644128562486917,0.0012232098950246135,100.0,100.0,0.0001,0.0001,10000.0,1,0.0001,1,100.0,1
gonzalez,CELL_A2,15,0.0029606504391950237,0.0005462582765940029,0.0005402422428990843,0.00047315361572822164,0.0006318242425912469,0.000529559634641267,0.0007657218163867501,0.00441098749758845,0.0004621707606596706,0.0006777995203418153,0.001199836804662553,0.0012876059746924902,10000.0,0.0001,100.0,100.0,1,1,100.0,10000.0,100.0,10000.0
gonzalez,CELL_A2,20,0.004259808711891917,0.0005177534585618162,0.0029669517188058775,0.0014357483935701163,0.0005259803263929905,0.00044677731015319223,0.000500876688856405,0.0004660526383643565,0.0005729310351824127,0.0006583751862218036,0.0012351255468000886,0.001254149884911658,1,0.0001,0.0001,1,100.0,10000.0,0.01,1,1,0.0001
gonzalez,CELL_A2,25,0.005132444898713375,0.0004957278868939177,0.0005864412711088048,0.0006434534831572865,0.00144033671367388,0.0005020859009132274,0.0005627307581486958,0.0005024851951828201,0.0006783209415862381,0.0005941421935852103,0.0011138169242963457,0.0013656039960881934,10000.0,0.01,0.0001,100.0,0.01,0.0001,0.01,100.0,1,0.01
gonzalez,CELL_A2,30,0.0007004378704137394,0.0005023602609256142,0.0007797324684703444,0.0014186073030349978,0.0005605289108867593,0.0004639733486628046,0.0042117360372039055,0.0005376291447298083,0.0029599467964277677,0.0005273351009793756,0.0012662287241735116,0.0012217468413881598,0.0001,0.0001,0.0001,1,0.01,1,10000.0,100.0,0.01,100.0
gonzalez,CELL_A2,35,0.0005058253102826092,0.004453930774707465,0.000563277180427456,0.002939501000742715,0.0005023295394431415,0.0005118633323345728,0.0005046425159911757,0.0007911908075760608,0.0005767018262073037,0.0004777839891015095,0.001182704627681401,0.0013045785556682135,10000.0,1,100.0,100.0,10000.0,0.01,100.0,0.0001,10000.0,0.0001
gonzalez,CELL_A2,40,0.0006916068731456089,0.0007542781489448108,0.00046733928303850083,0.00421055928158727,0.0005950911815627161,0.0029499862764653835,0.0014277148260243148,0.0005594408065397839,0.0004663423092866629,0.0005632088490372994,0.0012685567835632352,0.0012183876014713285,0.0001,10000.0,10000.0,0.0001,0.0001,10000.0,100.0,0.01,0.0001,1
gonzalez,CELL_A2,45,0.0005872550739968592,0.0006590741762814001,0.0004789820703040243,0.005105344683211168,0.0007147898022271573,0.0006598372691413318,0.0004890782450327223,0.0005871586126331845,0.0014534467035373128,0.0005440584222580429,0.0011279025058623202,0.0013524179885915136,1,1,10000.0,0.0001,10000.0,0.01,10000.0,10000.0,0.0001,0.0001
gonzalez,CELL_A2,50,0.0007318525434093409,0.0006258544686994003,0.001481124396979165,0.0007145207809404089,0.002945849060009616,0.0004743320920016414,0.000486452239957494,0.004209901198845975,0.0005001621412941671,0.00046713243614175177,0.0012637181358278959,0.001224460391476642,1,0.0001,100.0,1,100.0,0.0001,100.0,0.01,0.01,0.01
gonzalez,CELL_A2,55,0.0004929705933779509,0.00047856115016491643,0.0029446318178265474,0.004240758138779265,0.0005200245881849307,0.000630724407091348,0.00047545868834862485,0.0014971066661732515,0.000492567615516499,0.0006758548956144005,0.0012448658561077732,0.0012435854533387732,0.01,0.0001,1,0.0001,100.0,0.01,100.0,100.0,0.01,0.0001
gonzalez,CELL_A2,60,0.000603173606399007,0.0006166281059791492,0.0005397307772396958,0.00066504136995945,0.001430502764994713,0.0029815627898733144,0.004224185197992393,0.00048487037949752193,0.00042403351156070307,0.0005190207474098329,0.001248874925090578,0.001238742662082496,0.01,1,0.01,1,0.0001,10000.0,0.01,1,1,1
gonzalez,CELL_A2,65,0.0004301728395298045,0.000589298124109843,0.0006245440266360367,0.0009340737197094261,0.001422819688995665,0.0042122105194734305,0.002936981254822207,0.0005483486291877957,0.00045132933286061417,0.0005129807358716172,0.0012662758871196439,0.0012215092927662058,0.0001,0.0001,1,0.0001,100.0,0.0001,0.0001,100.0,100.0,100.0
gonzalez,CELL_A2,70,0.002920438234801568,0.0005579205867425051,0.0007844063980858134,0.004199048522059203,0.0005053043684143772,0.0007778309450165343,0.000547311640635374,0.0006536929924475374,0.0014043655653736564,0.0005445891771507899,0.001289490843072736,0.00119648269798916,0.01,100.0,100.0,100.0,0.01,100.0,0.01,10000.0,0.0001,100.0
gonzalez,CELL_A2,75,0.0006601108380117077,0.0015464013657518676,0.00047228772261685166,0.0029352002570095263,0.004201712779795339,0.0004522972948263704,0.0006231967234226573,0.0006946679189219813,0.0004662480257841888,0.0005690375175428394,0.001262116044368333,0.001225042136745072,100.0,100.0,0.0001,100.0,0.0001,0.01,1,0.0001,0.0001,0.0001
gonzalez,CELL_A2,80,0.0007918849483214795,0.000628355186019156,0.0005083320576010586,0.0014893371777432755,0.005111614114618617,0.00055719976059146,0.0005437836991151985,0.0005007142199554755,0.0004950942619427375,0.0005029926623790846,0.0011129308088287542,0.00136366765330276,0.0001,100.0,100.0,100.0,10000.0,0.01,0.0001,0.0001,0.0001,0.0001
gonzalez,CELL_A2,85,0.0042114834733085185,0.0004723956013223948,0.0005269132908078659,0.0004490751540178805,0.0007561426077923255,0.001396251410985732,0.0005605954560925433,0.000755692630360923,0.0006422148364569465,0.0029523301849313545,0.0012723094646076483,0.0012160034828395004,100.0,0.0001,0.01,0.0001,10000.0,10000.0,0.0001,10000.0,10000.0,10000.0
gonzalez,CELL_A2,90,0.0029373581358802547,0.0004934730525491058,0.0005084292002606046,0.00047308646870320657,0.004216669902039866,0.0007986796318598204,0.0006022328826314733,0.0015055432812159434,0.0005364756280618757,0.0005013955650368497,0.0012573343748239,0.0012301115833622742,100.0,100.0,0.0001,0.01,10000.0,0.0001,0.0001,0.0001,0.01,100.0
gonzalez,CELL_A2,95,0.0006621112437504269,0.0007324341439955555,0.005101947711923545,0.0005323260791134192,0.0005218795161091894,0.0005097451377371413,0.000600434969232064,0.0005026186610108301,0.0007048342320893464,0.0014310929810965947,0.0011299424676058112,0.001349464975604379,10000.0,10000.0,0.01,0.01,0.0001,0.0001,10000.0,100.0,10000.0,10000.0
gonzalez,CELL_A2,100,0.00046183214310345846,0.004215451396062328,0.001437573669634213,0.0006125846410052529,0.0007206974907828998,0.0005121500383600556,0.0007938240321272683,0.0004653223938971352,0.0005352965648292822,0.002937393332882875,0.0012692125702684766,0.0012189913033879309,100.0,0.01,100.0,10000.0,10000.0,0.0001,0.0001,10000.0,0.0001,0.0001
gonzalez,CELL_A2,105,0.0004650125365316583,0.0004568352095178654,0.00047135253127236515,0.0014320927660388674,0.0005305647637160043,0.0005260143824878126,0.0006175514641058818,0.0006734586662034452,0.0030001508752430122,0.004226934391935922,0.0012399967587052834,0.00124832145155026,10000.0,0.01,100.0,100.0,0.01,10000.0,100.0,0.0001,10000.0,0.0001
gonzalez,CELL_A2,110,0.0004953723912030136,0.0006195958205822529,0.0005251381408568769,0.0005191130324986139,0.0005405163250798572,0.002980996982591779,0.0005519597813946912,0.004423450389622759,0.0005309168310697576,0.0006794263379722196,0.0011866486032871821,0.001299490623489879,100.0,0.01,10000.0,100.0,0.01,100.0,100.0,0.01,0.01,100.0
gonzalez,CELL_A2,115,0.0007136047452472876,0.000749438738039754,0.0004464583345539319,0.0014443698767124776,0.002937653664421923,0.0005986016156795861,0.004230582124890657,0.0004894066794532624,0.00045682892126812136,0.0005310548885365941,0.0012597999588803597,0.001228887671574615,10000.0,100.0,100.0,100.0,100.0,100.0,0.0001,100.0,10000.0,0.0001
gonzalez,CELL_A2,120,0.002923248174635797,0.0005222641333740347,0.0005692378739536973,0.0007822674298164389,0.0005501353289547185,0.0005380156084866596,0.0005156098691928756,0.004419178826809225,0.0006172884457334441,0.0006534763202322657,0.0012090722011189156,0.0012779177974829895,0.0001,100.0,0.01,0.0001,0.01,100.0,100.0,10000.0,0.0001,100.0
gonzalez,CELL_A2,125,0.0005858288677531475,0.0007139383532662309,0.004208927778483086,0.001410442276384408,0.0029380354037252675,0.0007818865291420866,0.0005003548616935614,0.00040795199584978315,0.0006827415012663789,0.0005232690524041812,0.0012753376619968134,0.0012121298291961982,100.0,10000.0,0.01,0.01,0.01,100.0,0.0001,0.0001,0.01,0.0001
gonzalez,CELL_A2,130,0.005130504273242597,0.0005625897311826966,0.0008045569397895321,0.0005650752462856501,0.0005074260061230122,0.0004545827442221131,0.000554924459071829,0.0004229733951245236,0.0014638628846838032,0.0005956851108512267,0.0011062180790576983,0.0013717408060606212,0.01,100.0,100.0,10000.0,0.01,0.01,1,100.0,10000.0,100.0
gonzalez,CELL_A2,135,0.0007587181843533457,0.0007365526189568094,0.002935922541981269,0.0006249253936196508,0.0005381488627980615,0.0004124657132293282,0.0005277198874897377,0.0042422736328302105,0.0005627267131004693,0.001412548302042019,0.00127520018504009,0.0012212305647346078,10000.0,1,0.0001,10000.0,0.0001,10000.0,0.0001,100.0,100.0,0.0001
gonzalez,CELL_A2,140,0.0004908787479620784,0.002940084356653756,0.0006446275953807311,0.0005819756114145357,0.0008684888608978205,0.00048816204088781895,0.0004535512797197602,0.00421794281692822,0.0005888492481190295,0.0014118020699637628,0.0012686362627927512,0.0012195971719122874,0.0001,0.01,0.01,0.0001,0.01,0.0001,100.0,100.0,0.01,100.0
gonzalez,CELL_A2,145,0.0005230708598658497,0.000567503694554315,0.0004468020519647227,0.0014015463080319336,0.0004883446185985695,0.0008333016489211648,0.00047894505279408734,0.0006327754812823599,0.0029768796649694974,0.004213144595957965,0.0012562313976940465,0.0012309963303569888,100.0,0.01,0.0001,100.0,0.0001,10000.0,0.01,10000.0,10000.0,0.0001
gonzalez,CELL_A2,150,0.0004742390650931756,0.0032211582915249335,0.0005738048160877624,0.0005136437270847017,0.0006145808956086428,0.0005541342488572977,0.0005533964329465157,0.0006131963235698162,0.0008603998875230325,0.004211771506496526,0.0012190325194792403,0.0012719976971444207,0.0001,0.0001,10000.0,0.01,0.0001,1,0.0001,0.01,0.0001,0.01
gonzalez,CELL_A2,155,0.0006050189913202323,0.0007355957355861503,0.0005337182505268732,0.0015210868424735,0.00044018228269865253,0.0029292239000294953,0.0005751588655939687,0.0042081950170843015,0.0005253792244280071,0.0005890771264270574,0.0012662636236168237,0.001220996932254151,0.0001,10000.0,10000.0,0.01,0.0001,0.0001,100.0,100.0,0.0001,0.0001
gonzalez,CELL_A2,160,0.0005079754562153061,0.0042207718531736575,0.0014463263709978671,0.00045688027619495797,0.000634675536616063,0.0007509799798135908,0.0007907242784571531,0.002931545477115955,0.0005697257657236379,0.0004601571255417568,0.0012769762119849944,0.0012161081762426015,0.01,0.0001,0.01,10000.0,0.0001,0.0001,1,0.0001,10000.0,10000.0
gonzalez,CELL_A2,165,0.0004728551251657017,0.0005325388869119671,0.00046382654775533244,0.0005891839560933924,0.0007043055872166738,0.004414590779626025,0.0005596369219179985,0.0008482474605561653,0.0009704458923618243,0.000515937151425008,0.0010071568309030087,0.00114678443224189,0.01,10000.0,10000.0,0.0001,0.01,0.0001,0.0001,0.01,1,1
gonzalez,CELL_A2,170,0.0029328224049500265,0.000555128804762118,0.00047318136944793826,0.000755228993330871,0.000452934045004732,0.000617037511486267,0.0042541097084110935,0.0014735317237299646,0.00043945015055278603,0.0004579339745586289,0.0012411358686234425,0.0012472832035024986,10000.0,100.0,0.0001,0.01,0.01,0.01,10000.0,100.0,100.0,0.01
gonzalez,CELL_A2,175,0.00048315331376835564,0.0014525953412189193,0.0005985847499681302,0.0029495583416611036,0.0007817215385122448,0.004220952058049476,0.0005078515704775526,0.0007102696451133537,0.0004787012297627944,0.0005092225493324197,0.001269261033786435,0.0012235120041693176,100.0,100.0,1,0.01,100.0,0.0001,0.01,0.01,1,0.0001
gonzalez,CELL_A2,180,0.002923313560637571,0.001410793138172401,0.0005477074744918534,0.0004925107619981438,0.000494855060216781,0.0008299155244909619,0.0008120271554172011,0.0005374816180947123,0.004203158384010046,0.0005750871303933374,0.001282684980792301,0.0012043680371578507,0.0001,0.0001,0.01,0.01,10000.0,100.0,0.0001,0.0001,0.0001,0.0001
gonzalez,CELL_A2,185,0.0005657696824927204,0.0005987034905345054,0.0006632911325381384,0.0005739267316224652,0.0009205007177497285,0.0005038218066162084,0.0006128840577399819,0.0005700176292796599,0.004441342673375595,0.0005326694471424202,0.0009982927369091422,0.0011529514634065273,0.01,1,0.0001,0.0001,1,10000.0,1,1,0.01,100.0
gonzalez,CELL_A2,190,0.0008564869452836643,0.0044117569359444905,0.0005563366026142295,0.0006347583844462515,0.002929568595809851,0.0005205292395349753,0.0004557292400428096,0.0006394853911853122,0.0005498850912632208,0.0006150497758200894,0.0012169586201944895,0.0012747677565555838,1,0.0001,10000.0,10000.0,0.01,1,0.0001,0.01,0.01,100.0
gonzalez,CELL_A2,195,0.004202704549214197,0.0014533970654112556,0.0004552064783251155,0.0029520385853917274,0.0008331857250571889,0.0005317111492852704,0.0006462042389229473,0.0005222115541864362,0.0005713518894536684,0.0005136139530378302,0.0012681625188285636,0.001219504565897356,100.0,100.0,0.0001,10000.0,0.01,0.01,0.0001,0.01,100.0,10000.0
gonzalez,CELL_A2,200,0.000569496822551966,0.0007605272175338163,0.0009570232497009712,0.0005371434472963739,0.0007784519777841886,0.0004622614764350747,0.00047096422195130725,0.004204498759876173,0.0008544904504771681,0.001404981785500215,0.0010999839409107255,0.0010691546278414467,1,1,1,100.0,1,100.0,100.0,1,10000.0,0.01
