Model,Class,T_bound,score1,score2,score3,score4,score5,score6,score7,score8,score9,score10,score_avg,score_stdev,alpha1,alpha2,alpha3,alpha4,alpha5,alpha6,alpha7,alpha8,alpha9,alpha10
rana,CELL_H,0,0.005718223455200763,0.006397005602066981,0.0063886855556896304,0.0051809204663772835,0.004748120635660181,0.004748145128697878,0.004022320902121143,0.004101283937267422,0.004394525360494472,0.0036374899234437033,0.004933672096701946,0.0009218519285658885,1,1,1,1,1,1,1,1,1,1
rana,CELL_H,5,0.005579475497092284,0.006484043179292442,0.006307644644562538,0.005163483367570794,0.004748472279951873,0.004751936867611848,0.004050631879081862,0.0039211892029346685,0.0042779337973962205,0.003631372164792825,0.004891618288028736,0.0009349773907154999,1,1,1,1,1,1,1,1,1,1
rana,CELL_H,10,0.005579475497092284,0.006484043179292442,0.006307644644562538,0.005163483367570794,0.004748472279951873,0.004751936867611848,0.004050631879081862,0.0039211892029346685,0.0042779337973962205,0.003631372164792825,0.004891618288028736,0.0009349773907154999,1,1,1,1,1,1,1,1,1,1
rana,CELL_H,15,0.004344663070945376,0.0051840633621215455,0.004876771490306083,0.0037985827793385867,0.003495082512616633,0.00335162823983216,0.0028518748718829932,0.003036558940163866,0.003184732864153831,0.0033616268546234254,0.0037485584985984498,0.0007544392556252144,1e-07,1e-07,1e-07,1e-07,1e-07,1e-07,1e-07,1e-07,1e-07,1e-07
rana,CELL_H,20,0.003902652941045524,0.0043913713599942885,0.003924071743547656,0.0031273829866780892,0.0029320592139955044,0.002758683509164992,0.0028212781772236867,0.002729380983033406,0.0025254061264585958,0.00287078596488581,0.0031983073006027546,0.0006031198143230764,1e-07,1e-07,1e-07,1e-07,1e-07,1e-07,1e-07,1e-07,1e-07,1e-07
rana,CELL_H,25,0.0037778390978228603,0.004421333185690909,0.003965767296964665,0.0032000321315012953,0.0029436172975296493,0.002580522897229288,0.0026576650448997406,0.0026343738198794237,0.0026976729839860076,0.002817361906563802,0.0031696185662067637,0.0006216920864940231,1e-07,1e-07,1e-07,1e-07,1e-07,1e-07,1e-07,1e-07,1e-07,1e-07
rana,CELL_H,30,0.003838245921733693,0.004467458178731575,0.003987729536964839,0.003272789210833804,0.0029715861832776158,0.0025766111489404753,0.0027242894224255776,0.0027099747065115745,0.0027923716607948026,0.002804856080175684,0.0032145912050389643,0.0006218526035071278,1e-07,1e-07,1e-07,1e-07,1e-07,1e-07,1e-07,1e-07,1e-07,1e-07
rana,CELL_H,35,0.003643320612184168,0.0045322568463892834,0.0038353322114097273,0.0033626632913738574,0.0030666512291045453,0.00263544736158948,0.002827369972213275,0.002623725509166782,0.0027410073819252516,0.0028843358126933896,0.0032152110228049757,0.000593042931686245,1e-07,1e-07,1e-07,1e-07,1e-07,1e-07,1e-07,1e-07,1e-07,1e-07
rana,CELL_H,40,0.0036643237627826987,0.00451295967984889,0.0037509841018190334,0.003392335321444403,0.003101898981246956,0.002643231500715144,0.0029344623492491575,0.0027452975123682033,0.002900078926954745,0.002911147837011015,0.003255671997344024,0.000549482493903532,1e-07,1e-07,1e-07,1e-07,1e-07,1e-07,1e-07,1e-07,1e-07,1e-07
rana,CELL_H,45,0.003583254642624261,0.004471122382795914,0.0038165146147317772,0.0033095743083908628,0.003142788256114417,0.0026037006580743845,0.0030494090816343272,0.002915150197106911,0.0028221612609188704,0.002849773100882901,0.0032563448503274625,0.0005339540924207038,1e-07,1e-07,1e-07,1e-07,1e-07,1e-07,1e-07,1e-07,1e-07,1e-07
rana,CELL_H,50,0.0036012775631160043,0.004482474037203105,0.003888470356507257,0.0034203792261807034,0.003251311173387014,0.0026051165717838813,0.0030170833545258447,0.002916595285972787,0.002838268877039416,0.002865012572821569,0.0032885989018537577,0.0005443515373612437,1e-07,1e-07,1e-07,1e-07,1e-07,1e-07,1e-07,1e-07,1e-07,1e-07
rana,CELL_H,55,0.003597436106833936,0.004506256677866006,0.00390547715711977,0.003482483025103963,0.003359077433494231,0.0026797365385589134,0.0030174355364259247,0.0029890125971536257,0.002859984692427129,0.0029535284115416644,0.0033350428176525163,0.0005300542274294198,1e-07,1e-07,1e-07,1e-07,1e-07,1e-07,1e-07,1e-07,1e-07,1e-07
rana,CELL_H,60,0.0036779051834546234,0.004518301090117652,0.004040982214535939,0.0034360874877786825,0.003345645486690691,0.002802534940804005,0.0031315635111306027,0.003176826531597591,0.0028093622841565817,0.002851899189346041,0.003379110791961241,0.0005354135225037464,1e-07,1e-07,1e-07,1e-07,1e-07,1e-07,1e-07,1e-07,1e-07,1e-07
rana,CELL_H,65,0.003633323719869992,0.004615903849837425,0.004090098109436914,0.0034363763621335867,0.0034024926633135313,0.0028100724822202037,0.0032503155573528728,0.003221683270609419,0.0028429001820934343,0.002912446393633373,0.0034215612590500753,0.0005436969372641038,1e-07,1e-07,1e-07,1e-07,1e-07,1e-07,1e-07,1e-07,1e-07,1e-07
rana,CELL_H,70,0.003732050259357731,0.004676557435222971,0.004187657424264469,0.0035140894053619347,0.0034305482179583344,0.002865244006153272,0.0032772075448691865,0.0033342334626633723,0.0029573109037303964,0.0030028988293429285,0.00349777974889246,0.0005419992107357341,1e-07,1e-07,1e-07,1e-07,1e-07,1e-07,1e-07,1e-07,1e-07,1e-07
rana,CELL_H,75,0.0037380217317406605,0.004744150644462178,0.0042722535708677135,0.0036312682051855166,0.003481118365899431,0.0028142887677650493,0.0032854042211103345,0.00335084533123921,0.0030014702011806936,0.003171842252719964,0.003549066329217075,0.0005558031472328368,1e-07,1e-07,1e-07,1e-07,1e-07,1e-07,1e-07,1e-07,1e-07,1e-07
rana,CELL_H,80,0.0038324064774711555,0.004751562501358992,0.0043840714725667225,0.0036959199689018648,0.003639103272598463,0.002928688489396145,0.003392109647339664,0.00349424781188202,0.003043836015720255,0.003143858546211603,0.0036305804203446883,0.0005494269374759,1e-07,1e-07,1e-07,1e-07,1e-07,1e-07,1e-07,1e-07,1e-07,1e-07
rana,CELL_H,85,0.003883149879539453,0.004831958603096467,0.004336039350229451,0.0036220030191727354,0.0036627256783550695,0.002913888466559686,0.003315115025449261,0.00363410636746709,0.002940635865038239,0.0033935105437991856,0.003653313279870664,0.0005609024916977382,1e-07,1e-07,1e-07,1e-07,1e-07,1e-07,1e-07,1e-07,1e-07,1e-07
rana,CELL_H,90,0.004036662516843567,0.004856160990593712,0.004332207207501048,0.0036934603913120964,0.0037151782215781577,0.002885214621971265,0.003318940929167998,0.003789651493885581,0.003004537822265257,0.003436448356447924,0.0037068462551566607,0.000567431581776778,1e-07,1e-07,1e-07,1e-07,1e-07,1e-07,1e-07,1e-07,1e-07,1e-07
rana,CELL_H,95,0.004077819361918867,0.004840148720438813,0.0043724076324619604,0.003671378251700338,0.0037796948293388304,0.002994300657680617,0.003320065690448343,0.0038651182465884717,0.0031773244499233785,0.0035414712026908424,0.0037639729043190463,0.0005318844358962028,1e-07,1e-07,1e-07,1e-07,1e-07,1e-07,1e-07,1e-07,1e-07,1e-07
rana,CELL_H,100,0.004122973627293702,0.004935347228139632,0.004496573070461775,0.0037822592761523684,0.0038612315649864492,0.0030567720858777343,0.0033772436643075055,0.003836872150249639,0.0034460214982608888,0.0035103411808709547,0.0038425635346600656,0.0005297320120801925,1e-07,1e-07,1e-07,1e-07,1e-07,1e-07,1e-07,1e-07,1e-07,1e-07
rana,CELL_H,105,0.0039236371216604836,0.005006004459686725,0.0044558630102832265,0.003669389556573747,0.003901957389026058,0.0032010186822692133,0.003341454285776506,0.003984277313372952,0.003478027003876903,0.003604208204501089,0.00385658370270269,0.000513841257836742,1e-07,1e-07,1e-07,1e-07,1e-07,1e-07,1e-07,1e-07,1e-07,1e-07
rana,CELL_H,110,0.003960239307635938,0.005099953353436432,0.0044495985319746795,0.0036752154688683924,0.0038719099012084622,0.003222666576133097,0.0035057931372498934,0.004041258940124293,0.003596310767754543,0.003550508412873242,0.003897345439725898,0.0005143274509770991,1e-07,1e-07,1e-07,1e-07,1e-07,1e-07,1e-07,1e-07,1e-07,1e-07
rana,CELL_H,115,0.004164508912202616,0.005192302945240392,0.004387629633352347,0.0036428734162250414,0.004035041133592818,0.003315493634617911,0.003513198648883133,0.00428852999888888,0.003502600608656377,0.0035928033598794447,0.003963498229153896,0.0005400313927356634,1e-07,1e-07,1e-07,1e-07,1e-07,1e-07,1e-07,1e-07,1e-07,1e-07
rana,CELL_H,120,0.004329876444667277,0.005015311882828143,0.0044584733401088275,0.0036016735852428313,0.0038669750061548205,0.0032491571134274197,0.003430319593638614,0.004297185850278547,0.003557672721687595,0.003767200251212525,0.0039573845789246595,0.0005229285526517646,1e-07,1e-07,1e-07,1e-07,1e-07,1e-07,1e-07,1e-07,1e-07,1e-07
rana,CELL_H,125,0.00422067379495022,0.004953219653264106,0.004594558739319735,0.003779987535051662,0.003903249327890641,0.0034194045344482344,0.003426985329565354,0.004200157170991483,0.0033763923818988894,0.003835314575300594,0.003970994304268091,0.0004981651482991918,1e-07,1e-07,1e-07,1e-07,1e-07,1e-07,1e-07,1e-07,1e-07,1e-07
rana,CELL_H,130,0.0043281604492509855,0.005120041967304388,0.004560981717856808,0.0038679991892247184,0.003976937695559729,0.003569304023329718,0.003415793469951889,0.00424094003240755,0.003459550157308503,0.003983388231719013,0.00405230969339133,0.0005044489267555047,1e-07,1e-07,1e-07,1e-07,1e-07,1e-07,1e-07,1e-07,1e-07,1e-07
rana,CELL_H,135,0.004457744017835075,0.005336985681643366,0.004645291970859074,0.003930425586452083,0.004072505463843068,0.0035965613674767576,0.0036270620064847575,0.004230195630903712,0.0035844265411765865,0.003986674157558645,0.004146787242423311,0.0005230496253535965,1e-07,1e-07,1e-07,1e-07,1e-07,1e-07,1e-07,1e-07,1e-07,1e-07
rana,CELL_H,140,0.004506054354192495,0.00521484640488667,0.004607661985051748,0.003814303738854381,0.003928900095825186,0.003688064538588487,0.0037179446787207683,0.004180230798654505,0.0036582867388233946,0.003941247114000049,0.0041257540447597685,0.0004808487617319868,1e-07,1e-07,1e-07,1e-07,1e-07,1e-07,1e-07,1e-07,1e-07,1e-07
rana,CELL_H,145,0.004369761700550585,0.00519326425962802,0.004553779496058548,0.003920633573768892,0.003987603124023917,0.0037206712035584228,0.003632430132487643,0.004061151862153826,0.00344486029407348,0.004030224858280538,0.004091438050458388,0.00048125709860827814,1e-07,1e-07,1e-07,1e-07,1e-07,1e-07,1e-07,1e-07,1e-07,1e-07
rana,CELL_H,150,0.004455133207242851,0.005217425779775458,0.004500951678355667,0.00404311305635176,0.004100711534242504,0.0037573153400323194,0.0037579619232499892,0.0041597481431772726,0.0035128930509936624,0.004140257144669291,0.004164551085809078,0.00045622344201306836,1e-07,1e-07,1e-07,1e-07,1e-07,1e-07,1e-07,1e-07,1e-07,1e-07
rana,CELL_H,155,0.004349951246958697,0.00528253809588276,0.00444431013320167,0.004102128250795738,0.004130474962627621,0.0038436950090978005,0.003856590696747327,0.004183213286686097,0.0035417615891499207,0.004192526501790287,0.004192718977293791,0.0004411850714183925,1e-07,1e-07,1e-07,1e-07,1e-07,1e-07,1e-07,1e-07,1e-07,1e-07
rana,CELL_H,160,0.004519877208283846,0.005299351817045196,0.0045858348957757205,0.004235833962486583,0.004046845775696,0.004235316956200796,0.003973920694709008,0.004336982631249393,0.003717368697340701,0.004223780998356193,0.004317511363714343,0.0004063295937065731,1e-07,1e-07,1e-07,1e-07,1e-07,1e-07,1e-07,1e-07,1e-07,1e-07
rana,CELL_H,165,0.004421978403293274,0.005474426472854069,0.004942524891403727,0.00419592747931457,0.004114001454012251,0.004276068991191773,0.0039053588273359474,0.0042657203905250626,0.0038508593410311064,0.004247263387705586,0.004369412963866736,0.0004654285532724459,1e-07,1e-07,1e-07,1e-07,1e-07,1e-07,1e-07,1e-07,1e-07,1e-07
rana,CELL_H,170,0.0043284775003983944,0.005669957048785657,0.004790447158314028,0.004183726617326607,0.004001312125426878,0.004275729784841462,0.004318158385643711,0.0043709834407107,0.003771363213748197,0.004138319231145826,0.004384847450634147,0.0004960271855204112,1e-07,1e-07,1e-07,1e-07,1e-07,1e-07,1e-07,1e-07,1e-07,1e-07
rana,CELL_H,175,0.004353375276426079,0.005688850507394225,0.004901092174383175,0.004264980274211603,0.0041061392098336105,0.004351397995474412,0.00449361921178549,0.004426751510868106,0.003714151044117317,0.004377789441110667,0.004467814664560468,0.0004955525723620013,1e-07,1e-07,1e-07,1e-07,1e-07,1e-07,1e-07,1e-07,1e-07,1e-07
rana,CELL_H,180,0.005579475497092284,0.006484043179292442,0.006307644644562538,0.005163483367570794,0.004748472279951873,0.004751936867611848,0.004050631879081862,0.0039211892029346685,0.0042779337973962205,0.003631372164792825,0.004891618288028736,0.0009349773907154999,1,1,1,1,1,1,1,1,1,1
rana,CELL_H,185,0.005579475497092284,0.006484043179292442,0.006307644644562538,0.005163483367570794,0.004748472279951873,0.004751936867611848,0.004050631879081862,0.0039211892029346685,0.0042779337973962205,0.003631372164792825,0.004891618288028736,0.0009349773907154999,1,1,1,1,1,1,1,1,1,1
rana,CELL_H,190,0.005579475497092284,0.006484043179292442,0.006307644644562538,0.005163483367570794,0.004748472279951873,0.004751936867611848,0.004050631879081862,0.0039211892029346685,0.0042779337973962205,0.003631372164792825,0.004891618288028736,0.0009349773907154999,1,1,1,1,1,1,1,1,1,1
rana,CELL_H,195,0.005579475497092284,0.006484043179292442,0.006307644644562538,0.005163483367570794,0.004748472279951873,0.004751936867611848,0.004050631879081862,0.0039211892029346685,0.0042779337973962205,0.003631372164792825,0.004891618288028736,0.0009349773907154999,1,1,1,1,1,1,1,1,1,1
rana,CELL_H,200,0.005579475497092284,0.006484043179292442,0.006307644644562538,0.005163483367570794,0.004748472279951873,0.004751936867611848,0.004050631879081862,0.0039211892029346685,0.0042779337973962205,0.003631372164792825,0.004891618288028736,0.0009349773907154999,1,1,1,1,1,1,1,1,1,1
rana,CELL_D,0,0.0009829756203951158,0.0010520374248553762,0.001083009339015463,0.0008723760450669502,0.000799988283627044,0.0007994772968013118,0.0006875478337605837,0.0006914332695277551,0.0007525058521429375,0.0006171744043924812,0.0008338525369585018,0.00015198321189333126,1,1,1,1,1,1,1,1,1,1
rana,CELL_D,5,0.0009621740772162446,0.0010600504506611368,0.0010722015810399768,0.0008680823582426401,0.0007998618141246208,0.0008000254129974877,0.0006919839596264504,0.0006578244592533933,0.0007337186415367559,0.0006174279603452259,0.0008263350715043931,0.00015340383103830632,1,1,1,1,1,1,1,1,1,1
rana,CELL_D,10,0.0009621740772162446,0.0010600504506611368,0.0010722015810399768,0.0008680823582426401,0.0007998618141246208,0.0008000254129974877,0.0006919839596264504,0.0006578244592533933,0.0007337186415367559,0.0006174279603452259,0.0008263350715043931,0.00015340383103830632,1,1,1,1,1,1,1,1,1,1
rana,CELL_D,15,0.0007532414517767315,0.0008627588947509423,0.0008303813121253617,0.0006394936194288392,0.0005994277563011462,0.0005656182396479545,0.0004984582267043222,0.0005092279801995907,0.0005383821847596486,0.0005822548884210253,0.0006379244554115561,0.00012514879121802044,1e-07,1e-07,1e-07,1e-07,1e-07,1e-07,1e-07,1e-07,1e-07,1e-07
rana,CELL_D,20,0.0006669491542964246,0.0007360676490735386,0.0006722605727933,0.0005332179895553342,0.000501325146524194,0.0004843002434318424,0.0004950699187281993,0.00047236180365720136,0.0004283617133834943,0.0005043266968009708,0.0005494240888244499,9.804940981459167e-05,1e-07,1e-07,1e-07,1e-07,1e-07,1e-07,1e-07,1e-07,1e-07,1e-07
rana,CELL_D,25,0.0006495971934046399,0.0007444537252544184,0.0006749295869166157,0.0005457242510910925,0.0004999674886322226,0.0004631017522327648,0.00046308925511492834,0.0004579285215551296,0.0004607169728543498,0.0005005634319480554,0.0005460072179004217,9.98492555814381e-05,1e-07,1e-07,1e-07,1e-07,1e-07,1e-07,1e-07,1e-07,1e-07,1e-07
rana,CELL_D,30,0.000664672493919888,0.0007520529831000791,0.0006780297975240033,0.0005581115618516569,0.0005037451069148519,0.00046129396971407113,0.00046884619055426874,0.00046868653804876755,0.0004752318820536639,0.0004968282770810978,0.0005527498800762348,0.00010098544218434575,1e-07,1e-07,1e-07,1e-07,1e-07,1e-07,1e-07,1e-07,1e-07,1e-07
rana,CELL_D,35,0.0006325394724193034,0.0007677545594589132,0.0006525580461098556,0.0005712750402562953,0.0005186288248159844,0.00046579086769979374,0.0004884849828534638,0.00045476415476300756,0.0004727932493236771,0.0005098736548702517,0.0005534462852570546,9.673785302695169e-05,1e-07,1e-07,1e-07,1e-07,1e-07,1e-07,1e-07,1e-07,1e-07,1e-07
rana,CELL_D,40,0.0006358212290052864,0.0007622359127709715,0.0006388488943204355,0.0005807328339938647,0.0005176195854763245,0.00047080412642112825,0.000510423488079349,0.00047830721365339,0.0004981517552830923,0.0005151054634296899,0.0005608050502433533,8.83249742296156e-05,1e-07,1e-07,1e-07,1e-07,1e-07,1e-07,1e-07,1e-07,1e-07,1e-07
rana,CELL_D,45,0.0006136599860272956,0.0007562311492350833,0.0006525147069925145,0.0005657458477196611,0.0005213523201008005,0.0004614242720657268,0.0005275122084065569,0.0005157651295829208,0.00048215022077431846,0.0005049530161791413,0.000560130885708402,8.561053014195838e-05,1e-07,1e-07,1e-07,1e-07,1e-07,1e-07,1e-07,1e-07,1e-07,1e-07
rana,CELL_D,50,0.0006274748000719217,0.0007632906000553391,0.0006636302850185688,0.0005874685550069286,0.0005354375930885192,0.00045910178286881514,0.000520342462570612,0.0005183075957923466,0.0004892162628784673,0.0005095606696905383,0.0005673830607042056,8.858768578603688e-05,1e-07,1e-07,1e-07,1e-07,1e-07,1e-07,1e-07,1e-07,1e-07,1e-07
rana,CELL_D,55,0.0006255920461551897,0.0007636171675821821,0.0006658123934571421,0.0005910826917032157,0.0005460095457480951,0.00046820982303001174,0.000523244343485371,0.0005296068481440573,0.0004940694587146771,0.0005287076391127411,0.0005735951957132683,8.502841278586282e-05,1e-07,1e-07,1e-07,1e-07,1e-07,1e-07,1e-07,1e-07,1e-07,1e-07
rana,CELL_D,60,0.0006392007697193331,0.0007614387467789041,0.0006825158720753787,0.0005807048638750746,0.0005417467771389759,0.0004870566777484594,0.0005467655565281927,0.0005600271615833983,0.00048281338182270053,0.0005081558087324529,0.0005790425616002871,8.55205374368985e-05,1e-07,1e-07,1e-07,1e-07,1e-07,1e-07,1e-07,1e-07,1e-07,1e-07
rana,CELL_D,65,0.0006339024193375586,0.0007812009979291183,0.0006895122278209147,0.0005777522198422166,0.0005511880566256075,0.0004859154008040703,0.0005571852131393556,0.0005637835916701922,0.00048292665872661953,0.0005169377412806806,0.0005840304527176334,8.893169052211147e-05,1e-07,1e-07,1e-07,1e-07,1e-07,1e-07,1e-07,1e-07,1e-07,1e-07
rana,CELL_D,70,0.0006480587367446153,0.0007944949828048123,0.0007113055190895047,0.0005892744214636852,0.000556771541543362,0.0004935806198829313,0.0005608916475403135,0.0005777725388438249,0.0005008504342852053,0.0005284721374222538,0.0005961472579620508,9.091624704601348e-05,1e-07,1e-07,1e-07,1e-07,1e-07,1e-07,1e-07,1e-07,1e-07,1e-07
rana,CELL_D,75,0.000647049262599406,0.0008260055301483192,0.0007140838649206923,0.0005985354916792843,0.0005671813387362314,0.00048352416642224343,0.0005639100553895674,0.0005781703541243387,0.0005065910739997374,0.0005609454012099018,0.0006045996539229722,9.631771833132363e-05,1e-07,1e-07,1e-07,1e-07,1e-07,1e-07,1e-07,1e-07,1e-07,1e-07
rana,CELL_D,80,0.0006622660685780343,0.0008274592736513439,0.0007293051208772442,0.0006231082653894615,0.00059420652215748,0.0005057364105336726,0.0005826871679600719,0.0006187316489683283,0.000512971702623961,0.0005591317972637052,0.0006215603978003302,9.32920228087245e-05,1e-07,1e-07,1e-07,1e-07,1e-07,1e-07,1e-07,1e-07,1e-07,1e-07
rana,CELL_D,85,0.0006676364333509207,0.0008492645109150823,0.0007222204717782138,0.0006131363953740907,0.0006021684226103826,0.0005012946081131213,0.0005736183436079845,0.0006320231339871955,0.0005007444514939706,0.0005984971798029664,0.0006260603951033928,9.815768024974819e-05,1e-07,1e-07,1e-07,1e-07,1e-07,1e-07,1e-07,1e-07,1e-07,1e-07
rana,CELL_D,90,0.0006923104467558943,0.0008475731191413725,0.0007280263249317804,0.0006284280193113355,0.0006160643589561295,0.0004990736498666964,0.000572582827963299,0.0006662526620120204,0.000514234262393351,0.0006014118555671856,0.0006365957526899064,9.826654177245799e-05,1e-07,1e-07,1e-07,1e-07,1e-07,1e-07,1e-07,1e-07,1e-07,1e-07
rana,CELL_D,95,0.0007015616798297332,0.0008413203199381523,0.0007346733411348309,0.000622495267912672,0.000625400929639766,0.0005172883391051801,0.0005657189333567569,0.0006760327367917695,0.0005384339828089331,0.0006135152432970842,0.0006436440773814878,9.303805326526183e-05,1e-07,1e-07,1e-07,1e-07,1e-07,1e-07,1e-07,1e-07,1e-07,1e-07
rana,CELL_D,100,0.0007093184556656477,0.0008522491577373579,0.0007487289213450299,0.0006385210180045082,0.000641218808985708,0.0005193874550971726,0.0005763994111343926,0.0006637645691533586,0.0005765614643492005,0.0006127096028388899,0.0006538858864311266,9.147601613429025e-05,1e-07,1e-07,1e-07,1e-07,1e-07,1e-07,1e-07,1e-07,1e-07,1e-07
rana,CELL_D,105,0.0006804761372703459,0.0008651253635278717,0.0007422053521339491,0.0006171936682351155,0.0006431383136339707,0.0005327706485770224,0.0005685546288786488,0.0006907477310882697,0.0005792641986128815,0.000624917673837871,0.0006544393715795946,9.181771368645137e-05,1e-07,1e-07,1e-07,1e-07,1e-07,1e-07,1e-07,1e-07,1e-07,1e-07
rana,CELL_D,110,0.0006862967492663194,0.0008744876411269651,0.0007454639400742151,0.0006182423729097843,0.0006352648600024691,0.00054526298685714,0.0005810445819744961,0.0007029461424176217,0.0005969942145663234,0.0006123381335251848,0.0006598341622720518,9.156423849060094e-05,1e-07,1e-07,1e-07,1e-07,1e-07,1e-07,1e-07,1e-07,1e-07,1e-07
rana,CELL_D,115,0.0007253313267700807,0.0008922415784444122,0.0007356049547847071,0.0006145500078373825,0.0006590922678969108,0.0005655416686818621,0.0005857911842300788,0.000745354842192221,0.0005776123013165851,0.0006199685374265396,0.000672108866958078,9.727576576317301e-05,1e-07,1e-07,1e-07,1e-07,1e-07,1e-07,1e-07,1e-07,1e-07,1e-07
rana,CELL_D,120,0.0007305657760980066,0.0008601150255080542,0.0007357127840358761,0.0006014057057393158,0.0006281489868101873,0.0005423998162106255,0.0005759791647149181,0.0007361808067744902,0.000592532705305993,0.0006342992630279264,0.0006637340034225393,9.325851781298141e-05,1e-07,1e-07,1e-07,1e-07,1e-07,1e-07,1e-07,1e-07,1e-07,1e-07
rana,CELL_D,125,0.0007130573187363092,0.0008562992655569849,0.0007585454211353384,0.0006212296840571297,0.0006373333303193609,0.000568817040232796,0.0005746974561255949,0.0007157131071987583,0.0005620018265054256,0.0006524404575802089,0.0006660134907447906,9.003919730136734e-05,1e-07,1e-07,1e-07,1e-07,1e-07,1e-07,1e-07,1e-07,1e-07,1e-07
rana,CELL_D,130,0.0007304539651814019,0.000883259039763318,0.0007549839648111418,0.0006296915415888642,0.0006518161408222427,0.0005973712045489654,0.0005806561109296464,0.0007218548111126117,0.0005744245575786483,0.0006808697888503884,0.0006805381125187229,9.077460658331259e-05,1e-07,1e-07,1e-07,1e-07,1e-07,1e-07,1e-07,1e-07,1e-07,1e-07
rana,CELL_D,135,0.0007484922383982755,0.000903854868875103,0.0007666238169835559,0.0006524438966488748,0.0006670181932900581,0.0005986701515878403,0.0006183595487298114,0.000717097106324283,0.0006048375223838456,0.000684337129968188,0.0006961734473189836,8.836086824787406e-05,1e-07,1e-07,1e-07,1e-07,1e-07,1e-07,1e-07,1e-07,1e-07,1e-07
rana,CELL_D,140,0.0007479557620805404,0.0008943593613875428,0.0007606391956846688,0.000630072693045045,0.0006508287582608499,0.0006127263310896455,0.0006379109312622633,0.0007196723149518973,0.0006148359319470096,0.0006705890706985177,0.0006939590350407979,8.406652258290047e-05,1e-07,1e-07,1e-07,1e-07,1e-07,1e-07,1e-07,1e-07,1e-07,1e-07
rana,CELL_D,145,0.000719086472300665,0.000883257882336344,0.0007647282111372801,0.0006444843015561021,0.0006570322855032922,0.0006284024475513917,0.0006242868415678264,0.0007200737598950774,0.0005914313695503219,0.0006868375529778031,0.0006919621124376104,8.101954845622669e-05,1e-07,1e-07,1e-07,1e-07,1e-07,1e-07,1e-07,1e-07,1e-07,1e-07
rana,CELL_D,150,0.0007311690713207177,0.0008931118140772258,0.0007579986586790264,0.0006737251517764614,0.000674094447043906,0.0006432777166365221,0.0006359662711061166,0.0007306089081428365,0.0006087906472063004,0.0007000464740796962,0.0007048789160068808,7.702255811220015e-05,1e-07,1e-07,1e-07,1e-07,1e-07,1e-07,1e-07,1e-07,1e-07,1e-07
rana,CELL_D,155,0.0007107081592255622,0.0009002957381412131,0.00075953717865493,0.0006784333923678915,0.0006771261678774949,0.0006570793921727693,0.0006601893132666622,0.0007433406855982997,0.0006135864152641414,0.0007058706044903041,0.0007106167047059268,7.513066325600514e-05,1e-07,1e-07,1e-07,1e-07,1e-07,1e-07,1e-07,1e-07,1e-07,1e-07
rana,CELL_D,160,0.0007445618754014297,0.0009025772720736739,0.0007876308160471128,0.0007020815773706757,0.000664966873147511,0.0006953986477086802,0.000682078813561416,0.0007568929068769782,0.0006459093131784662,0.0007124626904635191,0.0007294560785829462,7.065251897940723e-05,1e-07,1e-07,1e-07,1e-07,1e-07,1e-07,1e-07,1e-07,1e-07,1e-07
rana,CELL_D,165,0.0007206567325066177,0.0009287168226362539,0.0008329420919426447,0.0007023528121403391,0.0006803138370933877,0.0006968513260705657,0.0006673610706133577,0.0007486177372897471,0.0006588374234955658,0.0007253401348358059,0.0007361989988624285,7.967212140357993e-05,1e-07,1e-07,1e-07,1e-07,1e-07,1e-07,1e-07,1e-07,1e-07,1e-07
rana,CELL_D,170,0.0007061000900763794,0.000953089117940075,0.0008157852596832352,0.0007019046031956326,0.0006748720010453948,0.0006947521287008945,0.0007245760158420297,0.0007630477156443839,0.0006601463262319575,0.0006925932895325008,0.0007386866547892483,8.33160969825662e-05,1e-07,1e-07,1e-07,1e-07,1e-07,1e-07,1e-07,1e-07,1e-07,1e-07
rana,CELL_D,175,0.0007088235715266195,0.000964981992614425,0.0008269980637911673,0.0007184717851092886,0.0007045769678493434,0.0007057161155323045,0.0007511713280082534,0.0007697357166479896,0.0006494471888208117,0.0007486470210096015,0.0007548569750909803,8.314292915464188e-05,1e-07,1e-07,1e-07,1e-07,1e-07,1e-07,1e-07,1e-07,1e-07,1e-07
rana,CELL_D,180,0.0009621740772162446,0.0010600504506611368,0.0010722015810399768,0.0008680823582426401,0.0007998618141246208,0.0008000254129974877,0.0006919839596264504,0.0006578244592533933,0.0007337186415367559,0.0006174279603452259,0.0008263350715043931,0.00015340383103830632,1,1,1,1,1,1,1,1,1,1
rana,CELL_D,185,0.0009621740772162446,0.0010600504506611368,0.0010722015810399768,0.0008680823582426401,0.0007998618141246208,0.0008000254129974877,0.0006919839596264504,0.0006578244592533933,0.0007337186415367559,0.0006174279603452259,0.0008263350715043931,0.00015340383103830632,1,1,1,1,1,1,1,1,1,1
rana,CELL_D,190,0.0007132475603224889,0.0009823531277649324,0.0008869524189874969,0.0007528233300064876,0.0007340600659673884,0.0007110825846072867,0.0007551552248708883,0.0008193455317068991,0.000678036368925113,0.0008013943815900864,0.0007834450594749068,8.794379257000055e-05,1e-07,1e-07,1e-07,1e-07,1e-07,1e-07,1e-07,1e-07,1e-07,1e-07
rana,CELL_D,195,0.0009621740772162446,0.0010600504506611368,0.0010722015810399768,0.0008680823582426401,0.0007998618141246208,0.0008000254129974877,0.0006919839596264504,0.0006578244592533933,0.0007337186415367559,0.0006174279603452259,0.0008263350715043931,0.00015340383103830632,1,1,1,1,1,1,1,1,1,1
rana,CELL_D,200,0.0009621740772162446,0.0010600504506611368,0.0010722015810399768,0.0008680823582426401,0.0007998618141246208,0.0008000254129974877,0.0006919839596264504,0.0006578244592533933,0.0007337186415367559,0.0006174279603452259,0.0008263350715043931,0.00015340383103830632,1,1,1,1,1,1,1,1,1,1
rana,CELL_A1,0,0.003802672897794077,0.004282394464052859,0.0042486021271377445,0.0034514511509757657,0.003178373324685761,0.003156426372306963,0.0026973243103883583,0.0027284429922996775,0.0029296922532752174,0.002422295590453143,0.003289767548336957,0.0006141913410078086,1,1,1,1,1,1,1,1,1,1
rana,CELL_A1,5,0.0037089176986235617,0.004332594306316391,0.004192319739208611,0.0034417936426622067,0.003178690805734618,0.0031587766858687666,0.002719241623770299,0.0025974892178654203,0.0028507161204562436,0.002414112872850255,0.0032594652713356367,0.0006233367981755742,1,1,1,1,1,1,1,1,1,1
rana,CELL_A1,10,0.0037089176986235617,0.004332594306316391,0.004192319739208611,0.0034417936426622067,0.003178690805734618,0.0031587766858687666,0.002719241623770299,0.0025974892178654203,0.0028507161204562436,0.002414112872850255,0.0032594652713356367,0.0006233367981755742,1,1,1,1,1,1,1,1,1,1
rana,CELL_A1,15,0.0028913512788455286,0.0034633813826411646,0.0032569968898817666,0.0025446366419472127,0.002342595859235337,0.0022554830307206786,0.0019038803539008014,0.0020241958945602942,0.002132205464631095,0.0022096056672528813,0.002502433246361676,0.0005041975313151632,1e-07,1e-07,1e-07,1e-07,1e-07,1e-07,1e-07,1e-07,1e-07,1e-07
rana,CELL_A1,20,0.002612745425717476,0.0029442540981324053,0.0026257093724313474,0.0020958053189187617,0.0019583609452191427,0.0018482101484770142,0.0018839178052143723,0.0018098739693362608,0.0016900210155164953,0.0018832917550118376,0.002135218985397511,0.00040853722413019086,1e-07,1e-07,1e-07,1e-07,1e-07,1e-07,1e-07,1e-07,1e-07,1e-07
rana,CELL_A1,25,0.0025321056658301265,0.0029680828016942907,0.0026552592180294557,0.002144294021781223,0.0019690413138522597,0.0017204909156256375,0.0017814784645794524,0.0017533385125024302,0.0018021049394619801,0.001843483081295985,0.002116967893465284,0.00042249598782010994,1e-07,1e-07,1e-07,1e-07,1e-07,1e-07,1e-07,1e-07,1e-07,1e-07
rana,CELL_A1,30,0.0025713394130691286,0.0030003789793808066,0.0026685816712865244,0.002192787219855235,0.0019879939894127067,0.001717020236225974,0.0018293430695589337,0.0018061028796556265,0.00186003403161758,0.0018334011507065817,0.0021466982640769095,0.00042313574711592484,1e-07,1e-07,1e-07,1e-07,1e-07,1e-07,1e-07,1e-07,1e-07,1e-07
rana,CELL_A1,35,0.0024420211448632333,0.003040788357092806,0.00256812872658272,0.0022540082112099302,0.0020560014889741086,0.0017642386690865186,0.0018926852540454028,0.0017456608465417273,0.001823077729635498,0.0018888350767453303,0.0021475445504777276,0.0004033364768844619,1e-07,1e-07,1e-07,1e-07,1e-07,1e-07,1e-07,1e-07,1e-07,1e-07
rana,CELL_A1,40,0.0024488651816593388,0.003029244499622349,0.0025127423396907565,0.0022754122036215984,0.0020817633801326098,0.0017665291815140071,0.001967949714983468,0.0018162870850976763,0.0019350737874394893,0.001906732057722281,0.002174059943148357,0.00037489971905258125,1e-07,1e-07,1e-07,1e-07,1e-07,1e-07,1e-07,1e-07,1e-07,1e-07
rana,CELL_A1,45,0.0023998344013641732,0.002997169570108871,0.0025496783903601506,0.002218356737291306,0.0021159343938397723,0.0017457074766386068,0.00204542876248646,0.001921159337853119,0.0018831785301108653,0.0018639961208148583,0.0021740443720868184,0.00036327065221754626,1e-07,1e-07,1e-07,1e-07,1e-07,1e-07,1e-07,1e-07,1e-07,1e-07
rana,CELL_A1,50,0.002402848185063468,0.003001756798983734,0.0026013683253488314,0.0022966305460051448,0.0022016716489760566,0.0017459679298602536,0.002030814420474688,0.001920564631568377,0.0018919510382675118,0.0018724301049455642,0.0021966003629493623,0.0003700448310867153,1e-07,1e-07,1e-07,1e-07,1e-07,1e-07,1e-07,1e-07,1e-07,1e-07
rana,CELL_A1,55,0.0023989305255572657,0.003019958812134011,0.0026142930493621816,0.002336333850100872,0.0022770241855895944,0.0017948276671157296,0.002027947908452209,0.001976602380431795,0.001900768245492635,0.0019278863311550396,0.0022274572955391335,0.00036163291900182025,1e-07,1e-07,1e-07,1e-07,1e-07,1e-07,1e-07,1e-07,1e-07,1e-07
rana,CELL_A1,60,0.0024461568181120526,0.0030324850426238672,0.002710347960829716,0.002303862124226995,0.0022688945206042446,0.001875430484573477,0.002094342790858818,0.0021017225185513432,0.0018680240430035684,0.0018597949502073498,0.002256106125359143,0.00036745736904903045,1e-07,1e-07,1e-07,1e-07,1e-07,1e-07,1e-07,1e-07,1e-07,1e-07
rana,CELL_A1,65,0.0024136316986852436,0.0030956157509791824,0.0027459768282607055,0.0023074591626765393,0.002302235702677261,0.0018765045778718356,0.0021675907457392955,0.002132287089748218,0.0018908637735725725,0.0019043430972257246,0.0022836508427436578,0.0003729805149699954,1e-07,1e-07,1e-07,1e-07,1e-07,1e-07,1e-07,1e-07,1e-07,1e-07
rana,CELL_A1,70,0.002479789894975108,0.003128890198778136,0.0028043235608369668,0.002356474478375229,0.002319030321818477,0.0019189938413673173,0.002185431485165435,0.002214002880370931,0.001967798279080983,0.0019604295804279124,0.0023335164521196498,0.00036842866494507786,1e-07,1e-07,1e-07,1e-07,1e-07,1e-07,1e-07,1e-07,1e-07,1e-07
rana,CELL_A1,75,0.0024837424407738676,0.003162258545217968,0.0028673309680745693,0.0024409541753826016,0.0023456837730408985,0.0018845333373639602,0.002185136344582691,0.00222999004579373,0.0019972847485516636,0.0020692834817274187,0.002366619786050937,0.00037580086142406053,1e-07,1e-07,1e-07,1e-07,1e-07,1e-07,1e-07,1e-07,1e-07,1e-07
rana,CELL_A1,80,0.002541005675947706,0.003165546423766121,0.0029512161807844265,0.0024702074778262966,0.002453596596314803,0.001953995330119599,0.0022652552085207106,0.002320530457713033,0.0020321051932747766,0.002042989032681937,0.002419644757694941,0.0003741551653682548,1e-07,1e-07,1e-07,1e-07,1e-07,1e-07,1e-07,1e-07,1e-07,1e-07
rana,CELL_A1,85,0.0025771690157416383,0.003207420127550133,0.002914293326520433,0.0024120942539795735,0.002458550476779121,0.0019416940098537325,0.002208581643589542,0.0024207923083823797,0.0019674731544127816,0.00222215815397161,0.0024330226470780946,0.0003750077475920254,1e-07,1e-07,1e-07,1e-07,1e-07,1e-07,1e-07,1e-07,1e-07,1e-07
rana,CELL_A1,90,0.0026880393808389517,0.0032246201474484463,0.0029057404004438707,0.002458214841676477,0.002489470721078198,0.0019181298090173314,0.0022149332819626044,0.002507882534284856,0.00200565104597696,0.0022559783092279935,0.0024668660471955685,0.00037944199522688615,1e-07,1e-07,1e-07,1e-07,1e-07,1e-07,1e-07,1e-07,1e-07,1e-07
rana,CELL_A1,95,0.0027043433566550415,0.0032116219211594283,0.0029237813845150863,0.0024450891835609383,0.0025372634097317647,0.001992704647384721,0.002217317297106469,0.002563590483252771,0.00212297367926188,0.002320347219971768,0.0025039032582599868,0.0003532321950110689,1e-07,1e-07,1e-07,1e-07,1e-07,1e-07,1e-07,1e-07,1e-07,1e-07
rana,CELL_A1,100,0.0027356115447747073,0.003278818102851815,0.003008589334013632,0.0025259271717663592,0.002586381691372039,0.0020424601761004995,0.002255406871924749,0.002562197898123702,0.0023143361909610484,0.0023013900543471426,0.0025611119036235697,0.00035191972707054913,1e-07,1e-07,1e-07,1e-07,1e-07,1e-07,1e-07,1e-07,1e-07,1e-07
rana,CELL_A1,105,0.0025983269168144587,0.003340700527694422,0.0029805649595034266,0.0024550230946216232,0.0026128469775260053,0.002144428259373947,0.0022343317990047564,0.002663009650742588,0.0023345969101268124,0.0023596528365803057,0.002572348193198835,0.00034357553788183476,1e-07,1e-07,1e-07,1e-07,1e-07,1e-07,1e-07,1e-07,1e-07,1e-07
rana,CELL_A1,110,0.0026253260352321383,0.0033938686243437433,0.0029774334355216364,0.00246481162492279,0.002589378253224366,0.002149300756822502,0.0023520644007536252,0.002696777129274699,0.002422232978464084,0.002325702863980419,0.002599689610254,0.00034242083297744686,1e-07,1e-07,1e-07,1e-07,1e-07,1e-07,1e-07,1e-07,1e-07,1e-07
rana,CELL_A1,115,0.002767863210922816,0.003445749457609501,0.0029385603100328364,0.0024467107893911986,0.002688387321280179,0.0022071025418500183,0.002349823100392604,0.002851635963256048,0.0023599906667466607,0.0023500260509777913,0.0026405849412459654,0.0003568334091996627,1e-07,1e-07,1e-07,1e-07,1e-07,1e-07,1e-07,1e-07,1e-07,1e-07
rana,CELL_A1,120,0.0028920714702859265,0.003316566932282294,0.002987034919483806,0.0024196662564665967,0.0025768351268382096,0.002180665614669709,0.0022887921275209465,0.0028539020782218628,0.002396289452528796,0.0024608514155360106,0.002637267539383416,0.0003414317448966496,1e-07,1e-07,1e-07,1e-07,1e-07,1e-07,1e-07,1e-07,1e-07,1e-07
rana,CELL_A1,125,0.0028158002264220216,0.0032839102404902494,0.003072755512311235,0.0025562667729473686,0.0026005870639129636,0.0022860110696938892,0.002281398749762448,0.0028007087648048165,0.002278490177669157,0.0025068258780472762,0.002648275445606143,0.00032693092215844267,1e-07,1e-07,1e-07,1e-07,1e-07,1e-07,1e-07,1e-07,1e-07,1e-07
rana,CELL_A1,130,0.002884246613406873,0.0033888075667840223,0.003048784480262326,0.002612716134983052,0.002649601316206068,0.002375394049548161,0.0022694110861681063,0.0028232676647119126,0.0023301546864672386,0.0026091653180303916,0.002699154891656815,0.0003303349662024738,1e-07,1e-07,1e-07,1e-07,1e-07,1e-07,1e-07,1e-07,1e-07,1e-07
rana,CELL_A1,135,0.0029709036626757042,0.003531417906625173,0.003103925101327931,0.0026418494131853327,0.0027062680126234582,0.0023893546577363756,0.002396013958103455,0.002816553422338739,0.0024120513970812183,0.002614891925295387,0.0027583229456992773,0.000344942844695943,1e-07,1e-07,1e-07,1e-07,1e-07,1e-07,1e-07,1e-07,1e-07,1e-07
rana,CELL_A1,140,0.0030066337875341285,0.0034396549129546276,0.003084112934313594,0.0025851514452639992,0.002614490499597261,0.002449236715986331,0.002462810818587216,0.0027785944308625515,0.002453110422704148,0.002598922592456984,0.002747271856026084,0.00031357635757964036,1e-07,1e-07,1e-07,1e-07,1e-07,1e-07,1e-07,1e-07,1e-07,1e-07
rana,CELL_A1,145,0.0029208575777582638,0.0034137138066569895,0.0030501911012723285,0.002659779826333412,0.002645605476693294,0.0024598441884971347,0.0024125535680089814,0.002699031084769429,0.0023104309896303152,0.0026569361638391666,0.0027228943783459314,0.00031209836390126206,1e-07,1e-07,1e-07,1e-07,1e-07,1e-07,1e-07,1e-07,1e-07,1e-07
rana,CELL_A1,150,0.002980373611123097,0.003426292633708766,0.003017498660660055,0.002728472240561134,0.002716741640478342,0.0024749061151969087,0.0024942987491660576,0.0027742551703885646,0.002365559785408622,0.0027245865793399,0.002770298518603145,0.00029487908265332343,1e-07,1e-07,1e-07,1e-07,1e-07,1e-07,1e-07,1e-07,1e-07,1e-07
rana,CELL_A1,155,0.0029146094265116514,0.0034680111893457934,0.0029726289256495095,0.002759919966768367,0.0027348566488227177,0.0025222386212295235,0.0025570420466816566,0.0027726793585670113,0.002376163533168629,0.00275509310037847,0.002783324281712333,0.0002847498258972104,1e-07,1e-07,1e-07,1e-07,1e-07,1e-07,1e-07,1e-07,1e-07,1e-07
rana,CELL_A1,160,0.0030212666571879684,0.003475001456716989,0.003065775802079133,0.0028482594067192756,0.0026804532439698306,0.0028103051298146754,0.002631584876900972,0.0028691607741819164,0.0024828516572421534,0.002779542714293192,0.002866420171910611,0.00026114771986345637,1e-07,1e-07,1e-07,1e-07,1e-07,1e-07,1e-07,1e-07,1e-07,1e-07
rana,CELL_A1,165,0.002978605971150988,0.0035923772154019965,0.0033132352522691802,0.0028110764317603246,0.002725108944785763,0.002844211485563997,0.00258234133063242,0.0028169125027667904,0.002578120750731157,0.002783708140762012,0.002902569802582463,0.0003037778287753109,1e-07,1e-07,1e-07,1e-07,1e-07,1e-07,1e-07,1e-07,1e-07,1e-07
rana,CELL_A1,170,0.0029221791738002294,0.0037137318164412523,0.00321952562892672,0.0028161566641712456,0.0026466401182879944,0.0028336947580641127,0.002868072802763953,0.0028824897401692148,0.0025015347057600825,0.0027202245226810905,0.0029124249931065894,0.0003211294591994165,1e-07,1e-07,1e-07,1e-07,1e-07,1e-07,1e-07,1e-07,1e-07,1e-07
rana,CELL_A1,175,0.0029460595061905517,0.0037171117844831607,0.003300715499810873,0.0028695945716873056,0.002705414205385831,0.0028734109684956546,0.002983640223378223,0.002931738251998163,0.0024608051246015777,0.002875131496318645,0.0029663621632349986,0.0003205207284933773,1e-07,1e-07,1e-07,1e-07,1e-07,1e-07,1e-07,1e-07,1e-07,1e-07
rana,CELL_A1,180,0.0037089176986235617,0.004332594306316391,0.004192319739208611,0.0034417936426622067,0.003178690805734618,0.0031587766858687666,0.002719241623770299,0.0025974892178654203,0.0028507161204562436,0.002414112872850255,0.0032594652713356367,0.0006233367981755742,1,1,1,1,1,1,1,1,1,1
rana,CELL_A1,185,0.0037089176986235617,0.004332594306316391,0.004192319739208611,0.0034417936426622067,0.003178690805734618,0.0031587766858687666,0.002719241623770299,0.0025974892178654203,0.0028507161204562436,0.002414112872850255,0.0032594652713356367,0.0006233367981755742,1,1,1,1,1,1,1,1,1,1
rana,CELL_A1,190,0.0037089176986235617,0.004332594306316391,0.004192319739208611,0.0034417936426622067,0.003178690805734618,0.0031587766858687666,0.002719241623770299,0.0025974892178654203,0.0028507161204562436,0.002414112872850255,0.0032594652713356367,0.0006233367981755742,1,1,1,1,1,1,1,1,1,1
rana,CELL_A1,195,0.0037089176986235617,0.004332594306316391,0.004192319739208611,0.0034417936426622067,0.003178690805734618,0.0031587766858687666,0.002719241623770299,0.0025974892178654203,0.0028507161204562436,0.002414112872850255,0.0032594652713356367,0.0006233367981755742,1,1,1,1,1,1,1,1,1,1
rana,CELL_A1,200,0.0037089176986235617,0.004332594306316391,0.004192319739208611,0.0034417936426622067,0.003178690805734618,0.0031587766858687666,0.002719241623770299,0.0025974892178654203,0.0028507161204562436,0.002414112872850255,0.0032594652713356367,0.0006233367981755742,1,1,1,1,1,1,1,1,1,1
rana,CELL_A2,0,0.0009466422078830196,0.0011116544298205961,0.0010810313215087093,0.000877326948446672,0.0007988277949153181,0.0008060645181417871,0.000674399650967408,0.0006583565973976534,0.000711671321226604,0.0006319765927116251,0.0008297951383019394,0.00016328602304970178,1e-07,1e-07,1e-07,1e-07,1e-07,1e-07,1e-07,1e-07,1e-07,1e-07
rana,CELL_A2,5,0.0009343573848029211,0.0010921200529527412,0.001058335106147522,0.0008753299532676038,0.0007855467943943328,0.000810797919091191,0.0006631369129146572,0.0006588495022720901,0.0007068785627295131,0.0006188849681592614,0.0008204237156731834,0.00015877061886857168,1,1,1,1,1,1,1,1,1,1
rana,CELL_A2,10,0.0009343573848029211,0.0010921200529527412,0.001058335106147522,0.0008753299532676038,0.0007855467943943328,0.000810797919091191,0.0006631369129146572,0.0006588495022720901,0.0007068785627295131,0.0006188849681592614,0.0008204237156731834,0.00015877061886857168,1,1,1,1,1,1,1,1,1,1
rana,CELL_A2,15,0.0007169774542608411,0.0008864654945586139,0.0008125882461102662,0.0006442891750115698,0.0005724528487746149,0.0005589944431077245,0.000483538736806041,0.0005217396775019043,0.0005348105075880144,0.0005893481284232801,0.0006321204712142869,0.0001261251713589172,1e-07,1e-07,1e-07,1e-07,1e-07,1e-07,1e-07,1e-07,1e-07,1e-07
rana,CELL_A2,20,0.0006437324912309091,0.0007452353010495188,0.0006562708333465775,0.0005348968270709733,0.0004970858153799688,0.00046098283585265063,0.0004789524128192794,0.0004688924489517815,0.0004340948636792406,0.0005051512308726121,0.0005425295060253511,9.780679392790263e-05,1e-07,1e-07,1e-07,1e-07,1e-07,1e-07,1e-07,1e-07,1e-07,1e-07
rana,CELL_A2,25,0.0006203758940135338,0.0007438042523274845,0.0006654587028009072,0.0005468465488271326,0.0004981591401963342,0.00043431369809020286,0.00045297533811977615,0.0004463767912454655,0.00046075607280973035,0.0004983728008131104,0.0005367439239243678,0.00010047311645036615,1e-07,1e-07,1e-07,1e-07,1e-07,1e-07,1e-07,1e-07,1e-07,1e-07
rana,CELL_A2,30,0.0006247853579257538,0.0007502272237597857,0.0006706389203897992,0.0005589875185674092,0.0005034682019474276,0.00043834956618062223,0.0004650542695888118,0.0004561022195781985,0.000482384123895165,0.0004979774539833314,0.0005447974855816303,9.898964785041379e-05,1e-07,1e-07,1e-07,1e-07,1e-07,1e-07,1e-07,1e-07,1e-07,1e-07
rana,CELL_A2,35,0.0005980692389622878,0.000759226656871464,0.0006475918622040157,0.0005717287476589996,0.0005153278873983129,0.0004441395367401986,0.0004845721370845548,0.0004456224782911921,0.00047434197054384687,0.0005092921485231782,0.0005449912664278052,9.528757188320653e-05,1e-07,1e-07,1e-07,1e-07,1e-07,1e-07,1e-07,1e-07,1e-07,1e-07
rana,CELL_A2,40,0.0006113896009000839,0.0007569661593969208,0.000635394431823654,0.0005699298332311664,0.0005250603978451792,0.00044597742259787495,0.0004941196656209471,0.00047347938606165266,0.0004934210796912911,0.0005125461270279047,0.0005518284104196674,8.904173961879327e-05,1e-07,1e-07,1e-07,1e-07,1e-07,1e-07,1e-07,1e-07,1e-07,1e-07
rana,CELL_A2,45,0.0006013149258752026,0.0007531161821417306,0.0006478350181610363,0.0005617212116432351,0.0005284386912884923,0.0004372029645426775,0.0005140296321196708,0.0005008005297402195,0.00048269878165140023,0.0005049675470506852,0.000553212548421435,8.772409604162711e-05,1e-07,1e-07,1e-07,1e-07,1e-07,1e-07,1e-07,1e-07,1e-07,1e-07
rana,CELL_A2,50,0.0005984490513790406,0.0007522943798199621,0.0006584603015289191,0.0005741397233362992,0.0005377885422513833,0.0004410105852299868,0.0005049605828494111,0.0005022443751608234,0.00048489777435524846,0.0005104691728270344,0.0005564714488738108,8.794079857818316e-05,1e-07,1e-07,1e-07,1e-07,1e-07,1e-07,1e-07,1e-07,1e-07,1e-07
rana,CELL_A2,55,0.0006014177229288195,0.0007570146764185987,0.0006614449020608183,0.0005919632581031417,0.0005583070743791407,0.00045420750582242934,0.0005064355790939328,0.0005070398660304455,0.0004909022132030343,0.0005239672464213257,0.0005652700044461687,8.631738140157477e-05,1e-07,1e-07,1e-07,1e-07,1e-07,1e-07,1e-07,1e-07,1e-07,1e-07
rana,CELL_A2,60,0.0006162316163889376,0.0007563542382524541,0.0006772314385575872,0.0005908339563392066,0.0005577505569460332,0.00047392696805270175,0.0005258334746717814,0.0005395879238100887,0.00048338023916204477,0.000509715664202177,0.0005730846076383012,8.490912103435918e-05,1e-07,1e-07,1e-07,1e-07,1e-07,1e-07,1e-07,1e-07,1e-07,1e-07
rana,CELL_A2,65,0.0006102959841629928,0.000770083992402383,0.0006803600027764401,0.0005891653843984852,0.0005702538913239948,0.0004768908836571294,0.000552009434839442,0.0005452094298997068,0.0004951499617664654,0.0005190520716697849,0.0005808471036896824,8.416248592758066e-05,1e-07,1e-07,1e-07,1e-07,1e-07,1e-07,1e-07,1e-07,1e-07,1e-07
rana,CELL_A2,70,0.0006227040811546835,0.0007849646498124214,0.0006969494655757506,0.0006031964536283484,0.0005761151190452827,0.00048225118295699585,0.0005558539928945238,0.0005597163801751642,0.000512167539635004,0.0005364754459713588,0.0005930394310849534,8.567913366591874e-05,1e-07,1e-07,1e-07,1e-07,1e-07,1e-07,1e-07,1e-07,1e-07,1e-07
rana,CELL_A2,75,0.0006215872628167931,0.0007926688488086135,0.0007108719847451276,0.0006208775788960288,0.0005848547742067901,0.00047659005132196907,0.0005603684617948604,0.0005647568730967224,0.0005201607180672094,0.0005650654768064701,0.0006017802030560584,8.726450380974144e-05,1e-07,1e-07,1e-07,1e-07,1e-07,1e-07,1e-07,1e-07,1e-07,1e-07
rana,CELL_A2,80,0.0006409296812954826,0.0007905090980153589,0.00072018340433903,0.000628140172010675,0.0006047056496268962,0.000495178582164941,0.0005676919610494638,0.000577797121945456,0.0005278710622670667,0.0005647235369655293,0.0006117730269679899,8.415004219238132e-05,1e-07,1e-07,1e-07,1e-07,1e-07,1e-07,1e-07,1e-07,1e-07,1e-07
rana,CELL_A2,85,0.0006543647203516282,0.0008096193312474354,0.000718605646709908,0.0006273505625883846,0.0006117587384059476,0.0004987782453050331,0.0005570792065711336,0.0005966607366641111,0.0005089084376255797,0.000598344276866524,0.0006181469902335685,8.885712009009867e-05,1e-07,1e-07,1e-07,1e-07,1e-07,1e-07,1e-07,1e-07,1e-07,1e-07
rana,CELL_A2,90,0.000673984867918395,0.000817278148686412,0.000721320572711674,0.0006419642112560874,0.0006227707322884529,0.000495881113517233,0.000558315060195905,0.0006300909877112045,0.0005221158616352035,0.0006041248413931319,0.0006287846397313698,8.997943096447057e-05,1e-07,1e-07,1e-07,1e-07,1e-07,1e-07,1e-07,1e-07,1e-07,1e-07
rana,CELL_A2,95,0.0006806605150597964,0.0008195880888613771,0.0007348108714747275,0.0006387386793975392,0.000632981226726144,0.0005094185757168506,0.0005610121789648304,0.0006299494106784248,0.0005455851610355346,0.0006304656701294932,0.0006383210378044719,8.678340239422245e-05,1e-07,1e-07,1e-07,1e-07,1e-07,1e-07,1e-07,1e-07,1e-07,1e-07
rana,CELL_A2,100,0.0006827798226635731,0.0008330582208951726,0.0007611498069218243,0.0006555299806964871,0.000653220598550405,0.0005232652746108719,0.000570990742882557,0.0006232137867870563,0.0005759704171078374,0.0006273045000829386,0.0006506483151198722,8.71739512779878e-05,1e-07,1e-07,1e-07,1e-07,1e-07,1e-07,1e-07,1e-07,1e-07,1e-07
rana,CELL_A2,105,0.0006604514533909467,0.0008443593593225953,0.000760216459781239,0.0006367484442331048,0.0006643491486344671,0.0005528847043864277,0.0005690687068233355,0.0006438963875381059,0.0005763180720515404,0.0006439002820761939,0.0006552193018237956,8.463231896260226e-05,1e-07,1e-07,1e-07,1e-07,1e-07,1e-07,1e-07,1e-07,1e-07,1e-07
rana,CELL_A2,110,0.0006659454910367769,0.0008629805941122701,0.000756490795899399,0.000637220070732747,0.0006636298079785272,0.0005581656625264207,0.0005918265414110607,0.0006579947449671283,0.0005879429171615164,0.0006396104559423408,0.0006621807081768187,8.465300965203448e-05,1e-07,1e-07,1e-07,1e-07,1e-07,1e-07,1e-07,1e-07,1e-07,1e-07
rana,CELL_A2,115,0.0006925343358342276,0.000887331505998684,0.0007404217361890177,0.0006372908289356223,0.0006934556801132232,0.0005727361447143271,0.000591149872670551,0.0007030630401299511,0.0005688514962384299,0.0006467795426308254,0.000673361418345486,9.041462403204234e-05,1e-07,1e-07,1e-07,1e-07,1e-07,1e-07,1e-07,1e-07,1e-07,1e-07
rana,CELL_A2,120,0.0007179763604371982,0.0008726948224930674,0.0007554602990590254,0.0006369549206248189,0.0006731952568178771,0.0005566962963517855,0.0005924474362755987,0.0007113170128938836,0.0005806952864876689,0.0006784338311907362,0.0006775871522631659,8.934349970934097e-05,1e-07,1e-07,1e-07,1e-07,1e-07,1e-07,1e-07,1e-07,1e-07,1e-07
rana,CELL_A2,125,0.0007190749520686613,0.000866917441966709,0.0007754829735874561,0.0006509775324765405,0.0006783907898801229,0.0005824372604734382,0.0006012550762313265,0.0006940197121725507,0.0005538883423599865,0.0006884919346727286,0.000681093601588952,8.849123143538949e-05,1e-07,1e-07,1e-07,1e-07,1e-07,1e-07,1e-07,1e-07,1e-07,1e-07
rana,CELL_A2,130,0.0007380993157091286,0.0008897558052624809,0.0007615144291044554,0.0006746454357751462,0.0006887060913192634,0.0005947485687965765,0.0005920322308058248,0.0006996988804711139,0.0005601841370078636,0.0007016883358318646,0.0006901073230083718,9.128029570849398e-05,1e-07,1e-07,1e-07,1e-07,1e-07,1e-07,1e-07,1e-07,1e-07,1e-07
rana,CELL_A2,135,0.0007564940201368692,0.0009254989928741059,0.0007715416806163045,0.0006924532085931055,0.0006989102508495915,0.0006113973562817142,0.0006290415946806328,0.0006973870828052512,0.0005791573870691879,0.0007016649482263274,0.0007063546522133089,9.29042345527056e-05,1e-07,1e-07,1e-07,1e-07,1e-07,1e-07,1e-07,1e-07,1e-07,1e-07
rana,CELL_A2,140,0.0007609825765769007,0.000904965160019384,0.0007576019845464962,0.0006540271465349557,0.0006806873868259756,0.0006232754234439973,0.0006440198221012107,0.0006902795297655638,0.0006110695069705958,0.0006993441828821787,0.0007026252719667257,8.275816034637353e-05,1e-07,1e-07,1e-07,1e-07,1e-07,1e-07,1e-07,1e-07,1e-07,1e-07
rana,CELL_A2,145,0.0007365613250007294,0.0008981742860302154,0.0007321358340714229,0.0006830843919112452,0.0006913137071846626,0.0006317702869218628,0.0006283522749734783,0.0006671346801373006,0.0005804150700439231,0.0007117846193155453,0.0006960726475590386,8.195004008033319e-05,1e-07,1e-07,1e-07,1e-07,1e-07,1e-07,1e-07,1e-07,1e-07,1e-07
rana,CELL_A2,150,0.0007477772505155441,0.0009043085090498079,0.0007242048745608627,0.0007050500724444924,0.0007076296519993019,0.0006464699108570969,0.00064999251055441,0.0006835684063406848,0.0005965966945287092,0.0007279138873060429,0.0007093511768156953,7.805602067351052e-05,1e-07,1e-07,1e-07,1e-07,1e-07,1e-07,1e-07,1e-07,1e-07,1e-07
rana,CELL_A2,155,0.000728804444406566,0.0009073952195589888,0.0007058855369176605,0.0007239298430691848,0.0007108568523169229,0.0006591013495125601,0.0006661405970898558,0.00070077893259285,0.0005993541244623482,0.0007397599973739842,0.0007142006897300922,7.555212807643098e-05,1e-07,1e-07,1e-07,1e-07,1e-07,1e-07,1e-07,1e-07,1e-07,1e-07
rana,CELL_A2,160,0.0007445568055059257,0.0009152505942092439,0.0007393911246487717,0.0007469297108115145,0.000702125701569546,0.0007028474794174697,0.0006720164863422696,0.0007456681622236602,0.0006283215906251783,0.0007524633568892433,0.0007349571012242823,7.115031934751453e-05,1e-07,1e-07,1e-07,1e-07,1e-07,1e-07,1e-07,1e-07,1e-07,1e-07
rana,CELL_A2,165,0.0007085013378792177,0.0009376215591334584,0.000791846744966969,0.0007410465257726934,0.000695818143249512,0.0007008778133060988,0.0006665646263462115,0.0007343792495007114,0.0006429876753547886,0.0007585009457669286,0.000737814462127659,7.832526144003944e-05,1e-07,1e-07,1e-07,1e-07,1e-07,1e-07,1e-07,1e-07,1e-07,1e-07
rana,CELL_A2,170,0.0006993201328496881,0.0009594683434565595,0.0007731366370909339,0.0007372539428073709,0.0006996952363816302,0.000723524424206809,0.0007114185497409685,0.0007559165757451765,0.0006461765714692156,0.0007401729215413429,0.0007446083335289695,7.904646509056211e-05,1e-07,1e-07,1e-07,1e-07,1e-07,1e-07,1e-07,1e-07,1e-07,1e-07
rana,CELL_A2,175,0.0006983906003337494,0.0009723357276915059,0.0008012014052273288,0.0007436828273679542,0.0007070190806436676,0.0007347240358245412,0.0007219442090321339,0.0007549978804761673,0.0006243062548496667,0.0007735813857551993,0.0007532183407201914,8.59665280151354e-05,1e-07,1e-07,1e-07,1e-07,1e-07,1e-07,1e-07,1e-07,1e-07,1e-07
rana,CELL_A2,180,0.0007026144994144687,0.0009542394323897669,0.0008131316224091064,0.0007391449982943103,0.0007493074476492334,0.0007438550482602489,0.000725970915909465,0.0007692564548527986,0.0006437501057063087,0.00077605757253622,0.0007617328097421926,7.722723683680411e-05,1e-07,1e-07,1e-07,1e-07,1e-07,1e-07,1e-07,1e-07,1e-07,1e-07
rana,CELL_A2,185,0.0009343573848029211,0.0010921200529527412,0.001058335106147522,0.0008753299532676038,0.0007855467943943328,0.000810797919091191,0.0006631369129146572,0.0006588495022720901,0.0007068785627295131,0.0006188849681592614,0.0008204237156731834,0.00015877061886857168,1,1,1,1,1,1,1,1,1,1
rana,CELL_A2,190,0.0007216903805210046,0.0009792735664171793,0.0008544861021626616,0.0007946118313148043,0.0007529891186730112,0.000739610100562639,0.0007307884164348922,0.000798897242312643,0.0006444330362224467,0.0008284315621278465,0.0007845211356749128,8.633138458109734e-05,1e-07,1e-07,1e-07,1e-07,1e-07,1e-07,1e-07,1e-07,1e-07,1e-07
rana,CELL_A2,195,0.0009343573848029211,0.0010921200529527412,0.001058335106147522,0.0008753299532676038,0.0007855467943943328,0.000810797919091191,0.0006631369129146572,0.0006588495022720901,0.0007068785627295131,0.0006188849681592614,0.0008204237156731834,0.00015877061886857168,1,1,1,1,1,1,1,1,1,1
rana,CELL_A2,200,0.0009343573848029211,0.0010921200529527412,0.001058335106147522,0.0008753299532676038,0.0007855467943943328,0.000810797919091191,0.0006631369129146572,0.0006588495022720901,0.0007068785627295131,0.0006188849681592614,0.0008204237156731834,0.00015877061886857168,1,1,1,1,1,1,1,1,1,1
