Model,Class,T_bound,score1,score2,score3,score4,score5,score6,score7,score8,score9,score10,score_avg,score_stdev,alpha1,alpha2,alpha3,alpha4,alpha5,alpha6,alpha7,alpha8,alpha9,alpha10
gonzalez,CELL_H,0,0.002583892507267567,0.002416192789188117,0.0024306643827401186,0.0027687132969130067,0.0031703857343779646,0.017073930204768654,0.0029708912920983297,0.025203204886588476,0.008259210630488647,0.003672381054641507,0.0070549466779072385,0.007454292570597608,55,55,100,55,55,100,55,55,55,55
gonzalez,CELL_H,5,0.008124229800043636,0.0025587030686291777,0.002400395501831238,0.0026997235540412883,0.0025363246749572728,0.0037416606856098705,0.017124230257645735,0.025167892805401958,0.002423770685729669,0.003505560370741988,0.007028249140463183,0.007462548444335888,100,55,55,55,55,55,100,55,55,100
gonzalez,CELL_H,10,0.0033778678207566372,0.0028858233899800123,0.0027437847279633124,0.0027905956860220195,0.0024739078847822154,0.0024970688295262917,0.0023808339954806573,0.025144288421191395,0.017043570285026555,0.00855463977759378,0.006989238081832288,0.007486545200507821,100,55,100,100,55,100,100,100,100,100
gonzalez,CELL_H,15,0.025212038048876364,0.003485569412611722,0.0025839158234349483,0.002712294021649719,0.018987362871202697,0.002802158634381557,0.002457562602693228,0.002401416098847962,0.0023416957541232846,0.0024042404096016675,0.006538825367742316,0.007910178320652847,100,100,55,100,100,100,100,100,100,100
gonzalez,CELL_H,20,0.002879998404228826,0.002619807986533741,0.0033088492343041707,0.01680719840438047,0.00295809188342092,0.002237465770802699,0.002633463877373865,0.008538580283923732,0.0024036109702986214,0.02532564026054691,0.006971270707581395,0.007505774307813286,55,100,100,100,100,100,55,100,100,100
gonzalez,CELL_H,25,0.01676048690289335,0.008257460772394825,0.002663716540212712,0.0023845378320762607,0.0021808188621190113,0.02523032475233279,0.003583093570110539,0.0025667676071156782,0.003551267865580603,0.003686328595213411,0.007086480330004917,0.007393589026292227,100,100,100,100,100,100,100,100,100,100
gonzalez,CELL_H,30,0.0035151389110230184,0.0024110329644520677,0.016773756422984,0.0030869933014642126,0.008251208907930092,0.003457800791784073,0.002427468131963305,0.0022661654390494852,0.025217176890298666,0.0035901131299625045,0.007099685489091142,0.007381491976217144,100,100,100,100,100,100,100,100,100,100
gonzalez,CELL_H,35,0.01708854807058974,0.0025133607849726824,0.002800327694815998,0.00329973329818859,0.0021947845451610517,0.0024544993459122075,0.003626981020511971,0.0028731301349466205,0.02514172603122142,0.008185983293131735,0.007017907421945202,0.007456027839557534,100,55,55,100,100,100,100,100,55,100
gonzalez,CELL_H,40,0.003006421696939998,0.02536943097921161,0.008131872614776664,0.003104701055461134,0.0035774094104955505,0.0023877360948374444,0.016766925386281988,0.00234420662700475,0.00236228682487811,0.0030394573261219348,0.007009044801600918,0.007463839249578609,55,100,100,100,100,100,100,100,100,100
gonzalez,CELL_H,45,0.002258923073211744,0.002158438144637625,0.003986046230837345,0.0035899912326650928,0.002388208446239892,0.01679820541870069,0.00833303208903988,0.02519667246261443,0.002710798843398017,0.003186820745345887,0.007060713668669061,0.0074141799537085105,100,100,100,100,100,100,100,100,100,100
gonzalez,CELL_H,50,0.008115996721818524,0.002708379895673762,0.0023952854348644817,0.0036517563865212832,0.02518454795354524,0.0022508441060586147,0.00330425041234579,0.01679217657723919,0.0027264581808526494,0.003991488049893535,0.0071121183718813085,0.007362361951028783,100,100,100,100,100,100,55,100,100,100
gonzalez,CELL_H,55,0.008116282972815645,0.0027758597022566225,0.0024854083333951324,0.0026416364295396098,0.0032006497137950602,0.016801766665545875,0.025342705591790252,0.003018783406265074,0.0033586213645298564,0.0022567024735413183,0.006999841665347445,0.007463507591983787,100,100,100,100,100,100,55,100,100,100
gonzalez,CELL_H,60,0.00834005055564626,0.002329513884469556,0.0024582919484262473,0.003767619022885384,0.0020866113422167813,0.0024519644816238485,0.0029714754353947414,0.002748968313867251,0.02526585393283329,0.016966374766127144,0.00693867236834905,0.007528235554812478,100,100,100,100,100,100,100,100,55,100
gonzalez,CELL_H,65,0.00438261821179526,0.002306058751899463,0.004222230700769446,0.01676729081485553,0.002308105994749998,0.025217446048423325,0.002638478705238226,0.008116266555552816,0.002255521532202167,0.002610195192883777,0.007082421250837001,0.007401826818218991,100,100,100,100,100,100,100,100,100,55
gonzalez,CELL_H,70,0.0036281814557859327,0.002669105312451557,0.030235094578741854,0.0024729228093996977,0.002453730626700331,0.0024512956941258024,0.008459108034319523,0.0036995268472116358,0.0027481270710510565,0.0028923783318499353,0.006170947076163733,0.008203346537205516,100,100,100,100,100,100,100,100,100,100
gonzalez,CELL_H,75,0.0025960325086888513,0.0022571172480930924,0.0023015700824734957,0.0025911257838617248,0.00839633852567343,0.0025503447407864985,0.017007663371416418,0.025158590375001955,0.004201384552538024,0.002836783901912507,0.0069896951090445995,0.007484676082287727,100,100,100,100,100,100,100,100,100,100
gonzalez,CELL_H,80,0.0023143746974324257,0.0025594914420033967,0.003910551945561094,0.003426222595901402,0.003205203726358574,0.0025234080918240327,0.0029386201966571154,0.0023083770816176787,0.008245958825056526,0.03023200547890681,0.006166421408131906,0.008193083788222784,100,100,100,55,100,100,55,100,100,100
gonzalez,CELL_H,85,0.01681406281674267,0.008399059250234462,0.0027700246205419198,0.00355233032960384,0.025253552547130437,0.003802759399841487,0.0023329270813720417,0.002188343100377529,0.0025158424282913567,0.0027100758458442707,0.007033897741998002,0.00744916157177741,55,100,100,100,100,100,100,100,100,55
gonzalez,CELL_H,90,0.002393441845150518,0.0031062148891321316,0.003634041775089552,0.0032729620928319257,0.0026811299611450797,0.0021729004602948844,0.0025524666557727215,0.01707112875368416,0.02514613345172925,0.008274080116153023,0.007030450000098325,0.007454262604860778,100,100,100,100,55,100,100,100,100,100
gonzalez,CELL_H,95,0.0041333813163088205,0.0024290645209381553,0.01677598750226776,0.0025430966802744504,0.0023555847826927227,0.003612966013115652,0.025216097195213057,0.008338171040659209,0.002413521301343116,0.002943493175951253,0.007076136352876421,0.007407006348048967,55,55,100,100,100,100,100,100,100,100
gonzalez,CELL_H,100,0.002440509946363854,0.002304481686757568,0.002771750461741618,0.0024661363949624294,0.0023716158189647117,0.016751217331498505,0.008532553761967104,0.002779518121664414,0.025461313292869388,0.003162146231948307,0.0069041243048737905,0.007572301575950253,100,100,100,100,100,100,100,100,100,100
gonzalez,CELL_H,105,0.0023400497776356706,0.016790313447196267,0.008344327947471088,0.025270759523039022,0.002277854171226391,0.0035452010787005925,0.004071066480153691,0.0021521973704578807,0.0028620595116681025,0.0024996952383635525,0.007015352454591226,0.007462441429021692,100,100,100,100,100,100,100,100,100,100
gonzalez,CELL_H,110,0.0022135593560192687,0.02534708538212731,0.002249677505193777,0.002682144727441275,0.0027456994081465715,0.002649661834376139,0.0032845508429211754,0.003008250073052588,0.01704719779170716,0.008132194867334104,0.006936002178831937,0.007547749539354473,100,100,100,100,100,55,100,100,100,100
gonzalez,CELL_H,115,0.008192554715423548,0.030328647554864106,0.0025834146293557962,0.002503660482955753,0.002684049658604133,0.0023927060623040214,0.0021399830851723273,0.002699710072205356,0.0046086710567448405,0.002763265028328269,0.0060896662345958155,0.008262683723954238,100,100,100,100,100,100,100,100,100,100
gonzalez,CELL_H,120,0.0037705743871407947,0.0026223733714518835,0.002574447025551691,0.0024560249005127007,0.002799527928140621,0.00844666011383023,0.003407052807125658,0.025210477357312994,0.002829563603557174,0.016773324651683238,0.007089002614630699,0.007395436292576981,100,55,100,100,55,100,100,100,100,100
gonzalez,CELL_H,125,0.0022486172538986322,0.01680486151310705,0.0024527194772256664,0.002505519518648916,0.02528963056207377,0.00816337348672561,0.0024712662365506074,0.0037397123704589466,0.002328099753053179,0.004011421490717068,0.007001522166245944,0.007465589202395073,100,100,100,100,100,100,100,55,100,100
gonzalez,CELL_H,130,0.002626429411096417,0.0025580086197289197,0.003709629647502618,0.002416062121008496,0.025357922795051682,0.00813897921993291,0.01680264315216367,0.003410885308585359,0.002573169390445021,0.0022148984822738726,0.006980862814778896,0.00748647416455126,100,100,100,100,55,100,100,100,100,100
gonzalez,CELL_H,135,0.025281428697562572,0.0026744480548501867,0.01680797848472645,0.0022397919660231327,0.0023954002967900142,0.004714241213130143,0.008114081835510887,0.002275028611085144,0.0029070957599254986,0.0027853744491341914,0.007019486936873823,0.007458429849532847,100,100,100,100,100,100,100,100,100,100
gonzalez,CELL_H,140,0.004488238209376431,0.016796885055528423,0.0026422301884292663,0.008113198896523744,0.0028437855018454755,0.02514277372760416,0.0025280627542995445,0.0036419551869866563,0.0029015101620957686,0.0022293242585386995,0.007132796394122816,0.007345794279300131,100,100,100,100,100,100,100,100,100,100
gonzalez,CELL_H,145,0.002800596723497218,0.002180474557341826,0.0025087142655825273,0.008161275265993183,0.0022860227611161917,0.003660483674124006,0.01692878890164143,0.0037216731595475006,0.025214039257612567,0.0025835719065231346,0.007004564047297959,0.007458827673742325,100,100,100,100,100,100,100,100,55,100
gonzalez,CELL_H,150,0.002158759789569956,0.002480437127241684,0.002499531839836734,0.003140614942662486,0.003447603750060876,0.0090130625602641,0.0028221458133162124,0.0025513372449405165,0.016740728875359163,0.025157619582890162,0.00700118415261419,0.007466666336705725,100,100,100,100,100,100,55,100,55,100
gonzalez,CELL_H,155,0.002643868399794788,0.025199462859397316,0.0027081194239829383,0.008455997735322388,0.0023922524337788727,0.017232926009709482,0.002321500458774436,0.003062448146894618,0.002156948890594086,0.002258847812669223,0.006843237217091814,0.007614205188271395,100,100,100,55,100,100,100,100,100,100
gonzalez,CELL_H,160,0.0037327790908613526,0.0025494157047914116,0.0024845065122869035,0.0021584694079499964,0.00242010102418649,0.002548543257923565,0.0031521270284114045,0.025264712936540843,0.003547902563576323,0.01859978156243595,0.0066458339088964246,0.007802095311966405,100,100,100,100,100,100,100,100,100,100
gonzalez,CELL_H,165,0.003275835912271608,0.025372827842685172,0.002367974619179472,0.0022836142332967155,0.0025325307723643494,0.008211908617942035,0.0025962737065092748,0.0029839715212721957,0.0036327800491333774,0.016776210968788306,0.0070033928243442515,0.007476568763259313,100,100,100,100,55,100,100,100,100,100
gonzalez,CELL_H,170,0.0021564938462811036,0.0021527976330037776,0.0024560531933775715,0.004052827443638228,0.025219613461145346,0.008209274060238367,0.002713917101044457,0.004018283796743001,0.0167861581480758,0.0028549118236633414,0.007062033050721099,0.007415377024540626,100,100,100,100,100,100,100,100,100,100
gonzalez,CELL_H,175,0.002442272408093629,0.008317708545905626,0.002608392598745106,0.00356791914919608,0.0024790273721734556,0.017046983073026187,0.0024730701346355197,0.025313275832653626,0.0027933655931690476,0.0024408540455145094,0.00694828687531128,0.0075450626348731505,100,100,55,100,100,100,100,100,55,100
gonzalez,CELL_H,180,0.016767262697790147,0.0025265466469963278,0.004462178498483884,0.002823873285239533,0.0027652919207373163,0.025234535468926653,0.002277678711720372,0.002489445856084069,0.008213224067788972,0.0032195786807956727,0.007077961583456295,0.007403181404260577,100,100,100,55,100,100,100,100,100,100
gonzalez,CELL_H,185,0.025133743191198703,0.0030305721801624787,0.0028397251731969103,0.003179081973237248,0.01721786137318906,0.0027046376302702316,0.008197650913442192,0.002731932316134081,0.0021798170806343075,0.002535638342151377,0.00697506601736166,0.00749773546005631,100,55,55,100,55,100,100,100,100,100
gonzalez,CELL_H,190,0.0024954720899143024,0.008581715461900216,0.0026944813939780536,0.0024348692973315436,0.003012629247642215,0.00277655643467,0.0033815591254347673,0.0036553047249505075,0.016742560086465276,0.02516036572802118,0.007093551359030806,0.007381165545172785,55,100,100,100,100,100,100,100,100,100
gonzalez,CELL_H,195,0.002215630171517147,0.016761732647834232,0.0022874955381247293,0.002743260512140739,0.008124783425024661,0.025205926111856132,0.002488557711808996,0.003573047360265053,0.004536570947407451,0.0030481879884733712,0.00709851924144525,0.007381838443332919,100,100,100,100,100,100,100,100,100,100
gonzalez,CELL_H,200,0.00357626246777215,0.0030013007883711337,0.0025447615724105647,0.016971637660126198,0.002466939893649763,0.008712751301008228,0.002736684183038193,0.002198698411095301,0.025156634172492337,0.002325417901668948,0.0069691088351632804,0.007504734042076058,100,100,100,100,100,100,100,100,100,100
gonzalez,CELL_D,0,0.0006245813085630871,0.0007270510313629723,0.00047456432399972816,0.0014701308259460633,0.0005437900687805097,0.004413773373005918,0.0005352023593933582,0.0006833944811736302,0.0005003174534869072,0.0029941880042939663,0.001296699323000614,0.0012742433669594147,55,55,100,100,100,100,55,1,100,55
gonzalez,CELL_D,5,0.0006351895725598693,0.004398054421794252,0.0006784602259479505,0.0008404834870074091,0.0029831999924755477,0.0005121724771074961,0.0005334569248671051,0.0005283027114045415,0.0014545441539635749,0.0005485178075575894,0.0013112381774685335,0.0012594311036251333,100,55,100,100,100,55,55,55,100,100
gonzalez,CELL_D,10,0.000796766545474522,0.0005675217770327453,0.0005951541819731296,0.0007795866653390164,0.00047447505007547873,0.0005532801265236341,0.0004790900907916016,0.0032835118665508235,0.004406058342254179,0.00044718500219117623,0.0012382629648206307,0.0013319713799471,55,100,100,100,55,55,100,100,55,55
gonzalez,CELL_D,15,0.00529295553888303,0.0004565413381072764,0.0014672277424345674,0.0005858097231577773,0.0008533134749988664,0.000552562035512617,0.0005244683933942992,0.0005387574631540894,0.0007440559225566207,0.00051758458926992,0.0011533276221469065,0.001408488586473401,55,100,55,55,55,55,55,55,55,55
gonzalez,CELL_D,20,0.0006057024698969856,0.004395777494148106,0.0005212372609169218,0.0006590786042637383,0.00045463612527120955,0.0004972431751091024,0.0007008665134522663,0.0005469324843424905,0.0029952574257346228,0.0015662466028595289,0.001294297815599497,0.0012772129444731533,100,55,100,100,55,100,100,55,100,100
gonzalez,CELL_D,25,0.0005992761163538885,0.0007257969899818717,0.0004880614982317765,0.004402975689927844,0.0006688832304169765,0.003043744886688756,0.0005192631846593118,0.001470971729700975,0.00047578999333174814,0.00044779753109546215,0.001284256085038861,0.0012879927681926698,100,100,55,100,55,55,55,100,100,100
gonzalez,CELL_D,30,0.0005160487707925005,0.0014703264222998321,0.0005161156774226498,0.004387553761608673,0.0005056070823796071,0.0007313840048032539,0.0030816200419758115,0.0006137907561053239,0.000451184481485389,0.0005100243620856842,0.0012783655360958724,0.0012934589144049538,55,100,100,55,100,100,100,100,55,55
gonzalez,CELL_D,35,0.0008217462812378732,0.0005187339897265423,0.0030206529863194766,0.0014440330015248201,0.0004914122903397729,0.00048497285232648686,0.004393818926242156,0.0005891048121383522,0.0006527610833001034,0.0005871727364993023,0.0013004408959654888,0.0012705394615800968,55,55,55,100,100,100,55,100,55,100
gonzalez,CELL_D,40,0.0014628207929093834,0.0052994310537541785,0.0005701313342221492,0.0009226322293606178,0.0004678973343239326,0.0005726861489225472,0.0005384992276319945,0.0005499608944506409,0.0005130000904680736,0.000569300879279595,0.0011466359985323113,0.0014134702448748713,55,55,100,55,55,100,100,100,55,55
gonzalez,CELL_D,45,0.00047285208246960006,0.0005920071026467824,0.0014604279653659654,0.0005342444614712108,0.0005180593867950236,0.0005498639196981754,0.0030044746487676312,0.0007836793143267143,0.0006091400613254672,0.004415246533491781,0.0012939995476358352,0.0012777007005689667,55,100,100,100,100,100,100,100,55,100
gonzalez,CELL_D,50,0.0006064232473328241,0.003334592334619523,0.004404145578545418,0.0004950182082083393,0.00046997559887334417,0.000565272952862024,0.0007880033157239136,0.0005031830209576554,0.000554319916028934,0.000520288212291475,0.001224122238544345,0.0013467207317629437,100,100,55,100,55,55,100,55,100,55
gonzalez,CELL_D,55,0.0005133444969545094,0.004415163038947347,0.0030417991997164695,0.0005176973556417888,0.0005314057178493339,0.0005368411551766365,0.0005922611835161595,0.00048305822878940715,0.001443789973420379,0.0007686504816590465,0.0012844010831671077,0.0012888343883961774,55,100,55,100,100,55,55,55,55,55
gonzalez,CELL_D,60,0.0005307629212184783,0.0006671968759267731,0.0004192594243485178,0.0032779811269762673,0.000526801938553109,0.0009542503610212569,0.0005452752145190436,0.000517824957450053,0.0004720457641746122,0.004408866974100297,0.0012320265558288409,0.001337289135516948,100,55,100,55,100,100,55,55,100,55
gonzalez,CELL_D,65,0.0005357255653146392,0.0006388846599990527,0.0005073332053023386,0.0005247753766624335,0.004412714389472502,0.0014375464767304538,0.0006902274871307931,0.0005152949573308086,0.0005416752492831516,0.003044242100801995,0.0012848419468028168,0.0012869000140441134,55,55,55,100,55,55,55,55,100,55
gonzalez,CELL_D,70,0.0014255718133989132,0.002999527869449639,0.00047950209613973965,0.004393944307756517,0.0005253157847209277,0.0005358029152511322,0.0006079591116898077,0.0008069970905921847,0.0008248795506935921,0.00048185153395269076,0.0013081352073645144,0.00126294977194144,100,55,55,55,55,100,55,55,55,100
gonzalez,CELL_D,75,0.0004478246121775588,0.0005597542580736447,0.004399691969142503,0.0029817400052783837,0.0005248505510655389,0.0014649849386992586,0.0005196519378513245,0.0007288181121867728,0.0009003240988417958,0.0005197969952645461,0.0013047437478581325,0.001266570466549106,100,55,100,100,55,100,55,100,55,55
gonzalez,CELL_D,80,0.005313658448805946,0.0015945078097162925,0.0005480055689832147,0.0005183334014211405,0.000621972566972028,0.0005375201652279779,0.00040418489101179443,0.0005899672342482371,0.0004672369418570964,0.0006271348580614153,0.0011222521886305142,0.001433552028750669,55,55,100,55,100,55,100,55,55,100
gonzalez,CELL_D,85,0.0005108212700430537,0.0014580551271011165,0.00047951935537042967,0.003006557753296668,0.0006906393803334329,0.0005211380843685129,0.0006085926814956414,0.0005362664430246799,0.0007794557054660615,0.004406353933089517,0.0012997399733589113,0.0012725168785982872,55,100,100,100,100,100,100,55,55,55
gonzalez,CELL_D,90,0.00046784172831189526,0.0005618286073270919,0.001488803074138989,0.0005900390517117022,0.0005044252772853906,0.0005064580926164492,0.0006985500232392784,0.005339209156669732,0.00046145820076929153,0.000615715768839072,0.0011234328980908891,0.0014344446301747422,55,100,55,55,55,55,100,100,100,100
gonzalez,CELL_D,95,0.004411224605148615,0.0005227710515496785,0.0032930001027016457,0.0005883828336309044,0.00048690174405285593,0.0004465977055790855,0.0005120808283354413,0.0006142795324518284,0.0006790780522804568,0.0008159740331102973,0.001237029048884081,0.0013350234832544491,55,55,55,55,100,55,55,55,100,100
gonzalez,CELL_D,100,0.0007049921321571899,0.0007058662400997972,0.0005431392894613276,0.0004938655672238967,0.0005192155723492949,0.003301276983350809,0.004399385551475013,0.0007350658562029907,0.000508739563942021,0.000467146609619889,0.0012378693365882227,0.0013323262014447539,100,100,100,100,100,55,55,55,100,100
gonzalez,CELL_D,105,0.000489339741883311,0.0006164142876028129,0.0005466842555417675,0.0006448530580724437,0.0029854419016871817,0.004393482556132747,0.0015327703736933334,0.0007060404672790113,0.0004829606685032518,0.0006563084637883786,0.0013054295774184242,0.0012657044508487258,55,100,55,100,55,55,100,55,100,100
gonzalez,CELL_D,110,0.0029756484092713564,0.0006872102619141603,0.004606660056433174,0.0005606420043017532,0.0005572449276226692,0.00046807995254743827,0.0007690195901826361,0.0006976078176432707,0.0005232014036887823,0.0005965314014688911,0.0012441845825074134,0.0013273915379093029,55,100,55,100,55,100,100,55,100,100
gonzalez,CELL_D,115,0.004385391837935115,0.0005193107030501905,0.0005211880852516521,0.0005557994342254626,0.0005396833696836824,0.003306928979839962,0.0006356915819132181,0.000839256766600441,0.0005279980114276488,0.0006378470424867552,0.001246909581241413,0.0013249597747255122,55,100,100,100,55,55,55,55,100,100
gonzalez,CELL_D,120,0.004381978704733909,0.0005223592993537474,0.0005688672843200438,0.00334713930564055,0.0005313142498839864,0.0004647707226431078,0.0007510230976839163,0.0005783832924907027,0.0005591099344828244,0.0006217581859431347,0.0012326704077175923,0.0013380150046967939,55,100,100,100,55,55,55,100,55,100
gonzalez,CELL_D,125,0.0007164757727672048,0.0005389801602359354,0.0006239879134823154,0.00459743547296411,0.0006914421399466911,0.0029903310201067038,0.0005310243345146621,0.0005976968083760069,0.0005140762879956715,0.0006385360579309366,0.0012439985968320238,0.001326110432414438,55,55,100,55,100,55,100,55,55,55
gonzalez,CELL_D,130,0.0004173165807853861,0.0005384733973352399,0.0005655101218223115,0.0015184974380075763,0.0008640629317988796,0.0005679530206410676,0.000510268020355793,0.0005507223434574822,0.002995490544851198,0.004404070892537582,0.0012932365291592515,0.001279327309900463,55,55,100,55,55,100,100,55,100,55
gonzalez,CELL_D,135,0.0004793444868134598,0.001461614530358692,0.0006112419866595823,0.0007436609360936726,0.0044322803401059705,0.000566253375164863,0.0006182869172610484,0.00045365739494063927,0.0004972439014241438,0.0029959413309262398,0.001285952519974831,0.0012857973902717639,100,55,100,55,55,55,55,55,55,100
gonzalez,CELL_D,140,0.0007989261040878156,0.004399386028415081,0.0005913399178506247,0.0004559890124807982,0.0005866847128883728,0.0005001164242589996,0.0029885152906834658,0.0005754065427387077,0.000737700074851848,0.0014557202232645553,0.0013089784331520268,0.0012623865624786228,100,55,100,55,100,100,55,55,100,100
gonzalez,CELL_D,145,0.0008741241577915664,0.0005595027771712831,0.004399246585051953,0.00047278881084120605,0.0005880538028219075,0.0006890700909323482,0.0004606835191166128,0.0005556395358065405,0.002992264210714621,0.0014591183906133229,0.0013050491880861363,0.0012667582007518119,100,55,100,55,55,100,55,55,100,55
gonzalez,CELL_D,150,0.004394242651508657,0.0005415923786534103,0.0005510833708467522,0.0005027195537013637,0.0015229228513317474,0.00042875940469267273,0.0005910748056580052,0.0030790873828758867,0.0005875441139993634,0.000506510236299167,0.0012705536749567027,0.0013019632132918381,55,55,55,100,55,100,100,100,55,55
gonzalez,CELL_D,155,0.004388501061892843,0.0004819199293411675,0.000547022600356414,0.0007522067725462434,0.0006563302937510353,0.00047809985715027394,0.0007456338956886854,0.0014989840552118055,0.0005912406152621627,0.0029811243073483975,0.0013121063388549029,0.0012585287573569528,100,100,100,100,55,100,100,55,100,100
gonzalez,CELL_D,160,0.003042760816520656,0.0006324393931259971,0.0016016754446542202,0.0004989325176280862,0.0005105300483110877,0.0004886183794002172,0.0004920856703514653,0.000525121159831649,0.0005662866236528003,0.004389453159766547,0.0012747903213242726,0.0012971906644191754,55,55,55,55,100,100,100,55,100,55
gonzalez,CELL_D,165,0.0029815852317612497,0.0006235256292096924,0.0005219109976303925,0.0007200961683967365,0.0005179067101611931,0.004393754664340137,0.0006175371605350442,0.000635110305901754,0.00048682362026494395,0.0015537599060011073,0.001305201039420225,0.0012666198518726296,55,55,55,55,100,100,55,55,55,55
gonzalez,CELL_D,170,0.004428429126700547,0.0005481321849004356,0.0006591984493431163,0.0005124572705306297,0.0030417654844781383,0.0004840238316866392,0.0005052027516476989,0.000633478670024592,0.0014564107704745333,0.0004880310832303764,0.0012757129623016704,0.0012975592818299068,55,55,100,55,55,55,55,100,100,100
gonzalez,CELL_D,175,0.0006508916303066771,0.00046385904567915713,0.0005793440356036732,0.0006010876220391009,0.0015091457226446283,0.0004655959594790069,0.0006700614078502491,0.0007621377606363127,0.002984299297823386,0.0043917391596677655,0.0013078161641729958,0.0012629129656704134,55,55,55,55,55,100,55,55,100,100
gonzalez,CELL_D,180,0.00460037402043353,0.0006793407067684683,0.0004896882368743017,0.0005081414931688854,0.0007164907521995492,0.0030176746839227844,0.0008260458669833329,0.00047091068231623195,0.0005320704022043488,0.0004255385146923248,0.0012266275359563755,0.0013440538021948934,100,55,100,100,55,55,55,55,100,100
gonzalez,CELL_D,185,0.0005181012407642088,0.00048170410842487634,0.0030035767776748676,0.0008108183131429467,0.0005297302857734297,0.000516054992262823,0.0007414559024508949,0.004382432250187569,0.0014423490269387064,0.0007068888308254597,0.0013133111728445782,0.001257535841278954,55,55,55,100,55,100,100,55,55,100
gonzalez,CELL_D,190,0.0014543912483904649,0.0006737532278250868,0.0005308400655128589,0.0005399582783205681,0.004419498598364182,0.0005404554866422927,0.002990457936990543,0.0006112908048808125,0.0005101699585379595,0.0007341999500232542,0.0013005015555488024,0.001271589499062753,55,100,55,55,55,100,55,100,100,55
gonzalez,CELL_D,195,0.0005993952830343797,0.003008923465329607,0.0014575643479683136,0.004430652157297228,0.0005445010667586793,0.00045545892131478434,0.0004693007649985257,0.0007121617172829502,0.0006580945471027226,0.0004952768021337671,0.0012831329073220957,0.0012889335211093585,55,100,100,55,100,100,55,55,55,55
gonzalez,CELL_D,200,0.00048789691059734653,0.0014768121783493282,0.0006947082432850993,0.0005801637326477131,0.0004950016868036929,0.00045698844278919075,0.004388124948168171,0.002985340366111551,0.0007664675225163689,0.0007739429815594296,0.001310544701282789,0.0012598085543321733,55,55,55,55,100,100,55,100,100,55
gonzalez,CELL_A1,0,0.0017406798127498236,0.001804072829479062,0.0016331857757164478,0.0016823066686874198,0.0016718575383760383,0.00207355472535052,0.010939780532493273,0.0028974840788506613,0.001604230498072383,0.0174877257880742,0.004353487824784983,0.0051557404097603895,55,55,100,55,55,55,55,55,55,55
gonzalez,CELL_A1,5,0.0016857314338191711,0.001548979299918106,0.005396673424584607,0.0015368011638162787,0.0027840149007533825,0.0018916275554076093,0.0016810574516695513,0.019854009222452992,0.002555471877461532,0.0018768785738965633,0.004081124490377979,0.005371785903983344,55,55,55,55,55,100,55,100,100,55
gonzalez,CELL_A1,10,0.0016287426119348635,0.019898157569758834,0.0017157164507126362,0.005535117404562058,0.0023555034366002548,0.0018275326248783186,0.002354946210590262,0.0017470190241098272,0.001724421852883071,0.0015336793179266514,0.004032083650395678,0.005407454310372633,55,55,100,100,55,100,55,100,100,100
gonzalez,CELL_A1,15,0.0015903813007646908,0.0016979358574602795,0.0018454949819257068,0.0016313046466898235,0.00541450039219609,0.011016886673094771,0.0014643065934527757,0.001641302442880658,0.016845638506765785,0.001979558819630528,0.004512731021486111,0.005010516505393557,100,100,55,55,100,100,100,55,100,55
gonzalez,CELL_A1,20,0.0020803753881753844,0.0017193586366193428,0.01659482396791948,0.0016208203303142417,0.005617505487534762,0.001581434867974267,0.011095572623576912,0.0015654404770967354,0.001888903614765478,0.0020978892481994383,0.0045862124642176046,0.004924984114868841,55,100,55,100,55,100,100,100,55,100
gonzalez,CELL_A1,25,0.005715222697169732,0.001879570600005174,0.0021052608866814816,0.001601643108946681,0.002520568602867407,0.010942713068009207,0.0014503683760605135,0.0015650803998809057,0.0016382959427392223,0.016642828130679597,0.004606155181303992,0.0049126806008917695,100,55,55,100,100,100,55,100,55,55
gonzalez,CELL_A1,30,0.010936346452514782,0.001429918177228348,0.0021694465861129544,0.0017764832844047022,0.01662374049471378,0.001998483634237687,0.0018917386902027858,0.005921586527618674,0.00161495095791796,0.0014831057932272922,0.004584580059817897,0.004930732241385054,100,100,100,100,100,100,55,55,100,55
gonzalez,CELL_A1,35,0.00179569172398323,0.0016873414670227262,0.005351529579952042,0.011179028259080364,0.016636224681950806,0.001675259076988806,0.001839597231999333,0.0015507800078027516,0.0024969057857120573,0.0016261778462429446,0.004583853566073506,0.004937636384410905,100,100,100,100,100,100,55,100,55,100
gonzalez,CELL_A1,40,0.0016238542420861566,0.0014866733346871725,0.0018773142144548163,0.0021467691229354034,0.010922641668042438,0.0016410674964758998,0.016592534242814812,0.005744286303382666,0.00227676261621172,0.00216649131861386,0.004647839455970494,0.004869696749908559,55,55,55,100,100,100,55,100,100,100
gonzalez,CELL_A1,45,0.0018180500169831452,0.0015789928778822597,0.01747348551709159,0.002694776795284799,0.0017780720158453234,0.0017663760412817075,0.011044883951247779,0.0017989250657080799,0.0016027241826011712,0.0014934735044924647,0.004304975996841832,0.005190002546691596,100,100,100,100,100,100,100,100,100,100
gonzalez,CELL_A1,50,0.010952161084810211,0.002870176695547439,0.016671494542105803,0.002069125593864676,0.0015414560526998767,0.0018952250155667024,0.0017736656613722254,0.0017938518305687598,0.0014893653181796503,0.005406474041212715,0.004646299583592806,0.004881666610663837,100,100,100,55,100,100,100,100,100,100
gonzalez,CELL_A1,55,0.01108714379886595,0.0018789931653553514,0.001579611036196539,0.016685266500995645,0.005335309785531782,0.0014235705740249383,0.0017610313825182147,0.0024772428061749802,0.0020136234150166825,0.0017853823677986813,0.004602717483247877,0.004924133390310208,100,55,100,100,100,100,55,100,55,100
gonzalez,CELL_A1,60,0.0018492758125758838,0.005662322369714604,0.0020073067703047106,0.0024146732258508658,0.0016961170259023666,0.0018706448923281925,0.019838551865111534,0.0015022890942797391,0.0020900799204351095,0.0016842865771207643,0.004061554755362377,0.005383175325522754,100,55,100,55,55,55,100,55,55,100
gonzalez,CELL_A1,65,0.0014869158003363013,0.00215164522363205,0.010938127253993818,0.0016412828088947294,0.0023834922790055245,0.0022537079766494442,0.005602141833625013,0.0017724663301566942,0.016614400810171476,0.0015893734353835726,0.004643355375184862,0.004872573537138613,55,100,55,55,100,100,100,55,55,55
gonzalez,CELL_A1,70,0.0016736722144671033,0.001932818201737559,0.002299728566231989,0.00162929703365588,0.002750609886506837,0.005399472024395314,0.010946279528924057,0.016601828391380063,0.0015318978695626935,0.0021693029569811112,0.00469349066738426,0.004831213713866614,100,100,55,100,100,100,100,100,100,55
gonzalez,CELL_A1,75,0.016604101469617848,0.001737176024698192,0.002467413689844536,0.0025776351655917135,0.005313944546515282,0.001826548804337867,0.01105018101726531,0.0017801706449316016,0.0016786795132315254,0.0016302820336411476,0.004666613290967502,0.004857973683320695,100,55,100,100,55,100,100,100,100,55
gonzalez,CELL_A1,80,0.0016917744634013746,0.0017540214889193093,0.0016808785748152284,0.01658758805940996,0.002757278960236,0.001465534546320453,0.0055854524930195664,0.0016482681317003154,0.002501634153540174,0.010920516339520488,0.004659294721088287,0.0048580052116853215,55,100,100,55,55,100,100,100,100,100
gonzalez,CELL_A1,85,0.001702561497718597,0.0017398226747862618,0.0029040499928384596,0.010890206620012983,0.0022674713518256845,0.0053806873042492685,0.016624463017369244,0.0017122131756017235,0.0016598880712146292,0.0018741666494670366,0.004675553035508389,0.0048374914895341495,100,100,100,55,100,100,55,100,55,100
gonzalez,CELL_A1,90,0.0014711277869513388,0.0016871627073813387,0.011122027998500405,0.002741005600558254,0.005347778453093703,0.0015172605113216017,0.016635111111135654,0.0019749894737283607,0.0014908741371205136,0.0017686449319963234,0.004575598271178749,0.004937018205438022,100,55,100,100,55,100,55,55,55,100
gonzalez,CELL_A1,95,0.010890072880655194,0.01659643771128998,0.0021477980881429697,0.0025572761847338214,0.001816833405053577,0.0015465471248443437,0.005401759997346879,0.0018793332301772602,0.0023343342803818275,0.0017234815547254939,0.004689387445735134,0.004817755548936428,55,55,100,100,100,100,55,55,55,100
gonzalez,CELL_A1,100,0.016614685824019395,0.0025189336959538363,0.010980676042334221,0.0022868838132411792,0.005586453303447227,0.0016881794689404424,0.0014400359832366513,0.0017899509386986906,0.001897177729569736,0.0015840285761813191,0.00463870053756227,0.004883307664281277,100,100,100,55,100,55,100,100,100,100
gonzalez,CELL_A1,105,0.002506786173663426,0.0022747491862777297,0.0014523366032123369,0.0016948954832827848,0.001784449791403512,0.01663766694454392,0.005383346151211254,0.010972665566664935,0.0016969353392321666,0.0022835902603421878,0.004668742149983426,0.0048573581535523505,55,100,100,100,55,100,100,100,100,55
gonzalez,CELL_A1,110,0.002766823798644254,0.019860460612301182,0.0015948803810888184,0.0017746036857832768,0.0019437866072850778,0.0018288354385497317,0.0015884429205027268,0.005671185056206328,0.0017380934376695887,0.0014489808769787224,0.004021609281500971,0.005412777566793692,100,100,100,55,55,100,100,55,100,100
gonzalez,CELL_A1,115,0.0014587739903740913,0.0016956451259875843,0.0016941323162559517,0.019859787145301906,0.0017375141029729291,0.0022502312073124538,0.0024190938704655935,0.0018605570067561747,0.001921240315374357,0.005613017824639607,0.004050999290544065,0.005392326287541602,100,100,100,100,100,100,55,100,100,100
gonzalez,CELL_A1,120,0.0017195096757318777,0.0017062493708907868,0.001612212988216337,0.0031281044310887164,0.016621554076614784,0.001672225998957318,0.0021942129136013674,0.010942013871466184,0.005444011818415414,0.0016088604438296965,0.004664895558881249,0.004862921929589549,100,55,55,100,100,100,100,100,100,100
gonzalez,CELL_A1,125,0.016592443030621944,0.0017699384552360886,0.0018235264254297214,0.003005009566476698,0.01094270966432019,0.0014656267238484233,0.0017035454008384391,0.001390043647422826,0.005542055787498052,0.002236650693228183,0.004647154939492056,0.004871128432952095,55,55,100,55,100,55,100,100,100,100
gonzalez,CELL_A1,130,0.0015886389717355948,0.0166481378955143,0.0016340514678505164,0.002379937699346176,0.0017643456479725186,0.001857413989253739,0.011014035986161548,0.001566641440949705,0.0024342630878484983,0.005361805109018071,0.004624927129565066,0.004889988082756152,55,55,55,100,55,55,55,55,100,100
gonzalez,CELL_A1,135,0.001907221647916404,0.003341704895639253,0.0014580665483031785,0.0015525800375315343,0.0017884657194251834,0.0017677924847825004,0.016591542252608865,0.01092642333715874,0.0019430585642631168,0.005336611563717222,0.0046613467051346,0.004850814555610553,55,100,100,100,55,100,55,100,100,55
gonzalez,CELL_A1,140,0.0017513715363853114,0.01093661469656704,0.0015470766760391943,0.0016197904853991483,0.0015612163925432473,0.005560777993118093,0.0018138335746255786,0.0014321589660902141,0.01677230705328652,0.002507562271174945,0.004550270964522929,0.0049693382327950395,55,55,55,100,100,55,55,100,100,55
gonzalez,CELL_A1,145,0.0020784257248333557,0.002325192641868229,0.0014753958639913789,0.0016174725425952123,0.0023714146138719577,0.0018377368478984682,0.019842119705595185,0.0053952126620654345,0.002437386671526821,0.0015758452505548577,0.00409562025248009,0.0053574377484488876,100,55,100,100,55,100,55,100,100,100
gonzalez,CELL_A1,150,0.01090021257637069,0.0022260981848439164,0.0015369472579446364,0.0017609170116968406,0.001942196860096642,0.005475024219842366,0.002444345850482367,0.016732158070651957,0.001446655303275183,0.0016695262842861313,0.004613408161949073,0.004908827996749721,55,55,55,100,100,100,55,100,55,100
gonzalez,CELL_A1,155,0.0021781565061478915,0.016737484085879818,0.0015862865851853938,0.0017750721332221798,0.005392305786640931,0.0018415002289949205,0.0016228095191265204,0.0017372684496333665,0.010938050895897077,0.002374638862360416,0.004618357305308852,0.004905733867865187,55,100,100,100,100,100,100,55,100,55
gonzalez,CELL_A1,160,0.002259647091438538,0.0013276373480201598,0.0016639634363946852,0.0018457872122449128,0.0016169401022040903,0.01661568059380284,0.012110486201906953,0.0016966708065141755,0.002635459252659525,0.0023566252569715944,0.004412889730215748,0.005089652304251118,55,100,100,55,100,100,100,100,55,55
gonzalez,CELL_A1,165,0.0018366420884405488,0.0013843948836780964,0.0016373783152077784,0.002829296291617625,0.010920063139044063,0.001703614660001114,0.005500746126724726,0.0167250714947675,0.0016896819505645665,0.0016702803405662023,0.004589716929061223,0.0049305362949189835,100,100,100,100,55,55,100,100,55,100
gonzalez,CELL_A1,170,0.0020302186554835757,0.0023728738512843414,0.0017438208247058168,0.02051504760149744,0.0022027562809678342,0.0019447493630599675,0.0016526740889039305,0.0015755049515362766,0.0025308711579908024,0.0014825683369964228,0.003805108511242641,0.005579632155862817,55,55,55,55,100,100,100,100,100,100
gonzalez,CELL_A1,175,0.002076112669093445,0.0018033105295444862,0.019843809540994548,0.005442466551357446,0.0018787440267399552,0.0015338629804361513,0.0018101986261136683,0.0025507172739739595,0.0022665116968986158,0.0017259642525704892,0.004093169814772276,0.005359108330019501,55,100,55,100,100,100,55,100,100,100
gonzalez,CELL_A1,180,0.0016215842036619399,0.002493226355060012,0.0016340434820485735,0.0016435394750615577,0.016734348478429747,0.010919466326567734,0.0015910132939153344,0.0017273162062511134,0.0053879028139449045,0.002324765500917408,0.004607720613585832,0.004910481446507457,100,100,100,55,55,100,55,100,55,55
gonzalez,CELL_A1,185,0.0026098223722554907,0.010955232097378972,0.0015460179957618528,0.0014901249025106407,0.016678735014189847,0.0015783262541947396,0.005353412081695025,0.0018993525894774276,0.0018693309907023416,0.002374261376727194,0.004635461567489353,0.004885010538426868,100,100,100,55,100,55,55,55,55,55
gonzalez,CELL_A1,190,0.010903360256776374,0.0015454230031336099,0.0025541614056370293,0.001934463812481548,0.016675741939728272,0.0014776093361680463,0.0016286281501618916,0.001923306344374662,0.0016511725299428923,0.005684708075841668,0.0045978574854246,0.004917235661227695,55,55,100,100,100,55,100,100,100,100
gonzalez,CELL_A1,195,0.001996425189137048,0.016584698464866564,0.0017719047546566986,0.0024212311774521995,0.00144461708153388,0.0024634545218735478,0.0015220966406645647,0.011096139554235855,0.005360063917620899,0.0016429047463079672,0.004630353604834923,0.004885327395509471,100,55,100,100,55,100,100,100,100,55
gonzalez,CELL_A1,200,0.017459799001884553,0.002344981613568096,0.0013913130279191543,0.0018470991317521964,0.0015541100138343714,0.0024775697860709356,0.0017474085663127003,0.0017935640508649417,0.0015735791688717465,0.011044496387601556,0.0043233920748680255,0.0051774011560494606,100,55,100,100,55,100,100,55,100,100
gonzalez,CELL_A2,0,0.0004993032030226742,0.005104826287923846,0.000537333517136535,0.0005953323699258502,0.0007566360077046205,0.0005942702963579927,0.0004935495505186316,0.00048030291909810475,0.0006145911671954004,0.001523614838142289,0.0011199760157025946,0.001360415453611807,100,55,1,100,100,55,55,55,55,55
gonzalez,CELL_A2,5,0.0005424751103039413,0.002947039860402802,0.0005037675971921686,0.0014095516622811342,0.0042422417065545275,0.0004911460044276378,0.0005942770960309447,0.0004425070717763327,0.0007454834758328149,0.0006339582734186446,0.0012552447858220949,0.0012332076757990771,100,55,100,100,100,100,55,100,55,55
gonzalez,CELL_A2,10,0.0032627914009748225,0.0005431764680612926,0.0005938846946528453,0.0005443013345072733,0.0005682816100415468,0.0005034753235667391,0.0005195827032004355,0.0008195903064670226,0.004199777597533138,0.0004715872496863059,0.001202644868869142,0.0012847146304657334,100,100,55,100,55,100,100,55,55,100
gonzalez,CELL_A2,15,0.0014073893479505796,0.0004603390060007281,0.00060410930973811,0.005131968434937255,0.0005364848415970101,0.0008020370420526172,0.0005001597621180871,0.000535267221182001,0.0006504087347963264,0.00048120811524350414,0.0011109371815616218,0.0013665735837850687,55,55,55,55,55,55,55,100,100,100
gonzalez,CELL_A2,20,0.0005728777537641735,0.004207417582489239,0.0005194761160345926,0.00047238806619924153,0.0005428140202644841,0.0006706417105538047,0.0005776907211730941,0.0006644015347654282,0.0015211619774650855,0.0029279676367446428,0.0012676837119453787,0.0012190089907735322,100,55,55,100,55,100,55,55,55,100
gonzalez,CELL_A2,25,0.0005346606195027584,0.0006494393989780014,0.0006853095072525477,0.0029830373027080947,0.004207771749050733,0.0006198162375505925,0.00039786091666595884,0.0014235298983871754,0.0005347641083837663,0.0005768615935223996,0.0012613051332002027,0.0012271868513575627,100,100,55,55,100,55,100,55,55,55
gonzalez,CELL_A2,30,0.0005067861068003443,0.0004596431106751938,0.0005575290450341672,0.0030087152055251606,0.004205336593814654,0.0005807590209850592,0.0005001181865712555,0.000501035868590955,0.0007342679591165544,0.0014408020830235537,0.0012494993180136897,0.0012392407531307892,55,100,55,100,55,55,100,55,100,100
gonzalez,CELL_A2,35,0.0015040684401272208,0.0007300638579235337,0.0005409521214094681,0.0006609433748789523,0.002933750491623406,0.0004514917241578925,0.0005078766872752925,0.004217174652685278,0.0005136048847164265,0.0005525285894947151,0.0012612454824292183,0.0012263606364700287,100,55,55,55,55,100,55,55,55,100
gonzalez,CELL_A2,40,0.0029274435196770506,0.0005825941820300531,0.000453225841072997,0.0005133568936629752,0.0004843347834172,0.0007182421117302597,0.0007801557291286617,0.0005103744869638182,0.0014598028438865716,0.004223645095036469,0.0012653175486606056,0.001223020226308974,100,55,100,55,100,100,100,100,100,55
gonzalez,CELL_A2,45,0.0029778909628738965,0.000650047893216831,0.0004775991213493765,0.00144165650397191,0.000535179456249409,0.004206546089155008,0.00048120836883260736,0.0005378818490065981,0.0007148648100253308,0.0006001457745832791,0.0012623020829264247,0.001226227459995114,55,100,100,100,100,100,55,55,55,55
gonzalez,CELL_A2,50,0.00045611027601384836,0.000525810164236783,0.0005310623164036698,0.0008951557043636061,0.0029466635735539565,0.004212583638603636,0.000622110509985336,0.0014493943857316104,0.00044082863653401754,0.000539762121859358,0.0012619481327285822,0.0012265740364786476,55,55,55,100,55,55,55,100,100,55
gonzalez,CELL_A2,55,0.000607301568779132,0.0004888337741322969,0.0005395201034580937,0.0004920323943050407,0.0005625448104990997,0.0005020220064674153,0.004201030737858635,0.0007490459172773229,0.0032756709232798628,0.0005745795329562862,0.0011992581769013186,0.0012882982250760732,55,100,100,55,55,100,55,100,100,100
gonzalez,CELL_A2,60,0.0014148015892830048,0.002927084225297616,0.0006493915861812727,0.0004952519657230271,0.000644197512933696,0.0005669996668121736,0.0008561005822871807,0.0005353278789432921,0.004212333827654816,0.00045513543927545836,0.0012756624274391538,0.0012112056390006967,55,55,100,55,100,100,55,100,100,55
gonzalez,CELL_A2,65,0.0005888037123968565,0.0007338421007562641,0.0005376440512890228,0.0005456338983109331,0.0008050617245219329,0.0004438360824354758,0.004202660761308552,0.0005441511429829167,0.000544412496601776,0.0032233890345681844,0.0012169435005171913,0.0012709315995356114,55,100,55,55,100,100,55,100,55,100
gonzalez,CELL_A2,70,0.000545690007251977,0.0006296574845714939,0.0005327780753388851,0.0005629048503786174,0.0014678739364814247,0.0005480583236885925,0.0007411172121712074,0.0005321064503467066,0.005113742235721658,0.0005131713125690025,0.0011187099888519563,0.0013594468858382015,55,100,55,55,100,55,55,100,100,55
gonzalez,CELL_A2,75,0.0004417491124530456,0.004215860809069204,0.0029991059810117703,0.0005735083684380941,0.0004607142401398805,0.0004961186825984773,0.0005078177509286832,0.0006648937382007152,0.001431483070252487,0.0006857207695899038,0.001247697252268226,0.0012410640396226594,55,100,55,100,55,55,55,100,100,100
gonzalez,CELL_A2,80,0.000598066596551498,0.0007154511562202871,0.0005842984966442413,0.0004963372011023765,0.0004676735718958736,0.0014515157781918382,0.0029240157255518927,0.0007990204599057876,0.004204472593703383,0.0005621921181874061,0.0012803043697954585,0.0012071903172168198,55,100,55,100,55,100,55,100,100,55
gonzalez,CELL_A2,85,0.0014103540530957344,0.0005243906768665359,0.004212522051711897,0.00047165162275428115,0.0005354213437689939,0.0006979784729289536,0.0006796854314775007,0.0029446217814484985,0.0005197992691942959,0.0007281078615450525,0.0012724532564791745,0.001214391228192433,55,55,100,100,100,55,100,55,55,55
gonzalez,CELL_A2,90,0.0007185978312925798,0.0004900339568886979,0.0007791268475915848,0.00047736777341547275,0.0004983641994828744,0.004202595929937285,0.00045860799503331023,0.0006070503618872119,0.0032395933841240067,0.0006207260243407539,0.0012092064303993778,0.0012782374504357714,100,55,100,55,55,55,55,100,100,55
gonzalez,CELL_A2,95,0.000668668064921755,0.001428627399834474,0.00048548343139963453,0.0005788220178025405,0.004254663946329083,0.0004602775391781338,0.0004618817039539665,0.0006125557210895775,0.002963252350173126,0.000501060671426931,0.0012415292846109222,0.0012481738216291952,100,55,55,55,55,100,100,55,100,55
gonzalez,CELL_A2,100,0.000507126076332051,0.0005388673763682412,0.0029582217593263145,0.0006010853873374707,0.0005147125507732017,0.0004882492167525278,0.000563039204445501,0.0004908133444501338,0.00140999942238224,0.004273511894112969,0.001234562623228065,0.0012542214833423065,55,55,55,55,100,55,100,100,55,100
gonzalez,CELL_A2,105,0.0007576121306972496,0.0005481312986216108,0.0005022516433653517,0.0006164225163313501,0.0014711959421663456,0.0005810434667583153,0.00048800073339590254,0.002922433984931595,0.0005434352093753521,0.004229312832916772,0.0012659839758559846,0.001222403624414666,100,100,55,55,55,100,100,55,55,100
gonzalez,CELL_A2,110,0.0006894789620079617,0.0005759880914775833,0.0006230933713428039,0.0004931762913018834,0.0004739543055593883,0.001447898008800587,0.0005977002776823124,0.002965431559657611,0.000581263976805295,0.004211869118646853,0.001265985396328228,0.001223159926382081,55,100,55,100,100,100,55,55,100,55
gonzalez,CELL_A2,115,0.0005169326567999821,0.002936515258129537,0.0005498072344006249,0.00047840275872821313,0.0006359623140722812,0.0005531168353498846,0.004214871284289784,0.0008629438615933646,0.0014343540434198828,0.0005098858296950049,0.0012692792076478558,0.001218538254994026,55,55,55,55,100,100,100,55,100,55
gonzalez,CELL_A2,120,0.000648299995465384,0.00044097151700888646,0.0006636984673980737,0.0029472288714952957,0.0005098448657882485,0.0007514722140482688,0.0005053859305758519,0.004214602613200142,0.001441908149378637,0.0005465096263543352,0.0012669922250713123,0.0012210415119987194,55,55,100,55,55,100,100,55,100,55
gonzalez,CELL_A2,125,0.0014708575245277675,0.0007565428579805816,0.0005768873150523885,0.0006525620749515651,0.00047501205408029875,0.0004879686034411541,0.00422130844080236,0.0005220537509037564,0.0029363617653836932,0.0005323637268719696,0.0012631918113995533,0.0012247140932099235,55,55,55,100,100,100,55,100,55,55
gonzalez,CELL_A2,130,0.0005512745891543786,0.00048644517238782315,0.002972756365248437,0.00044756875054753354,0.00044248223702106224,0.0005137500418002612,0.0005731456225725717,0.004474326422830978,0.0006145243202501942,0.00048599996588461196,0.0011562273487697853,0.0013278242555704338,55,55,55,55,55,55,100,55,55,100
gonzalez,CELL_A2,135,0.0006222119945895134,0.0005197235152164863,0.002941448088006366,0.0005004220271664267,0.0005333958376622919,0.0008024739128581464,0.004434269519689369,0.0004990045653165493,0.000488526199911706,0.0005654355773210304,0.0011906911237737885,0.0012954129961467746,55,55,55,55,100,55,100,100,55,100
gonzalez,CELL_A2,140,0.0005139564757313279,0.0004960861839655679,0.0014699514073859827,0.0006800182091148578,0.0006938454538454713,0.002928842194291139,0.0007554225590571299,0.000551336409930531,0.00047174942294108546,0.004202183452655322,0.0012763391768918415,0.0012107057529113828,55,55,100,55,100,100,100,55,100,55
gonzalez,CELL_A2,145,0.0005502301602152215,0.000572545961293369,0.0005326799762554539,0.0005284185101783159,0.004206601556800755,0.0004709735174695861,0.0014489405486728052,0.000750617749990076,0.0004762635611723215,0.00299347583916764,0.0012530747381215544,0.001235292119469235,100,55,55,55,100,55,55,55,55,100
gonzalez,CELL_A2,150,0.0004662941856367897,0.0008479940930373324,0.000591406821345017,0.0042037035786708305,0.0005333114843968044,0.0029182101265015446,0.0005515843575455948,0.0006566641592232897,0.0014785525655418136,0.0005294935819604695,0.0012777214953859487,0.0012097104448191686,100,100,55,100,100,55,100,100,55,55
gonzalez,CELL_A2,155,0.0004750175355689552,0.00048497246073743704,0.005112337673037059,0.0005052671955675959,0.0007231962712539059,0.0005317304916311388,0.0014868466386170733,0.0006528751321734208,0.0005622273313111055,0.0006391165618960771,0.0011173587291793768,0.0013614148761981115,100,100,100,100,100,55,55,55,55,100
gonzalez,CELL_A2,160,0.0006200456774577505,0.0005694725973529779,0.0042370239531203755,0.0007073973665857596,0.0005380394056988363,0.0005281538967131179,0.00041063199397370527,0.003251583946943976,0.0005090648489506964,0.0005198331945857544,0.0011891246881382948,0.0012984832215036633,100,100,55,100,100,100,100,55,100,100
gonzalez,CELL_A2,165,0.0032738320503199734,0.0005250890509767197,0.0005587811683874181,0.0006758240269163354,0.0005438288496488829,0.0004727363179955281,0.0005289449702734596,0.0005631951834550093,0.004236986464185817,0.0004303989159533324,0.0011809616998112477,0.0013065015313922738,100,55,55,55,100,55,100,55,100,55
gonzalez,CELL_A2,170,0.0029537967986331634,0.0014387736549317642,0.004210554736617909,0.0007179174865562709,0.000708791857117265,0.0004931699077997115,0.00043789496907392314,0.0007471551595752052,0.0004649946540342728,0.0004395831721836939,0.0012612632396523178,0.0012262284025808554,55,55,100,55,100,55,100,100,55,55
gonzalez,CELL_A2,175,0.0005307918531778219,0.0007153807164795698,0.0004401462886626024,0.0005447905944484233,0.0032763549690707763,0.0005454750301799018,0.0005810073580081109,0.0005788605390312677,0.004212515793321764,0.0005395241273830041,0.0011964847269763242,0.0012926464190908108,55,55,100,100,55,100,55,55,100,100
gonzalez,CELL_A2,180,0.0029483155275362104,0.0004805708086781739,0.001532192930181827,0.00045529440074918006,0.0005792971549258154,0.000591973327084549,0.0005983918398384867,0.0006588732966722118,0.0006302377619229918,0.004198199218394824,0.0012673346265984272,0.001221365264922251,55,55,100,55,100,100,100,100,100,100
gonzalez,CELL_A2,185,0.0005916222418750896,0.0006936132377555972,0.0007644153472160185,0.0013968570574209793,0.0004365059832628691,0.0006297457570922013,0.002941116082339766,0.0005384635335723091,0.00422459417151316,0.00048513982861016946,0.001270207324065816,0.0012182844802247322,55,100,100,100,100,100,55,55,55,55
gonzalez,CELL_A2,190,0.0005687897757030865,0.0006184456801844073,0.004214203575072739,0.0004918130609081298,0.0029402072298984213,0.0007262496416007932,0.0014343309725690498,0.0007568317399174223,0.0004756161936251599,0.0004633578661625771,0.0012689845735641785,0.0012185006459474266,55,55,100,100,100,55,100,55,55,55
gonzalez,CELL_A2,195,0.0005962455201535346,0.00048178544711404575,0.0007976336141533839,0.000566003650989494,0.0032142004196040997,0.0005813123129073248,0.004197679356630969,0.0006967992345391034,0.0006154960470865035,0.0005216501987634852,0.0012268805801941942,0.0012616596087237013,55,55,55,100,55,55,55,100,55,55
gonzalez,CELL_A2,200,0.000526204388846149,0.0007390264235528081,0.00046313992664087715,0.0029574225218410755,0.004216656623409229,0.0005057411198260465,0.0014937479854986275,0.0004994344817450743,0.0006378397913389369,0.0005144257987940214,0.0012553639061492843,0.0012333965630286644,100,55,100,55,100,100,100,55,55,100
